2012.09.11 18:05 B c:\Users\Jon\Documents\Visual Studio 2010\Projects\Rules\Rules\obj\x86\Debug\App.g.cs --> ftp.hpeu.com.au /htdocs/kinect/Rules/Rules/obj/x86/Debug App.g.cs
2012.09.11 18:05 B c:\Users\Jon\Documents\Visual Studio 2010\Projects\Rules\Rules\obj\x86\Debug\App.g.i.cs --> ftp.hpeu.com.au /htdocs/kinect/Rules/Rules/obj/x86/Debug App.g.i.cs
2012.09.11 18:05 B c:\Users\Jon\Documents\Visual Studio 2010\Projects\Rules\Rules\obj\x86\Debug\DesignTimeResolveAssemblyReferences.cache --> ftp.hpeu.com.au /htdocs/kinect/Rules/Rules/obj/x86/Debug DesignTimeResolveAssemblyReferences.cache
2012.09.11 18:05 B c:\Users\Jon\Documents\Visual Studio 2010\Projects\Rules\Rules\obj\x86\Debug\DesignTimeResolveAssemblyReferencesInput.cache --> ftp.hpeu.com.au /htdocs/kinect/Rules/Rules/obj/x86/Debug DesignTimeResolveAssemblyReferencesInput.cache
2012.09.11 18:05 B c:\Users\Jon\Documents\Visual Studio 2010\Projects\Rules\Rules\obj\x86\Debug\GenerateResource.read.1.tlog --> ftp.hpeu.com.au /htdocs/kinect/Rules/Rules/obj/x86/Debug GenerateResource.read.1.tlog
2012.09.11 18:05 B c:\Users\Jon\Documents\Visual Studio 2010\Projects\Rules\Rules\obj\x86\Debug\GenerateResource.write.1.tlog --> ftp.hpeu.com.au /htdocs/kinect/Rules/Rules/obj/x86/Debug GenerateResource.write.1.tlog
2012.09.11 18:05 B c:\Users\Jon\Documents\Visual Studio 2010\Projects\Rules\Rules\obj\x86\Debug\MainWindow.baml --> ftp.hpeu.com.au /htdocs/kinect/Rules/Rules/obj/x86/Debug MainWindow.baml
2012.09.11 18:05 B c:\Users\Jon\Documents\Visual Studio 2010\Projects\Rules\Rules\obj\x86\Debug\MainWindow.g.cs --> ftp.hpeu.com.au /htdocs/kinect/Rules/Rules/obj/x86/Debug MainWindow.g.cs
2012.09.11 18:05 B c:\Users\Jon\Documents\Visual Studio 2010\Projects\Rules\Rules\obj\x86\Debug\MainWindow.g.i.cs --> ftp.hpeu.com.au /htdocs/kinect/Rules/Rules/obj/x86/Debug MainWindow.g.i.cs
2012.09.11 18:05 B c:\Users\Jon\Documents\Visual Studio 2010\Projects\Rules\Rules\obj\x86\Debug\Rules.application --> ftp.hpeu.com.au /htdocs/kinect/Rules/Rules/obj/x86/Debug Rules.application
2012.09.11 18:05 B c:\Users\Jon\Documents\Visual Studio 2010\Projects\Rules\Rules\obj\x86\Debug\Rules.csproj.FileListAbsolute.txt --> ftp.hpeu.com.au /htdocs/kinect/Rules/Rules/obj/x86/Debug Rules.csproj.FileListAbsolute.txt
2012.09.11 18:05 B c:\Users\Jon\Documents\Visual Studio 2010\Projects\Rules\Rules\obj\x86\Debug\Rules.exe --> ftp.hpeu.com.au /htdocs/kinect/Rules/Rules/obj/x86/Debug Rules.exe
2012.09.11 18:05 B c:\Users\Jon\Documents\Visual Studio 2010\Projects\Rules\Rules\obj\x86\Debug\Rules.exe.manifest --> ftp.hpeu.com.au /htdocs/kinect/Rules/Rules/obj/x86/Debug Rules.exe.manifest
2012.09.11 18:05 B c:\Users\Jon\Documents\Visual Studio 2010\Projects\Rules\Rules\obj\x86\Debug\Rules.g.resources --> ftp.hpeu.com.au /htdocs/kinect/Rules/Rules/obj/x86/Debug Rules.g.resources
2012.09.11 18:05 B c:\Users\Jon\Documents\Visual Studio 2010\Projects\Rules\Rules\obj\x86\Debug\Rules.pdb --> ftp.hpeu.com.au /htdocs/kinect/Rules/Rules/obj/x86/Debug Rules.pdb
2012.09.11 18:05 B c:\Users\Jon\Documents\Visual Studio 2010\Projects\Rules\Rules\obj\x86\Debug\Rules_MarkupCompile.cache --> ftp.hpeu.com.au /htdocs/kinect/Rules/Rules/obj/x86/Debug Rules_MarkupCompile.cache
2012.09.11 18:05 B c:\Users\Jon\Documents\Visual Studio 2010\Projects\Rules\Rules\obj\x86\Debug\Rules_MarkupCompile.i.cache --> ftp.hpeu.com.au /htdocs/kinect/Rules/Rules/obj/x86/Debug Rules_MarkupCompile.i.cache
2012.09.11 18:05 B c:\Users\Jon\Documents\Visual Studio 2010\Projects\Rules\Rules\obj\x86\Debug\WpfApplication1.csproj.FileListAbsolute.txt --> ftp.hpeu.com.au /htdocs/kinect/Rules/Rules/obj/x86/Debug WpfApplication1.csproj.FileListAbsolute.txt
2012.09.11 18:05 B c:\Users\Jon\Documents\Visual Studio 2010\Projects\Rules\Rules\obj\x86\Debug\WpfApplication1.exe --> ftp.hpeu.com.au /htdocs/kinect/Rules/Rules/obj/x86/Debug WpfApplication1.exe
2012.09.11 18:05 B c:\Users\Jon\Documents\Visual Studio 2010\Projects\Rules\Rules\obj\x86\Debug\WpfApplication1.g.resources --> ftp.hpeu.com.au /htdocs/kinect/Rules/Rules/obj/x86/Debug WpfApplication1.g.resources
2012.09.11 18:05 B c:\Users\Jon\Documents\Visual Studio 2010\Projects\Rules\Rules\obj\x86\Debug\WpfApplication1.pdb --> ftp.hpeu.com.au /htdocs/kinect/Rules/Rules/obj/x86/Debug WpfApplication1.pdb
2012.09.11 18:05 B c:\Users\Jon\Documents\Visual Studio 2010\Projects\Rules\Rules\obj\x86\Debug\WpfApplication1.Properties.Resources.resources --> ftp.hpeu.com.au /htdocs/kinect/Rules/Rules/obj/x86/Debug WpfApplication1.Properties.Resources.resources
2012.09.11 18:05 B c:\Users\Jon\Documents\Visual Studio 2010\Projects\Rules\Rules\obj\x86\Debug\WpfApplication1_MarkupCompile.cache --> ftp.hpeu.com.au /htdocs/kinect/Rules/Rules/obj/x86/Debug WpfApplication1_MarkupCompile.cache
2012.09.11 18:05 B c:\Users\Jon\Documents\Visual Studio 2010\Projects\Rules\Rules\obj\x86\Debug\WpfApplication1_MarkupCompile.i.cache --> ftp.hpeu.com.au /htdocs/kinect/Rules/Rules/obj/x86/Debug WpfApplication1_MarkupCompile.i.cache
