Experiment Name, Person ID,Attempt ID, Mark, Estimated Mark
Eigenjoints,101,1,9,6
Eigenjoints,101,2,9,6
Eigenjoints,101,3,9,6
Eigenjoints,126,1,5,5
Eigenjoints,126,2,4,5
Eigenjoints,126,3,4,5
Eigenjoints,221,1,8,7
Eigenjoints,221,2,8,8
Eigenjoints,221,3,8,7
Eigenjoints,225,1,6,6
Eigenjoints,225,2,6,8
Eigenjoints,225,3,5,7
Eigenjoints,226,1,8,8
Eigenjoints,226,2,8,8
Eigenjoints,226,3,9,10
Eigenjoints,228,1,7,7
Eigenjoints,228,2,5,6
Eigenjoints,228,3,5,8
Eigenjoints,229,1,7,9
Eigenjoints,229,2,6,9
Eigenjoints,229,3,6,9
Eigenjoints,230,1,7,7
Eigenjoints,230,2,8,6
Eigenjoints,230,3,8,4
Eigenjoints,233,1,6,7
Eigenjoints,233,2,7,8
Eigenjoints,233,3,7,6
Eigenjoints,234,1,9,9
Eigenjoints,234,2,9,9
Eigenjoints,234,3,10,9
Eigenjoints,235,1,7,7
Eigenjoints,235,2,6,9
Eigenjoints,235,3,6,9
Eigenjoints,236,1,10,8
Eigenjoints,236,2,8,8
Eigenjoints,236,3,8,7
Eigenjoints,237,1,10,8
Eigenjoints,237,2,10,7
Eigenjoints,237,3,10,8
Eigenjoints,238,1,9,8
Eigenjoints,238,2,9,8
Eigenjoints,238,3,9,10
Eigenjoints,239,1,8,7
Eigenjoints,239,2,9,6
Eigenjoints,239,3,7,6
Eigenjoints,240,1,9,8
Eigenjoints,240,2,9,8
Eigenjoints,240,3,9,8
Eigenjoints,241,1,10,6
Eigenjoints,241,2,9,6
Eigenjoints,241,3,10,8
Eigenjoints,242,1,8,10
Eigenjoints,242,2,9,10
Eigenjoints,242,3,9,10
Eigenjoints,243,1,8,6
Eigenjoints,243,2,8,5
Eigenjoints,243,3,8,8
Eigenjoints,246,1,7,5
Eigenjoints,246,2,7,6
Eigenjoints,246,3,6,7
Eigenjoints,247,1,7,9
Eigenjoints,247,2,10,7
Eigenjoints,247,3,8,9
Eigenjoints,249,1,7,8
Eigenjoints,249,2,6,8
Eigenjoints,249,3,7,8
Eigenjoints,250,1,10,9
Eigenjoints,250,2,10,5
Eigenjoints,250,3,10,9
Eigenjoints,251,1,8,7
Eigenjoints,251,2,7,8
Eigenjoints,251,3,7,8
Eigenjoints,252,1,6,5
Eigenjoints,252,2,6,6
Eigenjoints,252,3,7,5
Eigenjoints,254,1,8,9
Eigenjoints,254,2,8,6
Eigenjoints,254,3,7,8
Eigenjoints,255,1,8,8
Eigenjoints,255,2,8,6
Eigenjoints,255,3,7,7
Eigenjoints,256,1,7,4
Eigenjoints,256,2,7,7
Eigenjoints,256,3,6,5
Eigenjoints,257,1,9,7
Eigenjoints,257,2,9,7
Eigenjoints,257,3,9,7
Eigenjoints,261,1,5,4
Eigenjoints,261,2,4,7
Eigenjoints,261,3,5,6
Eigenjoints,262,1,5,6
Eigenjoints,262,2,6,7
Eigenjoints,262,3,6,7
Eigenjoints,263,1,4,5
Eigenjoints,263,2,5,5
Eigenjoints,263,3,5,5
Eigenjoints,264,1,5,5
Eigenjoints,264,2,5,7
Eigenjoints,264,3,6,6
Eigenjoints,265,1,5,5
Eigenjoints,265,2,6,9
Eigenjoints,265,3,7,9
Eigenjoints,266,1,5,5
Eigenjoints,266,2,6,5
Eigenjoints,266,3,6,5
Eigenjoints,269,1,4,5
Eigenjoints,269,2,5,9
Eigenjoints,269,3,5,7
Eigenjoints,270,1,5,8
Eigenjoints,270,2,5,8
Eigenjoints,270,3,5,8
Eigenjoints,271,1,4,8
Eigenjoints,271,2,4,6
Eigenjoints,271,3,5,5
Eigenjoints,274,1,4,5
Eigenjoints,274,2,4,5
Eigenjoints,274,3,4,5
Eigenjoints,275,1,6,4
Eigenjoints,275,2,6,4
Eigenjoints,275,3,5,4
Eigenjoints,276,1,4,4
Eigenjoints,276,2,6,4
Eigenjoints,276,3,6,8
Eigenjoints,277,1,5,7
Eigenjoints,277,2,4,5
Eigenjoints,277,3,4,7
Eigenjoints,278,1,8,5
Eigenjoints,278,2,8,5
Eigenjoints,278,3,7,5
Eigenjoints,279,1,7,5
Eigenjoints,279,2,7,6
Eigenjoints,279,3,6,8
Eigenjoints,280,1,7,5
Eigenjoints,280,2,6,5
Eigenjoints,280,3,7,5
Eigenjoints,283,1,6,6
Eigenjoints,283,2,5,5
Eigenjoints,283,3,5,9
Eigenjoints,284,1,8,7
Eigenjoints,284,2,8,7
Eigenjoints,284,3,8,7
Eigenjoints,285,1,5,5
Eigenjoints,285,2,4,5
Eigenjoints,285,3,5,5
Eigenjoints,286,1,9,7
Eigenjoints,286,2,10,6
Eigenjoints,286,3,9,6
Eigenjoints,289,1,7,9
Eigenjoints,289,2,6,9
Eigenjoints,289,3,7,9
