-0.39453,0.0034616,2.6118,-0.39561,0.07196,2.6412,-0.42607,0.42675,2.6396,-0.40775,0.60443,2.5756,-0.56302,0.31359,2.6824,-0.60475,0.033095,2.6829,-0.62219,-0.20269,2.6062,-0.63293,-0.29312,2.5808,-0.24884,0.30639,2.6249,-0.2069,0.040156,2.6147,-0.1954,-0.19248,2.5452,-0.17819,-0.28725,2.5494,-0.46297,-0.072674,2.6151,-0.47567,-0.53584,2.6724,-0.45404,-0.93197,2.6892,-0.46794,-0.96862,2.6068,-0.31663,-0.06655,2.5937,-0.25277,-0.52942,2.57,-0.20476,-0.93535,2.5825,-0.21867,-0.972,2.5001
-0.39397,0.0033688,2.611,-0.39503,0.071733,2.6407,-0.42548,0.42617,2.6405,-0.4077,0.60416,2.576,-0.56145,0.31313,2.6838,-0.59874,0.029128,2.6839,-0.61825,-0.20488,2.6081,-0.62837,-0.29414,2.5884,-0.24702,0.30669,2.6251,-0.20339,0.04116,2.615,-0.19156,-0.19123,2.5446,-0.17462,-0.27246,2.518,-0.46165,-0.072492,2.6143,-0.47425,-0.5348,2.672,-0.4537,-0.93257,2.6894,-0.4679,-0.96912,2.607,-0.31662,-0.066695,2.5919,-0.25099,-0.52812,2.5724,-0.2031,-0.94126,2.5835,-0.2173,-0.97781,2.5012
-0.39304,0.0040661,2.61,-0.39396,0.071994,2.6403,-0.42374,0.42536,2.6414,-0.40646,0.60455,2.5772,-0.56082,0.31041,2.6856,-0.5963,0.026811,2.6863,-0.61355,-0.20788,2.6107,-0.61691,-0.29849,2.5996,-0.24329,0.30833,2.6251,-0.19868,0.043331,2.6158,-0.18744,-0.18919,2.5437,-0.1739,-0.27811,2.5139,-0.46119,-0.072132,2.6134,-0.47173,-0.53633,2.6724,-0.45321,-0.93165,2.6895,-0.46781,-0.96809,2.6072,-0.31527,-0.06625,2.5902,-0.24997,-0.52754,2.5741,-0.20272,-0.94075,2.5841,-0.21732,-0.97719,2.5018
-0.39096,0.0044471,2.6088,-0.39172,0.072151,2.6397,-0.41996,0.4264,2.6427,-0.40372,0.60537,2.5784,-0.55969,0.30941,2.6858,-0.59319,0.029883,2.6894,-0.60597,-0.20846,2.6131,-0.61189,-0.29226,2.5951,-0.23958,0.30909,2.6243,-0.19842,0.042583,2.6129,-0.18446,-0.18793,2.5396,-0.17048,-0.2789,2.5109,-0.45909,-0.071934,2.6125,-0.471,-0.53626,2.6727,-0.45314,-0.93018,2.6898,-0.46789,-0.96643,2.6075,-0.31301,-0.065982,2.5877,-0.24761,-0.52644,2.5759,-0.20222,-0.94003,2.5851,-0.21697,-0.97628,2.5027
-0.389,0.0050544,2.6075,-0.38958,0.072575,2.6391,-0.41788,0.42699,2.6433,-0.40045,0.60472,2.5787,-0.55765,0.30955,2.6861,-0.59073,0.031407,2.6899,-0.60208,-0.20853,2.614,-0.60822,-0.29396,2.5978,-0.23456,0.31239,2.6235,-0.19304,0.045229,2.612,-0.17294,-0.18073,2.5341,-0.16143,-0.26125,2.5132,-0.45698,-0.071426,2.6118,-0.46929,-0.53543,2.6731,-0.45266,-0.9304,2.6897,-0.46763,-0.96654,2.6074,-0.31101,-0.064935,2.5849,-0.24513,-0.5278,2.577,-0.20217,-0.9386,2.5868,-0.21715,-0.97474,2.5044
-0.38617,0.007333,2.6052,-0.38619,0.074461,2.6376,-0.41412,0.4279,2.6428,-0.39739,0.6054,2.5794,-0.55381,0.30966,2.6855,-0.58874,0.031346,2.6894,-0.59948,-0.20858,2.6149,-0.60876,-0.2989,2.602,-0.23125,0.31308,2.6214,-0.18945,0.045355,2.6108,-0.17013,-0.18391,2.5297,-0.16115,-0.26487,2.5094,-0.45438,-0.069467,2.6104,-0.46648,-0.5343,2.6723,-0.45238,-0.93067,2.6899,-0.4678,-0.96671,2.6076,-0.30896,-0.062971,2.5817,-0.24415,-0.52797,2.5767,-0.2015,-0.93887,2.5868,-0.21693,-0.97491,2.5044
-0.38444,0.007528,2.6032,-0.38422,0.074577,2.6362,-0.41232,0.42803,2.6416,-0.39551,0.60568,2.5796,-0.55151,0.31029,2.6847,-0.58476,0.032742,2.6882,-0.5952,-0.21075,2.613,-0.606,-0.29894,2.6026,-0.22816,0.3128,2.6198,-0.18646,0.04456,2.608,-0.1676,-0.18598,2.5245,-0.16354,-0.26501,2.4969,-0.4529,-0.06945,2.6093,-0.46377,-0.53335,2.671,-0.45171,-0.93053,2.69,-0.46729,-0.96653,2.6077,-0.30717,-0.06286,2.5784,-0.24181,-0.53364,2.5749,-0.20011,-0.93917,2.5862,-0.21569,-0.97516,2.5039
-0.38052,0.0089376,2.5996,-0.38059,0.075596,2.6339,-0.41158,0.42851,2.641,-0.39258,0.60722,2.5796,-0.54982,0.30908,2.6839,-0.5819,0.032565,2.6853,-0.5923,-0.21009,2.6098,-0.6005,-0.29717,2.5955,-0.22522,0.31398,2.617,-0.18431,0.04302,2.6003,-0.16519,-0.18691,2.5195,-0.15331,-0.26702,2.4975,-0.44856,-0.068359,2.6056,-0.45949,-0.5393,2.6668,-0.45094,-0.92938,2.6897,-0.46697,-0.96525,2.6074,-0.30238,-0.061566,2.5739,-0.24029,-0.53129,2.5724,-0.19765,-0.93836,2.5858,-0.21369,-0.97423,2.5035
-0.37663,0.0091879,2.5956,-0.37626,0.075652,2.6308,-0.40757,0.42843,2.6384,-0.385,0.60893,2.5772,-0.54712,0.30957,2.6824,-0.57835,0.034018,2.6813,-0.58969,-0.20965,2.6062,-0.59919,-0.29721,2.5943,-0.22256,0.31528,2.6151,-0.17878,0.043175,2.5967,-0.16012,-0.18665,2.5167,-0.15419,-0.27508,2.4904,-0.44449,-0.068534,2.6018,-0.45711,-0.5419,2.6626,-0.45006,-0.93219,2.6875,-0.46619,-0.96799,2.6052,-0.29922,-0.061248,2.5699,-0.23811,-0.53097,2.5692,-0.19645,-0.93761,2.5853,-0.21257,-0.97341,2.503
-0.37219,0.0094715,2.5907,-0.37139,0.075931,2.6264,-0.4015,0.42898,2.6328,-0.37779,0.60874,2.574,-0.5428,0.31075,2.6782,-0.57277,0.03833,2.6721,-0.58755,-0.21154,2.602,-0.59791,-0.29779,2.593,-0.21857,0.31545,2.6117,-0.17534,0.043272,2.5937,-0.15556,-0.1906,2.5064,-0.15033,-0.27415,2.4856,-0.43972,-0.068,2.5964,-0.45376,-0.54558,2.6505,-0.4499,-0.93257,2.6867,-0.46583,-0.96839,2.6044,-0.29573,-0.060854,2.5659,-0.2348,-0.5323,2.5629,-0.19541,-0.93724,2.5854,-0.21134,-0.97305,2.5031
-0.36654,0.0089694,2.5857,-0.3663,0.075842,2.622,-0.39469,0.43119,2.6268,-0.37433,0.61001,2.5717,-0.53497,0.31618,2.6657,-0.57176,0.035537,2.6699,-0.58573,-0.21584,2.5985,-0.59627,-0.29982,2.5888,-0.21348,0.31693,2.6076,-0.17185,0.044192,2.5866,-0.1513,-0.19017,2.5027,-0.14702,-0.27383,2.4798,-0.43442,-0.068662,2.5907,-0.45159,-0.55209,2.6307,-0.44983,-0.93477,2.6815,-0.46379,-0.97057,2.5988,-0.28998,-0.061458,2.5619,-0.23087,-0.53486,2.5583,-0.19293,-0.93455,2.5848,-0.20689,-0.97035,2.5021
-0.3602,0.010152,2.5804,-0.36126,0.076634,2.6179,-0.39046,0.43199,2.6232,-0.36812,0.60975,2.568,-0.52691,0.31408,2.6524,-0.56335,0.034898,2.6567,-0.58138,-0.21712,2.594,-0.59344,-0.30174,2.5828,-0.19893,0.32101,2.6058,-0.1604,0.04563,2.5764,-0.14283,-0.19618,2.4875,-0.14352,-0.27734,2.4678,-0.42756,-0.067385,2.5822,-0.4453,-0.56141,2.594,-0.449,-0.94309,2.6726,-0.46009,-0.97869,2.5894,-0.28313,-0.061223,2.5584,-0.22065,-0.55239,2.5553,-0.19135,-0.93578,2.5846,-0.20244,-0.97138,2.5014
-0.35203,0.0082785,2.5737,-0.35402,0.07512,2.6118,-0.3842,0.43259,2.6162,-0.35836,0.60953,2.5616,-0.51997,0.31473,2.6413,-0.56033,0.060367,2.647,-0.57775,-0.2089,2.5945,-0.59086,-0.30273,2.5816,-0.19228,0.32107,2.6017,-0.15722,0.045701,2.5711,-0.13813,-0.19186,2.481,-0.13626,-0.27066,2.4457,-0.41937,-0.068591,2.5746,-0.44056,-0.56239,2.5614,-0.44751,-0.94101,2.6664,-0.45687,-0.97657,2.583,-0.27511,-0.062809,2.5534,-0.21344,-0.55782,2.5549,-0.18993,-0.9359,2.5843,-0.19929,-0.97146,2.5009
-0.34584,0.0078753,2.5674,-0.349,0.074869,2.6058,-0.37812,0.43387,2.6089,-0.34631,0.60827,2.5524,-0.51116,0.3135,2.6253,-0.54709,0.029351,2.6317,-0.57582,-0.2144,2.5961,-0.58662,-0.3028,2.5846,-0.18708,0.31925,2.599,-0.1526,0.043995,2.5647,-0.13373,-0.19875,2.4617,-0.1276,-0.27668,2.4306,-0.41288,-0.068221,2.565,-0.43333,-0.57298,2.5107,-0.45378,-0.93943,2.6517,-0.47061,-1.0031,2.6125,-0.26847,-0.064328,2.5499,-0.20938,-0.54668,2.5507,-0.18739,-0.93058,2.5813,-0.19344,-0.9661,2.4976
-0.34151,0.0102,2.5614,-0.345,0.07744,2.5992,-0.36954,0.43488,2.5976,-0.33813,0.60767,2.5463,-0.5061,0.31682,2.6145,-0.5291,0.045448,2.6194,-0.57323,-0.21722,2.5983,-0.58015,-0.30299,2.5942,-0.18369,0.31958,2.5966,-0.14998,0.04422,2.5613,-0.13065,-0.1958,2.4448,-0.12218,-0.26776,2.3974,-0.40918,-0.064008,2.5564,-0.43526,-0.56146,2.4678,-0.46145,-0.93545,2.6361,-0.476,-0.98964,2.586,-0.26501,-0.062983,2.5475,-0.20692,-0.54565,2.548,-0.1852,-0.93062,2.5814,-0.19012,-0.98602,2.5251
-0.33493,0.014208,2.5521,-0.33885,0.080117,2.5902,-0.36339,0.43352,2.5895,-0.32926,0.60805,2.535,-0.50225,0.31654,2.605,-0.52714,0.04719,2.6165,-0.57006,-0.20739,2.6065,-0.57567,-0.29889,2.6003,-0.17829,0.31641,2.59,-0.14662,0.042519,2.5503,-0.1251,-0.18285,2.4345,-0.11636,-0.26322,2.3815,-0.40595,-0.060275,2.5432,-0.43401,-0.55579,2.4381,-0.4789,-0.93169,2.6054,-0.45832,-1.0104,2.5942,-0.25504,-0.061019,2.5417,-0.20421,-0.55064,2.5434,-0.18445,-0.9318,2.582,-0.18397,-1.0134,2.5486
-0.33258,0.013901,2.544,-0.33762,0.0804,2.5811,-0.36023,0.43445,2.5769,-0.31799,0.60909,2.5207,-0.49556,0.31622,2.5846,-0.52368,0.049579,2.6122,-0.56575,-0.19758,2.6115,-0.56993,-0.29037,2.607,-0.17175,0.31394,2.5795,-0.14313,0.036852,2.5356,-0.12624,-0.16465,2.4214,-0.1183,-0.24618,2.3697,-0.40357,-0.059989,2.5344,-0.4397,-0.54258,2.3949,-0.49242,-0.91923,2.5517,-0.46992,-0.97192,2.4957,-0.25314,-0.062567,2.5363,-0.20118,-0.55165,2.5414,-0.18429,-0.92951,2.5848,-0.18021,-0.98305,2.528
-0.32866,0.016993,2.534,-0.33356,0.083658,2.5696,-0.35838,0.43537,2.5618,-0.31511,0.61108,2.5094,-0.49373,0.31517,2.5723,-0.52157,0.051305,2.6096,-0.56195,-0.18522,2.615,-0.57453,-0.2687,2.618,-0.17595,0.31307,2.5626,-0.14361,0.038492,2.5072,-0.1271,-0.17798,2.3716,-0.12226,-0.25837,2.3283,-0.40103,-0.056986,2.5236,-0.44611,-0.52412,2.3684,-0.51173,-0.90576,2.4998,-0.51355,-0.9623,2.4527,-0.24664,-0.059089,2.529,-0.19666,-0.53026,2.5319,-0.18444,-0.92818,2.586,-0.16485,-0.98478,2.5308
-0.33188,0.023429,2.5143,-0.3364,0.088364,2.5511,-0.35737,0.43597,2.5485,-0.31643,0.61129,2.4926,-0.49125,0.31246,2.5541,-0.51952,0.054493,2.6064,-0.54087,-0.18438,2.6124,-0.55561,-0.27715,2.6205,-0.17564,0.31423,2.5498,-0.14584,0.042533,2.4942,-0.13615,-0.15815,2.3677,-0.13579,-0.23603,2.31,-0.40693,-0.051034,2.4981,-0.45617,-0.51121,2.3398,-0.52998,-0.90165,2.431,-0.53062,-0.93729,2.3472,-0.24928,-0.055526,2.513,-0.19159,-0.54228,2.5295,-0.18529,-0.92906,2.5864,-0.16053,-0.98513,2.5304
-0.33442,0.024576,2.4989,-0.3386,0.08946,2.5355,-0.36081,0.4358,2.5324,-0.31504,0.60731,2.4769,-0.49384,0.31346,2.5434,-0.516,0.058379,2.6018,-0.54029,-0.18119,2.6173,-0.54975,-0.27399,2.6375,-0.17902,0.31115,2.5328,-0.14877,0.039275,2.468,-0.14626,-0.16334,2.3253,-0.15091,-0.23527,2.2753,-0.40816,-0.048241,2.4874,-0.46357,-0.50523,2.32,-0.54954,-0.86671,2.3484,-0.5516,-0.90242,2.2646,-0.25321,-0.054842,2.4918,-0.18975,-0.54439,2.5254,-0.18702,-0.92697,2.5863,-0.16521,-0.98117,2.5301
-0.3357,0.020582,2.4798,-0.33943,0.086119,2.5167,-0.36146,0.43538,2.5132,-0.31666,0.60696,2.456,-0.49387,0.31508,2.5268,-0.51367,0.062112,2.5969,-0.53914,-0.16455,2.6287,-0.54364,-0.26043,2.648,-0.18099,0.30342,2.5125,-0.15705,0.043105,2.442,-0.16977,-0.15562,2.2874,-0.17373,-0.2257,2.2412,-0.41135,-0.048516,2.467,-0.47518,-0.49468,2.2972,-0.56883,-0.84223,2.2774,-0.57162,-0.87799,2.1937,-0.25348,-0.058632,2.4765,-0.19462,-0.54725,2.5143,-0.18725,-0.92846,2.5863,-0.15519,-1.0095,2.5575
-0.34132,0.015461,2.4614,-0.34532,0.081314,2.4982,-0.36651,0.43215,2.4961,-0.32669,0.60287,2.4338,-0.49727,0.31323,2.5058,-0.51327,0.064149,2.5871,-0.53936,-0.17689,2.6364,-0.54189,-0.27043,2.662,-0.17756,0.29978,2.4933,-0.17468,0.03835,2.4111,-0.18744,-0.1561,2.253,-0.20153,-0.22832,2.1899,-0.41561,-0.05174,2.4499,-0.48395,-0.47942,2.2862,-0.5899,-0.81462,2.2208,-0.59205,-0.85028,2.1369,-0.26022,-0.068871,2.4548,-0.19241,-0.56728,2.501,-0.18782,-0.92843,2.582,-0.14373,-1.0124,2.5574
-0.35293,0.0082346,2.4359,-0.35583,0.074202,2.4735,-0.37655,0.42686,2.473,-0.33487,0.59743,2.4151,-0.50565,0.30955,2.4854,-0.51441,0.064947,2.5785,-0.5403,-0.17561,2.6368,-0.54104,-0.2683,2.666,-0.19466,0.28367,2.4625,-0.18385,0.035973,2.3868,-0.21599,-0.15211,2.2138,-0.23448,-0.2232,2.1505,-0.42718,-0.058302,2.424,-0.49673,-0.45477,2.2697,-0.60828,-0.79174,2.1755,-0.6131,-0.82734,2.0919,-0.27107,-0.074666,2.4316,-0.20147,-0.57102,2.4811,-0.18976,-0.93364,2.5741,-0.16491,-1.011,2.5496
-0.36214,0.0021997,2.4099,-0.36597,0.067635,2.4482,-0.38388,0.41898,2.4486,-0.34554,0.58933,2.3916,-0.51385,0.29904,2.457,-0.51923,0.060217,2.5633,-0.5417,-0.17885,2.6373,-0.54155,-0.26528,2.6669,-0.19431,0.27963,2.4477,-0.19802,0.028529,2.3472,-0.23019,-0.15029,2.1929,-0.25425,-0.21361,2.1235,-0.43471,-0.065509,2.3984,-0.52361,-0.47098,2.2445,-0.62314,-0.78717,2.1442,-0.62432,-0.82256,2.0603,-0.28421,-0.082321,2.4008,-0.20942,-0.5761,2.4576,-0.18942,-0.92928,2.5637,-0.15364,-0.98592,2.5183
-0.37749,-0.0054082,2.3792,-0.38023,0.058995,2.4214,-0.39123,0.41309,2.4323,-0.34919,0.58418,2.3761,-0.52189,0.29252,2.4328,-0.52668,0.054442,2.5445,-0.54492,-0.1801,2.6332,-0.54222,-0.26355,2.6651,-0.20464,0.27635,2.4269,-0.21741,0.028317,2.3286,-0.26121,-0.13951,2.156,-0.27942,-0.20474,2.0868,-0.45296,-0.06973,2.3623,-0.53996,-0.4479,2.2213,-0.63899,-0.76336,2.0875,-0.64192,-0.79847,2.002,-0.29814,-0.089429,2.3741,-0.21926,-0.57606,2.4289,-0.1888,-0.93006,2.5517,-0.15177,-0.98632,2.5086
-0.39355,-0.014185,2.3493,-0.3964,0.04978,2.3916,-0.40809,0.40151,2.3986,-0.36846,0.57873,2.3519,-0.53739,0.28087,2.4024,-0.54524,0.046899,2.5192,-0.55437,-0.1808,2.6164,-0.55289,-0.25697,2.6508,-0.22927,0.26434,2.3938,-0.23867,0.024406,2.3047,-0.27513,-0.14299,2.1306,-0.29654,-0.20295,2.0576,-0.46806,-0.077468,2.3332,-0.55399,-0.47467,2.1778,-0.65877,-0.77955,2.0586,-0.64999,-0.8475,2.0202,-0.31571,-0.098784,2.343,-0.23073,-0.57061,2.3973,-0.19947,-0.94042,2.5254,-0.15625,-0.98718,2.4976
-0.40736,-0.016401,2.3272,-0.4098,0.046823,2.3717,-0.41843,0.39934,2.3825,-0.38877,0.57575,2.3263,-0.55347,0.27924,2.3824,-0.56274,0.042915,2.495,-0.58081,-0.17078,2.571,-0.57146,-0.25212,2.6247,-0.24278,0.25837,2.3772,-0.26458,0.023579,2.2873,-0.29209,-0.13988,2.1047,-0.31594,-0.20199,2.0149,-0.48353,-0.081134,2.3055,-0.58281,-0.47516,2.1322,-0.67416,-0.89628,2.0801,-0.67284,-0.9423,2.0029,-0.32978,-0.10289,2.3227,-0.24899,-0.56474,2.3622,-0.18693,-0.93369,2.5561,-0.16936,-0.97122,2.4821
-0.43497,-0.018579,2.2933,-0.43665,0.039413,2.3389,-0.44064,0.37141,2.3529,-0.40345,0.57267,2.3059,-0.56906,0.27922,2.3619,-0.58819,0.038937,2.465,-0.60914,-0.19134,2.5353,-0.60551,-0.26315,2.5779,-0.25807,0.25934,2.3558,-0.28503,0.021544,2.262,-0.30319,-0.14235,2.0915,-0.32064,-0.20024,1.9993,-0.50561,-0.081324,2.2759,-0.5986,-0.47359,2.1009,-0.68066,-0.89527,2.0543,-0.68007,-0.94074,1.9798,-0.3622,-0.10752,2.2851,-0.25986,-0.56217,2.32,-0.18847,-0.92248,2.5393,-0.17382,-0.96067,2.4598
-0.47302,-0.011191,2.2536,-0.46977,0.048661,2.3033,-0.45958,0.39951,2.3334,-0.41229,0.57395,2.2932,-0.58645,0.2812,2.3483,-0.6096,0.03717,2.4419,-0.64036,-0.2032,2.5078,-0.64051,-0.27697,2.5325,-0.281,0.25666,2.3274,-0.29968,0.019341,2.2497,-0.32043,-0.14353,2.0767,-0.32895,-0.1967,1.9963,-0.55507,-0.069583,2.233,-0.6198,-0.47363,2.0708,-0.67338,-0.89643,2.0589,-0.66996,-0.93858,1.9902,-0.3976,-0.098623,2.2414,-0.28184,-0.55185,2.2616,-0.20589,-0.90096,2.4527,-0.17325,-0.95567,2.4293
-0.48198,-0.019029,2.241,-0.48092,0.036956,2.2903,-0.47484,0.36847,2.3133,-0.42624,0.56661,2.2684,-0.60744,0.28006,2.3271,-0.64539,0.038539,2.4146,-0.68899,-0.19749,2.3004,-0.6775,-0.28566,2.4829,-0.29406,0.25437,2.3151,-0.31496,0.016228,2.2349,-0.32626,-0.14937,2.0666,-0.33485,-0.21535,1.9697,-0.55783,-0.078852,2.222,-0.63312,-0.47997,2.0572,-0.68376,-0.89966,2.0352,-0.67781,-0.94362,1.9655,-0.41171,-0.10418,2.2273,-0.31317,-0.53595,2.2005,-0.23298,-0.87527,2.4049,-0.20571,-0.93724,2.3719
-0.50084,-0.016811,2.2198,-0.49808,0.037422,2.2707,-0.49019,0.36588,2.2974,-0.44004,0.5663,2.255,-0.6217,0.28167,2.3135,-0.65886,0.034471,2.3943,-0.6804,-0.17085,2.2717,-0.72232,-0.29384,2.426,-0.31657,0.25413,2.2929,-0.32468,0.018892,2.2248,-0.32865,-0.15201,2.0654,-0.33723,-0.21964,1.9685,-0.57431,-0.077243,2.1992,-0.65032,-0.48445,2.0416,-0.67519,-0.9042,2.0368,-0.66431,-0.94478,1.9729,-0.43309,-0.10164,2.2065,-0.35094,-0.52674,2.1414,-0.26753,-0.88026,2.3358,-0.23843,-0.93344,2.294
-0.52473,-0.0070949,2.1926,-0.52095,0.049497,2.2471,-0.50341,0.39838,2.2855,-0.46196,0.57252,2.2348,-0.63954,0.2856,2.2969,-0.69176,0.042614,2.3596,-0.75,-0.22151,2.2293,-0.76949,-0.29598,2.372,-0.3225,0.25666,2.2842,-0.3355,0.014472,2.2114,-0.33582,-0.15664,2.0593,-0.33817,-0.21508,1.9819,-0.60694,-0.064423,2.1722,-0.65882,-0.48261,2.0396,-0.67687,-0.90622,2.0299,-0.66479,-0.94777,1.9638,-0.45187,-0.093331,2.1764,-0.38589,-0.52817,2.0829,-0.31917,-0.87652,2.2679,-0.28966,-0.92777,2.2139
-0.52873,-0.009143,2.1839,-0.52445,0.04838,2.2385,-0.51125,0.39965,2.2739,-0.46908,0.57339,2.2257,-0.65006,0.28446,2.2839,-0.71215,0.038288,2.3367,-0.77623,-0.21794,2.2031,-0.80132,-0.28684,2.1923,-0.34135,0.2556,2.2625,-0.34686,0.0064762,2.1984,-0.34541,-0.17036,2.0499,-0.34294,-0.23161,1.9749,-0.61109,-0.068203,2.1626,-0.67024,-0.48188,2.0355,-0.6747,-0.90897,2.0329,-0.6602,-0.94921,1.9643,-0.45456,-0.094282,2.1696,-0.42969,-0.51343,2.0203,-0.37987,-0.86553,2.1804,-0.35789,-0.91455,2.1438
-0.53461,-0.010849,2.1716,-0.53129,0.046751,2.2265,-0.52031,0.39904,2.2627,-0.4843,0.57325,2.2121,-0.66333,0.28203,2.2733,-0.73819,0.043176,2.3068,-0.80091,-0.22052,2.1767,-0.86119,-0.29152,2.2742,-0.34849,0.25854,2.2543,-0.35063,0.004165,2.1952,-0.34976,-0.19091,2.0401,-0.34338,-0.25384,1.9666,-0.61635,-0.071542,2.1523,-0.69642,-0.44854,2.035,-0.67988,-0.91097,2.0346,-0.66588,-0.94942,1.9658,-0.45989,-0.094731,2.1541,-0.47512,-0.50117,1.9583,-0.45597,-0.80095,2.0208,-0.42112,-0.91142,2.0231
-0.54185,-0.014099,2.1575,-0.53849,0.043818,2.2137,-0.52713,0.39948,2.2532,-0.49786,0.57142,2.1978,-0.67561,0.27711,2.2603,-0.79186,0.041922,2.2934,-0.88905,-0.20096,2.2591,-0.92053,-0.28544,2.2427,-0.35568,0.25947,2.2429,-0.36003,-0.0027361,2.1871,-0.34948,-0.19641,2.0449,-0.33873,-0.26434,1.9767,-0.62188,-0.076852,2.1399,-0.7006,-0.45656,2.0324,-0.68698,-0.92168,2.042,-0.68025,-0.96211,1.9657,-0.46942,-0.096057,2.137,-0.51777,-0.46915,1.9284,-0.47434,-0.89622,1.9882,-0.47432,-0.92853,1.9045
-0.54822,-0.011426,2.1475,-0.5442,0.046132,2.2037,-0.54022,0.39914,2.2407,-0.50634,0.57333,2.1905,-0.68671,0.27623,2.2553,-0.8116,0.02721,2.2756,-0.93351,-0.21095,2.2136,-0.9628,-0.27852,2.2009,-0.36974,0.2645,2.2274,-0.35196,-0.0023619,2.1865,-0.34632,-0.20273,2.0557,-0.32461,-0.28209,2.0051,-0.62644,-0.076317,2.1322,-0.70445,-0.46715,2.0252,-0.68139,-0.92581,2.0564,-0.6861,-0.95827,1.9728,-0.47531,-0.090941,2.124,-0.55281,-0.43918,1.9028,-0.52451,-0.88547,1.8943,-0.52923,-0.91793,1.8107
-0.55312,-0.011026,2.1379,-0.55003,0.04613,2.1945,-0.54974,0.39804,2.2312,-0.51632,0.57251,2.1809,-0.69174,0.27424,2.2487,-0.82348,0.034577,2.258,-0.96272,-0.19187,2.1738,-1.0004,-0.25599,2.1523,-0.37112,0.26752,2.2229,-0.35062,-0.0048349,2.1852,-0.33858,-0.21729,2.0675,-0.31729,-0.28936,2.0146,-0.62837,-0.07673,2.1264,-0.71402,-0.45032,2.0027,-0.72319,-0.79133,1.997,-0.74395,-0.69377,2.0031,-0.48237,-0.08773,2.1106,-0.5798,-0.42278,1.8906,-0.60785,-0.85697,1.7669,-0.60521,-0.90451,1.7039
-0.55098,-0.0054627,2.1254,-0.54981,0.048859,2.1841,-0.55725,0.39501,2.2247,-0.52781,0.57012,2.1714,-0.70009,0.27236,2.2456,-0.83864,0.040523,2.237,-0.98549,-0.17343,2.1424,-1.0267,-0.23061,2.1065,-0.37774,0.26734,2.2145,-0.39159,0.00045017,2.2123,-0.33229,-0.22895,2.0802,-0.30637,-0.302,2.039,-0.62235,-0.072772,2.1108,-0.68681,-0.43082,2.0033,-0.69831,-0.88741,2.0314,-0.65481,-0.895,1.9692,-0.47454,-0.081554,2.0964,-0.6225,-0.4161,1.8908,-0.65538,-0.77497,1.6461,-0.63923,-0.80659,1.5514
-0.58826,-0.0029974,2.1193,-0.58048,0.049841,2.1767,-0.56378,0.39228,2.2198,-0.54607,0.56796,2.1626,-0.70476,0.27114,2.2417,-0.84649,0.04986,2.2248,-1.0023,-0.14845,2.1077,-1.051,-0.21616,2.0671,-0.38711,0.2676,2.2029,-0.39376,-0.002119,2.2106,-0.32533,-0.24569,2.089,-0.2969,-0.31509,2.0519,-0.66719,-0.068772,2.1119,-0.66972,-0.46003,1.9922,-0.72456,-0.87932,2.0717,-0.73325,-0.91169,1.9883,-0.51926,-0.081667,2.0862,-0.64466,-0.42146,1.8351,-0.69266,-0.77459,1.5825,-0.7007,-0.81782,1.4915
-0.59199,0.0016715,2.1176,-0.58312,0.052942,2.175,-0.56863,0.39015,2.2165,-0.55364,0.56482,2.1586,-0.70776,0.26883,2.2387,-0.84968,0.064945,2.2133,-1.002,-0.1156,2.0923,-1.0549,-0.18591,2.0358,-0.39224,0.26623,2.1952,-0.39406,-0.0081795,2.2076,-0.31285,-0.25995,2.0995,-0.27931,-0.31858,2.0552,-0.67402,-0.065735,2.1106,-0.68992,-0.42636,1.9978,-0.74498,-0.87608,2.0651,-0.75664,-0.90853,1.9821,-0.52041,-0.075126,2.0837,-0.60993,-0.35806,1.8248,-0.72338,-0.56289,1.5746,-0.73194,-0.59707,1.4892
-0.59372,0.0015592,2.1159,-0.5846,0.052936,2.1733,-0.57477,0.38844,2.213,-0.56403,0.56247,2.1551,-0.71311,0.26526,2.236,-0.85315,0.067274,2.207,-1.0034,-0.10612,2.0817,-1.0533,-0.16627,2.0231,-0.3983,0.26721,2.1891,-0.39454,-0.01282,2.2062,-0.33645,-0.24371,2.1294,-0.26839,-0.31229,2.0728,-0.67474,-0.065978,2.1098,-0.69115,-0.42659,1.994,-0.75348,-0.87404,2.0626,-0.76607,-0.90656,1.9798,-0.52242,-0.074704,2.0812,-0.65616,-0.35653,1.7999,-0.76199,-0.51843,1.5232,-0.77215,-0.55262,1.4379
-0.59445,0.0034986,2.1159,-0.58527,0.054471,2.1734,-0.57713,0.38785,2.2114,-0.56962,0.56159,2.1528,-0.71659,0.26491,2.2356,-0.85299,0.071852,2.2031,-1.0015,-0.094257,2.0714,-1.0518,-0.15314,2.0093,-0.39979,0.26789,2.1872,-0.39376,-0.013968,2.206,-0.33361,-0.24474,2.1323,-0.31,-0.31627,2.102,-0.67606,-0.064993,2.1103,-0.69324,-0.45444,2.002,-0.72931,-0.91437,2.0486,-0.74247,-0.94693,1.9659,-0.52177,-0.072052,2.081,-0.67183,-0.33103,1.769,-0.79814,-0.48036,1.4787,-0.85302,-0.52627,1.4462
-0.59363,0.0044826,2.1157,-0.58463,0.055418,2.1732,-0.58008,0.38624,2.2081,-0.57381,0.55985,2.149,-0.71978,0.26583,2.2351,-0.85306,0.072893,2.2007,-0.99979,-0.09276,2.0663,-1.0487,-0.1502,2.0032,-0.40747,0.26446,2.1804,-0.39328,-0.014478,2.2066,-0.33181,-0.24471,2.133,-0.28804,-0.32518,2.1026,-0.67668,-0.063991,2.1105,-0.69934,-0.44559,1.9921,-0.71745,-0.90428,2.0425,-0.73269,-0.93819,1.9741,-0.51653,-0.071381,2.0811,-0.69631,-0.30633,1.7482,-0.83415,-0.44848,1.4481,-0.7966,-0.70591,1.4335
-0.59452,0.0027373,2.1147,-0.58568,0.054146,2.1722,-0.58257,0.38588,2.206,-0.57588,0.56023,2.1474,-0.72275,0.26594,2.2336,-0.8525,0.074822,2.1997,-0.99558,-0.092649,2.0635,-1.0447,-0.15205,2.0007,-0.40958,0.26461,2.1784,-0.39136,-0.015419,2.2078,-0.32892,-0.24506,2.1333,-0.28647,-0.32597,2.1021,-0.67652,-0.064443,2.1109,-0.69496,-0.42303,1.9792,-0.72221,-0.90177,2.0412,-0.73903,-0.93478,1.9744,-0.51815,-0.073171,2.0789,-0.68942,-0.27472,1.7481,-0.83995,-0.43486,1.4429,-0.85342,-0.46905,1.3581
-0.59326,0.0021509,2.1156,-0.58498,0.054035,2.1729,-0.58387,0.38632,2.2052,-0.57692,0.56035,2.1463,-0.72515,0.26386,2.2322,-0.85089,0.075146,2.1991,-0.98577,-0.099025,2.0632,-1.0387,-0.16877,1.9982,-0.4113,0.2662,2.1774,-0.38947,-0.016531,2.2088,-0.32456,-0.24382,2.1325,-0.28619,-0.32275,2.0997,-0.67532,-0.065064,2.1149,-0.68886,-0.44748,2.0005,-0.73518,-0.90481,2.0191,-0.75922,-0.94101,1.9544,-0.51319,-0.072703,2.0795,-0.6989,-0.26876,1.7327,-0.84414,-0.42737,1.4401,-0.85774,-0.46156,1.3553
-0.59102,0.0030494,2.117,-0.58328,0.055075,2.1738,-0.58441,0.38655,2.2044,-0.57769,0.56048,2.1454,-0.72561,0.26335,2.2321,-0.84765,0.07237,2.2008,-0.98206,-0.13846,2.057,-1.0222,-0.20683,1.9994,-0.41171,0.26793,2.1768,-0.38728,-0.014586,2.2096,-0.32068,-0.2325,2.1338,-0.28589,-0.3149,2.0974,-0.6724,-0.064872,2.1188,-0.68461,-0.44646,2.0009,-0.73551,-0.90217,2.0158,-0.76081,-0.93877,1.9511,-0.51022,-0.071393,2.08,-0.68563,-0.25652,1.7037,-0.84282,-0.42862,1.4494,-0.85668,-0.46281,1.3646
-0.59016,0.003137,2.1214,-0.58232,0.055686,2.177,-0.58432,0.38663,2.204,-0.57809,0.56029,2.1452,-0.7254,0.26521,2.2338,-0.8403,0.063774,2.2074,-0.96254,-0.15179,2.0778,-0.99781,-0.21016,2.0298,-0.41189,0.26818,2.1764,-0.38477,-0.012454,2.2096,-0.31386,-0.23552,2.1272,-0.28598,-0.31566,2.0962,-0.67192,-0.065082,2.1262,-0.68313,-0.44488,2.0007,-0.72504,-0.90192,2.0236,-0.74832,-0.93838,1.96,-0.50969,-0.07097,2.0857,-0.70114,-0.2486,1.7308,-0.82612,-0.47087,1.4768,-0.89051,-0.4771,1.3924
-0.58798,0.0034424,2.1249,-0.57982,0.056402,2.1803,-0.58362,0.38689,2.2042,-0.57824,0.56052,2.1453,-0.72432,0.26351,2.2358,-0.82946,0.046088,2.2214,-0.93662,-0.16354,2.1186,-0.97858,-0.2452,2.072,-0.41105,0.26873,2.1767,-0.35441,0.0073273,2.1778,-0.30786,-0.23392,2.1222,-0.26143,-0.295,2.057,-0.66928,-0.065447,2.1305,-0.67607,-0.44677,2.0109,-0.7152,-0.90527,2.0327,-0.73498,-0.94513,1.9584,-0.50836,-0.070868,2.0885,-0.70418,-0.24488,1.7313,-0.78633,-0.52815,1.5303,-0.80146,-0.56239,1.4458
-0.5791,0.0036781,2.1321,-0.57175,0.057518,2.1869,-0.58221,0.38721,2.2057,-0.5778,0.56086,2.1473,-0.72103,0.26064,2.2392,-0.80967,0.028541,2.2408,-0.91726,-0.18575,2.1505,-0.96327,-0.26765,2.1083,-0.4096,0.26828,2.1774,-0.34541,0.019252,2.1838,-0.30282,-0.23324,2.1161,-0.27915,-0.30793,2.0807,-0.66047,-0.066329,2.1415,-0.67996,-0.44491,2.0116,-0.71118,-0.89365,2.0258,-0.73246,-0.93226,1.9634,-0.49703,-0.069735,2.0928,-0.7106,-0.26608,1.7287,-0.75097,-0.57973,1.6319,-0.7859,-0.61945,1.5745
-0.57708,0.0035889,2.1375,-0.56848,0.057613,2.1926,-0.5789,0.38781,2.2106,-0.57461,0.56213,2.152,-0.71265,0.26219,2.2473,-0.79051,0.027172,2.2631,-0.87717,-0.20317,2.1965,-0.91078,-0.28079,2.1672,-0.40444,0.27042,2.181,-0.34082,0.017831,2.1835,-0.27895,-0.19291,2.1033,-0.27816,-0.30321,2.0756,-0.65803,-0.065778,2.1498,-0.68046,-0.44213,2.0136,-0.68381,-0.88972,2.0296,-0.70129,-0.92776,1.9657,-0.49636,-0.070365,2.0959,-0.69085,-0.27602,1.7503,-0.68908,-0.63223,1.7287,-0.69268,-0.64724,1.6305
-0.57281,0.0037741,2.1413,-0.56092,0.057581,2.1963,-0.57142,0.38828,2.2165,-0.56894,0.56289,2.1601,-0.70553,0.26361,2.2676,-0.76774,0.026781,2.2923,-0.84123,-0.21161,2.2457,-0.86891,-0.28651,2.22,-0.40116,0.27026,2.1825,-0.32957,0.0079089,2.1821,-0.27345,-0.21094,2.0919,-0.25732,-0.28804,2.0571,-0.65345,-0.067429,2.1522,-0.66167,-0.48349,2.0344,-0.59564,-0.90109,2.1114,-0.61815,-0.93464,2.0312,-0.49333,-0.070784,2.0997,-0.666,-0.30894,1.7807,-0.61785,-0.68485,1.8397,-0.65249,-0.71694,1.7725
-0.56381,0.012224,2.1643,-0.55041,0.066012,2.2151,-0.56204,0.38901,2.2244,-0.56349,0.56327,2.1703,-0.69618,0.26525,2.2833,-0.74286,0.032093,2.3217,-0.80339,-0.2049,2.2824,-0.8199,-0.28687,2.2746,-0.39143,0.27121,2.1881,-0.32301,0.0069369,2.1821,-0.27338,-0.21261,2.0872,-0.25778,-0.28769,2.0517,-0.65064,-0.058511,2.1854,-0.64285,-0.44192,2.061,-0.73647,-0.87141,2.0088,-0.76086,-0.90651,1.9298,-0.48351,-0.068017,2.1151,-0.63162,-0.33714,1.8299,-0.5544,-0.73818,1.9586,-0.57501,-0.76818,1.8825
-0.55857,0.010563,2.1694,-0.54298,0.064342,2.2208,-0.55275,0.39038,2.2348,-0.55203,0.56753,2.1841,-0.68348,0.27299,2.2969,-0.68121,0.020873,2.3417,-0.73781,-0.23941,2.3233,-0.75458,-0.33496,2.3105,-0.38684,0.27193,2.192,-0.31977,0.0078305,2.1813,-0.27278,-0.21384,2.0809,-0.2558,-0.2901,2.0466,-0.64037,-0.061901,2.1954,-0.6487,-0.43598,2.0258,-0.73679,-0.85791,2.0252,-0.76281,-0.89233,1.9464,-0.47866,-0.065921,2.1181,-0.57179,-0.37646,1.8701,-0.48611,-0.72107,2.0107,-0.51292,-0.75557,1.9307
-0.547,0.0055361,2.1768,-0.52837,0.060404,2.2283,-0.5397,0.39177,2.2472,-0.54538,0.56926,2.1943,-0.66711,0.28339,2.3263,-0.65164,0.024337,2.3716,-0.68911,-0.25782,2.3779,-0.7119,-0.35213,2.3651,-0.37975,0.27235,2.1972,-0.31202,0.0049627,2.1801,-0.26836,-0.20701,2.0801,-0.25313,-0.29134,2.0411,-0.61898,-0.072742,2.1924,-0.66167,-0.45435,2.0331,-0.69245,-0.89343,2.0198,-0.71725,-0.9399,1.9645,-0.47338,-0.067004,2.1259,-0.52217,-0.41441,1.9251,-0.40825,-0.76254,2.112,-0.44361,-0.79737,2.034
-0.53949,-0.00032596,2.1855,-0.51827,0.054531,2.237,-0.52744,0.38966,2.2606,-0.5356,0.5671,2.213,-0.65683,0.2811,2.3439,-0.62564,0.035776,2.4008,-0.64026,-0.24628,2.4267,-0.65705,-0.33645,2.4277,-0.37276,0.26749,2.2016,-0.30343,0.0026108,2.1804,-0.26661,-0.2095,2.0764,-0.25074,-0.29087,2.0386,-0.61194,-0.077173,2.2033,-0.64031,-0.46905,2.0434,-0.71369,-0.91153,2.0451,-0.74735,-0.94536,1.969,-0.46925,-0.071348,2.1325,-0.47783,-0.4581,1.9794,-0.34426,-0.78932,2.21,-0.382,-0.82417,2.1332
-0.52159,-0.017607,2.1943,-0.49978,0.040748,2.2471,-0.51263,0.38874,2.2783,-0.52165,0.56636,2.2311,-0.63905,0.27851,2.3657,-0.58738,0.013763,2.435,-0.59778,-0.25466,2.4739,-0.60541,-0.33636,2.4777,-0.35852,0.26421,2.2119,-0.29004,-0.0014894,2.1826,-0.26151,-0.2103,2.0735,-0.24758,-0.28933,2.0358,-0.58705,-0.093253,2.2121,-0.64027,-0.47679,2.0559,-0.70054,-0.93077,2.0568,-0.73557,-0.97264,1.9876,-0.46094,-0.08292,2.1412,-0.43325,-0.49709,2.0435,-0.29354,-0.8243,2.2775,-0.3358,-0.85931,2.2031
-0.48771,-0.028789,2.2043,-0.46905,0.031396,2.2584,-0.49756,0.38774,2.294,-0.50449,0.56623,2.2465,-0.60382,0.28094,2.3676,-0.57616,0.025783,2.4477,-0.55666,-0.24257,2.5091,-0.55778,-0.33419,2.522,-0.3428,0.2631,2.2234,-0.27821,-0.0018434,2.1853,-0.25336,-0.21175,2.0722,-0.24324,-0.29208,2.034,-0.5451,-0.098788,2.2185,-0.6314,-0.47186,2.0758,-0.69401,-0.93534,2.056,-0.7259,-0.97877,1.9886,-0.42761,-0.093352,2.1556,-0.37971,-0.51689,2.119,-0.24691,-0.85871,2.3454,-0.28987,-0.89428,2.2716
-0.46868,-0.029545,2.2213,-0.44887,0.029828,2.2754,-0.47379,0.38641,2.3134,-0.48563,0.56373,2.262,-0.58385,0.29522,2.3898,-0.54032,0.044492,2.4707,-0.53196,-0.23035,2.5321,-0.51644,-0.32018,2.5586,-0.32093,0.26124,2.2378,-0.26513,-0.004464,2.1884,-0.24552,-0.20956,2.0744,-0.24126,-0.29375,2.0322,-0.52966,-0.09731,2.2338,-0.60798,-0.46883,2.0974,-0.69556,-0.93294,2.0534,-0.72829,-0.97848,1.9836,-0.40539,-0.096895,2.1761,-0.33197,-0.52163,2.1937,-0.22123,-0.88302,2.3917,-0.26718,-0.91832,2.3196
-0.43676,-0.035918,2.2557,-0.41787,0.026946,2.3083,-0.4536,0.38692,2.3299,-0.4628,0.5646,2.2845,-0.5645,0.2793,2.3981,-0.52145,0.034447,2.4814,-0.48932,-0.2313,2.5629,-0.47541,-0.32113,2.5891,-0.29727,0.26021,2.2543,-0.24618,-0.0045073,2.1974,-0.2382,-0.20488,2.0818,-0.23724,-0.2899,2.0352,-0.49376,-0.10328,2.2749,-0.58196,-0.48449,2.1184,-0.68434,-0.93359,2.0533,-0.72137,-0.98094,1.9842,-0.37838,-0.10038,2.2076,-0.27895,-0.55261,2.2764,-0.17695,-0.91433,2.4697,-0.17771,-0.96693,2.4301
-0.41787,-0.030835,2.2809,-0.39914,0.031264,2.3301,-0.43479,0.38452,2.3452,-0.44321,0.56349,2.2987,-0.54514,0.28046,2.4233,-0.48089,0.022815,2.5009,-0.46713,-0.22382,2.5728,-0.45078,-0.31494,2.6046,-0.27621,0.26096,2.2714,-0.22403,0.0055046,2.22,-0.23009,-0.20696,2.0836,-0.23168,-0.28962,2.0358,-0.47837,-0.09819,2.3006,-0.54351,-0.47001,2.1614,-0.65978,-0.9233,2.0741,-0.70276,-0.97002,2.0028,-0.35231,-0.099516,2.2378,-0.24451,-0.56366,2.3355,-0.17014,-0.91705,2.4835,-0.17431,-0.97103,2.4413
-0.3895,-0.034123,2.3147,-0.37222,0.030856,2.3629,-0.41067,0.38734,2.3654,-0.42097,0.56286,2.3133,-0.5292,0.28092,2.4341,-0.48777,0.058333,2.5099,-0.45369,-0.21149,2.5793,-0.44067,-0.30401,2.6085,-0.25306,0.2595,2.2901,-0.20326,0.0063423,2.2425,-0.21341,-0.20595,2.0984,-0.22338,-0.28296,2.045,-0.45135,-0.098981,2.3351,-0.51829,-0.4852,2.1938,-0.6168,-0.76517,2.0795,-0.6573,-0.80229,2.0051,-0.32345,-0.10472,2.2731,-0.21204,-0.5663,2.3837,-0.1617,-0.92556,2.5065,-0.14564,-0.98438,2.4768
-0.3697,-0.028264,2.3367,-0.35559,0.03688,2.3833,-0.3918,0.39034,2.3778,-0.39443,0.56612,2.3346,-0.51219,0.28179,2.4491,-0.45259,0.026423,2.5293,-0.44311,-0.21324,2.5878,-0.43185,-0.30644,2.6155,-0.22084,0.26483,2.3181,-0.17488,0.0067675,2.2663,-0.19722,-0.20094,2.1137,-0.21339,-0.27777,2.0578,-0.43431,-0.094646,2.3573,-0.50707,-0.47931,2.2131,-0.59719,-0.76692,2.1095,-0.63156,-0.80417,2.0322,-0.29834,-0.10131,2.3006,-0.18417,-0.55822,2.4251,-0.1555,-0.92465,2.517,-0.14112,-0.98646,2.4798
-0.34604,-0.014019,2.3619,-0.33571,0.050897,2.4079,-0.37321,0.39882,2.3968,-0.37247,0.5727,2.3467,-0.49593,0.28442,2.4617,-0.44853,0.031007,2.5409,-0.43695,-0.22465,2.5927,-0.43015,-0.31867,2.6192,-0.19104,0.2793,2.3485,-0.15353,0.017568,2.2966,-0.17617,-0.19565,2.1417,-0.18646,-0.26893,2.0966,-0.41578,-0.085075,2.3739,-0.49617,-0.47924,2.2295,-0.55859,-0.79699,2.1487,-0.58894,-0.83432,2.0698,-0.26929,-0.085155,2.3339,-0.16918,-0.56037,2.4475,-0.1462,-0.9247,2.5252,-0.13035,-0.98754,2.4835
-0.33345,-0.0061699,2.3793,-0.323,0.058934,2.4227,-0.35775,0.40475,2.4087,-0.35624,0.58113,2.3608,-0.48333,0.28989,2.475,-0.44799,0.031336,2.5429,-0.43742,-0.22475,2.5936,-0.43114,-0.31841,2.6189,-0.17926,0.28021,2.3599,-0.1365,0.023728,2.3265,-0.1479,-0.1722,2.1866,-0.16354,-0.25073,2.1319,-0.40088,-0.075413,2.3973,-0.48286,-0.47103,2.2431,-0.5304,-0.82221,2.2178,-0.55859,-0.85919,2.1394,-0.25912,-0.081055,2.3475,-0.16372,-0.54181,2.4556,-0.14572,-0.92541,2.5295,-0.12962,-0.98757,2.4901
-0.31955,0.0065269,2.3993,-0.31075,0.071879,2.4418,-0.3372,0.41862,2.4261,-0.33409,0.59489,2.3752,-0.46817,0.29999,2.4863,-0.44622,0.040578,2.5447,-0.44642,-0.22075,2.5897,-0.45649,-0.30989,2.5929,-0.15957,0.29403,2.389,-0.12072,0.032794,2.3521,-0.12659,-0.17312,2.2146,-0.13518,-0.25218,2.1626,-0.39189,-0.06539,2.4117,-0.4639,-0.48113,2.2522,-0.50141,-0.85951,2.2946,-0.52525,-0.89632,2.2147,-0.24157,-0.066109,2.3747,-0.16115,-0.52315,2.4673,-0.14616,-0.9247,2.5352,-0.12823,-0.98697,2.4938
-0.30501,0.015565,2.4209,-0.29904,0.081324,2.4607,-0.32726,0.42506,2.4407,-0.32156,0.59979,2.3882,-0.46018,0.30423,2.4943,-0.4514,0.044813,2.5552,-0.48801,-0.20592,2.5634,-0.48746,-0.29882,2.5703,-0.14621,0.30337,2.4087,-0.10228,0.034007,2.3761,-0.094121,-0.16495,2.2666,-0.097721,-0.24455,2.2193,-0.37576,-0.05535,2.4359,-0.44216,-0.49981,2.273,-0.4664,-0.87865,2.4017,-0.48692,-0.9326,2.3486,-0.22804,-0.058547,2.3945,-0.15781,-0.49077,2.4669,-0.14509,-0.89469,2.5306,-0.16592,-0.93194,2.4501
-0.29668,0.020553,2.4385,-0.29217,0.086685,2.4747,-0.32104,0.42781,2.4512,-0.31126,0.60372,2.3984,-0.45337,0.31012,2.5071,-0.46032,0.06344,2.5658,-0.51396,-0.15963,2.5792,-0.53773,-0.2332,2.5824,-0.13457,0.30923,2.4245,-0.088408,0.033899,2.4022,-0.069857,-0.17733,2.2884,-0.073512,-0.25605,2.2479,-0.36868,-0.053797,2.4541,-0.42067,-0.49983,2.3029,-0.4364,-0.87696,2.4862,-0.46362,-0.95793,2.4581,-0.2173,-0.053223,2.4146,-0.15231,-0.48501,2.477,-0.14415,-0.89187,2.5345,-0.16393,-0.92969,2.4539
-0.28601,0.023977,2.4561,-0.28296,0.090578,2.49,-0.30967,0.43301,2.4681,-0.29445,0.60496,2.414,-0.4468,0.31637,2.5231,-0.48716,0.058131,2.5905,-0.54068,-0.19126,2.5462,-0.55203,-0.28496,2.5341,-0.12192,0.3124,2.4474,-0.069922,0.035549,2.4346,-0.041013,-0.18697,2.3335,-0.041109,-0.27243,2.292,-0.35882,-0.051336,2.4692,-0.39763,-0.49409,2.3346,-0.41939,-0.85786,2.5552,-0.44273,-0.95249,2.5622,-0.20561,-0.052008,2.4348,-0.14373,-0.5086,2.4981,-0.13973,-0.91879,2.5463,-0.14485,-0.97869,2.4931
-0.26618,0.029224,2.4735,-0.26755,0.095252,2.504,-0.30276,0.43294,2.4808,-0.28545,0.60694,2.429,-0.44378,0.31672,2.5322,-0.49026,0.06164,2.5916,-0.55151,-0.19254,2.536,-0.57263,-0.284,2.5131,-0.10778,0.3117,2.467,-0.056401,0.030844,2.4632,-0.010314,-0.19933,2.3825,-0.011057,-0.28369,2.3383,-0.33644,-0.046533,2.4858,-0.38797,-0.4923,2.3587,-0.40362,-0.83589,2.6073,-0.41286,-0.90649,2.5798,-0.18199,-0.048947,2.454,-0.13845,-0.50841,2.5094,-0.13914,-0.92039,2.5475,-0.13779,-0.98228,2.4969
-0.26029,0.028749,2.4836,-0.26227,0.094547,2.5127,-0.29718,0.43293,2.497,-0.27464,0.60989,2.4452,-0.43927,0.31639,2.5421,-0.49655,0.065543,2.5906,-0.57833,-0.18348,2.5109,-0.60225,-0.27846,2.4848,-0.10573,0.31066,2.4809,-0.041678,0.037653,2.4947,-0.0023778,-0.20206,2.4143,0.020848,-0.28073,2.3949,-0.33165,-0.047261,2.4916,-0.36905,-0.50987,2.4049,-0.38718,-0.84248,2.6668,-0.39799,-0.9072,2.6284,-0.17507,-0.048832,2.4677,-0.15307,-0.50867,2.5194,-0.13246,-0.91084,2.5565,-0.14635,-0.94849,2.4747
-0.25936,0.026889,2.4938,-0.26136,0.092516,2.5225,-0.29394,0.4322,2.5145,-0.2699,0.60989,2.4576,-0.4363,0.31743,2.5522,-0.50272,0.068394,2.5891,-0.58851,-0.17717,2.4987,-0.62059,-0.25893,2.4576,-0.10451,0.31254,2.497,-0.037092,0.039856,2.5138,0.019465,-0.19931,2.4599,0.043557,-0.28652,2.4483,-0.33095,-0.047547,2.4983,-0.3612,-0.525,2.4478,-0.37612,-0.86267,2.7041,-0.3901,-0.9227,2.6599,-0.17635,-0.052301,2.4795,-0.12964,-0.52662,2.5473,-0.1315,-0.91137,2.5579,-0.14409,-0.94838,2.4756
-0.26014,0.025589,2.5028,-0.26203,0.091749,2.5316,-0.29367,0.43517,2.527,-0.26522,0.61043,2.4712,-0.43292,0.31744,2.5639,-0.50827,0.069407,2.585,-0.61263,-0.16545,2.4687,-0.63342,-0.25459,2.4398,-0.10258,0.31173,2.5088,-0.03337,0.04028,2.5304,0.033134,-0.18825,2.5095,0.055587,-0.27226,2.4921,-0.33257,-0.049603,2.5064,-0.35721,-0.5403,2.4873,-0.37068,-0.88714,2.732,-0.38181,-0.94939,2.6936,-0.17685,-0.052386,2.4875,-0.12799,-0.53234,2.5533,-0.12907,-0.91266,2.5593,-0.12823,-0.97603,2.5018
-0.25829,0.019087,2.5133,-0.26048,0.086818,2.5403,-0.29155,0.43368,2.5324,-0.26352,0.61263,2.4868,-0.43037,0.3168,2.5735,-0.51381,0.074288,2.582,-0.61797,-0.15877,2.455,-0.6468,-0.23652,2.4122,-0.098695,0.31139,2.5226,-0.023886,0.042037,2.5626,0.046816,-0.19984,2.5496,0.067923,-0.28195,2.5404,-0.32835,-0.057976,2.5178,-0.34866,-0.55667,2.5374,-0.35363,-0.9207,2.758,-0.36037,-0.97846,2.7189,-0.17759,-0.056755,2.4984,-0.12784,-0.53303,2.5563,-0.12831,-0.91376,2.5598,-0.13993,-0.9509,2.4774
-0.25929,0.017113,2.5252,-0.26094,0.085032,2.5519,-0.29077,0.43338,2.5444,-0.26047,0.61153,2.4955,-0.4303,0.31719,2.5875,-0.52217,0.082171,2.5807,-0.62277,-0.14812,2.4404,-0.659,-0.23526,2.3923,-0.098851,0.31054,2.5311,-0.023571,0.042388,2.5751,0.052537,-0.18584,2.5878,0.074941,-0.26721,2.5955,-0.3288,-0.060094,2.5299,-0.33715,-0.56162,2.5863,-0.33683,-0.93393,2.786,-0.36215,-0.9969,2.7516,-0.17973,-0.057431,2.5093,-0.12813,-0.53305,2.5602,-0.12781,-0.91336,2.5604,-0.14075,-0.95053,2.4782
-0.26087,0.016358,2.5377,-0.26206,0.083921,2.5645,-0.29071,0.4315,2.5597,-0.26076,0.60905,2.5125,-0.43659,0.31703,2.606,-0.52402,0.084169,2.5807,-0.62544,-0.13522,2.4254,-0.66514,-0.21719,2.3678,-0.10139,0.30821,2.5442,-0.025197,0.04679,2.5953,0.055561,-0.183,2.616,0.075332,-0.2647,2.6308,-0.33101,-0.061976,2.543,-0.33467,-0.55762,2.6195,-0.3297,-0.93744,2.7933,-0.34369,-0.97444,2.7112,-0.18121,-0.057616,2.5208,-0.12975,-0.53032,2.5662,-0.12674,-0.91462,2.5611,-0.14074,-0.95163,2.479
-0.26285,0.015979,2.5506,-0.26456,0.083366,2.5773,-0.29456,0.43063,2.5729,-0.26332,0.60661,2.5242,-0.43716,0.31476,2.6153,-0.52702,0.092097,2.5847,-0.62492,-0.12539,2.4227,-0.65608,-0.19401,2.3652,-0.10213,0.30851,2.5571,-0.028117,0.048721,2.6125,0.0132,-0.18042,2.6091,0.073423,-0.27065,2.6633,-0.33251,-0.063315,2.5556,-0.32666,-0.56758,2.6687,-0.31699,-0.94212,2.8041,-0.33424,-0.99705,2.7663,-0.18315,-0.056197,2.5331,-0.1328,-0.52673,2.5704,-0.12711,-0.91422,2.5612,-0.14031,-0.95118,2.479
-0.26506,0.015593,2.5622,-0.26716,0.082836,2.589,-0.29794,0.42946,2.5862,-0.26436,0.6061,2.5361,-0.43971,0.31455,2.6279,-0.52836,0.10515,2.598,-0.61914,-0.1088,2.4158,-0.64654,-0.17589,2.3565,-0.11448,0.30895,2.5737,-0.048759,0.069665,2.6292,0.047601,-0.20897,2.6857,0.061351,-0.28,2.7138,-0.334,-0.06357,2.5652,-0.32498,-0.55559,2.683,-0.30574,-0.94377,2.8105,-0.33086,-1.0088,2.7814,-0.18602,-0.055759,2.5469,-0.13354,-0.52652,2.5722,-0.12679,-0.91291,2.5623,-0.13946,-0.94973,2.4799
-0.26786,0.016983,2.5755,-0.27028,0.083875,2.6032,-0.30244,0.4302,2.6033,-0.26872,0.60674,2.5497,-0.44331,0.31741,2.6448,-0.53294,0.096227,2.6051,-0.61524,-0.11044,2.4079,-0.63902,-0.17249,2.3444,-0.11552,0.30894,2.5913,-0.051464,0.067198,2.6411,0.036224,-0.20429,2.7049,0.057342,-0.28115,2.7227,-0.33635,-0.062632,2.5777,-0.32287,-0.54621,2.7086,-0.30024,-0.93844,2.8155,-0.32306,-1.0025,2.7768,-0.18855,-0.05353,2.5591,-0.1353,-0.52719,2.5763,-0.12512,-0.90816,2.5651,-0.13741,-0.94474,2.4825
-0.2711,0.016103,2.5865,-0.27299,0.082854,2.6139,-0.30451,0.42847,2.6142,-0.28028,0.60736,2.5671,-0.44606,0.31674,2.6557,-0.53198,0.10405,2.6261,-0.60394,-0.096483,2.4175,-0.62472,-0.15873,2.3501,-0.11964,0.30687,2.5987,-0.063986,0.049364,2.6892,0.026106,-0.21095,2.7289,0.042272,-0.29569,2.7488,-0.34009,-0.063967,2.5914,-0.32463,-0.53783,2.7272,-0.29942,-0.94008,2.818,-0.32333,-0.99875,2.7732,-0.19194,-0.053999,2.5683,-0.138,-0.52726,2.5865,-0.12473,-0.90988,2.5655,-0.1379,-0.94653,2.4832
-0.27176,0.01633,2.598,-0.27355,0.083051,2.625,-0.30503,0.42786,2.6238,-0.28468,0.60625,2.5754,-0.45169,0.3112,2.6741,-0.53079,0.1023,2.6338,-0.5903,-0.097451,2.4206,-0.59764,-0.15067,2.3554,-0.12273,0.3064,2.6151,-0.068301,0.044581,2.7004,0.014989,-0.20669,2.7334,0.021179,-0.2807,2.7431,-0.34091,-0.064631,2.6035,-0.32734,-0.53394,2.7377,-0.30037,-0.93977,2.8241,-0.31954,-0.99715,2.7781,-0.19227,-0.052934,2.5791,-0.13946,-0.52928,2.5955,-0.12535,-0.90874,2.5672,-0.13898,-0.94556,2.485
-0.27342,0.016541,2.6123,-0.2755,0.083101,2.6381,-0.30685,0.42638,2.6348,-0.29315,0.60367,2.5896,-0.45537,0.30814,2.6845,-0.52927,0.09742,2.6514,-0.58013,-0.098427,2.4321,-0.58477,-0.15398,2.3599,-0.13359,0.30898,2.6291,-0.067663,0.074489,2.693,0.0032455,-0.21235,2.74,0.0076828,-0.29184,2.743,-0.34223,-0.064688,2.6169,-0.32957,-0.53335,2.7507,-0.2987,-0.94724,2.8344,-0.31656,-1.0029,2.7863,-0.19434,-0.049874,2.5962,-0.14046,-0.52986,2.6017,-0.12592,-0.91025,2.5681,-0.13906,-0.94724,2.4859
