-0.19855,-0.13034,2.1208,-0.19042,-0.066321,2.1514,-0.20603,0.26769,2.1432,-0.23025,0.44167,2.1021,-0.32099,0.16725,2.2091,-0.29438,-0.032951,2.2837,-0.37063,-0.1829,2.2993,-0.40087,-0.22483,2.3211,-0.064109,0.17203,2.1206,-0.009778,-0.0008485,2.1969,-0.01686,-0.18628,2.2245,0.014725,-0.23041,2.2271,-0.25499,-0.19261,2.1368,-0.26962,-0.52395,2.132,-0.18549,-0.81781,2.1858,-0.22917,-0.88925,2.0668,-0.14146,-0.1891,2.0941,-0.13089,-0.56421,2.0971,-0.12018,-0.85735,2.1466,-0.14425,-0.90523,2.1105
-0.19877,-0.13024,2.1204,-0.19061,-0.06623,2.1509,-0.20628,0.26761,2.1427,-0.2283,0.44131,2.0999,-0.32097,0.16715,2.2087,-0.29414,-0.031996,2.2827,-0.37106,-0.18241,2.2994,-0.4013,-0.22434,2.3212,-0.06443,0.17159,2.12,-0.010032,-0.0011041,2.1959,-0.017114,-0.18654,2.2235,0.014471,-0.23066,2.2261,-0.25517,-0.19245,2.1363,-0.26948,-0.52405,2.1318,-0.18651,-0.81793,2.1847,-0.22921,-0.88905,2.0665,-0.14162,-0.18904,2.0938,-0.13124,-0.56392,2.0968,-0.12049,-0.85729,2.1467,-0.14062,-0.91959,2.1485
-0.19918,-0.12998,2.1201,-0.19119,-0.065935,2.1506,-0.20693,0.26794,2.1421,-0.2283,0.44113,2.0992,-0.32084,0.16834,2.207,-0.2933,-0.0329,2.2828,-0.36985,-0.1849,2.2978,-0.40009,-0.22684,2.3196,-0.064099,0.17194,2.1195,-0.010989,-0.0018316,2.1943,-0.018071,-0.18726,2.2219,0.013514,-0.23139,2.2245,-0.25557,-0.19203,2.1362,-0.25207,-0.55235,2.1362,-0.1865,-0.81793,2.1847,-0.21508,-0.95001,2.0726,-0.14209,-0.18888,2.0934,-0.13325,-0.56449,2.0978,-0.12052,-0.85705,2.1468,-0.12652,-0.9228,2.1395
-0.19947,-0.12961,2.1196,-0.19153,-0.065568,2.1501,-0.20719,0.26831,2.1415,-0.22873,0.44176,2.0982,-0.32049,0.16929,2.2055,-0.29277,-0.033326,2.2823,-0.36979,-0.18532,2.2975,-0.40003,-0.22725,2.3193,-0.064165,0.17293,2.1183,-0.011121,-0.0018721,2.1937,-0.018203,-0.1873,2.2213,0.013382,-0.23143,2.224,-0.25569,-0.19144,2.1359,-0.25212,-0.5523,2.1362,-0.18716,-0.81537,2.1841,-0.14881,-0.97906,2.1315,-0.14254,-0.1887,2.0929,-0.13462,-0.55162,2.0913,-0.12066,-0.85025,2.145,-0.12764,-0.8974,2.0967
-0.19979,-0.12968,2.1191,-0.19173,-0.065547,2.1493,-0.20744,0.26864,2.1405,-0.22923,0.44167,2.0981,-0.32096,0.16904,2.2046,-0.29335,-0.032261,2.2812,-0.37013,-0.18501,2.295,-0.40037,-0.22694,2.3168,-0.065912,0.17188,2.1166,-0.011645,-0.0024928,2.1919,-0.018727,-0.18792,2.2195,0.012858,-0.23205,2.2221,-0.25592,-0.19136,2.1357,-0.27147,-0.52294,2.1316,-0.18749,-0.81322,2.184,-0.2316,-0.88681,2.0666,-0.14297,-0.18891,2.0922,-0.13706,-0.56747,2.1001,-0.12029,-0.85775,2.1461,-0.14333,-0.8905,2.0764
-0.2001,-0.12974,2.1185,-0.19204,-0.065629,2.1486,-0.20775,0.26841,2.1397,-0.22962,0.44171,2.0976,-0.32114,0.16973,2.2039,-0.29426,-0.03122,2.2809,-0.37026,-0.18499,2.2934,-0.4005,-0.22692,2.3152,-0.066453,0.17183,2.1156,-0.011679,-0.0025201,2.1895,-0.018761,-0.18794,2.217,0.012824,-0.23208,2.2197,-0.25593,-0.19129,2.1352,-0.2715,-0.52258,2.1315,-0.20839,-0.8168,2.1599,-0.23032,-0.88593,2.0712,-0.14371,-0.18887,2.0913,-0.13366,-0.56433,2.0965,-0.11975,-0.85741,2.1464,-0.11126,-0.92071,2.1235
-0.20138,-0.13004,2.1181,-0.19303,-0.06591,2.148,-0.20798,0.26819,2.1392,-0.23091,0.44121,2.0961,-0.3213,0.16948,2.2035,-0.29411,-0.031982,2.281,-0.3705,-0.18584,2.2924,-0.40074,-0.22778,2.3142,-0.067123,0.17156,2.1149,-0.011835,-0.0032153,2.1871,-0.018916,-0.18864,2.2147,0.012668,-0.23278,2.2174,-0.25736,-0.1914,2.1351,-0.25277,-0.5515,2.1361,-0.21057,-0.78024,2.1793,-0.153,-0.9753,2.1251,-0.14531,-0.18928,2.0909,-0.13354,-0.56363,2.0962,-0.11956,-0.85745,2.1463,-0.11935,-0.92336,2.1288
-0.20229,-0.12963,2.1177,-0.19376,-0.065633,2.1475,-0.20799,0.26805,2.1385,-0.2309,0.44069,2.094,-0.32164,0.16931,2.2037,-0.29395,-0.03251,2.2809,-0.3747,-0.18083,2.296,-0.40493,-0.22276,2.3179,-0.066841,0.17135,2.1145,-0.012144,-0.0039661,2.1849,-0.019225,-0.18938,2.2125,0.012359,-0.23353,2.2151,-0.2586,-0.19116,2.1348,-0.27138,-0.522,2.1297,-0.21053,-0.78023,2.1792,-0.2298,-0.88407,2.0728,-0.14621,-0.18922,2.0907,-0.1338,-0.56421,2.0966,-0.11956,-0.85735,2.1462,-0.12258,-0.92333,2.1309
-0.20302,-0.12968,2.1174,-0.19452,-0.065664,2.147,-0.2085,0.26777,2.1377,-0.2314,0.44069,2.0931,-0.32182,0.16969,2.2033,-0.29353,-0.03302,2.2807,-0.37527,-0.18073,2.2972,-0.40551,-0.22266,2.319,-0.06691,0.17108,2.114,-0.012303,-0.004165,2.1839,-0.019384,-0.18958,2.2115,0.0122,-0.23373,2.2141,-0.25926,-0.19111,2.1348,-0.27126,-0.52228,2.1294,-0.19381,-0.79847,2.1801,-0.22926,-0.88462,2.0728,-0.14702,-0.18936,2.0903,-0.13343,-0.56324,2.0956,-0.11975,-0.85729,2.1459,-0.11635,-0.91844,2.1179
-0.2036,-0.12971,2.117,-0.1953,-0.065579,2.1462,-0.20956,0.2679,2.1365,-0.23176,0.44085,2.0917,-0.32218,0.16971,2.2026,-0.29235,-0.033851,2.2792,-0.37584,-0.18127,2.2977,-0.40607,-0.2232,2.3195,-0.067034,0.1713,2.1135,-0.013311,-0.0046287,2.1824,-0.020392,-0.19004,2.21,0.011192,-0.23419,2.2127,-0.25976,-0.191,2.1343,-0.27102,-0.52243,2.1291,-0.19041,-0.80462,2.1819,-0.22888,-0.88503,2.0728,-0.14749,-0.18948,2.0901,-0.13333,-0.56081,2.0942,-0.11999,-0.85697,2.1459,-0.11135,-0.91586,2.1156
-0.20389,-0.12951,2.1164,-0.1956,-0.065195,2.145,-0.21004,0.26796,2.1339,-0.23191,0.44043,2.0901,-0.32306,0.17005,2.2021,-0.29149,-0.035485,2.2789,-0.3766,-0.17995,2.2971,-0.40683,-0.22187,2.3189,-0.068479,0.17193,2.1114,-0.015221,-0.0045293,2.181,-0.022302,-0.18994,2.2086,0.0092821,-0.23409,2.2112,-0.25996,-0.19083,2.134,-0.27092,-0.52218,2.1288,-0.1898,-0.80701,2.1816,-0.23011,-0.88469,2.0737,-0.14782,-0.18918,2.0896,-0.13658,-0.56432,2.097,-0.1201,-0.85705,2.1458,-0.1302,-0.92107,2.1363
-0.20463,-0.13008,2.1158,-0.19626,-0.065521,2.1437,-0.21093,0.26829,2.1323,-0.23239,0.44109,2.0894,-0.32361,0.17007,2.2013,-0.29132,-0.035819,2.2785,-0.37672,-0.17691,2.2933,-0.40696,-0.21884,2.3151,-0.070862,0.17135,2.1087,-0.015831,-0.0046385,2.1805,-0.022912,-0.19004,2.2081,0.0086725,-0.2342,2.2107,-0.26011,-0.19101,2.1339,-0.27099,-0.52212,2.1287,-0.1897,-0.81107,2.1814,-0.23144,-0.88484,2.0743,-0.14937,-0.18956,2.0884,-0.13656,-0.56445,2.0967,-0.12027,-0.85639,2.1454,-0.11782,-0.96919,2.1186
-0.20518,-0.13104,2.1145,-0.19614,-0.066277,2.1419,-0.2111,0.26829,2.1316,-0.23297,0.43994,2.0867,-0.32429,0.16979,2.2,-0.29111,-0.034392,2.276,-0.37768,-0.17001,2.2863,-0.40792,-0.21194,2.3081,-0.078765,0.16912,2.1032,-0.016336,-0.0048423,2.1799,-0.023416,-0.19024,2.2075,0.0081674,-0.2344,2.2101,-0.25988,-0.19186,2.1328,-0.27106,-0.52218,2.1287,-0.18965,-0.81105,2.1814,-0.23482,-0.88501,2.0758,-0.15017,-0.18996,2.087,-0.13729,-0.56591,2.0973,-0.12054,-0.85626,2.1456,-0.14282,-0.92261,2.1533
-0.2059,-0.13108,2.1137,-0.19688,-0.066363,2.1409,-0.2111,0.26817,2.1307,-0.23286,0.44023,2.086,-0.32468,0.16981,2.1994,-0.29302,-0.031947,2.2733,-0.37767,-0.1706,2.2856,-0.40791,-0.21253,2.3074,-0.078566,0.16888,2.1027,-0.016662,-0.0052188,2.1795,-0.023742,-0.19062,2.2071,0.0078414,-0.23478,2.2097,-0.26075,-0.19176,2.132,-0.26054,-0.54686,2.1351,-0.19037,-0.8581,2.1664,-0.18157,-0.9112,2.1216,-0.15094,-0.18996,2.0863,-0.13651,-0.56401,2.0954,-0.11516,-0.8093,2.1536,-0.14545,-0.88389,2.0742
-0.20702,-0.13059,2.1129,-0.19827,-0.066095,2.1401,-0.2109,0.26775,2.1297,-0.2328,0.43949,2.0857,-0.32504,0.17015,2.1988,-0.29391,-0.030599,2.272,-0.37772,-0.17018,2.2849,-0.40795,-0.21211,2.3067,-0.071296,0.16855,2.1042,-0.016703,-0.0051972,2.1793,-0.023783,-0.19059,2.2069,0.0078002,-0.23476,2.2095,-0.26223,-0.19126,2.1314,-0.26149,-0.54666,2.1352,-0.18987,-0.86301,2.1685,-0.21679,-0.93578,2.0805,-0.15235,-0.18984,2.0855,-0.13669,-0.54401,2.084,-0.11521,-0.80924,2.1536,-0.15559,-0.87845,2.1111
-0.20745,-0.13034,2.1123,-0.1987,-0.065969,2.1394,-0.21067,0.26743,2.129,-0.23286,0.43904,2.0854,-0.32509,0.17032,2.1985,-0.29583,-0.027216,2.271,-0.37779,-0.17017,2.2844,-0.40803,-0.2121,2.3062,-0.070494,0.16904,2.1042,-0.016878,-0.0051104,2.1785,-0.023959,-0.1905,2.206,0.0076249,-0.23467,2.2087,-0.263,-0.19094,2.1307,-0.2605,-0.54727,2.1348,-0.19046,-0.86259,2.1679,-0.15353,-0.97615,2.1304,-0.15263,-0.18984,2.0849,-0.13818,-0.5659,2.095,-0.11723,-0.85308,2.144,-0.15341,-0.90141,2.1222
-0.20769,-0.13041,2.1112,-0.19901,-0.066108,2.1383,-0.21045,0.26724,2.1282,-0.23259,0.43954,2.0854,-0.32531,0.17055,2.1977,-0.29651,-0.026584,2.2705,-0.37791,-0.17023,2.2824,-0.40814,-0.21215,2.3042,-0.069317,0.17009,2.104,-0.017604,-0.0039472,2.1769,-0.024684,-0.18933,2.2045,0.0068991,-0.23351,2.2072,-0.26343,-0.19173,2.1292,-0.25972,-0.54756,2.1341,-0.19117,-0.8634,2.167,-0.15032,-0.97798,2.134,-0.15277,-0.18968,2.0844,-0.14023,-0.57671,2.1008,-0.11732,-0.85318,2.144,-0.14154,-0.88612,2.0748
-0.20749,-0.12875,2.1099,-0.19888,-0.064827,2.1369,-0.21009,0.26732,2.1268,-0.23251,0.43973,2.0851,-0.32579,0.17142,2.197,-0.29481,-0.029615,2.2708,-0.37804,-0.16913,2.2819,-0.40828,-0.21106,2.3038,-0.068016,0.17124,2.103,-0.017632,-0.0040402,2.1769,-0.024712,-0.18942,2.2045,0.0068716,-0.2336,2.2071,-0.2638,-0.19048,2.1281,-0.24489,-0.54857,2.1261,-0.19085,-0.86533,2.1658,-0.14832,-0.97885,2.1346,-0.15195,-0.18878,2.0829,-0.1411,-0.57378,2.0989,-0.11772,-0.85363,2.1441,-0.14727,-0.8985,2.1166
-0.20797,-0.12823,2.1091,-0.19934,-0.064363,2.1361,-0.21018,0.26762,2.1262,-0.23239,0.43964,2.085,-0.32599,0.17285,2.1952,-0.29544,-0.027753,2.271,-0.37782,-0.16946,2.2813,-0.40806,-0.21139,2.3031,-0.068477,0.17148,2.1019,-0.018036,-0.0042666,2.1769,-0.025116,-0.18964,2.2045,0.0064669,-0.23383,2.2071,-0.26438,-0.1896,2.127,-0.25034,-0.552,2.1293,-0.18844,-0.81384,2.1802,-0.14752,-0.98233,2.1423,-0.15245,-0.18842,2.0823,-0.14171,-0.57371,2.0985,-0.11785,-0.85459,2.1446,-0.13599,-0.91681,2.1405
-0.20819,-0.12816,2.1081,-0.19957,-0.064244,2.1352,-0.21043,0.26792,2.1252,-0.23206,0.44269,2.0842,-0.32609,0.17343,2.1941,-0.29621,-0.025494,2.27,-0.37792,-0.16988,2.2814,-0.40816,-0.2118,2.3032,-0.069057,0.17192,2.101,-0.018105,-0.0042288,2.1768,-0.025185,-0.1896,2.2044,0.0063982,-0.23379,2.207,-0.26436,-0.18928,2.1261,-0.25317,-0.55221,2.13,-0.18942,-0.81273,2.1798,-0.14758,-0.98274,2.1428,-0.15301,-0.18818,2.0813,-0.14312,-0.57195,2.0972,-0.11834,-0.85499,2.1446,-0.13446,-0.91862,2.1333
-0.20876,-0.1282,2.1073,-0.2001,-0.064232,2.1344,-0.21075,0.26819,2.1244,-0.23227,0.44421,2.0838,-0.32609,0.17386,2.193,-0.29651,-0.022383,2.2684,-0.37792,-0.16989,2.2813,-0.40816,-0.21181,2.3031,-0.069402,0.17216,2.1001,-0.018175,-0.0044083,2.1769,-0.025255,-0.18978,2.2045,0.0063282,-0.23397,2.2072,-0.26498,-0.18895,2.1253,-0.25394,-0.55207,2.1302,-0.19106,-0.86422,2.1639,-0.14745,-0.98153,2.1408,-0.15366,-0.18831,2.0805,-0.14352,-0.57061,2.0958,-0.11854,-0.85522,2.1442,-0.10501,-0.90641,2.1102
-0.20971,-0.12842,2.1065,-0.20105,-0.064376,2.1338,-0.2109,0.26852,2.1241,-0.23181,0.4461,2.0841,-0.32485,0.17471,2.189,-0.29462,-0.028567,2.2681,-0.37604,-0.16933,2.2768,-0.40627,-0.21125,2.2986,-0.070242,0.17216,2.0993,-0.018586,-0.00484,2.1774,-0.025665,-0.19021,2.205,0.0059171,-0.2344,2.2076,-0.26568,-0.18868,2.1244,-0.26556,-0.54594,2.1317,-0.18951,-0.81272,2.1797,-0.22247,-0.93336,2.0759,-0.15521,-0.18819,2.0798,-0.14441,-0.56979,2.0946,-0.11881,-0.85511,2.1439,-0.12766,-0.92002,2.1261
-0.2107,-0.12971,2.1057,-0.20215,-0.065323,2.1333,-0.21097,0.26866,2.1236,-0.23174,0.44599,2.0839,-0.32227,0.17673,2.1835,-0.29535,-0.029274,2.268,-0.37095,-0.16601,2.2673,-0.40119,-0.20793,2.2891,-0.0707,0.17233,2.0988,-0.019296,-0.0057774,2.1781,-0.026376,-0.19114,2.2056,0.005207,-0.23534,2.2083,-0.2661,-0.18935,2.1234,-0.26363,-0.54933,2.1315,-0.19569,-0.90731,2.1473,-0.14856,-0.97956,2.138,-0.15676,-0.18851,2.0794,-0.14085,-0.56554,2.0889,-0.1193,-0.85603,2.1439,-0.12981,-0.92036,2.1263
-0.21117,-0.12998,2.1053,-0.20247,-0.065486,2.133,-0.21092,0.26895,2.1233,-0.23174,0.44612,2.084,-0.32205,0.1768,2.183,-0.29619,-0.029582,2.2675,-0.37044,-0.16598,2.2663,-0.40068,-0.20791,2.2881,-0.071156,0.17307,2.0985,-0.019401,-0.0058109,2.1784,-0.02648,-0.19117,2.2059,0.0051027,-0.23537,2.2086,-0.26648,-0.18969,2.1229,-0.26223,-0.55226,2.1315,-0.18955,-0.81285,2.1797,-0.14647,-0.97973,2.1371,-0.15741,-0.18819,2.0792,-0.14287,-0.56594,2.089,-0.12011,-0.85644,2.1437,-0.13307,-0.92055,2.1252
-0.21187,-0.13042,2.105,-0.20302,-0.065852,2.1328,-0.21103,0.2691,2.123,-0.23152,0.44643,2.084,-0.32192,0.17709,2.1827,-0.2997,-0.038494,2.2675,-0.37006,-0.16545,2.2658,-0.4003,-0.20737,2.2876,-0.07142,0.17291,2.0981,-0.019391,-0.0061163,2.1785,-0.02647,-0.19148,2.2061,0.0051122,-0.23568,2.2088,-0.26708,-0.19014,2.1227,-0.2617,-0.55346,2.1313,-0.18966,-0.81286,2.1796,-0.14853,-0.97638,2.1239,-0.15845,-0.18835,2.0789,-0.14256,-0.56418,2.087,-0.1211,-0.85832,2.1434,-0.13332,-0.92226,2.124
-0.21225,-0.13054,2.1051,-0.20312,-0.065925,2.1329,-0.21104,0.26917,2.1229,-0.23163,0.4475,2.0844,-0.32267,0.1761,2.1841,-0.30453,-0.037258,2.265,-0.37259,-0.17543,2.2695,-0.40282,-0.21735,2.2913,-0.071483,0.17285,2.0978,-0.01949,-0.0061314,2.178,-0.026569,-0.19149,2.2056,0.0050131,-0.23569,2.2082,-0.2675,-0.19025,2.1231,-0.27823,-0.53259,2.126,-0.19782,-0.84033,2.1607,-0.23217,-0.90034,2.0719,-0.15908,-0.18868,2.0787,-0.14472,-0.54727,2.0777,-0.12484,-0.88058,2.1299,-0.14543,-0.89515,2.0989
-0.2128,-0.13075,2.1054,-0.20306,-0.066066,2.1331,-0.21107,0.26919,2.1229,-0.23172,0.44743,2.0844,-0.3244,0.1741,2.1892,-0.31703,-0.063375,2.2576,-0.33781,-0.26834,2.2506,-0.34143,-0.32485,2.2591,-0.072076,0.17251,2.0973,-0.020913,-0.041777,2.1759,-0.027992,-0.22714,2.2035,0.0035901,-0.27134,2.2061,-0.26791,-0.19126,2.1242,-0.26204,-0.55754,2.1316,-0.19177,-0.86775,2.164,-0.15035,-0.97607,2.1278,-0.15986,-0.18882,2.0786,-0.14565,-0.54781,2.0774,-0.11901,-0.81559,2.1498,-0.14658,-0.8951,2.0983
-0.21294,-0.13061,2.1055,-0.20302,-0.065898,2.1332,-0.21123,0.26959,2.1231,-0.23206,0.44691,2.0847,-0.32594,0.17211,2.1926,-0.31914,-0.064209,2.2547,-0.34489,-0.26645,2.2464,-0.34638,-0.32299,2.2553,-0.071107,0.17242,2.0974,-0.021549,-0.048668,2.1726,-0.028628,-0.23403,2.2001,0.0029544,-0.27823,2.2028,-0.26802,-0.19165,2.1245,-0.26269,-0.5625,2.1326,-0.1901,-0.8162,2.1781,-0.14693,-0.97828,2.1313,-0.15978,-0.18878,2.0784,-0.14841,-0.57085,2.0902,-0.12432,-0.86198,2.1433,-0.13476,-0.91157,2.0995
-0.21288,-0.13083,2.1055,-0.20263,-0.066118,2.1334,-0.211,0.27001,2.124,-0.23155,0.44656,2.085,-0.32766,0.16702,2.1967,-0.32744,-0.06536,2.2502,-0.37742,-0.26061,2.2256,-0.38353,-0.32819,2.2121,-0.07104,0.17185,2.0974,0.024189,-0.045647,2.1486,-8.345e-05,-0.24648,2.1565,0.013696,-0.31852,2.176,-0.26837,-0.19267,2.1244,-0.2628,-0.56222,2.1323,-0.19138,-0.86664,2.1628,-0.15042,-0.9753,2.1263,-0.15955,-0.18923,2.078,-0.1444,-0.56526,2.0853,-0.12145,-0.81564,2.1493,-0.14876,-0.89081,2.07
-0.21108,-0.13039,2.1042,-0.20099,-0.065936,2.1328,-0.21116,0.27053,2.125,-0.23133,0.4454,2.0858,-0.33058,0.16714,2.2028,-0.33822,-0.066052,2.2454,-0.39976,-0.26219,2.2385,-0.40152,-0.32481,2.1989,-0.071827,0.17074,2.0975,0.020328,-0.05142,2.1388,0.032375,-0.24607,2.122,0.043394,-0.31704,2.1214,-0.26688,-0.19339,2.1228,-0.26278,-0.56267,2.1319,-0.18868,-0.86724,2.1635,-0.14785,-0.97974,2.1317,-0.15502,-0.18919,2.0743,-0.14821,-0.56752,2.0873,-0.12469,-0.8593,2.1398,-0.15185,-0.93581,2.0598
-0.21099,-0.13043,2.1037,-0.20039,-0.067158,2.1328,-0.20984,0.24341,2.1267,-0.22867,0.43395,2.0907,-0.33188,0.16637,2.2043,-0.37332,-0.072661,2.253,-0.42499,-0.26777,2.2169,-0.43833,-0.32698,2.1983,-0.072681,0.16962,2.0974,0.0099652,-0.060718,2.1191,0.039408,-0.2577,2.0883,0.04372,-0.32174,2.0728,-0.26692,-0.19423,2.1217,-0.28697,-0.53213,2.1246,-0.19524,-0.83279,2.1575,-0.22333,-0.88958,2.0688,-0.15512,-0.18941,2.0734,-0.14678,-0.56469,2.0847,-0.12496,-0.85974,2.1404,-0.1425,-0.90926,2.102
-0.21147,-0.13053,2.1036,-0.2003,-0.067384,2.1338,-0.21156,0.27013,2.1321,-0.23089,0.44444,2.0878,-0.33377,0.16395,2.2055,-0.37854,-0.074038,2.2532,-0.43844,-0.25678,2.2095,-0.45757,-0.31606,2.1861,-0.074011,0.16709,2.0972,0.017208,-0.06077,2.1146,0.048402,-0.24178,2.0535,0.046684,-0.30413,2.0234,-0.26852,-0.19538,2.1219,-0.28647,-0.53133,2.1243,-0.19526,-0.8299,2.158,-0.22403,-0.88828,2.0691,-0.15574,-0.18984,2.0727,-0.14654,-0.56481,2.0844,-0.12541,-0.85995,2.1406,-0.1301,-0.92675,2.128
-0.21158,-0.13061,2.1035,-0.20001,-0.067582,2.1346,-0.21144,0.27007,2.1329,-0.23094,0.44304,2.0894,-0.33452,0.16329,2.2061,-0.38179,-0.068142,2.2522,-0.4664,-0.24169,2.1909,-0.49184,-0.29719,2.1614,-0.074189,0.16615,2.0977,0.026301,-0.057525,2.1068,0.05779,-0.23048,2.0323,0.047488,-0.29116,1.9831,-0.26879,-0.19561,2.1217,-0.26165,-0.56401,2.1315,-0.18617,-0.86389,2.163,-0.15057,-0.98015,2.1221,-0.15586,-0.19003,2.0723,-0.14723,-0.56748,2.0869,-0.12514,-0.86045,2.1418,-0.13016,-0.92693,2.1284
-0.21159,-0.13061,2.1035,-0.19968,-0.067635,2.1355,-0.21151,0.27001,2.1332,-0.23062,0.44338,2.0909,-0.33533,0.16218,2.2068,-0.38533,-0.066886,2.2494,-0.47975,-0.22871,2.1757,-0.51097,-0.28366,2.1458,-0.074096,0.16597,2.0981,0.031315,-0.048954,2.102,0.044734,-0.20533,1.9922,0.04604,-0.26448,1.9536,-0.26887,-0.1958,2.1217,-0.26119,-0.56386,2.1315,-0.19259,-0.80627,2.1762,-0.14839,-0.98044,2.1263,-0.15579,-0.19005,2.0723,-0.14997,-0.5722,2.0913,-0.1252,-0.86164,2.1422,-0.13138,-0.92796,2.1288
-0.212,-0.13015,2.1037,-0.19975,-0.067243,2.1367,-0.21162,0.27,2.1334,-0.23342,0.44346,2.0934,-0.33632,0.16162,2.2077,-0.38817,-0.065364,2.2476,-0.48935,-0.21931,2.1672,-0.52782,-0.26595,2.1311,-0.074192,0.16642,2.0984,0.03252,-0.038787,2.096,0.038325,-0.19067,1.9749,0.035848,-0.24746,1.9242,-0.26961,-0.19548,2.122,-0.28409,-0.53088,2.1252,-0.19554,-0.83163,2.1583,-0.22401,-0.88922,2.0705,-0.15594,-0.18993,2.0724,-0.15081,-0.57334,2.0923,-0.12513,-0.8613,2.1422,-0.14254,-0.91029,2.0986
-0.21315,-0.12922,2.105,-0.20054,-0.066423,2.1383,-0.21232,0.26988,2.1333,-0.23716,0.44342,2.0945,-0.33786,0.1606,2.2097,-0.38879,-0.065582,2.2465,-0.49444,-0.21181,2.1615,-0.53645,-0.25112,2.1233,-0.072435,0.16727,2.0985,0.029587,-0.028678,2.085,0.031464,-0.17458,1.9554,0.028057,-0.23178,1.9044,-0.27148,-0.19544,2.1247,-0.25527,-0.55476,2.1243,-0.17989,-0.91191,2.1497,-0.15204,-0.97555,2.1248,-0.15674,-0.18976,2.073,-0.15297,-0.57542,2.0946,-0.12514,-0.86103,2.143,-0.14314,-0.90968,2.0986
-0.21439,-0.12812,2.1068,-0.20148,-0.065301,2.14,-0.21451,0.26955,2.1329,-0.2405,0.44288,2.0952,-0.33922,0.15932,2.2113,-0.38905,-0.064533,2.2457,-0.49425,-0.19791,2.1554,-0.53239,-0.23625,2.1185,-0.072606,0.16778,2.0975,0.027927,-0.022972,2.0793,0.023407,-0.1606,1.9434,0.018055,-0.21494,1.8896,-0.27289,-0.19415,2.1287,-0.25899,-0.55314,2.126,-0.17636,-0.91146,2.1517,-0.20347,-0.94428,2.0819,-0.15764,-0.18985,2.0738,-0.15367,-0.57691,2.0962,-0.12507,-0.86127,2.143,-0.14226,-0.91026,2.0991
-0.21543,-0.12743,2.108,-0.20204,-0.064529,2.1405,-0.21726,0.26872,2.1317,-0.25163,0.43996,2.094,-0.34138,0.15612,2.214,-0.38844,-0.063832,2.2441,-0.4951,-0.19585,2.1531,-0.53485,-0.23467,2.1121,-0.075393,0.16867,2.0938,0.027245,-0.017742,2.0694,0.016809,-0.15684,1.936,0.0078215,-0.20909,1.8807,-0.27401,-0.19407,2.1324,-0.26937,-0.55235,2.1381,-0.18655,-0.86042,2.1636,-0.20688,-0.94539,2.0829,-0.1583,-0.18986,2.0741,-0.16827,-0.58188,2.1075,-0.12498,-0.86081,2.1429,-0.13298,-0.97296,2.1146
-0.21852,-0.12733,2.1103,-0.20481,-0.063932,2.1412,-0.2254,0.26696,2.1294,-0.26504,0.43727,2.0934,-0.34221,0.15673,2.216,-0.38701,-0.06282,2.2429,-0.49348,-0.19312,2.1487,-0.52963,-0.2286,2.1077,-0.083639,0.16968,2.0863,0.022861,-0.0071668,2.0563,0.0053528,-0.15106,1.9292,-0.0054972,-0.20489,1.8757,-0.27633,-0.19432,2.1385,-0.27962,-0.55159,2.1486,-0.18693,-0.86005,2.1639,-0.21203,-0.94429,2.085,-0.16153,-0.18994,2.0746,-0.16915,-0.58265,2.1091,-0.12332,-0.81485,2.1509,-0.14503,-0.90977,2.1002
-0.22115,-0.12766,2.1116,-0.20679,-0.063884,2.1403,-0.22973,0.26603,2.1263,-0.27525,0.43353,2.0941,-0.34405,0.15728,2.2186,-0.38479,-0.06126,2.2444,-0.48842,-0.19126,2.1463,-0.52459,-0.22727,2.1032,-0.092743,0.17074,2.0788,0.017562,-0.0037245,2.0488,-2.2878e-05,-0.15295,1.9256,-0.013257,-0.20686,1.8728,-0.27797,-0.19493,2.1419,-0.28405,-0.54699,2.1581,-0.18916,-0.85647,2.1641,-0.22076,-0.93721,2.0875,-0.16504,-0.1902,2.075,-0.16955,-0.58798,2.1141,-0.10031,-0.80541,2.1527,-0.13427,-0.91752,2.1364
-0.22385,-0.12809,2.1124,-0.20997,-0.063985,2.1391,-0.23708,0.26414,2.1235,-0.28655,0.43052,2.0915,-0.34589,0.15646,2.2195,-0.38075,-0.062561,2.2448,-0.48017,-0.19401,2.1441,-0.51257,-0.22789,2.1048,-0.099753,0.17099,2.0721,0.013104,-0.00089243,2.0433,-0.0066032,-0.15438,1.9265,-0.025172,-0.21067,1.878,-0.2794,-0.19624,2.1448,-0.28419,-0.54709,2.162,-0.18896,-0.86038,2.1663,-0.22461,-0.93983,2.0881,-0.16872,-0.19072,2.0737,-0.16958,-0.58743,2.115,-0.11516,-0.80882,2.1556,-0.14913,-0.90669,2.1154
-0.22739,-0.1292,2.1131,-0.21408,-0.064666,2.1371,-0.24431,0.26236,2.1194,-0.30307,0.42443,2.0882,-0.34793,0.15677,2.2189,-0.37386,-0.070525,2.2414,-0.46946,-0.20532,2.1416,-0.49601,-0.22931,2.1083,-0.10947,0.17065,2.0626,0.0041028,-0.0032115,2.0345,-0.018273,-0.16427,1.9235,-0.040054,-0.22443,1.8817,-0.2809,-0.19802,2.1482,-0.28319,-0.54641,2.1662,-0.191,-0.87899,2.1719,-0.22908,-0.94022,2.0905,-0.17376,-0.19187,2.0723,-0.16411,-0.58272,2.1079,-0.11832,-0.80984,2.1555,-0.1225,-0.92201,2.129
-0.23125,-0.13066,2.1131,-0.22014,-0.065591,2.1343,-0.2551,0.25957,2.1127,-0.31261,0.42404,2.0869,-0.35156,0.16139,2.2086,-0.36878,-0.064271,2.2405,-0.45447,-0.21071,2.1501,-0.48583,-0.23393,2.1112,-0.1201,0.16944,2.0545,-0.001549,-0.0093524,2.0264,-0.02595,-0.17483,1.9285,-0.047761,-0.23495,1.89,-0.28217,-0.19928,2.1501,-0.28206,-0.54711,2.1697,-0.19318,-0.87928,2.1715,-0.23644,-0.94197,2.0923,-0.17811,-0.19268,2.0716,-0.16443,-0.581,2.1072,-0.11987,-0.80955,2.1545,-0.12605,-0.92625,2.1345
-0.23663,-0.13427,2.1126,-0.22693,-0.068666,2.1304,-0.26544,0.25708,2.1082,-0.32374,0.42221,2.0837,-0.35342,0.16103,2.2063,-0.36211,-0.064301,2.2376,-0.44409,-0.2263,2.1554,-0.46833,-0.2404,2.1196,-0.13641,0.16489,2.0466,-0.015963,-0.019827,2.0179,-0.031692,-0.18854,1.9307,-0.053293,-0.24548,1.903,-0.28407,-0.201,2.151,-0.27985,-0.55045,2.1738,-0.1926,-0.88341,2.1721,-0.23945,-0.9509,2.097,-0.18372,-0.19488,2.0709,-0.16328,-0.5805,2.1046,-0.12129,-0.80899,2.1539,-0.14049,-0.92071,2.1358
-0.23992,-0.13576,2.111,-0.23188,-0.070002,2.1266,-0.27221,0.25553,2.1055,-0.33269,0.42006,2.0816,-0.31984,0.15728,2.2234,-0.32444,-0.044523,2.2502,-0.43107,-0.23252,2.1644,-0.4574,-0.24648,2.1285,-0.14281,0.165,2.042,-0.022699,-0.023058,2.0133,-0.035819,-0.20047,1.9454,-0.05924,-0.25355,1.9145,-0.28565,-0.20212,2.1506,-0.27886,-0.55093,2.1749,-0.19212,-0.88511,2.1723,-0.23922,-0.95478,2.0982,-0.18708,-0.19558,2.0688,-0.16298,-0.57813,2.0961,-0.12593,-0.8091,2.1529,-0.14974,-0.9065,2.1075
-0.24371,-0.13714,2.1092,-0.23739,-0.071194,2.1226,-0.27985,0.25411,2.1013,-0.34438,0.41663,2.0784,-0.36188,0.16121,2.204,-0.32195,-0.044871,2.2514,-0.42446,-0.23674,2.1694,-0.45046,-0.25409,2.1375,-0.15035,0.16472,2.0374,-0.029651,-0.026346,2.0111,-0.04496,-0.20693,1.9487,-0.064276,-0.26076,1.9263,-0.28815,-0.20343,2.15,-0.27764,-0.55885,2.1749,-0.19149,-0.88851,2.1725,-0.2374,-0.96223,2.1008,-0.19065,-0.19662,2.0667,-0.16534,-0.57708,2.0873,-0.13222,-0.80965,2.1474,-0.17755,-0.93093,2.0399
-0.24849,-0.13731,2.1058,-0.24391,-0.07138,2.1179,-0.28907,0.25308,2.0985,-0.35293,0.41666,2.0752,-0.33069,0.15508,2.2203,-0.3211,-0.052951,2.2517,-0.41324,-0.24161,2.1811,-0.44092,-0.26116,2.15,-0.15785,0.16518,2.0331,-0.0352,-0.035294,2.0063,-0.051794,-0.21505,1.9503,-0.066007,-0.26703,1.9347,-0.29215,-0.20364,2.147,-0.27817,-0.56122,2.174,-0.19095,-0.88712,2.1725,-0.23482,-0.96067,2.1026,-0.19479,-0.19607,2.0632,-0.17196,-0.56011,2.0626,-0.14136,-0.80525,2.1326,-0.15577,-0.88744,2.0569
-0.25712,-0.1488,2.1077,-0.25459,-0.086628,2.1176,-0.29767,0.21797,2.0937,-0.36365,0.40118,2.0712,-0.37539,0.15933,2.1946,-0.32137,-0.051406,2.2524,-0.4134,-0.24757,2.1812,-0.4313,-0.30187,2.1627,-0.16397,0.16494,2.031,-0.047553,-0.053395,2.0009,-0.056213,-0.23437,1.9495,-0.066759,-0.26763,1.9379,-0.2977,-0.22322,2.1497,-0.28071,-0.57912,2.1738,-0.19202,-0.88633,2.1721,-0.15676,-0.97832,2.1265,-0.20639,-0.20182,2.0671,-0.18254,-0.55791,2.0456,-0.1457,-0.79876,2.1123,-0.1589,-0.88815,2.0532
-0.26072,-0.14593,2.1048,-0.25914,-0.083876,2.1131,-0.30207,0.221,2.0906,-0.37315,0.40224,2.0647,-0.38193,0.16119,2.1916,-0.32499,-0.063961,2.248,-0.41288,-0.24893,2.1819,-0.43053,-0.30437,2.1631,-0.16895,0.16563,2.0277,-0.054595,-0.053989,2.0012,-0.066844,-0.23647,1.9556,-0.070436,-0.28778,1.9322,-0.30199,-0.21282,2.1463,-0.28736,-0.5693,2.1666,-0.19337,-0.8858,2.1718,-0.23141,-0.95538,2.1041,-0.20922,-0.20105,2.0642,-0.19487,-0.54754,2.0137,-0.15647,-0.83603,2.0703,-0.20647,-0.92156,2.0066
-0.26227,-0.1409,2.0942,-0.26278,-0.076964,2.1017,-0.31282,0.24485,2.083,-0.3831,0.40482,2.0543,-0.35175,0.15307,2.2049,-0.32735,-0.058299,2.2454,-0.40899,-0.24125,2.1837,-0.44219,-0.27718,2.1509,-0.17171,0.16495,2.0247,-0.057212,-0.054561,2.0012,-0.069116,-0.2388,1.955,-0.071326,-0.29036,1.9317,-0.30229,-0.2075,2.1313,-0.30639,-0.54648,2.1532,-0.19238,-0.89353,2.1577,-0.23989,-0.93164,2.1032,-0.20928,-0.19783,2.0559,-0.20481,-0.54388,1.9963,-0.17747,-0.8632,2.0164,-0.22498,-0.90131,1.9619
-0.26542,-0.13663,2.0849,-0.26696,-0.073137,2.0927,-0.31746,0.2445,2.0792,-0.38968,0.40316,2.0456,-0.3587,0.15288,2.1975,-0.33796,-0.072497,2.2286,-0.41149,-0.24539,2.1779,-0.44436,-0.27988,2.1433,-0.17773,0.1645,2.0184,-0.059115,-0.052465,2.0003,-0.073966,-0.23844,1.951,-0.075374,-0.28959,1.9274,-0.30503,-0.20527,2.1233,-0.31039,-0.54537,2.1488,-0.19579,-0.89314,2.1572,-0.24349,-0.93139,2.103,-0.21062,-0.19268,2.0445,-0.21498,-0.53862,1.9752,-0.19768,-0.84111,1.9676,-0.24538,-0.87936,1.9134
-0.27035,-0.13382,2.0733,-0.2729,-0.07069,2.081,-0.32405,0.24341,2.0704,-0.39809,0.39936,2.0326,-0.36598,0.15309,2.1866,-0.34605,-0.079577,2.2137,-0.41709,-0.24848,2.1627,-0.44665,-0.28198,2.13,-0.18153,0.1642,2.0126,-0.059276,-0.050559,1.9991,-0.07881,-0.23758,1.9461,-0.080595,-0.28693,1.9195,-0.31091,-0.20305,2.111,-0.31633,-0.54033,2.1414,-0.18399,-0.85489,2.1844,-0.24556,-0.92585,2.102,-0.21366,-0.18945,2.0328,-0.21979,-0.53829,1.961,-0.21219,-0.83074,1.9254,-0.25877,-0.86889,1.8702
-0.27539,-0.1358,2.0663,-0.27825,-0.072381,2.0733,-0.32835,0.24169,2.062,-0.40385,0.39712,2.0233,-0.37226,0.15222,2.1775,-0.35102,-0.086127,2.2016,-0.42672,-0.24596,2.1392,-0.45611,-0.27756,2.1068,-0.18483,0.1628,2.0042,-0.061573,-0.051019,1.9967,-0.085354,-0.23641,1.9392,-0.080677,-0.28061,1.9068,-0.31702,-0.20854,2.1017,-0.32037,-0.54123,2.1344,-0.18636,-0.85509,2.1794,-0.24707,-0.9226,2.1011,-0.21847,-0.18968,2.028,-0.22507,-0.53358,1.9435,-0.23359,-0.8156,1.8819,-0.28009,-0.85352,1.8264
-0.28145,-0.13523,2.053,-0.28515,-0.072393,2.0597,-0.33572,0.23874,2.0506,-0.41122,0.39518,2.0089,-0.37845,0.14831,2.1654,-0.3556,-0.087185,2.1914,-0.4339,-0.24147,2.1238,-0.46207,-0.27753,2.0948,-0.18968,0.16241,1.9937,-0.067015,-0.050332,1.9856,-0.085476,-0.23096,1.9339,-0.08336,-0.27984,1.9078,-0.32413,-0.20616,2.0882,-0.32506,-0.53647,2.1209,-0.19035,-0.84857,2.1748,-0.22966,-0.88546,2.1158,-0.22272,-0.18999,2.0145,-0.22793,-0.53045,1.9305,-0.24859,-0.79709,1.8388,-0.29496,-0.83506,1.7833
-0.28592,-0.13492,2.0403,-0.29054,-0.072178,2.0454,-0.3419,0.23728,2.0324,-0.41603,0.39495,1.9951,-0.38388,0.14585,2.1488,-0.36175,-0.086255,2.1742,-0.44074,-0.23952,2.1068,-0.47529,-0.28127,2.0678,-0.19491,0.16114,1.9807,-0.073336,-0.04897,1.9755,-0.086169,-0.23043,1.9255,-0.091484,-0.2801,1.9004,-0.32885,-0.20602,2.0761,-0.3284,-0.53472,2.1065,-0.1966,-0.84681,2.1685,-0.23515,-0.88413,2.1092,-0.22619,-0.18906,2.0031,-0.23251,-0.53321,1.9115,-0.25412,-0.78304,1.8109,-0.29986,-0.82123,1.7549
-0.29226,-0.1344,2.027,-0.29713,-0.072016,2.0311,-0.3459,0.23603,2.0178,-0.4188,0.39462,1.9803,-0.38957,0.145,2.1283,-0.37357,-0.087016,2.1473,-0.45824,-0.23826,2.0744,-0.49126,-0.271,2.0381,-0.1983,0.15918,1.9651,-0.077032,-0.055824,1.9615,-0.079629,-0.23744,1.912,-0.10069,-0.30341,1.9023,-0.3363,-0.20523,2.0626,-0.33241,-0.53381,2.098,-0.20043,-0.84481,2.1642,-0.23837,-0.88209,2.1044,-0.23169,-0.18944,1.9909,-0.24166,-0.52211,1.8883,-0.26942,-0.76229,1.7639,-0.31416,-0.80026,1.7071
-0.29497,-0.13645,2.0067,-0.30025,-0.074166,2.0109,-0.34919,0.23415,2.0025,-0.42348,0.39287,1.9612,-0.39279,0.14265,2.1147,-0.37949,-0.085355,2.1327,-0.47928,-0.25381,2.0489,-0.50443,-0.29935,2.0112,-0.20482,0.15693,1.9466,-0.079979,-0.055627,1.9465,-0.084636,-0.23662,1.8944,-0.084285,-0.2873,1.8699,-0.33865,-0.20803,2.043,-0.33905,-0.53412,2.0842,-0.20699,-0.84296,2.1591,-0.24607,-0.87996,2.1,-0.23458,-0.19044,1.9678,-0.2436,-0.51666,1.8723,-0.27397,-0.7582,1.747,-0.3202,-0.79581,1.6911
-0.29878,-0.14156,1.982,-0.30474,-0.078675,1.987,-0.35446,0.23305,1.9831,-0.42574,0.39241,1.9415,-0.43841,0.14689,2.0746,-0.42964,-0.094573,2.0892,-0.49014,-0.25432,2.0218,-0.51365,-0.26049,1.9608,-0.21221,0.15203,1.9239,-0.081229,-0.050355,1.928,-0.086625,-0.23638,1.8765,-0.075055,-0.28756,1.8568,-0.34312,-0.21316,2.0184,-0.35026,-0.54851,2.0647,-0.20438,-0.84396,2.153,-0.23951,-0.8939,2.122,-0.23751,-0.19449,1.9418,-0.2538,-0.53269,1.839,-0.26988,-0.85483,1.7573,-0.29897,-0.8905,1.6931
-0.30302,-0.14461,1.9582,-0.30824,-0.081236,1.9632,-0.35464,0.23349,1.9603,-0.42534,0.39136,1.9153,-0.3954,0.13979,2.0622,-0.39893,-0.085977,2.0812,-0.50074,-0.25399,2.0103,-0.53321,-0.26329,1.9656,-0.20974,0.15091,1.9008,-0.086253,-0.052077,1.9065,-0.087664,-0.25262,1.8528,-0.098886,-0.28743,1.8683,-0.3493,-0.216,1.9906,-0.35721,-0.536,2.0483,-0.22957,-0.84139,2.1397,-0.26818,-0.87768,2.0799,-0.24156,-0.19762,1.9209,-0.26716,-0.5377,1.806,-0.27593,-0.85774,1.7401,-0.30714,-0.89318,1.6768
-0.31086,-0.14738,1.9286,-0.31484,-0.083846,1.9342,-0.35573,0.23244,1.9342,-0.42318,0.39254,1.8942,-0.39578,0.13552,2.0406,-0.44313,-0.095938,2.045,-0.53055,-0.24111,1.9632,-0.56005,-0.26178,1.935,-0.21409,0.14779,1.8739,-0.085527,-0.050906,1.8876,-0.085862,-0.24907,1.8444,-0.069662,-0.29675,1.826,-0.35671,-0.21691,1.9656,-0.36925,-0.537,2.0305,-0.24007,-0.83926,2.1293,-0.27939,-0.87502,2.0696,-0.25266,-0.20302,1.8852,-0.2742,-0.54036,1.7915,-0.28337,-0.86899,1.7142,-0.31519,-0.90414,1.651
-0.31764,-0.14719,1.9025,-0.32014,-0.082997,1.9069,-0.35159,0.23714,1.9002,-0.42007,0.3993,1.8661,-0.39228,0.14037,2.0124,-0.44929,-0.092728,2.0182,-0.53947,-0.24254,1.9533,-0.57948,-0.26057,1.9135,-0.21536,0.15163,1.8461,-0.087795,-0.049001,1.8596,-0.085226,-0.2432,1.8248,-0.080206,-0.29462,1.804,-0.36631,-0.21537,1.9352,-0.38633,-0.53632,2.0096,-0.26152,-0.83578,2.1202,-0.25534,-0.8698,2.0974,-0.25986,-0.20252,1.8654,-0.28658,-0.53824,1.7633,-0.29225,-0.86734,1.6945,-0.324,-0.9025,1.6313
-0.32782,-0.1463,1.8699,-0.32702,-0.08204,1.8781,-0.35062,0.23979,1.8827,-0.41515,0.40477,1.8482,-0.39321,0.14637,1.9881,-0.45559,-0.085369,1.9892,-0.5645,-0.22838,1.9184,-0.60438,-0.24737,1.8786,-0.21612,0.15443,1.8209,-0.088935,-0.052525,1.8298,-0.086467,-0.24676,1.7984,-0.081003,-0.29684,1.7763,-0.37562,-0.21414,1.9061,-0.40066,-0.53962,1.9797,-0.26803,-0.82607,2.1089,-0.30355,-0.88746,2.0441,-0.27628,-0.20235,1.8251,-0.2969,-0.5395,1.7392,-0.30472,-0.87198,1.6615,-0.33774,-0.90585,1.5983
-0.33816,-0.14083,1.8433,-0.33453,-0.07651,1.8523,-0.34616,0.24728,1.8537,-0.41025,0.40984,1.8199,-0.39608,0.1506,1.9497,-0.46254,-0.081054,1.9597,-0.57085,-0.21866,1.8876,-0.61931,-0.24746,1.8518,-0.21583,0.15777,1.7986,-0.090913,-0.049485,1.8065,-0.087448,-0.24152,1.7672,-0.09222,-0.28439,1.7411,-0.39016,-0.20589,1.8748,-0.42435,-0.53437,1.9358,-0.30318,-0.81972,2.0781,-0.33752,-0.86992,2.0121,-0.28668,-0.19955,1.8029,-0.30942,-0.53304,1.7031,-0.31763,-0.86833,1.6366,-0.35016,-0.90252,1.5733
-0.34439,-0.14123,1.8195,-0.33906,-0.07619,1.8297,-0.34563,0.25278,1.8316,-0.40599,0.41717,1.8003,-0.39726,0.15041,1.9207,-0.46633,-0.082233,1.9324,-0.58578,-0.21932,1.8775,-0.63668,-0.22189,1.8233,-0.21292,0.16151,1.7772,-0.091428,-0.047599,1.78,-0.0883,-0.23604,1.7346,-0.093975,-0.28852,1.7147,-0.39477,-0.20578,1.8486,-0.44638,-0.52979,1.9044,-0.31681,-0.80464,2.0562,-0.35404,-0.83822,1.9936,-0.29526,-0.19828,1.7812,-0.31139,-0.52934,1.6908,-0.30317,-0.86808,1.6243,-0.33562,-0.90204,1.5608
-0.35152,-0.14118,1.7999,-0.34473,-0.078086,1.8117,-0.34616,0.23802,1.8131,-0.40218,0.41473,1.7839,-0.39733,0.15373,1.9043,-0.48344,-0.089933,1.901,-0.61267,-0.20785,1.826,-0.62586,-0.20324,1.7676,-0.20973,0.16542,1.762,-0.096416,-0.048434,1.7526,-0.091453,-0.23179,1.7001,-0.1012,-0.2712,1.6728,-0.40178,-0.20401,1.8255,-0.46847,-0.52969,1.8691,-0.3396,-0.80255,2.0248,-0.37579,-0.83591,1.9615,-0.30552,-0.19975,1.7633,-0.31624,-0.52451,1.6677,-0.30452,-0.87082,1.6219,-0.33579,-0.90496,1.5579
-0.35828,-0.14138,1.7708,-0.34878,-0.079758,1.7876,-0.34626,0.23894,1.8032,-0.3935,0.4248,1.7737,-0.39959,0.15478,1.8844,-0.48791,-0.088122,1.883,-0.62139,-0.20143,1.8025,-0.63163,-0.20349,1.7529,-0.20756,0.16651,1.7466,-0.094456,-0.050793,1.7315,-0.098561,-0.2301,1.665,-0.11231,-0.26536,1.6311,-0.40953,-0.20449,1.7912,-0.4882,-0.5385,1.8242,-0.36975,-0.78923,1.9732,-0.40664,-0.82135,1.9095,-0.31292,-0.19871,1.7354,-0.31857,-0.51405,1.6393,-0.31031,-0.86601,1.5865,-0.34425,-0.90222,1.5226
-0.3626,-0.13925,1.753,-0.35158,-0.079472,1.772,-0.34361,0.2316,1.7873,-0.38633,0.4219,1.7659,-0.39937,0.16091,1.8636,-0.50781,-0.091532,1.8493,-0.64132,-0.21017,1.7834,-0.63839,-0.19182,1.7274,-0.20424,0.16832,1.7352,-0.092865,-0.047987,1.7112,-0.10017,-0.21946,1.6293,-0.11947,-0.25695,1.5922,-0.41341,-0.20193,1.7748,-0.50814,-0.53319,1.7841,-0.45119,-0.76492,1.8214,-0.48807,-0.79649,1.7557,-0.32068,-0.19785,1.7132,-0.31443,-0.51473,1.6232,-0.31035,-0.87267,1.5726,-0.34374,-0.90709,1.5084
-0.3654,-0.13095,1.7308,-0.3538,-0.073154,1.7539,-0.34111,0.23605,1.775,-0.37979,0.42762,1.7554,-0.44039,0.18277,1.8333,-0.49943,-0.038399,1.8415,-0.61234,-0.1767,1.7761,-0.66044,-0.19234,1.7412,-0.20548,0.17025,1.725,-0.098344,-0.045458,1.6932,-0.10458,-0.21155,1.5993,-0.12338,-0.25985,1.554,-0.41806,-0.19146,1.7475,-0.51589,-0.55338,1.748,-0.56134,-0.88059,1.8032,-0.58228,-0.91126,1.7335,-0.32288,-0.19062,1.6958,-0.31043,-0.51401,1.613,-0.28881,-0.85306,1.4849,-0.30975,-0.88373,1.4152
-0.36567,-0.12495,1.7105,-0.35235,-0.062636,1.7367,-0.33412,0.27815,1.7643,-0.3701,0.44713,1.7419,-0.44182,0.1831,1.8219,-0.4551,-0.034543,1.8208,-0.62782,-0.15823,1.7348,-0.66822,-0.1783,1.7174,-0.20523,0.17002,1.7148,-0.10117,-0.044349,1.675,-0.11552,-0.2002,1.5638,-0.13084,-0.24151,1.5195,-0.42136,-0.18647,1.7287,-0.52986,-0.55004,1.7047,-0.58089,-0.87357,1.7595,-0.60469,-0.904,1.6906,-0.31999,-0.1835,1.669,-0.30581,-0.51034,1.6029,-0.28484,-0.85358,1.4989,-0.30864,-0.884,1.43
-0.36595,-0.12348,1.6969,-0.35186,-0.061832,1.728,-0.334,0.27989,1.7608,-0.36519,0.44918,1.737,-0.40229,0.16588,1.8138,-0.46323,-0.033893,1.8043,-0.63368,-0.15624,1.7219,-0.68154,-0.16935,1.6895,-0.20571,0.16991,1.7077,-0.10831,-0.039745,1.6615,-0.12408,-0.19086,1.5433,-0.14306,-0.23575,1.4819,-0.42232,-0.18238,1.7121,-0.55377,-0.49911,1.6479,-0.48673,-0.83623,1.7179,-0.50996,-0.86116,1.6497,-0.32016,-0.18394,1.6581,-0.30232,-0.51403,1.5973,-0.27975,-0.8541,1.5018,-0.30502,-0.884,1.4332
-0.36499,-0.12502,1.6848,-0.3509,-0.064798,1.7183,-0.33165,0.26069,1.7473,-0.35511,0.45312,1.7296,-0.44501,0.177,1.7952,-0.51783,-0.042025,1.788,-0.64752,-0.16207,1.6992,-0.68638,-0.16436,1.6773,-0.20311,0.1658,1.6994,-0.11354,-0.033496,1.6508,-0.13111,-0.17774,1.5238,-0.15477,-0.22316,1.4521,-0.42298,-0.18233,1.6975,-0.57124,-0.50566,1.6034,-0.7253,-0.81018,1.5438,-0.74761,-0.84007,1.4742,-0.31834,-0.18748,1.6469,-0.30117,-0.51696,1.5923,-0.27874,-0.85959,1.51,-0.30105,-0.88948,1.4404
-0.36351,-0.12589,1.6753,-0.34929,-0.065597,1.7121,-0.33015,0.27575,1.7473,-0.35284,0.45228,1.7243,-0.44844,0.17034,1.7885,-0.52438,-0.047689,1.7773,-0.65173,-0.15804,1.6843,-0.69228,-0.16248,1.662,-0.20062,0.1629,1.6957,-0.11936,-0.031285,1.6371,-0.14075,-0.16771,1.5015,-0.16784,-0.20548,1.4287,-0.42362,-0.18342,1.6851,-0.58357,-0.47543,1.5614,-0.7587,-0.7792,1.4665,-0.78055,-0.80871,1.3966,-0.31443,-0.19024,1.6371,-0.29935,-0.51758,1.5856,-0.27817,-0.86222,1.5206,-0.2994,-0.8971,1.45
-0.363,-0.12535,1.6678,-0.3489,-0.065794,1.707,-0.32966,0.27562,1.7458,-0.34756,0.44931,1.7161,-0.45232,0.16241,1.7811,-0.53057,-0.054239,1.77,-0.65852,-0.15671,1.6655,-0.69719,-0.16175,1.6484,-0.19506,0.15606,1.6928,-0.1246,-0.029058,1.6305,-0.14592,-0.16145,1.4907,-0.17249,-0.1989,1.4193,-0.42577,-0.1828,1.6747,-0.59283,-0.45487,1.5181,-0.52993,-0.75724,1.3717,-0.52875,-0.77033,1.3059,-0.31224,-0.19198,1.6301,-0.30218,-0.53179,1.5731,-0.28246,-0.86647,1.5274,-0.30221,-0.9032,1.4561
-0.36374,-0.12335,1.6617,-0.34975,-0.065172,1.7032,-0.32978,0.27454,1.744,-0.34393,0.44318,1.7103,-0.45585,0.15712,1.7751,-0.54412,-0.055955,1.7576,-0.66622,-0.15875,1.6481,-0.67261,-0.15427,1.6088,-0.19211,0.15233,1.6921,-0.1293,-0.029065,1.6245,-0.15616,-0.1507,1.4756,-0.18321,-0.18253,1.4044,-0.43121,-0.18057,1.6631,-0.58386,-0.42155,1.5117,-0.53439,-0.71166,1.2936,-0.53101,-0.7213,1.2272,-0.31095,-0.19271,1.6254,-0.29721,-0.52283,1.5637,-0.29162,-0.87037,1.5282,-0.31065,-0.90681,1.4567
-0.36576,-0.12448,1.6544,-0.35235,-0.067252,1.6978,-0.33187,0.27118,1.7412,-0.34089,0.43857,1.7045,-0.45921,0.15066,1.7671,-0.54978,-0.061566,1.7434,-0.67568,-0.16156,1.6362,-0.67451,-0.1563,1.5999,-0.19317,0.14757,1.6923,-0.13186,-0.035385,1.6144,-0.16379,-0.15127,1.4619,-0.18995,-0.17306,1.3964,-0.43331,-0.18114,1.655,-0.58574,-0.40088,1.4717,-0.57363,-0.75912,1.3652,-0.57207,-0.78087,1.3017,-0.31154,-0.19482,1.6196,-0.32959,-0.52104,1.5836,-0.30275,-0.873,1.5262,-0.31983,-0.90993,1.454
-0.36781,-0.12545,1.649,-0.35518,-0.069139,1.694,-0.33476,0.26679,1.7382,-0.33883,0.4352,1.7017,-0.46219,0.14643,1.7613,-0.55235,-0.060623,1.7431,-0.67553,-0.15811,1.6291,-0.7087,-0.16405,1.6137,-0.19239,0.14414,1.6942,-0.13427,-0.038109,1.613,-0.20612,-0.14656,1.4489,-0.19491,-0.16454,1.3928,-0.43685,-0.1812,1.6463,-0.58581,-0.39055,1.4486,-0.68684,-0.69526,1.2415,-0.69018,-0.72955,1.1663,-0.31218,-0.19672,1.6162,-0.33647,-0.56724,1.5824,-0.32149,-0.87616,1.5142,-0.33731,-0.91288,1.4416
-0.37103,-0.12588,1.6444,-0.35944,-0.070607,1.691,-0.33939,0.26251,1.7367,-0.33932,0.43241,1.6991,-0.46523,0.1429,1.7551,-0.56052,-0.066126,1.7309,-0.68458,-0.16363,1.619,-0.71045,-0.16629,1.6062,-0.19288,0.13865,1.6966,-0.13812,-0.042474,1.6142,-0.21078,-0.14348,1.4458,-0.19737,-0.15913,1.3917,-0.44087,-0.1812,1.6401,-0.58453,-0.37805,1.4258,-0.68246,-0.71461,1.2715,-0.68032,-0.75096,1.208,-0.31409,-0.19779,1.6125,-0.35329,-0.54734,1.5618,-0.33612,-0.87548,1.5005,-0.34957,-0.91289,1.4271
-0.37223,-0.12522,1.6414,-0.36191,-0.070939,1.6894,-0.34317,0.25829,1.7346,-0.34082,0.42966,1.6971,-0.4714,0.13468,1.7495,-0.56818,-0.073326,1.7243,-0.68996,-0.16456,1.6045,-0.71929,-0.175,1.5906,-0.19276,0.13229,1.7002,-0.14266,-0.053576,1.612,-0.18107,-0.15035,1.4475,-0.20057,-0.15353,1.3906,-0.44352,-0.1806,1.6344,-0.58504,-0.35446,1.3996,-0.69975,-0.64787,1.1936,-0.68376,-0.6911,1.1352,-0.31409,-0.19814,1.6103,-0.35789,-0.51909,1.556,-0.35032,-0.87331,1.4841,-0.36211,-0.91076,1.4102
-0.37657,-0.12607,1.637,-0.36745,-0.072737,1.6863,-0.34691,0.25568,1.7329,-0.34256,0.42781,1.6958,-0.47312,0.13024,1.7433,-0.5695,-0.072717,1.7232,-0.68955,-0.16481,1.6026,-0.72568,-0.18073,1.5838,-0.19255,0.12865,1.7046,-0.14561,-0.05921,1.6139,-0.18096,-0.14933,1.4456,-0.19878,-0.15092,1.3974,-0.44924,-0.18172,1.627,-0.59097,-0.34633,1.3869,-0.70304,-0.54778,1.09,-0.67409,-0.58045,1.0139,-0.31651,-0.19831,1.6083,-0.36055,-0.51832,1.5523,-0.36537,-0.87139,1.4609,-0.37408,-0.90869,1.3861
-0.38162,-0.12707,1.6339,-0.37192,-0.074245,1.6841,-0.35037,0.25384,1.7323,-0.34419,0.42682,1.6951,-0.47667,0.12728,1.7402,-0.57202,-0.073355,1.7186,-0.69025,-0.16774,1.5987,-0.72408,-0.18202,1.5824,-0.21687,0.13008,1.7055,-0.16071,-0.057052,1.6286,-0.17139,-0.15298,1.4655,-0.1957,-0.1499,1.4059,-0.45244,-0.18158,1.6246,-0.59557,-0.33932,1.3805,-0.70495,-0.64449,1.1937,-0.67031,-0.6882,1.1563,-0.32326,-0.1974,1.6055,-0.363,-0.51919,1.546,-0.37767,-0.8672,1.4399,-0.3845,-0.90439,1.3646
-0.384,-0.12836,1.6315,-0.37514,-0.075773,1.6828,-0.35409,0.25281,1.732,-0.34508,0.42702,1.6949,-0.47899,0.12567,1.7366,-0.57819,-0.069451,1.7127,-0.69073,-0.173,1.5942,-0.72364,-0.18494,1.5802,-0.24852,0.13566,1.7283,-0.16542,-0.053394,1.639,-0.16611,-0.15001,1.475,-0.18811,-0.15007,1.4222,-0.45402,-0.18186,1.622,-0.59139,-0.33707,1.3734,-0.76723,-0.6053,1.168,-0.75577,-0.65436,1.1147,-0.32531,-0.19767,1.6039,-0.36895,-0.51866,1.5296,-0.38664,-0.86385,1.4266,-0.39139,-0.90092,1.351
-0.38612,-0.12627,1.6306,-0.37805,-0.074254,1.6825,-0.35871,0.25337,1.7322,-0.35251,0.42668,1.6943,-0.48339,0.12535,1.7355,-0.5814,-0.069065,1.7102,-0.69159,-0.17528,1.5918,-0.73999,-0.19825,1.5668,-0.25294,0.1351,1.7328,-0.15289,-0.051984,1.6551,-0.16971,-0.14971,1.488,-0.18132,-0.15265,1.4344,-0.4562,-0.17937,1.6202,-0.59068,-0.34661,1.3769,-0.79028,-0.5858,1.149,-0.79286,-0.6305,1.0831,-0.32703,-0.19523,1.6037,-0.36588,-0.51862,1.5402,-0.39201,-0.86106,1.4185,-0.39566,-0.89807,1.3427
-0.38769,-0.12561,1.6302,-0.38058,-0.073795,1.6827,-0.36374,0.25359,1.7318,-0.35745,0.42639,1.6942,-0.4866,0.12523,1.734,-0.58447,-0.072038,1.7045,-0.69516,-0.17904,1.5882,-0.74322,-0.20305,1.5627,-0.25663,0.13568,1.7385,-0.18177,-0.041419,1.6581,-0.16561,-0.15692,1.4971,-0.17166,-0.17252,1.4322,-0.45753,-0.1786,1.6195,-0.58032,-0.36421,1.3724,-0.80025,-0.5717,1.1379,-0.80642,-0.6111,1.0657,-0.32864,-0.19351,1.6036,-0.35708,-0.55384,1.5293,-0.39806,-0.85757,1.4108,-0.40007,-0.89451,1.3349
-0.39097,-0.12638,1.6296,-0.38449,-0.074396,1.6828,-0.36912,0.25469,1.7322,-0.36377,0.42904,1.6964,-0.49179,0.12641,1.7336,-0.58854,-0.081645,1.6948,-0.70337,-0.18704,1.5797,-0.74434,-0.20785,1.5599,-0.26062,0.13643,1.7417,-0.16016,-0.074009,1.6635,-0.15626,-0.1691,1.4963,-0.20925,-0.15676,1.4439,-0.45884,-0.17822,1.6198,-0.60491,-0.37369,1.4112,-0.80436,-0.56648,1.1346,-0.81128,-0.60333,1.0601,-0.33336,-0.19239,1.6021,-0.36282,-0.54888,1.5393,-0.39737,-0.85571,1.4098,-0.39863,-0.89262,1.3338
-0.39733,-0.12276,1.632,-0.39094,-0.071525,1.6853,-0.37459,0.25495,1.7327,-0.37227,0.43141,1.6989,-0.49621,0.12649,1.7332,-0.59502,-0.086792,1.688,-0.70871,-0.1937,1.5738,-0.74694,-0.2143,1.5558,-0.26571,0.1375,1.7453,-0.15844,-0.072672,1.6733,-0.15338,-0.17696,1.5103,-0.20374,-0.16387,1.4562,-0.46931,-0.17455,1.6203,-0.59486,-0.36448,1.3889,-0.62963,-0.712,1.2652,-0.60013,-0.74213,1.2129,-0.33617,-0.19043,1.6065,-0.37039,-0.5232,1.5586,-0.3919,-0.85404,1.4086,-0.39215,-0.89094,1.3325
-0.39925,-0.12276,1.6329,-0.39394,-0.071648,1.6868,-0.38102,0.25537,1.7349,-0.37616,0.43113,1.7004,-0.5013,0.12689,1.7334,-0.59703,-0.081348,1.6935,-0.70375,-0.19144,1.5767,-0.74783,-0.216,1.5547,-0.27228,0.13959,1.7499,-0.16155,-0.07054,1.683,-0.14681,-0.19641,1.5388,-0.19712,-0.17385,1.4757,-0.47015,-0.17461,1.6203,-0.59729,-0.37199,1.3967,-0.61996,-0.7198,1.2787,-0.58752,-0.74564,1.2259,-0.33843,-0.19096,1.6088,-0.37092,-0.53763,1.5625,-0.39087,-0.85635,1.4174,-0.38993,-0.89324,1.3414
-0.4021,-0.1226,1.6347,-0.39779,-0.071523,1.6891,-0.3885,0.25615,1.7374,-0.38043,0.43017,1.7016,-0.51004,0.12754,1.7354,-0.6016,-0.081201,1.6944,-0.70237,-0.19456,1.5765,-0.7494,-0.2193,1.5532,-0.27956,0.14178,1.7545,-0.16881,-0.068368,1.6917,-0.1418,-0.20681,1.564,-0.1849,-0.20862,1.4938,-0.47197,-0.17493,1.6206,-0.60116,-0.38469,1.4106,-0.61304,-0.74288,1.3355,-0.58241,-0.75933,1.278,-0.3407,-0.19193,1.6119,-0.37844,-0.51708,1.5406,-0.38837,-0.86292,1.4391,-0.38677,-0.89987,1.3634
-0.41078,-0.12215,1.6391,-0.40637,-0.070786,1.6934,-0.39622,0.2577,1.7394,-0.3976,0.43692,1.7118,-0.52034,0.12982,1.7395,-0.60818,-0.079267,1.7006,-0.67692,-0.20358,1.5824,-0.74943,-0.22275,1.5519,-0.28617,0.14281,1.7579,-0.18101,-0.066021,1.7054,-0.14398,-0.20939,1.5879,-0.17929,-0.20735,1.5239,-0.48151,-0.17588,1.6251,-0.6105,-0.4026,1.4377,-0.60023,-0.7534,1.3785,-0.56755,-0.75869,1.32,-0.34799,-0.19104,1.6168,-0.33157,-0.50019,1.54,-0.38398,-0.86673,1.4515,-0.38233,-0.90372,1.3759
-0.41628,-0.12415,1.6424,-0.41299,-0.072074,1.6971,-0.40894,0.26022,1.7435,-0.40296,0.43573,1.7137,-0.52646,0.13061,1.7418,-0.61236,-0.080216,1.703,-0.70732,-0.19813,1.5844,-0.75226,-0.2312,1.5481,-0.29473,0.14642,1.7625,-0.22181,-0.039403,1.7399,-0.14965,-0.21648,1.6087,-0.14451,-0.25251,1.5531,-0.4842,-0.17744,1.6276,-0.61268,-0.41846,1.4593,-0.54277,-0.72952,1.4767,-0.54016,-0.75778,1.403,-0.35441,-0.19325,1.6214,-0.33435,-0.5019,1.5466,-0.37038,-0.87227,1.4691,-0.36761,-0.9093,1.3937
-0.42467,-0.12329,1.6494,-0.42219,-0.070612,1.7038,-0.41972,0.26205,1.7462,-0.42615,0.43781,1.7206,-0.54054,0.13178,1.7492,-0.61801,-0.081272,1.7076,-0.71096,-0.19946,1.587,-0.75024,-0.22668,1.5567,-0.27508,0.16762,1.7468,-0.23024,-0.042866,1.7508,-0.1653,-0.20632,1.6333,-0.15859,-0.24797,1.5817,-0.49018,-0.1782,1.6383,-0.60125,-0.44191,1.4966,-0.51564,-0.78582,1.4542,-0.48721,-0.77685,1.394,-0.36347,-0.19154,1.6264,-0.33469,-0.50032,1.5525,-0.34808,-0.87072,1.4753,-0.34776,-0.90785,1.3999
-0.43026,-0.12611,1.6547,-0.42548,-0.072276,1.7087,-0.4348,0.26343,1.749,-0.44248,0.43926,1.7285,-0.54961,0.13211,1.7551,-0.62387,-0.084568,1.7142,-0.71348,-0.20319,1.591,-0.73787,-0.21562,1.5769,-0.30978,0.16822,1.7336,-0.24124,-0.04588,1.7631,-0.17423,-0.21505,1.6459,-0.16755,-0.26392,1.6011,-0.49238,-0.18177,1.6458,-0.59411,-0.46115,1.532,-0.55154,-0.80347,1.5957,-0.53078,-0.78449,1.5347,-0.37007,-0.19168,1.6317,-0.33662,-0.50107,1.5623,-0.33213,-0.87191,1.4911,-0.33262,-0.90819,1.4161
-0.43922,-0.12991,1.6649,-0.43357,-0.074315,1.718,-0.45196,0.26427,1.7532,-0.46229,0.43917,1.735,-0.57538,0.13748,1.7758,-0.63094,-0.085152,1.7259,-0.71644,-0.20559,1.6011,-0.74267,-0.22178,1.5867,-0.32025,0.16986,1.7351,-0.25349,-0.052006,1.7737,-0.18114,-0.22647,1.6612,-0.17833,-0.27046,1.6118,-0.49769,-0.18739,1.6596,-0.57493,-0.49295,1.5836,-0.64412,-0.84763,1.4511,-0.65417,-0.88483,1.3755,-0.37937,-0.19256,1.6408,-0.34941,-0.5165,1.5809,-0.31692,-0.87436,1.5007,-0.32533,-0.90436,1.4274
-0.45337,-0.14309,1.6778,-0.44725,-0.083787,1.7298,-0.47109,0.26354,1.7595,-0.48238,0.43494,1.7412,-0.58917,0.13766,1.7886,-0.64182,-0.086353,1.7406,-0.72079,-0.21283,1.6173,-0.75451,-0.23864,1.5963,-0.33361,0.16872,1.7368,-0.26281,-0.057644,1.7815,-0.27352,-0.21009,1.646,-0.21611,-0.24726,1.6651,-0.50671,-0.20315,1.6814,-0.56889,-0.53087,1.625,-0.62379,-0.87887,1.5274,-0.63384,-0.90782,1.4545,-0.39505,-0.19785,1.6494,-0.35148,-0.51777,1.5871,-0.31328,-0.87138,1.508,-0.32333,-0.90032,1.4351
-0.46214,-0.14495,1.6889,-0.45594,-0.085103,1.7401,-0.48713,0.26229,1.7659,-0.51732,0.42917,1.7498,-0.60144,0.13525,1.8002,-0.65204,-0.090917,1.7521,-0.72618,-0.22242,1.6313,-0.76027,-0.2468,1.6096,-0.34317,0.17028,1.7384,-0.27082,-0.061319,1.7879,-0.28056,-0.21425,1.6535,-0.22387,-0.25062,1.6841,-0.51552,-0.20871,1.6955,-0.56536,-0.54004,1.6608,-0.61791,-0.89285,1.5796,-0.6297,-0.9221,1.5071,-0.40302,-0.19766,1.6589,-0.35473,-0.51833,1.595,-0.30641,-0.86569,1.5072,-0.3182,-0.89494,1.4348
-0.47501,-0.14438,1.7072,-0.46793,-0.083683,1.7561,-0.50929,0.25958,1.7737,-0.53878,0.42881,1.7575,-0.59772,0.13147,1.835,-0.66043,-0.098942,1.7698,-0.73427,-0.23244,1.6524,-0.76816,-0.25829,1.6322,-0.37319,0.16323,1.7422,-0.28231,-0.06214,1.7906,-0.242,-0.23807,1.7202,-0.22418,-0.28319,1.6919,-0.52732,-0.2127,1.7211,-0.56052,-0.55261,1.7048,-0.60427,-0.89958,1.6637,-0.61798,-0.92939,1.5918,-0.41392,-0.19602,1.6725,-0.3589,-0.51747,1.6053,-0.30265,-0.85524,1.5102,-0.31636,-0.88506,1.4383
-0.4876,-0.14812,1.727,-0.47927,-0.089489,1.7731,-0.52751,0.22763,1.7798,-0.56029,0.41805,1.7655,-0.63971,0.12851,1.8402,-0.66856,-0.10253,1.7929,-0.73851,-0.2418,1.6802,-0.77146,-0.26907,1.6617,-0.38785,0.16309,1.7454,-0.2945,-0.058448,1.7948,-0.24613,-0.23529,1.7342,-0.22891,-0.28053,1.7057,-0.53557,-0.21844,1.7422,-0.55953,-0.55693,1.7352,-0.60184,-0.90872,1.7187,-0.62185,-0.93928,1.6486,-0.42985,-0.19859,1.6935,-0.36243,-0.51756,1.615,-0.29408,-0.85114,1.5092,-0.31408,-0.8817,1.4392
-0.49788,-0.14984,1.7433,-0.49008,-0.087736,1.7871,-0.54645,0.2551,1.793,-0.58655,0.43643,1.7774,-0.64889,0.13185,1.8502,-0.67449,-0.10129,1.8133,-0.74155,-0.25188,1.7148,-0.77622,-0.28429,1.6934,-0.40587,0.16193,1.7516,-0.30432,-0.055205,1.8006,-0.36873,-0.18157,1.7289,-0.39508,-0.22397,1.7123,-0.54495,-0.21996,1.7608,-0.55694,-0.56062,1.7625,-0.53978,-0.85909,1.9117,-0.55978,-0.89017,1.8419,-0.43948,-0.19903,1.7095,-0.36753,-0.51765,1.6279,-0.29929,-0.84884,1.5176,-0.31929,-0.87992,1.4478
-0.5076,-0.14542,1.7638,-0.49977,-0.081387,1.8039,-0.55395,0.25553,1.7982,-0.61298,0.42244,1.7879,-0.66323,0.13802,1.8698,-0.67763,-0.098971,1.8351,-0.7426,-0.2574,1.7497,-0.7819,-0.29858,1.73,-0.41729,0.16395,1.7567,-0.28423,-0.040356,1.7763,-0.24832,-0.2164,1.7225,-0.24251,-0.24683,1.6948,-0.55272,-0.21723,1.7864,-0.55584,-0.5505,1.7746,-0.54679,-0.85821,1.9171,-0.56936,-0.89038,1.8486,-0.44905,-0.19486,1.7283,-0.37536,-0.5211,1.6464,-0.39408,-0.81467,1.7647,-0.41666,-0.84684,1.6962
-0.51205,-0.14308,1.7766,-0.50472,-0.080415,1.8141,-0.56781,0.22829,1.809,-0.62315,0.41191,1.7949,-0.66976,0.14094,1.8823,-0.67863,-0.10252,1.8607,-0.74613,-0.26343,1.7844,-0.78576,-0.30826,1.7643,-0.42903,0.16741,1.761,-0.29248,-0.035675,1.7744,-0.25533,-0.21076,1.7181,-0.24798,-0.25647,1.6858,-0.55456,-0.21562,1.801,-0.55888,-0.54802,1.7911,-0.54376,-0.86838,1.9137,-0.56807,-0.90065,1.8458,-0.45401,-0.19322,1.74,-0.37814,-0.52108,1.6627,-0.38926,-0.82457,1.7664,-0.41356,-0.85683,1.6985
-0.51929,-0.13659,1.7921,-0.51153,-0.076112,1.8246,-0.57053,0.22824,1.8122,-0.63745,0.4125,1.8074,-0.67803,0.14727,1.895,-0.6795,-0.097385,1.8867,-0.74442,-0.26399,1.8226,-0.78704,-0.31963,1.811,-0.437,0.17023,1.7657,-0.29784,-0.03202,1.7726,-0.26405,-0.20321,1.701,-0.26224,-0.2281,1.6714,-0.55925,-0.21205,1.8242,-0.5617,-0.54279,1.8037,-0.54722,-0.86899,1.9124,-0.5734,-0.90246,1.8458,-0.46069,-0.19083,1.7497,-0.37845,-0.52102,1.6822,-0.38261,-0.8296,1.7672,-0.40879,-0.86307,1.7005
-0.52215,-0.13543,1.8006,-0.5155,-0.074666,1.8315,-0.57414,0.22951,1.8189,-0.64427,0.413,1.8173,-0.6815,0.1475,1.9035,-0.68176,-0.092032,1.9046,-0.7409,-0.26589,1.8615,-0.78731,-0.32078,1.8557,-0.44327,0.17171,1.7703,-0.30018,-0.028558,1.77,-0.26834,-0.19223,1.679,-0.27439,-0.2003,1.6635,-0.56127,-0.2109,1.8318,-0.56765,-0.54119,1.8139,-0.54568,-0.8694,1.9198,-0.57281,-0.90318,1.8537,-0.46509,-0.18937,1.7599,-0.37612,-0.52703,1.6985,-0.37108,-0.83278,1.7772,-0.39821,-0.86655,1.7111
-0.52431,-0.1359,1.8085,-0.51875,-0.075055,1.8381,-0.57902,0.23001,1.8291,-0.64816,0.41365,1.8256,-0.64038,0.13313,1.9214,-0.68422,-0.087667,1.9275,-0.7369,-0.26536,1.9024,-0.78073,-0.3224,1.8951,-0.44812,0.17333,1.7761,-0.29501,-0.009825,1.765,-0.27731,-0.17283,1.6684,-0.28858,-0.18949,1.6409,-0.56245,-0.2102,1.8372,-0.5711,-0.53894,1.8217,-0.53647,-0.87293,1.9183,-0.56481,-0.90681,1.8527,-0.46823,-0.18885,1.7704,-0.37459,-0.52624,1.7106,-0.30114,-0.77969,1.7076,-0.37007,-0.77171,1.7059
-0.52665,-0.13399,1.8176,-0.52173,-0.073406,1.8457,-0.58224,0.23007,1.8395,-0.64977,0.41329,1.8355,-0.63935,0.13706,1.9323,-0.684,-0.085025,1.9442,-0.7384,-0.26452,1.9366,-0.78026,-0.31526,1.9411,-0.45167,0.1739,1.7823,-0.29596,-0.0024598,1.7606,-0.28137,-0.15724,1.6489,-0.29298,-0.212,1.5966,-0.56365,-0.20734,1.8485,-0.57561,-0.53665,1.8311,-0.52354,-0.87379,1.9105,-0.55288,-0.90787,1.8455,-0.47109,-0.18754,1.7765,-0.36914,-0.53128,1.7254,-0.28465,-0.77775,1.733,-0.32696,-0.81344,1.6729
-0.52647,-0.13369,1.8233,-0.52187,-0.073104,1.85,-0.58161,0.23063,1.846,-0.64904,0.41418,1.8458,-0.63565,0.13805,1.9452,-0.68322,-0.080962,1.9684,-0.73533,-0.26673,1.9747,-0.77249,-0.3154,1.9786,-0.45393,0.17642,1.788,-0.29823,0.0057602,1.7577,-0.28916,-0.1436,1.6378,-0.30138,-0.19319,1.5804,-0.56343,-0.20599,1.8523,-0.57627,-0.53773,1.8375,-0.52394,-0.87699,1.9098,-0.55405,-0.911,1.8452,-0.47179,-0.18648,1.7844,-0.36602,-0.53333,1.7329,-0.26839,-0.77238,1.7553,-0.31236,-0.8082,1.6965
-0.52488,-0.13391,1.8293,-0.52043,-0.073343,1.8552,-0.57857,0.23089,1.8538,-0.64428,0.4161,1.8563,-0.63172,0.13962,1.9538,-0.63155,-0.072553,1.994,-0.72753,-0.26491,2.0036,-0.76565,-0.32092,2.0112,-0.45308,0.17702,1.7933,-0.30002,0.010827,1.7507,-0.30101,-0.13221,1.6218,-0.31271,-0.18154,1.5642,-0.5619,-0.20537,1.857,-0.57646,-0.53762,1.841,-0.52042,-0.87683,1.9118,-0.5513,-0.91079,1.8475,-0.47101,-0.18591,1.7908,-0.3611,-0.53362,1.742,-0.24526,-0.78228,1.7891,-0.29007,-0.81794,1.7309
-0.52105,-0.13449,1.8358,-0.5159,-0.073718,1.8617,-0.5708,0.2346,1.8652,-0.63414,0.41994,1.8699,-0.67244,0.15172,1.9491,-0.61735,-0.070837,2.0159,-0.71756,-0.26494,2.0301,-0.7551,-0.31955,2.0385,-0.45057,0.17891,1.8001,-0.3013,0.01504,1.746,-0.30903,-0.12353,1.6117,-0.32517,-0.168,1.5512,-0.55845,-0.20568,1.863,-0.57478,-0.53753,1.8441,-0.521,-0.87934,1.9159,-0.55311,-0.91292,1.852,-0.46839,-0.18551,1.7959,-0.35727,-0.52258,1.7493,-0.21776,-0.80314,1.8234,-0.26405,-0.83842,1.7661
-0.51609,-0.13434,1.8419,-0.51023,-0.072944,1.8683,-0.56286,0.24421,1.8758,-0.62795,0.42845,1.8785,-0.66285,0.15346,1.9581,-0.60466,-0.067245,2.0298,-0.7064,-0.2645,2.0559,-0.74231,-0.31898,2.0689,-0.4453,0.18056,1.8066,-0.30011,0.019131,1.7446,-0.32109,-0.1084,1.5999,-0.33672,-0.13612,1.5607,-0.55415,-0.20512,1.8692,-0.57213,-0.53754,1.8462,-0.52244,-0.88094,1.9164,-0.55531,-0.91405,1.8526,-0.46406,-0.18476,1.8011,-0.35058,-0.52409,1.7557,-0.18804,-0.82772,1.8544,-0.2356,-0.86285,1.7981
-0.50811,-0.13384,1.8493,-0.50155,-0.071685,1.8763,-0.55448,0.24717,1.8835,-0.61572,0.4317,1.8898,-0.60174,0.14555,1.9893,-0.58533,-0.066526,2.0476,-0.6973,-0.26711,2.0794,-0.73294,-0.32182,2.0933,-0.43587,0.18097,1.815,-0.29802,0.020043,1.7412,-0.32574,-0.1061,1.5963,-0.34777,-0.1268,1.5551,-0.54615,-0.20476,1.8772,-0.56673,-0.54369,1.8513,-0.53401,-0.88793,1.9101,-0.56748,-0.92112,1.8467,-0.4567,-0.18394,1.8075,-0.3475,-0.52113,1.7594,-0.18358,-0.8201,1.8644,-0.23114,-0.85512,1.808
-0.49706,-0.13288,1.8566,-0.48953,-0.07063,1.8842,-0.53887,0.2492,1.8917,-0.59925,0.43342,1.8986,-0.58517,0.14791,1.9994,-0.57625,-0.063215,2.0544,-0.68475,-0.26697,2.0989,-0.71879,-0.32326,2.1082,-0.4221,0.18165,1.8232,-0.29427,0.021509,1.7412,-0.33137,-0.10106,1.5949,-0.35864,-0.11873,1.5537,-0.53623,-0.20329,1.8838,-0.56286,-0.54139,1.854,-0.53863,-0.88788,1.9111,-0.57174,-0.9209,1.8474,-0.44604,-0.18324,1.8149,-0.34037,-0.51824,1.7655,-0.19452,-0.75672,1.8606,-0.22105,-0.84415,1.8264
-0.48355,-0.13277,1.864,-0.47455,-0.071047,1.8923,-0.51795,0.24714,1.8991,-0.57832,0.43281,1.9063,-0.57056,0.15053,2.0038,-0.55018,-0.061396,2.0712,-0.66916,-0.26117,2.114,-0.64614,-0.28503,2.1089,-0.40349,0.17908,1.8312,-0.28307,0.025811,1.7429,-0.33614,-0.093435,1.5987,-0.36593,-0.1122,1.556,-0.52264,-0.20189,1.8918,-0.5567,-0.53915,1.8578,-0.53924,-0.88611,1.9127,-0.57283,-0.91888,1.8491,-0.43458,-0.18374,1.8218,-0.32746,-0.52046,1.7775,-0.18493,-0.76144,1.8717,-0.21111,-0.84844,1.8367
-0.46949,-0.13352,1.8721,-0.45977,-0.071674,1.9002,-0.50298,0.24614,1.9048,-0.55686,0.43249,1.9136,-0.59849,0.17439,1.9906,-0.53631,-0.064149,2.0764,-0.5891,-0.23678,2.1038,-0.62013,-0.28284,2.1142,-0.38338,0.17541,1.8378,-0.2718,0.024569,1.7435,-0.33552,-0.091946,1.6018,-0.37183,-0.10955,1.5589,-0.5105,-0.20125,1.8986,-0.54811,-0.53694,1.8631,-0.54814,-0.8882,1.9091,-0.58236,-0.92122,1.846,-0.41899,-0.18631,1.8324,-0.30714,-0.52512,1.7954,-0.17009,-0.76921,1.8896,-0.1959,-0.8614,1.8546
-0.45138,-0.13608,1.8801,-0.44094,-0.074793,1.9089,-0.47798,0.24248,1.9123,-0.53093,0.4306,1.9183,-0.5331,0.15495,2.0139,-0.5159,-0.068194,2.0841,-0.56844,-0.24145,2.1088,-0.59987,-0.28576,2.1196,-0.3631,0.17236,1.8442,-0.26037,0.021631,1.7462,-0.33799,-0.090468,1.6079,-0.37943,-0.1078,1.5672,-0.49348,-0.20074,1.9047,-0.53889,-0.53432,1.8681,-0.55511,-0.88769,1.9079,-0.58786,-0.92028,1.8438,-0.40219,-0.18951,1.8423,-0.29718,-0.5247,1.8101,-0.16312,-0.77188,1.9012,-0.19251,-0.85991,1.8592
-0.43215,-0.13784,1.8883,-0.4209,-0.07662,1.9173,-0.45193,0.24081,1.9167,-0.51385,0.42837,1.9223,-0.50568,0.15533,2.0202,-0.49405,-0.073018,2.0862,-0.52478,-0.25057,2.1106,-0.57297,-0.29053,2.1169,-0.33207,0.16646,1.8507,-0.24093,0.013972,1.7527,-0.33995,-0.091061,1.623,-0.38511,-0.10864,1.5792,-0.47617,-0.2018,1.9127,-0.52571,-0.53028,1.8742,-0.56701,-0.88862,1.9039,-0.59798,-0.92139,1.8391,-0.38284,-0.19347,1.8516,-0.26965,-0.53806,1.8424,-0.1452,-0.79399,1.9223,-0.1832,-0.82717,1.8602
-0.40788,-0.14223,1.898,-0.39643,-0.080978,1.9264,-0.43136,0.23518,1.9243,-0.48125,0.4218,1.9282,-0.48328,0.15412,2.0268,-0.47721,-0.078918,2.0863,-0.51723,-0.25499,2.1108,-0.55279,-0.29696,2.1167,-0.31206,0.16218,1.8558,-0.22103,0.0073423,1.7594,-0.33163,-0.10111,1.6452,-0.38479,-0.11243,1.5964,-0.45112,-0.20542,1.9223,-0.51201,-0.52918,1.8811,-0.57137,-0.89053,1.9021,-0.60363,-0.92338,1.8379,-0.35884,-0.19853,1.8619,-0.25738,-0.53834,1.8564,-0.13791,-0.80018,1.9315,-0.16253,-0.78568,1.9136
-0.3845,-0.14655,1.9067,-0.37223,-0.085182,1.935,-0.40257,0.23215,1.9308,-0.45979,0.41971,1.9304,-0.45686,0.15046,2.0304,-0.45132,-0.083283,2.0879,-0.55835,-0.26781,2.1283,-0.53611,-0.29989,2.1086,-0.28497,0.15619,1.8627,-0.20868,-0.0024559,1.7579,-0.32523,-0.11614,1.6587,-0.38835,-0.12361,1.6174,-0.4291,-0.20925,1.9309,-0.4933,-0.52915,1.8886,-0.58203,-0.88411,1.9016,-0.61503,-0.92117,1.8377,-0.33581,-0.20286,1.8715,-0.23954,-0.53688,1.8736,-0.12474,-0.79937,1.9517,-0.16809,-0.80881,1.8969
-0.36125,-0.15213,1.9157,-0.34863,-0.090094,1.9432,-0.37666,0.23,1.9364,-0.4239,0.41879,1.9364,-0.42396,0.14386,2.0379,-0.43308,-0.090119,2.091,-0.48906,-0.2651,2.0968,-0.51582,-0.29956,2.0976,-0.25338,0.15025,1.8698,-0.18294,-0.015631,1.7669,-0.31155,-0.12747,1.6843,-0.37935,-0.13237,1.6399,-0.40692,-0.21387,1.9409,-0.47316,-0.53291,1.8964,-0.58435,-0.88017,1.9023,-0.61868,-0.91966,1.8386,-0.31198,-0.20994,1.8806,-0.21559,-0.54434,1.8945,-0.10737,-0.86775,1.9708,-0.1522,-0.90199,1.9118
-0.3392,-0.15086,1.9248,-0.32721,-0.089097,1.9524,-0.35321,0.22917,1.9436,-0.40839,0.41805,1.9384,-0.40718,0.14329,2.0403,-0.41234,-0.087557,2.0927,-0.48397,-0.25836,2.0864,-0.50826,-0.31033,2.0849,-0.21482,0.14592,1.8749,-0.15323,-0.022481,1.7914,-0.30498,-0.11572,1.6821,-0.35309,-0.14156,1.6633,-0.38831,-0.21374,1.95,-0.45134,-0.53637,1.9064,-0.58747,-0.87366,1.9008,-0.62076,-0.91166,1.8363,-0.287,-0.21159,1.89,-0.19772,-0.54668,1.9052,-0.10415,-0.8653,1.9749,-0.1449,-0.89926,1.9128
-0.31498,-0.1519,1.9332,-0.30292,-0.087002,1.9603,-0.32157,0.25453,1.951,-0.36412,0.4266,1.9372,-0.42818,0.1567,2.0193,-0.3917,-0.08387,2.0962,-0.50979,-0.28814,2.0965,-0.52664,-0.35429,2.1038,-0.19473,0.14396,1.8799,-0.12694,-0.040378,1.8028,-0.27586,-0.13136,1.7079,-0.33802,-0.15178,1.6817,-0.36425,-0.21398,1.9597,-0.43981,-0.53545,1.9147,-0.56096,-0.8833,1.9138,-0.59204,-0.91965,1.8486,-0.26398,-0.21353,1.8982,-0.18003,-0.5412,1.9134,-0.098302,-0.8638,1.9788,-0.14003,-0.8976,1.9173
-0.2938,-0.15189,1.9403,-0.28263,-0.085586,1.9665,-0.30886,0.25484,1.9536,-0.35197,0.42753,1.938,-0.41128,0.15542,2.0248,-0.36911,-0.087978,2.1013,-0.47876,-0.28811,2.0851,-0.5295,-0.32818,2.0923,-0.17417,0.14396,1.8874,-0.11141,-0.046579,1.8371,-0.23322,-0.14229,1.7243,-0.2982,-0.17364,1.6992,-0.34257,-0.2136,1.9671,-0.41599,-0.53242,1.9286,-0.57084,-0.86494,1.8974,-0.60249,-0.90409,1.8315,-0.2424,-0.21328,1.9062,-0.15994,-0.54055,1.9222,-0.094439,-0.86242,1.9801,-0.13578,-0.89653,1.9185
-0.2784,-0.15069,1.9462,-0.26742,-0.084528,1.9723,-0.28781,0.25523,1.9592,-0.32552,0.42911,1.9382,-0.38757,0.15955,2.0247,-0.35888,-0.08314,2.1025,-0.46933,-0.27516,2.0945,-0.50265,-0.32838,2.1058,-0.15353,0.14628,1.8969,-0.10733,-0.046411,1.8427,-0.21998,-0.16014,1.7359,-0.28392,-0.19264,1.7085,-0.32784,-0.21071,1.9717,-0.40526,-0.53148,1.9338,-0.47588,-0.77188,1.8992,-0.5156,-0.80587,1.8365,-0.22745,-0.21205,1.9138,-0.14418,-0.54134,1.9288,-0.092008,-0.86216,1.982,-0.13173,-0.89615,1.9193
-0.26302,-0.14756,1.9522,-0.25248,-0.081361,1.9773,-0.26969,0.25713,1.9621,-0.30696,0.42995,1.9356,-0.37459,0.15965,2.0283,-0.34534,-0.079494,2.1059,-0.45138,-0.27931,2.0779,-0.49855,-0.29393,2.0733,-0.13387,0.14754,1.9042,-0.090922,-0.050937,1.8587,-0.1964,-0.17337,1.756,-0.24505,-0.19734,1.7372,-0.31444,-0.20731,1.978,-0.39296,-0.53004,1.9378,-0.4522,-0.77581,1.9087,-0.49041,-0.80986,1.8451,-0.21094,-0.21019,1.9199,-0.13919,-0.54083,1.9311,-0.091557,-0.86143,1.9821,-0.12976,-0.89548,1.9184
-0.25316,-0.1453,1.9576,-0.24173,-0.079194,1.9816,-0.25328,0.25848,1.9647,-0.29103,0.43181,1.9373,-0.35537,0.16539,2.0348,-0.33046,-0.072019,2.1115,-0.43802,-0.26646,2.0723,-0.48255,-0.29647,2.0688,-0.11662,0.14947,1.9111,-0.076985,-0.057164,1.8715,-0.1916,-0.17796,1.7738,-0.23547,-0.20477,1.7492,-0.3058,-0.20422,1.9836,-0.3751,-0.52727,1.9425,-0.42308,-0.77501,1.9222,-0.45969,-0.80893,1.8576,-0.20127,-0.20855,1.9261,-0.1341,-0.54237,1.9353,-0.090172,-0.86316,1.983,-0.12678,-0.89707,1.9183
-0.24154,-0.14428,1.9632,-0.23021,-0.078061,1.9856,-0.2414,0.25905,1.9673,-0.27953,0.43424,1.9377,-0.34414,0.16589,2.0408,-0.32281,-0.069294,2.1131,-0.42809,-0.25193,2.0679,-0.46959,-0.28825,2.0621,-0.10617,0.15119,1.9156,-0.049644,-0.053219,1.8917,-0.15348,-0.18279,1.7952,-0.20822,-0.22515,1.7619,-0.29425,-0.20317,1.9905,-0.36795,-0.52856,1.9445,-0.38828,-0.7941,1.9387,-0.42543,-0.82811,1.8744,-0.19026,-0.20776,1.9312,-0.13318,-0.54228,1.9382,-0.089798,-0.86322,1.9832,-0.12695,-0.89723,1.9189
-0.23269,-0.141,1.9697,-0.22041,-0.075086,1.9904,-0.2256,0.26075,1.9712,-0.26317,0.43546,1.938,-0.33055,0.17386,2.049,-0.31447,-0.06738,2.1156,-0.42106,-0.24875,2.0673,-0.46271,-0.28144,2.0581,-0.09618,0.15114,1.9198,-0.040944,-0.058756,1.9011,-0.14349,-0.18957,1.8053,-0.17866,-0.21844,1.7838,-0.28645,-0.19967,1.9979,-0.3603,-0.52753,1.9479,-0.35544,-0.8107,1.9577,-0.39286,-0.84466,1.8936,-0.18201,-0.20545,1.9376,-0.13371,-0.54076,1.9398,-0.089748,-0.86332,1.9832,-0.12717,-0.89728,1.919
-0.22147,-0.13821,1.9756,-0.20914,-0.072695,1.9948,-0.21457,0.26067,1.9758,-0.25175,0.43238,1.9381,-0.32168,0.16976,2.0628,-0.30709,-0.066115,2.1189,-0.40698,-0.24077,2.0695,-0.4451,-0.27581,2.0528,-0.083084,0.15265,1.9265,-0.027673,-0.070907,1.913,-0.1265,-0.20541,1.8184,-0.14492,-0.23484,1.7994,-0.27637,-0.19787,2.0048,-0.34331,-0.52993,1.9566,-0.31679,-0.82325,1.9761,-0.35308,-0.85723,1.9113,-0.17017,-0.20338,1.9428,-0.13251,-0.54007,1.9404,-0.089067,-0.86448,1.984,-0.12536,-0.89847,1.9192
-0.21435,-0.13737,1.979,-0.20259,-0.072178,1.9973,-0.20609,0.25924,1.979,-0.24118,0.43245,1.9396,-0.31508,0.1702,2.0689,-0.30134,-0.067087,2.1202,-0.40106,-0.24151,2.0725,-0.44002,-0.27411,2.0523,-0.070674,0.15285,1.9332,-0.016553,-0.070594,1.9225,-0.085096,-0.2297,1.8377,-0.12136,-0.25287,1.8084,-0.27055,-0.19758,2.0078,-0.3319,-0.53676,1.9638,-0.28612,-0.83805,2.0003,-0.32117,-0.87212,1.9349,-0.16192,-0.20313,1.9465,-0.12963,-0.53993,1.9404,-0.088411,-0.86546,1.9843,-0.12346,-0.89953,1.9188
-0.2085,-0.1366,1.982,-0.19703,-0.071652,1.9996,-0.19956,0.25871,1.9829,-0.23102,0.43186,1.9423,-0.30658,0.17078,2.0747,-0.33387,-0.070083,2.1205,-0.39535,-0.24266,2.0774,-0.43055,-0.27912,2.0604,-0.061728,0.152,1.9389,-0.0022462,-0.067253,1.9339,-0.066311,-0.22737,1.8497,-0.084531,-0.26757,1.8156,-0.26563,-0.19717,2.0103,-0.31711,-0.54166,1.9721,-0.25871,-0.85371,2.0221,-0.29412,-0.8878,1.9569,-0.1553,-0.20269,1.9498,-0.12266,-0.54061,1.9386,-0.087253,-0.86721,1.9853,-0.12266,-0.9013,1.9201
-0.2022,-0.13798,1.9851,-0.191,-0.072996,2.0023,-0.19432,0.25796,1.9878,-0.22736,0.43192,1.9448,-0.29784,0.17044,2.0787,-0.32503,-0.068065,2.1272,-0.3926,-0.23773,2.0837,-0.42523,-0.27493,2.0661,-0.058046,0.15208,1.9421,0.009714,-0.065626,1.9416,-0.040641,-0.23092,1.86,-0.06718,-0.2714,1.8309,-0.25767,-0.1984,2.0136,-0.30339,-0.5431,1.9794,-0.25386,-0.84512,2.0275,-0.29057,-0.87915,1.963,-0.15009,-0.203,1.9523,-0.11465,-0.54272,1.9378,-0.08618,-0.86773,1.9853,-0.12289,-0.90176,1.9208
-0.19813,-0.14016,1.9908,-0.18674,-0.074843,2.0074,-0.18776,0.25813,1.9935,-0.21935,0.43521,1.95,-0.28736,0.17201,2.0793,-0.31631,-0.064077,2.1338,-0.3839,-0.23602,2.0961,-0.42224,-0.26081,2.0678,-0.054437,0.15223,1.9457,0.016995,-0.066382,1.9475,-0.026959,-0.23463,1.8691,-0.04323,-0.27976,1.8391,-0.25189,-0.19982,2.0191,-0.28873,-0.54539,1.9868,-0.23323,-0.86677,2.0458,-0.27095,-0.9008,1.9819,-0.14811,-0.20415,1.9583,-0.1092,-0.54314,1.9373,-0.085717,-0.86696,1.9851,-0.12344,-0.901,1.9211
-0.19362,-0.14033,1.995,-0.18216,-0.075016,2.0112,-0.18334,0.25797,1.9983,-0.21507,0.43584,1.9546,-0.28283,0.17348,2.0845,-0.26486,-0.058528,2.1561,-0.37949,-0.23081,2.1062,-0.41762,-0.26376,2.0819,-0.052128,0.15213,1.9486,0.027717,-0.06452,1.9553,-0.012156,-0.23339,1.8764,-0.028149,-0.26724,1.8512,-0.24782,-0.2,2.0235,-0.27242,-0.54876,1.9991,-0.22585,-0.86467,2.0465,-0.2658,-0.89877,1.984,-0.1431,-0.20341,1.9623,-0.10139,-0.54713,1.9404,-0.08454,-0.86621,1.9858,-0.12449,-0.90031,1.9233
-0.18793,-0.13987,2.0007,-0.17681,-0.074585,2.0164,-0.18018,0.25815,2.0044,-0.21503,0.43368,1.9625,-0.27974,0.1734,2.0922,-0.25862,-0.05896,2.1643,-0.36832,-0.2351,2.128,-0.41002,-0.27708,2.098,-0.050908,0.15253,1.9514,0.037278,-0.05557,1.9611,-0.0072448,-0.22484,1.8816,-0.020962,-0.27273,1.8546,-0.24176,-0.20041,2.0309,-0.26305,-0.55437,2.0087,-0.21898,-0.86182,2.0469,-0.26123,-0.89607,1.986,-0.13675,-0.20223,1.9661,-0.096243,-0.54662,1.942,-0.082235,-0.86936,1.9878,-0.12448,-0.90362,1.9269
-0.18166,-0.13965,2.0057,-0.17099,-0.074352,2.021,-0.1759,0.25804,2.009,-0.21421,0.43331,1.9665,-0.27514,0.17451,2.0967,-0.25043,-0.060984,2.1741,-0.36481,-0.23287,2.1344,-0.40751,-0.27576,2.1064,-0.047134,0.15431,1.9565,0.040598,-0.048684,1.961,-0.0032461,-0.2213,1.884,-0.018586,-0.26988,1.8584,-0.23642,-0.20042,2.0352,-0.2513,-0.55821,2.0212,-0.20585,-0.86463,2.0522,-0.24844,-0.8989,1.9916,-0.12945,-0.20124,1.9718,-0.08883,-0.54446,1.9461,-0.076637,-0.86542,1.9898,-0.11923,-0.89969,1.9292
-0.17651,-0.13987,2.0097,-0.16632,-0.074588,2.0248,-0.17288,0.25754,2.0138,-0.2135,0.43227,1.9705,-0.27039,0.17446,2.101,-0.24301,-0.061298,2.1855,-0.35705,-0.24127,2.1454,-0.40506,-0.26503,2.114,-0.043245,0.15528,1.9606,0.043466,-0.053345,1.9613,-0.0030801,-0.22143,1.8843,-0.01771,-0.26986,1.8589,-0.23062,-0.20118,2.0396,-0.24438,-0.56051,2.0319,-0.19374,-0.85832,2.0505,-0.23634,-0.89247,1.9898,-0.12447,-0.20091,1.9751,-0.081081,-0.54268,1.9506,-0.071123,-0.85867,1.9915,-0.11373,-0.89281,1.9308
-0.17256,-0.14021,2.0139,-0.16242,-0.074973,2.0286,-0.17093,0.25678,2.0187,-0.2138,0.43023,1.9768,-0.26609,0.17465,2.1104,-0.23751,-0.065315,2.194,-0.3494,-0.24711,2.1562,-0.40182,-0.27005,2.1346,-0.041454,0.15519,1.9638,0.045971,-0.050196,1.9618,-0.0023548,-0.22166,1.8851,-0.017994,-0.26892,1.8586,-0.22597,-0.20208,2.0448,-0.23858,-0.56348,2.0408,-0.19119,-0.86171,2.0548,-0.23565,-0.89605,1.9955,-0.1206,-0.20068,1.9785,-0.074726,-0.54254,1.9565,-0.069257,-0.86168,1.9925,-0.11372,-0.89602,1.9332
-0.16906,-0.14112,2.0198,-0.15926,-0.075703,2.0341,-0.17013,0.25631,2.0247,-0.21434,0.42954,1.9846,-0.26348,0.17448,2.1175,-0.23276,-0.06351,2.2008,-0.34507,-0.24752,2.1621,-0.39795,-0.26818,2.1465,-0.040726,0.15554,1.9673,0.04668,-0.048639,1.9604,0.0022849,-0.21725,1.8833,-0.017917,-0.26468,1.8607,-0.22153,-0.20305,2.0519,-0.2356,-0.56461,2.0449,-0.19242,-0.86547,2.0579,-0.23801,-0.9001,1.9997,-0.11727,-0.20119,1.9833,-0.068128,-0.54189,1.9619,-0.06607,-0.85717,1.9928,-0.11166,-0.89181,1.9346
-0.16442,-0.14197,2.0269,-0.15523,-0.076362,2.041,-0.16849,0.25581,2.0311,-0.21509,0.42478,1.9914,-0.26155,0.17502,2.1209,-0.22823,-0.064484,2.2086,-0.33106,-0.23552,2.18,-0.37617,-0.27885,2.1569,-0.04003,0.1557,1.9703,0.04667,-0.048514,1.9604,-0.0038358,-0.215,1.8821,-0.027071,-0.26085,1.858,-0.21443,-0.2036,2.0595,-0.23396,-0.56425,2.0476,-0.1938,-0.86752,2.0595,-0.23986,-0.90225,2.0017,-0.11399,-0.20214,1.9901,-0.064307,-0.5416,1.9658,-0.064835,-0.85896,1.9932,-0.1109,-0.89369,1.9355
-0.1601,-0.1427,2.0337,-0.15124,-0.07709,2.047,-0.166,0.25452,2.0362,-0.21506,0.42303,1.9963,-0.25894,0.17369,2.1266,-0.22347,-0.066592,2.2152,-0.32677,-0.23636,2.1849,-0.36946,-0.28542,2.1701,-0.038885,0.15542,1.973,0.044658,-0.054244,1.9578,-0.011563,-0.2169,1.8753,-0.037916,-0.26178,1.853,-0.20888,-0.20436,2.0671,-0.23372,-0.5641,2.0498,-0.19594,-0.86985,2.0628,-0.24266,-0.9047,2.0056,-0.11059,-0.20315,1.9964,-0.059815,-0.54232,1.9694,-0.060403,-0.86039,1.9945,-0.10713,-0.89524,1.9373
-0.15695,-0.14281,2.0383,-0.14869,-0.077353,2.051,-0.16452,0.25316,2.0398,-0.2169,0.4228,2.0012,-0.21305,0.16378,2.1606,-0.21872,-0.069116,2.2215,-0.32038,-0.25463,2.1995,-0.33991,-0.30453,2.206,-0.037345,0.15434,1.9774,0.043431,-0.054872,1.9565,-0.017072,-0.21594,1.8731,-0.046534,-0.25229,1.8522,-0.20567,-0.20491,2.0731,-0.23322,-0.56236,2.0516,-0.19454,-0.87247,2.0681,-0.24149,-0.9074,2.0111,-0.10707,-0.20339,1.9998,-0.056411,-0.5421,1.9729,-0.059374,-0.85478,1.9959,-0.10633,-0.88971,1.939
-0.15378,-0.14353,2.0445,-0.14553,-0.078069,2.0565,-0.16152,0.25201,2.0451,-0.21628,0.42222,2.0073,-0.25106,0.17247,2.1388,-0.21377,-0.06971,2.2293,-0.31681,-0.25436,2.2001,-0.33764,-0.30444,2.2048,-0.035756,0.15494,1.982,0.043457,-0.053997,1.9559,-0.022518,-0.21417,1.875,-0.050063,-0.24216,1.8554,-0.2011,-0.20533,2.0801,-0.23323,-0.56178,2.053,-0.19595,-0.87151,2.0685,-0.24345,-0.90644,2.0121,-0.10527,-0.20407,2.0056,-0.053824,-0.54186,1.9762,-0.059046,-0.85375,1.9973,-0.10654,-0.88867,1.9409
-0.15245,-0.14428,2.0501,-0.14398,-0.078976,2.0619,-0.15866,0.25071,2.052,-0.21516,0.42027,2.0116,-0.24737,0.17259,2.1447,-0.20988,-0.069462,2.2357,-0.31079,-0.25676,2.2068,-0.33141,-0.3055,2.2104,-0.034831,0.15332,1.986,0.043348,-0.054347,1.9561,-0.025265,-0.21195,1.8719,-0.05783,-0.23974,1.8524,-0.19942,-0.20562,2.0856,-0.23439,-0.56082,2.0548,-0.19675,-0.87097,2.0696,-0.24533,-0.90575,2.014,-0.10497,-0.20482,2.0107,-0.052614,-0.54023,1.9801,-0.057673,-0.85277,1.9991,-0.10625,-0.88755,1.9434
-0.15109,-0.14625,2.0568,-0.14229,-0.081044,2.0684,-0.15572,0.24865,2.0596,-0.21551,0.41851,2.0183,-0.20167,0.16146,2.1866,-0.20652,-0.073359,2.2433,-0.30862,-0.25518,2.209,-0.35157,-0.27394,2.1937,-0.033905,0.15286,1.9904,0.047615,-0.042008,1.9571,-0.022771,-0.20064,1.8766,-0.060759,-0.23807,1.8517,-0.198,-0.20707,2.0921,-0.23694,-0.55811,2.0567,-0.19542,-0.87289,2.0793,-0.24491,-0.90738,2.0243,-0.10432,-0.20684,2.0172,-0.052522,-0.54154,1.9852,-0.05586,-0.85125,2.0011,-0.10535,-0.88573,1.9461
-0.15105,-0.14624,2.0629,-0.14207,-0.081371,2.0746,-0.15466,0.24693,2.0666,-0.21379,0.41741,2.0255,-0.24188,0.16759,2.1598,-0.20456,-0.074027,2.2495,-0.30611,-0.2556,2.2142,-0.35292,-0.27454,2.2005,-0.032734,0.15066,1.9996,0.046195,-0.041598,1.9586,-0.025085,-0.19933,1.8768,-0.067908,-0.24142,1.8488,-0.19866,-0.20697,2.0996,-0.24027,-0.55911,2.0595,-0.18879,-0.89385,2.1148,-0.23747,-0.92825,2.059,-0.10418,-0.20688,2.0222,-0.053785,-0.54068,1.988,-0.055719,-0.85133,2.0014,-0.1044,-0.88574,1.9456
-0.1508,-0.14614,2.0676,-0.14142,-0.081778,2.0809,-0.15335,0.2453,2.0786,-0.21253,0.41443,2.0343,-0.20391,0.15812,2.2059,-0.20366,-0.078644,2.2552,-0.30947,-0.27706,2.2368,-0.34028,-0.34228,2.2353,-0.02983,0.15205,2.0121,0.046415,-0.040698,1.9627,-0.025757,-0.19654,1.8778,-0.072054,-0.2484,1.8457,-0.19901,-0.20708,2.1028,-0.2416,-0.56103,2.0617,-0.19479,-0.85248,2.1186,-0.23684,-0.88627,2.0595,-0.10343,-0.20651,2.0265,-0.054516,-0.54178,1.991,-0.055957,-0.85152,2.0017,-0.10395,-0.88555,1.9451
-0.15071,-0.14785,2.073,-0.14134,-0.083612,2.0879,-0.15327,0.2442,2.0871,-0.21411,0.41453,2.0483,-0.24142,0.16191,2.1765,-0.20479,-0.080128,2.2613,-0.30879,-0.26649,2.2276,-0.33832,-0.32881,2.2223,-0.027523,0.15149,2.0266,0.049127,-0.039977,1.9769,-0.022931,-0.19003,1.8815,-0.069173,-0.24154,1.8488,-0.19977,-0.20811,2.1059,-0.24291,-0.56146,2.0639,-0.19096,-0.84406,2.1456,-0.2195,-0.9043,2.1134,-0.10222,-0.20773,2.0329,-0.055675,-0.54561,1.9949,-0.056354,-0.85188,2.0033,-0.10292,-0.88571,1.9454
-0.15109,-0.14813,2.0818,-0.14115,-0.084502,2.099,-0.15411,0.24223,2.1029,-0.21543,0.41328,2.0562,-0.24561,0.16019,2.1962,-0.2079,-0.083946,2.2675,-0.30984,-0.26641,2.2267,-0.33204,-0.31572,2.2201,-0.023617,0.15191,2.0424,0.051313,-0.034544,1.9947,-0.021381,-0.17929,1.8911,-0.065143,-0.23182,1.8562,-0.19968,-0.20945,2.1117,-0.24438,-0.56299,2.0706,-0.18606,-0.84936,2.1723,-0.21396,-0.90911,2.146,-0.10306,-0.20834,2.0431,-0.055897,-0.54615,1.9992,-0.055733,-0.85523,2.0048,-0.0997,-0.88859,1.9446
-0.15342,-0.14438,2.093,-0.14311,-0.081345,2.1118,-0.15776,0.24419,2.1175,-0.21959,0.41555,2.0736,-0.24862,0.15962,2.2079,-0.21476,-0.085765,2.2771,-0.31124,-0.26799,2.2241,-0.33804,-0.33191,2.2118,-0.023062,0.15223,2.0556,0.053044,-0.033018,2.0105,-0.017458,-0.17562,1.9023,-0.061345,-0.22702,1.8661,-0.20475,-0.20774,2.1263,-0.24396,-0.56564,2.0811,-0.18814,-0.85287,2.1848,-0.22754,-0.88591,2.1233,-0.10295,-0.2062,2.0493,-0.055763,-0.54428,2.0041,-0.055968,-0.8546,2.0058,-0.099876,-0.8879,1.9456
-0.15447,-0.14319,2.1065,-0.14458,-0.080806,2.1278,-0.15977,0.24298,2.1347,-0.2226,0.41396,2.0874,-0.25366,0.15613,2.2186,-0.22042,-0.089408,2.2827,-0.31457,-0.27051,2.225,-0.33175,-0.32753,2.207,-0.021057,0.1527,2.0784,0.059082,-0.038225,2.0278,-0.016428,-0.17816,1.9113,-0.058643,-0.22801,1.8732,-0.20639,-0.20859,2.137,-0.24268,-0.56606,2.0939,-0.18778,-0.85679,2.2072,-0.22409,-0.88951,2.1436,-0.10244,-0.20469,2.0629,-0.054468,-0.54339,2.01,-0.055618,-0.85351,2.0073,-0.096603,-0.88655,1.9449
-0.15565,-0.14208,2.1197,-0.14652,-0.080052,2.1415,-0.16497,0.24102,2.1456,-0.23223,0.41046,2.1021,-0.25916,0.15481,2.2311,-0.22801,-0.092343,2.2883,-0.29208,-0.2585,2.23,-0.33312,-0.35378,2.1549,-0.019585,0.15526,2.0947,0.061826,-0.04268,2.0405,-0.011407,-0.1782,1.9248,-0.052681,-0.2266,1.8818,-0.20642,-0.20972,2.1506,-0.23674,-0.56296,2.1112,-0.1876,-0.85927,2.2155,-0.22251,-0.89214,2.1511,-0.1032,-0.20322,2.0767,-0.052573,-0.54086,2.0183,-0.061446,-0.86318,2.0076,-0.099861,-0.89654,1.9438
-0.15641,-0.14021,2.1352,-0.14733,-0.078476,2.1564,-0.16991,0.23944,2.1573,-0.23895,0.40904,2.1136,-0.27069,0.14899,2.2609,-0.236,-0.096438,2.2921,-0.31007,-0.27341,2.2326,-0.3347,-0.3196,2.1939,-0.021795,0.15589,2.1101,0.064092,-0.045513,2.0575,-0.006684,-0.17835,1.9318,-0.024951,-0.20704,1.9177,-0.2073,-0.21095,2.1687,-0.22848,-0.5611,2.1365,-0.18081,-0.8631,2.2273,-0.21769,-0.89642,2.1643,-0.10267,-0.20214,2.0908,-0.051911,-0.54063,2.0239,-0.063547,-0.8652,2.0085,-0.10048,-0.89896,1.944
-0.15564,-0.14028,2.153,-0.14872,-0.078326,2.1744,-0.17858,0.23872,2.1742,-0.2465,0.40753,2.1241,-0.27503,0.14837,2.2652,-0.24231,-0.098739,2.2987,-0.31234,-0.26967,2.2419,-0.34327,-0.31847,2.2087,-0.026907,0.15848,2.1262,0.076682,-0.025457,2.1053,0.020655,-0.15933,1.9769,-0.012026,-0.20701,1.9295,-0.20411,-0.21242,2.1864,-0.2146,-0.57171,2.1694,-0.17097,-0.87659,2.243,-0.22062,-0.94065,2.1669,-0.1007,-0.20176,2.1093,-0.051344,-0.54314,2.0402,-0.066093,-0.87151,2.0097,-0.10283,-0.90557,1.9453
-0.16057,-0.14392,2.1879,-0.15527,-0.080343,2.2043,-0.18166,0.2377,2.182,-0.2519,0.40612,2.1314,-0.27677,0.14255,2.267,-0.27606,-0.10279,2.2993,-0.3128,-0.27906,2.2456,-0.34153,-0.32797,2.2105,-0.030275,0.15964,2.1355,0.077005,-0.021097,2.1155,0.028065,-0.1583,1.9882,-0.00012073,-0.20533,1.9475,-0.20887,-0.21529,2.2253,-0.20663,-0.57208,2.1866,-0.17074,-0.87743,2.2481,-0.21968,-0.9458,2.1709,-0.10487,-0.20692,2.1473,-0.053773,-0.53921,2.0512,-0.06526,-0.87443,2.0134,-0.10148,-0.90924,1.9491
-0.15905,-0.14069,2.2009,-0.15545,-0.077418,2.2135,-0.18622,0.23806,2.1896,-0.26006,0.4067,2.1433,-0.28129,0.14125,2.2817,-0.27791,-0.10168,2.3041,-0.31431,-0.27863,2.2555,-0.3379,-0.31686,2.2182,-0.034646,0.16312,2.1446,0.082317,-0.0077278,2.1399,0.039966,-0.15708,2.0077,0.010724,-0.20529,1.9609,-0.20638,-0.21405,2.2473,-0.19939,-0.57539,2.2091,-0.16903,-0.87986,2.2563,-0.21717,-0.9474,2.1812,-0.10226,-0.20393,2.1565,-0.054907,-0.54002,2.0603,-0.064473,-0.88381,2.0251,-0.10121,-0.91964,1.9616
-0.15172,-0.13883,2.2174,-0.15108,-0.075449,2.2256,-0.1882,0.23727,2.1949,-0.26241,0.40639,2.149,-0.28466,0.11993,2.2981,-0.27778,-0.12467,2.3144,-0.31618,-0.29988,2.2559,-0.33447,-0.32688,2.2109,-0.035089,0.16544,2.1524,0.086785,-0.0045683,2.1509,0.051356,-0.15787,2.0261,0.025912,-0.20558,1.9825,-0.19988,-0.21418,2.2644,-0.18837,-0.58172,2.2369,-0.16697,-0.87871,2.2615,-0.21302,-0.94278,2.1862,-0.088059,-0.2005,2.1775,-0.060379,-0.5388,2.0701,-0.05274,-0.88956,2.0578,-0.08823,-0.92584,1.9939
-0.15048,-0.1356,2.2332,-0.15052,-0.072258,2.2393,-0.18746,0.23785,2.2018,-0.26438,0.40792,2.159,-0.28394,0.12007,2.3021,-0.2778,-0.1254,2.3232,-0.31751,-0.29966,2.2626,-0.32674,-0.30043,2.2272,-0.033307,0.16788,2.1616,0.093345,-0.0024474,2.1591,0.058763,-0.15323,2.0446,0.031477,-0.19061,2.0018,-0.2007,-0.20959,2.2811,-0.18741,-0.55795,2.2478,-0.16568,-0.87582,2.2654,-0.21133,-0.94276,2.1855,-0.086884,-0.19773,2.1931,-0.061319,-0.53771,2.0797,-0.042911,-0.90012,2.0825,-0.029778,-0.96935,2.0485
-0.1455,-0.13686,2.2435,-0.14608,-0.073496,2.2483,-0.18327,0.23712,2.2118,-0.26047,0.40655,2.167,-0.27953,0.12067,2.3127,-0.27509,-0.12595,2.3326,-0.31644,-0.29902,2.2689,-0.32071,-0.30078,2.2405,-0.030714,0.16923,2.1718,0.098389,-0.0011678,2.1643,0.063904,-0.15493,2.0499,0.037651,-0.2087,2.0067,-0.19736,-0.21058,2.2866,-0.18242,-0.56844,2.2593,-0.16393,-0.88005,2.2717,-0.21331,-0.94043,2.1868,-0.080788,-0.19627,2.2093,-0.057983,-0.53731,2.0863,-0.031681,-0.83565,2.1074,-0.040734,-0.89479,2.0566
-0.12461,-0.13252,2.2258,-0.12906,-0.07037,2.2363,-0.17774,0.23826,2.2216,-0.25335,0.40617,2.1745,-0.27579,0.12592,2.3203,-0.26999,-0.12087,2.3449,-0.30791,-0.29533,2.2841,-0.31518,-0.33849,2.2625,-0.024935,0.17071,2.1784,0.10418,-0.0054427,2.1785,0.065892,-0.15699,2.0564,0.042648,-0.19982,2.0199,-0.17278,-0.21088,2.2617,-0.17932,-0.56998,2.264,-0.16355,-0.87965,2.2728,-0.19722,-0.91618,2.2097,-0.059814,-0.18766,2.1857,-0.05043,-0.53943,2.1036,-0.016409,-0.84377,2.1347,-0.024507,-0.90037,2.0925
-0.1224,-0.13256,2.2288,-0.12676,-0.070352,2.2379,-0.17141,0.24055,2.2265,-0.24565,0.40893,2.1796,-0.27054,0.12906,2.3246,-0.26398,-0.11675,2.354,-0.29911,-0.29295,2.2987,-0.30677,-0.33986,2.2781,-0.021495,0.17097,2.1825,0.10578,-0.0058169,2.1802,0.068264,-0.1606,2.0622,0.051214,-0.20576,2.0295,-0.17015,-0.21005,2.2666,-0.17637,-0.57175,2.2666,-0.16332,-0.87705,2.2744,-0.19741,-0.91328,2.2113,-0.058645,-0.18818,2.1877,-0.041516,-0.54321,2.1175,0.002168,-0.84754,2.163,-0.0087556,-0.90424,2.1128
-0.11874,-0.13317,2.2337,-0.12196,-0.070647,2.2417,-0.15923,0.24275,2.2346,-0.23309,0.40882,2.1865,-0.26083,0.13194,2.3342,-0.25454,-0.11101,2.376,-0.28999,-0.28433,2.3097,-0.30246,-0.3036,2.2842,-0.015163,0.17073,2.1871,0.10683,-0.00506,2.1812,0.071336,-0.16061,2.0674,0.050018,-0.20767,2.0318,-0.16749,-0.20955,2.2712,-0.17464,-0.57215,2.2674,-0.16281,-0.87658,2.2752,-0.19851,-0.91231,2.2128,-0.055977,-0.19014,2.1925,-0.029173,-0.55094,2.1372,0.019071,-0.85174,2.1926,0.010776,-0.909,2.153
-0.11186,-0.13344,2.2418,-0.1151,-0.070302,2.2476,-0.15213,0.24433,2.2369,-0.2211,0.41171,2.1923,-0.25496,0.13393,2.3378,-0.24341,-0.10699,2.3833,-0.27262,-0.28355,2.326,-0.29618,-0.30948,2.2962,-0.003918,0.17,2.1911,0.11141,-0.0068053,2.1832,0.072225,-0.16191,2.0684,0.048042,-0.21074,2.0313,-0.15995,-0.20918,2.2823,-0.17319,-0.57285,2.2689,-0.16233,-0.87541,2.2756,-0.19724,-0.91152,2.213,-0.049892,-0.1928,2.2004,-0.011604,-0.56151,2.1676,0.032986,-0.8564,2.2109,0.018843,-0.91023,2.1707
-0.10557,-0.13503,2.2453,-0.10754,-0.071794,2.2501,-0.13842,0.2439,2.2388,-0.20003,0.41218,2.1961,-0.2451,0.13748,2.3433,-0.20419,-0.090947,2.3879,-0.26544,-0.28176,2.3338,-0.28892,-0.31302,2.3102,0.0042926,0.16753,2.1898,0.11535,-0.011292,2.181,0.072595,-0.16509,2.0668,0.042409,-0.22026,2.0228,-0.15383,-0.21042,2.2866,-0.172,-0.57242,2.2694,-0.16112,-0.87573,2.2762,-0.19753,-0.91172,2.2143,-0.045437,-0.19553,2.2034,0.00011592,-0.56572,2.1808,0.048611,-0.85585,2.2287,0.012201,-0.89184,2.1668
-0.096191,-0.14089,2.2534,-0.097448,-0.076707,2.256,-0.12213,0.24248,2.2405,-0.19607,0.40833,2.1996,-0.22528,0.13727,2.3446,-0.22266,-0.10472,2.3896,-0.25824,-0.28368,2.3428,-0.28299,-0.32609,2.3221,0.018681,0.16115,2.1883,0.1215,-0.021819,2.1763,0.073031,-0.17023,2.0637,0.041248,-0.22513,2.0205,-0.14426,-0.21453,2.297,-0.16886,-0.57224,2.2687,-0.16095,-0.87611,2.2756,-0.19843,-0.91227,2.2145,-0.038834,-0.20323,2.2113,0.014696,-0.56863,2.1957,0.054874,-0.85693,2.2364,0.017392,-0.89309,2.1753
-0.086149,-0.14651,2.2601,-0.087603,-0.080997,2.2603,-0.1122,0.24235,2.2392,-0.18872,0.40648,2.1999,-0.21027,0.13229,2.3494,-0.21042,-0.1092,2.3974,-0.23707,-0.28925,2.3548,-0.26578,-0.32629,2.3392,0.026685,0.15831,2.1856,0.1277,-0.025167,2.17,0.074559,-0.17453,2.061,0.040914,-0.22949,2.0194,-0.13608,-0.21613,2.3025,-0.16585,-0.57007,2.2657,-0.16102,-0.87424,2.2729,-0.20028,-0.91104,2.2133,-0.029249,-0.2101,2.2216,0.027506,-0.57354,2.21,0.056653,-0.85898,2.2393,0.017396,-0.89578,2.1797
-0.075766,-0.14824,2.2649,-0.077414,-0.082664,2.2637,-0.10192,0.24205,2.2385,-0.17597,0.40173,2.1967,-0.2002,0.13488,2.3469,-0.19633,-0.10445,2.4016,-0.22873,-0.28511,2.3673,-0.23389,-0.31586,2.365,0.039116,0.15461,2.1835,0.13245,-0.02609,2.1658,0.070068,-0.18819,2.0467,0.039732,-0.23646,2.0123,-0.12399,-0.2165,2.3095,-0.16066,-0.5689,2.2591,-0.16028,-0.87367,2.2714,-0.19916,-0.91086,2.2117,-0.019418,-0.21332,2.2264,0.03522,-0.57341,2.2206,0.056999,-0.86166,2.24,0.018114,-0.89885,2.1804
-0.065716,-0.15098,2.27,-0.067815,-0.085243,2.2674,-0.092293,0.24007,2.2383,-0.16106,0.39952,2.1937,-0.18589,0.14011,2.3366,-0.18626,-0.095532,2.4027,-0.21591,-0.27729,2.3767,-0.2248,-0.31355,2.3732,0.045474,0.15125,2.1835,0.1391,-0.027713,2.1618,0.071592,-0.18784,2.0461,0.040178,-0.2383,2.0107,-0.11543,-0.21474,2.3118,-0.15673,-0.56786,2.2516,-0.15188,-0.87079,2.2708,-0.18989,-0.90832,2.2108,-0.009099,-0.21606,2.236,0.040089,-0.56511,2.2273,0.057154,-0.8588,2.2405,0.019149,-0.89633,2.1805
-0.059072,-0.15167,2.2752,-0.061176,-0.086335,2.2716,-0.083393,0.23737,2.24,-0.15305,0.39684,2.1935,-0.18183,0.14086,2.3388,-0.15015,-0.080399,2.4173,-0.20574,-0.27394,2.377,-0.22044,-0.30962,2.3763,0.056664,0.14781,2.1863,0.14272,-0.028229,2.1622,0.089213,-0.17935,2.0527,0.049255,-0.23158,2.0133,-0.11024,-0.21411,2.3149,-0.15307,-0.56729,2.249,-0.13282,-0.87903,2.2746,-0.1737,-0.93552,2.2318,-0.0018291,-0.21719,2.2445,0.04219,-0.56103,2.2308,0.057619,-0.85863,2.2411,0.020489,-0.89631,2.1807
-0.053541,-0.15121,2.2774,-0.055636,-0.086252,2.2734,-0.07592,0.23632,2.2418,-0.1346,0.39611,2.1913,-0.17547,0.14325,2.3434,-0.14644,-0.077389,2.4222,-0.20091,-0.27023,2.3763,-0.2178,-0.30582,2.3778,0.068461,0.14755,2.192,0.14785,-0.035994,2.1642,0.083661,-0.17784,2.0489,0.048419,-0.23188,2.0073,-0.10456,-0.21308,2.3165,-0.14799,-0.56606,2.2464,-0.1151,-0.87837,2.2815,-0.14349,-0.92994,2.243,0.0027816,-0.21645,2.2467,0.039067,-0.55755,2.2332,0.057948,-0.85475,2.2408,0.021515,-0.89237,2.1799
-0.050265,-0.15034,2.2793,-0.0521,-0.085503,2.2752,-0.069192,0.23687,2.2459,-0.12333,0.40046,2.1916,-0.16939,0.14675,2.3448,-0.14555,-0.075997,2.4246,-0.20284,-0.24924,2.3879,-0.21656,-0.30445,2.3798,0.074065,0.14944,2.1949,0.15296,-0.036274,2.1717,0.069918,-0.17462,2.0521,0.059069,-0.22195,2.0085,-0.10127,-0.21195,2.3184,-0.14056,-0.56819,2.2471,-0.081779,-0.88157,2.2998,-0.11807,-0.91885,2.2387,0.0053859,-0.21593,2.248,0.040296,-0.55742,2.2336,0.044432,-0.86488,2.2478,0.0081407,-0.90216,2.1867
-0.047389,-0.15042,2.2812,-0.048799,-0.085502,2.2772,-0.061976,0.23815,2.251,-0.11522,0.40243,2.1944,-0.16524,0.14597,2.3504,-0.14446,-0.075585,2.425,-0.2022,-0.26713,2.3999,-0.21182,-0.29532,2.3891,0.079877,0.14915,2.2001,0.15801,-0.038148,2.1781,0.084692,-0.17574,2.0527,0.061899,-0.22464,2.0037,-0.099375,-0.21191,2.3196,-0.10442,-0.57304,2.2534,-0.075274,-0.88689,2.3041,-0.089311,-0.93462,2.2558,0.0081509,-0.21622,2.2496,0.042601,-0.55855,2.2345,0.044052,-0.86505,2.2494,0.051254,-0.92324,2.2201
-0.044188,-0.14958,2.283,-0.045749,-0.084647,2.2792,-0.058186,0.23928,2.2561,-0.10971,0.40447,2.1993,-0.16329,0.14847,2.3552,-0.14516,-0.075212,2.4266,-0.20344,-0.263,2.3946,-0.21233,-0.29707,2.3901,0.087263,0.14999,2.2124,0.16174,-0.04,2.1883,0.10262,-0.17768,2.0661,0.073567,-0.2062,2.0261,-0.097121,-0.21155,2.32,-0.08564,-0.56911,2.2606,-0.048722,-0.89291,2.3222,-0.07005,-0.94426,2.2882,0.01214,-0.21539,2.2519,0.043551,-0.5594,2.2359,0.045215,-0.86514,2.2536,0.055193,-0.91992,2.2229
-0.04246,-0.14904,2.2847,-0.043792,-0.083832,2.2813,-0.052904,0.24254,2.2626,-0.10289,0.41122,2.2056,-0.16176,0.14957,2.3573,-0.17049,-0.084086,2.4289,-0.20425,-0.26495,2.3961,-0.21236,-0.29704,2.3901,0.090695,0.1509,2.2186,0.16363,-0.039201,2.2027,0.10759,-0.17121,2.0726,0.078003,-0.20637,2.0276,-0.096026,-0.21121,2.3208,-0.08709,-0.56436,2.2684,-0.042274,-0.89437,2.3271,-0.075833,-0.93039,2.2636,0.013768,-0.21489,2.2534,0.044572,-0.56381,2.2383,0.056938,-0.86801,2.2502,0.023378,-0.90402,2.1868
-0.040672,-0.14838,2.2866,-0.042191,-0.083127,2.2834,-0.050604,0.24315,2.268,-0.097238,0.41173,2.2127,-0.1617,0.15064,2.3588,-0.17292,-0.085044,2.4248,-0.20515,-0.26694,2.3975,-0.23078,-0.30692,2.3857,0.093161,0.15149,2.2291,0.16874,-0.045505,2.2224,0.10831,-0.16525,2.0816,0.083271,-0.21048,2.0315,-0.094952,-0.21128,2.3209,-0.076527,-0.56934,2.2814,-0.032926,-0.90914,2.3318,-0.064562,-0.94484,2.2672,0.017348,-0.21378,2.2565,0.044158,-0.56451,2.2393,0.051075,-0.87194,2.2611,0.019439,-0.90764,2.1966
-0.038496,-0.14824,2.2902,-0.040575,-0.082653,2.2875,-0.051119,0.24508,2.2768,-0.091226,0.41814,2.2257,-0.16293,0.15084,2.3622,-0.17845,-0.080941,2.429,-0.20613,-0.26325,2.3996,-0.23163,-0.30393,2.3837,0.093651,0.15452,2.2406,0.16707,-0.043689,2.2327,0.11331,-0.1653,2.0907,0.088685,-0.20747,2.0409,-0.09326,-0.21189,2.3223,-0.071339,-0.58562,2.3089,-0.027027,-0.91091,2.3366,-0.056902,-0.94628,2.271,0.020337,-0.21283,2.261,0.042581,-0.56633,2.2423,0.054711,-0.86887,2.2614,0.024836,-0.90424,2.1958
-0.038494,-0.14648,2.2953,-0.040574,-0.081059,2.2935,-0.051163,0.24601,2.2866,-0.088241,0.4221,2.2333,-0.16448,0.14968,2.3662,-0.18328,-0.080516,2.4294,-0.21078,-0.26927,2.3984,-0.24056,-0.30694,2.3725,0.093828,0.15477,2.2502,0.16547,-0.042177,2.2433,0.10766,-0.16732,2.1066,0.086429,-0.21033,2.0469,-0.094308,-0.2111,2.3249,-0.075383,-0.59281,2.3226,-0.025153,-0.91705,2.34,-0.053739,-0.95205,2.2736,0.021279,-0.21062,2.2665,0.039293,-0.56592,2.2463,0.057579,-0.87286,2.26,0.028993,-0.90785,2.1936
-0.037847,-0.14488,2.3015,-0.040428,-0.079594,2.2995,-0.052931,0.24658,2.292,-0.088515,0.42352,2.2377,-0.16925,0.14658,2.3726,-0.18617,-0.091571,2.4276,-0.21806,-0.27267,2.3927,-0.24429,-0.31314,2.3646,0.09351,0.15528,2.2601,0.16556,-0.039839,2.2575,0.11133,-0.16391,2.1182,0.0876,-0.19962,2.0673,-0.09425,-0.21112,2.3311,-0.077828,-0.58588,2.3311,-0.025102,-0.90889,2.3418,-0.052512,-0.944,2.275,0.023101,-0.20849,2.2721,0.037773,-0.56608,2.2476,0.058071,-0.87285,2.2596,0.030661,-0.90796,2.1928
-0.036898,-0.14431,2.3083,-0.040038,-0.078935,2.306,-0.055024,0.24753,2.2985,-0.092716,0.42243,2.2442,-0.17057,0.14661,2.3745,-0.18695,-0.091422,2.4288,-0.22393,-0.27183,2.4047,-0.24045,-0.32901,2.3697,0.092067,0.15636,2.2665,0.16146,-0.044125,2.2643,0.11264,-0.17131,2.1264,0.08496,-0.20998,2.0665,-0.093124,-0.21108,2.3378,-0.078708,-0.5849,2.3371,-0.024465,-0.90874,2.344,-0.05091,-0.94393,2.2769,0.024669,-0.207,2.279,0.032775,-0.57086,2.2516,0.057803,-0.87248,2.2606,0.031358,-0.90767,2.1934
-0.036606,-0.14339,2.3141,-0.04037,-0.078223,2.3119,-0.05817,0.24723,2.3055,-0.093427,0.4219,2.2498,-0.17147,0.14609,2.3765,-0.1877,-0.091387,2.4288,-0.23888,-0.26751,2.3832,-0.24296,-0.32032,2.3552,0.09472,0.16062,2.2751,0.15972,-0.045654,2.2728,0.11008,-0.1727,2.1345,0.085266,-0.21004,2.0724,-0.093134,-0.21127,2.3421,-0.079662,-0.58115,2.3435,-0.023992,-0.90729,2.3462,-0.048676,-0.94242,2.2783,0.026377,-0.20525,2.286,0.02922,-0.57393,2.2566,0.055856,-0.87671,2.2664,0.031171,-0.91185,2.1986
-0.038135,-0.14432,2.3231,-0.041829,-0.079009,2.3199,-0.059085,0.24702,2.3092,-0.099052,0.41677,2.2578,-0.17282,0.14202,2.3824,-0.18808,-0.095438,2.4305,-0.24075,-0.2703,2.3806,-0.24685,-0.32179,2.3487,0.094344,0.16072,2.2786,0.166,-0.038646,2.2917,0.11253,-0.16021,2.1498,0.09225,-0.1912,2.1031,-0.09507,-0.21307,2.3525,-0.079685,-0.58073,2.349,-0.02204,-0.90616,2.3467,-0.047036,-0.94169,2.2792,0.024811,-0.20616,2.2955,0.024214,-0.57372,2.2635,0.04926,-0.88576,2.2782,0.024264,-0.92129,2.2107
-0.037949,-0.14436,2.3257,-0.041685,-0.078894,2.3229,-0.05893,0.24852,2.3164,-0.099846,0.41653,2.2615,-0.17307,0.14227,2.3854,-0.18819,-0.09506,2.4311,-0.2361,-0.26963,2.3749,-0.2521,-0.31507,2.3369,0.093048,0.16089,2.2833,0.16605,-0.039457,2.2919,0.1121,-0.16298,2.1519,0.089823,-0.20148,2.1023,-0.094865,-0.21322,2.3544,-0.084135,-0.57025,2.356,-0.020071,-0.90615,2.3476,-0.044863,-0.94132,2.2798,0.024886,-0.2057,2.2975,0.022526,-0.57154,2.2649,0.050345,-0.8883,2.2844,0.025553,-0.92348,2.2166
-0.037446,-0.14406,2.3279,-0.040963,-0.078651,2.3261,-0.056925,0.24819,2.3246,-0.1002,0.4178,2.2656,-0.17264,0.14191,2.3917,-0.18798,-0.094217,2.4365,-0.23845,-0.2655,2.3714,-0.24769,-0.30036,2.3431,0.093661,0.16003,2.2867,0.16583,-0.042259,2.2921,0.11236,-0.16847,2.1545,0.092793,-0.20255,2.1125,-0.094497,-0.21329,2.3565,-0.086212,-0.56775,2.3593,-0.016613,-0.90637,2.3485,-0.034423,-0.95592,2.3055,0.025194,-0.2053,2.2985,0.019174,-0.57116,2.2727,0.058055,-0.86532,2.2967,0.025911,-0.92534,2.2278
-0.038164,-0.14362,2.3325,-0.041377,-0.078057,2.3307,-0.056263,0.24953,2.3275,-0.099423,0.42021,2.2703,-0.17031,0.14599,2.3957,-0.188,-0.087156,2.4358,-0.2376,-0.25934,2.3728,-0.24519,-0.29629,2.341,0.093889,0.1608,2.289,0.16608,-0.043326,2.2927,0.11613,-0.17894,2.1638,0.092364,-0.21154,2.1191,-0.09487,-0.21263,2.3608,-0.086154,-0.56552,2.3601,-0.016527,-0.9053,2.349,-0.033157,-0.95487,2.3056,0.023515,-0.20441,2.3032,0.014584,-0.57148,2.2822,0.056734,-0.87669,2.3108,0.025781,-0.9316,2.2406
-0.037048,-0.14452,2.3329,-0.040495,-0.078518,2.3314,-0.055987,0.25031,2.329,-0.09855,0.42199,2.2752,-0.16791,0.14788,2.4019,-0.18521,-0.086715,2.4394,-0.23791,-0.25663,2.3719,-0.24308,-0.29374,2.3385,0.094591,0.1614,2.2911,0.16684,-0.044251,2.2931,0.11779,-0.18206,2.1663,0.097422,-0.2204,2.1238,-0.09059,-0.21714,2.3601,-0.086193,-0.56428,2.361,-0.015937,-0.90723,2.35,-0.030804,-0.95636,2.3048,0.023583,-0.20415,2.3036,0.013719,-0.57285,2.2905,0.055894,-0.87591,2.3124,0.022882,-0.93212,2.2462
