0.10033,-0.16958,3.0463,0.10518,-0.10577,3.0769,0.097101,0.23174,3.0803,0.075496,0.38374,3.0481,-0.062444,0.11067,3.1289,-0.092692,-0.11423,3.1496,-0.13766,-0.24641,2.9793,-0.1519,-0.28473,2.9334,0.25162,0.11624,3.0501,0.30397,-0.1281,3.0099,0.25048,-0.32665,2.9165,0.24659,-0.35137,2.8703,0.031964,-0.24455,3.0515,-0.0022048,-0.61017,3.0421,0.004247,-0.94389,3.1181,-0.015253,-0.97938,3.0374,0.17023,-0.23905,3.0243,0.17769,-0.6026,3.0044,0.18469,-0.944,3.0513,0.16519,-0.97949,2.9706
0.10338,-0.17018,3.0429,0.1091,-0.1064,3.0746,0.10161,0.23203,3.0779,0.078649,0.38462,3.0454,-0.059621,0.11162,3.1282,-0.086963,-0.12121,3.1445,-0.13977,-0.24518,2.9706,-0.15039,-0.27841,2.9298,0.25359,0.11431,3.0471,0.30612,-0.12752,3.0064,0.26351,-0.312,2.893,0.23805,-0.365,2.8483,0.034024,-0.24475,3.0483,-0.0069744,-0.60979,3.0299,0.0030373,-0.94683,3.1139,-0.016971,-0.98224,3.0333,0.17296,-0.24012,3.0208,0.17785,-0.60342,3.0033,0.18596,-0.93981,3.0523,0.19416,-0.99028,3.028
0.10428,-0.16928,3.041,0.11041,-0.10608,3.0742,0.10238,0.23158,3.0776,0.080154,0.38439,3.0439,-0.058692,0.11196,3.1283,-0.084947,-0.11882,3.1467,-0.14013,-0.2364,2.9693,-0.15517,-0.27199,2.9102,0.25456,0.11484,3.0452,0.31031,-0.12238,3.006,0.25987,-0.299,2.8894,0.23053,-0.34244,2.8367,0.034859,-0.24382,3.0458,-0.010781,-0.6095,3.0178,-0.0035457,-0.94941,3.1022,-0.024686,-1.0059,3.0578,0.17395,-0.23956,3.0186,0.17817,-0.60455,3.003,0.18723,-0.93854,3.0531,0.1954,-0.98873,3.0292
0.10445,-0.16971,3.039,0.11141,-0.10663,3.0734,0.10367,0.23098,3.0759,0.081852,0.38392,3.0414,-0.058094,0.112,3.1282,-0.084526,-0.11919,3.1468,-0.14012,-0.23023,2.9654,-0.15547,-0.26391,2.9073,0.25461,0.11365,3.0422,0.314,-0.11829,3.0043,0.26731,-0.2837,2.8711,0.23205,-0.32252,2.8194,0.034997,-0.24387,3.044,-0.012372,-0.60856,3.0128,-0.026308,-0.95892,3.0714,-0.047477,-0.99423,2.9911,0.17337,-0.24024,3.0158,0.17984,-0.60495,3.0017,0.18707,-0.93848,3.0522,0.1941,-0.98907,3.0284
0.10343,-0.17095,3.0359,0.11174,-0.10843,3.0719,0.10358,0.22784,3.0764,0.086205,0.37967,3.0421,-0.057685,0.11231,3.1285,-0.084695,-0.11925,3.1459,-0.14609,-0.215,2.9588,-0.1601,-0.24982,2.8966,0.24909,0.11263,3.036,0.31684,-0.10558,3.0021,0.25569,-0.25597,2.8554,0.21404,-0.29912,2.7972,0.034885,-0.24423,3.0421,-0.01446,-0.60978,3.0088,-0.038857,-0.95824,3.0586,-0.068621,-1.0159,3.0001,0.17005,-0.24154,3.0094,0.17997,-0.6069,3.0002,0.18712,-0.9396,3.0508,0.16395,-0.97474,2.9711
0.10245,-0.172,3.0326,0.11132,-0.10983,3.0692,0.10224,0.22351,3.0714,0.08655,0.38086,3.0425,-0.05715,0.11236,3.1275,-0.094586,-0.091808,3.1469,-0.1387,-0.19869,2.9583,-0.14539,-0.22073,2.8922,0.24956,0.11332,3.0327,0.31303,-0.098274,2.9937,0.25813,-0.23062,2.8288,0.20918,-0.26878,2.7729,0.034516,-0.24479,3.0398,-0.015068,-0.60813,3.0045,-0.054281,-0.94416,3.0289,-0.081519,-1.006,2.9732,0.16839,-0.24254,3.0057,0.18051,-0.60722,2.9985,0.18724,-0.94267,3.0517,0.16356,-0.9779,2.9721
0.10133,-0.17165,3.0309,0.11055,-0.10982,3.0687,0.10182,0.22317,3.07,0.084838,0.38272,3.039,-0.057757,0.11206,3.1234,-0.10093,-0.091398,3.1413,-0.14702,-0.19061,2.9501,-0.14587,-0.19964,2.8824,0.24985,0.11386,3.0299,0.31652,-0.081279,2.9891,0.22529,-0.17896,2.8144,0.17924,-0.20696,2.7847,0.033066,-0.24456,3.038,-0.015799,-0.60694,3.0031,-0.059971,-0.94151,3.0205,-0.085649,-0.9994,2.9683,0.16726,-0.24241,3.0035,0.18143,-0.60573,2.9967,0.18751,-0.94191,3.0507,0.16418,-0.97709,2.971
0.097488,-0.1713,3.027,0.10711,-0.10995,3.0661,0.095793,0.2232,3.0687,0.078057,0.38255,3.0316,-0.059602,0.11196,3.1219,-0.11614,-0.088563,3.1354,-0.15603,-0.16567,2.9335,-0.15649,-0.16183,2.8627,0.24705,0.11452,3.0252,0.31832,-0.077525,2.9737,0.22146,-0.143,2.7902,0.15228,-0.16871,2.7557,0.02969,-0.24459,3.0343,-0.016115,-0.60686,3.0024,-0.060834,-0.94096,3.0178,-0.087213,-0.99984,2.9667,0.1638,-0.24229,2.9989,0.18114,-0.60504,2.9936,0.1864,-0.92984,3.0486,0.16223,-0.96492,2.9691
0.09557,-0.17144,3.0257,0.10445,-0.11037,3.066,0.093437,0.22284,3.0677,0.077242,0.3827,3.0305,-0.065645,0.11076,3.1129,-0.1379,-0.086623,3.1031,-0.15583,-0.16526,2.9,-0.16837,-0.13863,2.8372,0.24655,0.11367,3.0235,0.31056,-0.077184,2.9551,0.20709,-0.11227,2.7711,0.1512,-0.1159,2.7303,0.028235,-0.24509,3.0327,-0.017497,-0.60658,3.0009,-0.061142,-0.93855,3.0157,-0.085952,-0.99613,2.9647,0.16155,-0.24244,2.9979,0.17954,-0.60251,2.989,0.18505,-0.92819,3.0465,0.16294,-0.9632,2.9664
0.092334,-0.17186,3.0242,0.10196,-0.11066,3.0654,0.089941,0.22428,3.0668,0.07157,0.38144,3.0276,-0.070397,0.11042,3.108,-0.15978,-0.08445,3.1097,-0.19744,-0.12636,2.8663,-0.18282,-0.13009,2.8259,0.23642,0.11198,3.0162,0.30795,-0.073007,2.9221,0.20726,-0.1253,2.8,0.12389,-0.1135,2.707,0.024525,-0.24541,3.0303,-0.017945,-0.60581,3.0002,-0.060769,-0.93812,3.0154,-0.085687,-0.99467,2.963,0.1589,-0.24278,2.9973,0.17632,-0.60143,2.9854,0.18496,-0.9301,3.0459,0.16191,-0.96512,2.9661
0.088157,-0.17061,3.0217,0.0976,-0.11003,3.0643,0.086678,0.2243,3.066,0.069049,0.38153,3.0262,-0.075963,0.11053,3.1042,-0.15984,-0.092997,3.1095,-0.19366,-0.12121,2.8819,-0.19042,-0.12349,2.8178,0.2359,0.11207,3.0164,0.2823,-0.080909,2.9256,0.16677,-0.10802,2.7333,0.13163,-0.12881,2.7245,0.019846,-0.24443,3.0273,-0.020367,-0.60634,2.9986,-0.062682,-0.94016,3.0136,-0.088855,-0.99788,2.9629,0.15517,-0.24205,2.9948,0.17389,-0.6025,2.9837,0.18441,-0.92989,3.0457,0.16265,-0.96476,2.9655
0.081722,-0.16815,3.0181,0.091693,-0.1087,3.0618,0.080232,0.22153,3.0631,0.064764,0.38245,3.025,-0.089281,0.11952,3.1067,-0.16254,-0.093483,3.1047,-0.19614,-0.10479,2.8923,-0.19405,-0.12277,2.8168,0.23254,0.11042,3.015,0.27545,-0.080335,2.9251,0.15651,-0.10768,2.7421,0.11374,-0.076832,2.679,0.01391,-0.24254,3.0232,-0.023489,-0.60458,2.9976,-0.064253,-0.94134,3.0115,-0.090183,-1.0001,2.961,0.14838,-0.2402,2.9915,0.17237,-0.60245,2.9825,0.18171,-0.93299,3.0465,0.16003,-0.96777,2.9661
0.078392,-0.16855,3.0153,0.086439,-0.10903,3.0602,0.075008,0.22278,3.061,0.063584,0.38423,3.0239,-0.09011,0.11387,3.0908,-0.17706,-0.10352,3.0994,-0.21816,-0.10739,2.8785,-0.20195,-0.12374,2.8194,0.23079,0.11061,3.0147,0.29869,-0.064954,2.9534,0.16075,-0.10178,2.7367,0.13906,-0.092865,2.7137,0.010794,-0.24285,3.0196,-0.025923,-0.60389,2.9974,-0.064805,-0.94087,3.0112,-0.087676,-0.99792,2.9565,0.14545,-0.24009,2.9895,0.16907,-0.60354,2.9811,0.18022,-0.93537,3.0459,0.16189,-0.97006,2.9647
0.074603,-0.17045,3.0124,0.083054,-0.11055,3.0584,0.073214,0.224,3.0597,0.058262,0.38541,3.0212,-0.090734,0.11372,3.0891,-0.18209,-0.10342,3.0933,-0.21562,-0.11362,2.8788,-0.21165,-0.12966,2.8162,0.22713,0.11279,3.0158,0.29509,-0.065155,2.9556,0.18621,-0.1173,2.7698,0.13563,-0.099227,2.711,0.0062931,-0.24438,3.0157,-0.028993,-0.60512,3.0012,-0.062195,-0.93942,3.0166,-0.084393,-0.99664,2.9625,0.14162,-0.24136,2.9872,0.16449,-0.60083,2.9774,0.17416,-0.94975,3.0501,0.15625,-0.98434,2.9688
0.070036,-0.17288,3.0101,0.078993,-0.11265,3.057,0.071044,0.22459,3.0589,0.056962,0.38551,3.0211,-0.092245,0.11348,3.0871,-0.17435,-0.081114,3.0887,-0.21892,-0.14692,2.8859,-0.22081,-0.14403,2.8125,0.22182,0.1132,3.0153,0.29259,-0.062849,2.9603,0.18919,-0.12208,2.7735,0.12695,-0.10327,2.7105,0.002469,-0.24574,3.0134,-0.03398,-0.60138,3.0024,-0.063118,-0.93901,3.0156,-0.085877,-0.99482,2.9617,0.13586,-0.24331,2.9848,0.16072,-0.5996,2.974,0.17242,-0.94621,3.0493,0.15461,-0.98071,2.968
0.067581,-0.17428,3.0073,0.076055,-0.11387,3.0548,0.067383,0.2254,3.0563,0.055923,0.38653,3.0208,-0.094425,0.11285,3.0825,-0.17888,-0.080366,3.0985,-0.21778,-0.15083,2.8936,-0.22068,-0.15067,2.8173,0.21493,0.11366,3.0143,0.26361,-0.084938,2.9377,0.16484,-0.15116,2.7464,0.1523,-0.1198,2.7623,5.1677e-05,-0.24655,3.0093,-0.035149,-0.60103,3.0028,-0.063542,-0.93933,3.0154,-0.086345,-0.99492,2.962,0.13388,-0.24406,2.9836,0.15546,-0.60061,2.9705,0.17144,-0.94616,3.0478,0.15413,-0.98067,2.9664
0.06651,-0.17394,3.005,0.075232,-0.11372,3.0531,0.067302,0.22602,3.0551,0.054579,0.39061,3.0171,-0.094954,0.11334,3.0809,-0.18003,-0.07718,3.1044,-0.21496,-0.16332,2.9052,-0.21701,-0.16698,2.8283,0.21198,0.11499,3.0135,0.25415,-0.095888,2.9524,0.17148,-0.16552,2.7562,0.13557,-0.17205,2.714,-0.0011725,-0.2457,3.0057,-0.036152,-0.60101,3.0021,-0.062284,-0.93287,3.0152,-0.086694,-0.99527,2.9625,0.13248,-0.24356,2.9819,0.15211,-0.60257,2.9686,0.1672,-0.94472,3.045,0.14984,-0.97916,2.9636
0.066304,-0.17434,3.0023,0.074555,-0.11409,3.0507,0.067455,0.22525,3.0501,0.053907,0.39111,3.0156,-0.09537,0.11421,3.076,-0.17739,-0.076808,3.1038,-0.20072,-0.16809,2.9064,-0.2159,-0.18881,2.8244,0.21092,0.11698,3.0131,0.2548,-0.095927,2.9544,0.21817,-0.19642,2.8185,0.15051,-0.20283,2.7253,-0.0010524,-0.24572,3.0029,-0.036225,-0.60138,3.0021,-0.062165,-0.93298,3.0152,-0.08613,-0.99602,2.9629,0.13202,-0.24341,2.9803,0.15063,-0.60355,2.9675,0.16659,-0.94047,3.042,0.15029,-0.975,2.9605
0.066509,-0.17496,3.0004,0.074835,-0.11472,3.0491,0.06858,0.22434,3.047,0.054381,0.38996,3.0139,-0.09515,0.11371,3.0736,-0.1728,-0.078244,3.0944,-0.20568,-0.17419,2.8997,-0.22209,-0.2059,2.8227,0.21054,0.11727,3.012,0.26227,-0.097799,2.9582,0.19402,-0.22764,2.7942,0.17218,-0.26886,2.7422,-0.001086,-0.24613,3.0006,-0.036687,-0.60172,3.0006,-0.063844,-0.93447,3.0139,-0.087382,-0.99704,2.9616,0.1322,-0.24381,2.979,0.15082,-0.60378,2.9676,0.16605,-0.9431,3.0421,0.15001,-0.97766,2.9606
0.067953,-0.17497,2.9979,0.075243,-0.11473,3.0473,0.070754,0.22501,3.0449,0.056333,0.38854,3.0095,-0.093607,0.11134,3.0683,-0.17065,-0.080055,3.0936,-0.20685,-0.18815,2.9057,-0.2237,-0.21965,2.8301,0.22245,0.11578,3.013,0.26761,-0.097923,2.9649,0.22405,-0.25288,2.8171,0.18518,-0.29467,2.7562,-0.0004942,-0.24674,2.9977,-0.035626,-0.60707,2.9868,-0.067146,-0.94941,3.01,-0.088419,-1.0114,2.9573,0.13409,-0.24387,2.9772,0.15346,-0.60512,2.9692,0.16597,-0.94291,3.0423,0.15224,-0.97741,2.9603
0.068735,-0.17516,2.9957,0.076193,-0.11437,3.0445,0.065885,0.22228,3.0366,0.056595,0.38743,3.0056,-0.092339,0.11094,3.0674,-0.1521,-0.093911,3.0805,-0.22081,-0.21066,2.906,-0.24637,-0.25341,2.8386,0.22208,0.11426,3.0084,0.27157,-0.10322,2.968,0.2314,-0.26302,2.8245,0.1935,-0.31216,2.7688,0.00065433,-0.24669,2.9969,-0.038833,-0.61398,2.9689,-0.068798,-0.95475,3.0066,-0.088839,-1.0152,2.956,0.13555,-0.24414,2.9735,0.15499,-0.60901,2.9707,0.16892,-0.9427,3.0455,0.15428,-0.97762,2.9637
0.071361,-0.17743,2.9932,0.078893,-0.11619,3.0412,0.068364,0.22165,3.0319,0.057665,0.38546,2.9994,-0.088383,0.10788,3.0633,-0.15139,-0.095068,3.0796,-0.24241,-0.22173,2.9185,-0.27351,-0.27518,2.8661,0.22208,0.11208,3.0017,0.27794,-0.10364,2.97,0.24078,-0.26997,2.8345,0.20637,-0.32336,2.7803,0.0034262,-0.2482,2.9964,-0.040042,-0.61082,2.9522,-0.071111,-0.95298,2.9962,-0.086624,-0.98806,2.9146,0.13836,-0.24617,2.9708,0.15627,-0.60973,2.9693,0.16946,-0.94268,3.0454,0.15395,-0.97776,2.9639
0.072476,-0.1796,2.9912,0.080268,-0.11826,3.0381,0.068854,0.21759,3.026,0.060644,0.38113,2.9916,-0.086625,0.10527,3.0605,-0.15362,-0.098769,3.0792,-0.25505,-0.22979,2.9347,-0.28623,-0.28655,2.884,0.22277,0.11056,2.996,0.28794,-0.10733,2.9719,0.25241,-0.28403,2.8504,0.21744,-0.33548,2.795,0.0037746,-0.25042,2.9954,-0.042333,-0.61242,2.9287,-0.069508,-0.94942,2.9854,-0.085878,-0.98473,2.9041,0.14068,-0.24922,2.9684,0.16058,-0.6107,2.9664,0.169,-0.94183,3.0443,0.15263,-0.97715,2.9631
0.073917,-0.18045,2.9882,0.081544,-0.11877,3.0339,0.071232,0.21662,3.0189,0.063161,0.37548,2.9817,-0.084598,0.10332,3.0519,-0.15454,-0.1024,3.0796,-0.2738,-0.25675,2.9848,-0.30374,-0.29952,2.9255,0.22277,0.10677,2.9878,0.29287,-0.11456,2.9699,0.2545,-0.29266,2.8515,0.22525,-0.32806,2.8053,0.0039025,-0.25149,2.9916,-0.046992,-0.59633,2.9009,-0.070168,-0.93603,2.9627,-0.092525,-0.99609,2.9126,0.14392,-0.25123,2.9668,0.16031,-0.60688,2.96,0.16913,-0.94708,3.0443,0.15271,-0.98264,2.9632
0.075886,-0.18198,2.9811,0.082643,-0.11998,3.0251,0.067493,0.21228,3.0076,0.063949,0.37458,2.9776,-0.085419,0.10162,3.0491,-0.16092,-0.11242,3.0848,-0.30217,-0.27167,3.0236,-0.35536,-0.32677,2.9959,0.22223,0.10526,2.982,0.29392,-0.11862,2.9638,0.25727,-0.30005,2.8507,0.23427,-0.34095,2.8037,0.0059582,-0.25331,2.9854,-0.052292,-0.59531,2.8863,-0.072396,-0.94016,2.9482,-0.080453,-1.0193,2.9324,0.14762,-0.25311,2.9607,0.16439,-0.61672,2.9593,0.16973,-0.94407,3.0415,0.15261,-0.97999,2.9608
0.075529,-0.18062,2.9744,0.081329,-0.11865,3.0173,0.065339,0.21372,3.0019,0.062694,0.37029,2.9625,-0.087215,0.10173,3.0444,-0.17874,-0.1241,3.0928,-0.32474,-0.28591,3.0615,-0.37133,-0.34598,3.0447,0.22455,0.10498,2.979,0.29565,-0.12012,2.9592,0.25827,-0.30225,2.8476,0.22977,-0.34113,2.7971,0.00537,-0.25227,2.9794,-0.063163,-0.59395,2.8631,-0.088646,-0.94017,2.9039,-0.11385,-0.99024,2.8419,0.14808,-0.25305,2.9542,0.16303,-0.62249,2.9547,0.16911,-0.94522,3.0399,0.15266,-0.98108,2.9589
0.072407,-0.18211,2.9631,0.079379,-0.12049,3.006,0.062431,0.21253,2.9955,0.056432,0.36772,2.9521,-0.093516,0.099542,3.0359,-0.18684,-0.12739,3.1046,-0.33147,-0.28999,3.1147,-0.37566,-0.34663,3.1237,0.21718,0.10415,2.9608,0.2928,-0.11887,2.9502,0.25114,-0.2982,2.8353,0.2238,-0.34045,2.7875,0.0011458,-0.2543,2.9659,-0.068837,-0.59304,2.8474,-0.10819,-0.92983,2.8599,-0.12765,-0.98535,2.8025,0.14601,-0.25516,2.9424,0.15852,-0.62957,2.9466,0.16927,-0.94754,3.0395,0.15046,-0.98314,2.9588
0.067271,-0.17905,2.9457,0.074694,-0.11835,2.9884,0.057038,0.21139,2.9807,0.051842,0.3654,2.942,-0.099206,0.098603,3.0272,-0.18774,-0.12246,3.1141,-0.32762,-0.28132,3.1349,-0.36716,-0.33232,3.1624,0.21503,0.10811,2.9462,0.28154,-0.12571,2.9287,0.24742,-0.31105,2.8232,0.21701,-0.32417,2.7704,-0.0040086,-0.25258,2.9512,-0.077647,-0.59612,2.8254,-0.12831,-0.93891,2.8109,-0.15487,-1.01,2.7632,0.1412,-0.25244,2.922,0.1555,-0.62938,2.9406,0.16994,-0.95522,3.0411,0.16514,-1.0119,2.9967
0.061061,-0.17929,2.9323,0.067963,-0.11934,2.9756,0.054038,0.20942,2.9685,0.04708,0.36334,2.9319,-0.1045,0.095043,3.0102,-0.18927,-0.1166,3.1186,-0.31494,-0.26599,3.1922,-0.35919,-0.3196,3.2252,0.21223,0.1075,2.9383,0.27117,-0.12865,2.9094,0.22964,-0.30701,2.7924,0.19773,-0.36036,2.7365,-0.010709,-0.25235,2.9405,-0.086401,-0.59825,2.8054,-0.15437,-0.93303,2.7523,-0.18453,-0.99287,2.6894,0.13373,-0.25322,2.9038,0.15212,-0.63005,2.9323,0.17061,-0.95829,3.0409,0.1525,-0.99356,2.96
0.04766,-0.18848,2.9083,0.057179,-0.12835,2.9518,0.041422,0.20304,2.9516,0.023254,0.35667,2.9034,-0.1099,0.090894,3.0015,-0.1883,-0.11276,3.1259,-0.30646,-0.2509,3.2249,-0.34543,-0.30118,3.2641,0.19596,0.10214,2.9112,0.2577,-0.13203,2.8843,0.22041,-0.31294,2.7707,0.18188,-0.36148,2.7149,-0.024796,-0.26015,2.9125,-0.096998,-0.59799,2.7844,-0.18331,-0.91777,2.6985,-0.20631,-0.95281,2.6186,0.12193,-0.25979,2.8846,0.14709,-0.63229,2.9205,0.20641,-0.97159,3.0724,0.15122,-0.99392,2.9574
0.037712,-0.19233,2.8924,0.04884,-0.13183,2.9354,0.03196,0.20193,2.9359,0.017973,0.35351,2.901,-0.11803,0.086029,2.9915,-0.187,-0.10814,3.1295,-0.30104,-0.23734,3.2426,-0.34809,-0.28355,3.2817,0.18185,0.098443,2.8889,0.24544,-0.12847,2.8582,0.18567,-0.29412,2.7292,0.14258,-0.34271,2.6765,-0.03307,-0.26314,2.9005,-0.11035,-0.60245,2.7551,-0.20069,-0.91482,2.6523,-0.23155,-0.98267,2.58,0.10893,-0.26448,2.8636,0.14346,-0.63203,2.9102,0.20398,-0.96302,3.0613,0.18441,-0.99613,2.9838
0.019651,-0.19691,2.8665,0.033145,-0.13757,2.9114,0.022119,0.19708,2.9176,0.0064864,0.35384,2.8953,-0.12912,0.0783,2.9787,-0.1874,-0.10643,3.1325,-0.30022,-0.2303,3.2513,-0.35029,-0.2742,3.2869,0.17219,0.09298,2.8707,0.22224,-0.14707,2.8137,0.16215,-0.32008,2.6962,0.1257,-0.35451,2.6572,-0.055175,-0.26876,2.8716,-0.12019,-0.6055,2.7361,-0.21925,-0.8933,2.6066,-0.24683,-0.92792,2.5282,0.091446,-0.26951,2.8377,0.13715,-0.6467,2.8929,0.20325,-0.96174,3.0559,0.18266,-0.99456,2.9786
0.0031905,-0.20132,2.8401,0.019627,-0.14277,2.8854,0.00787,0.1925,2.8976,-0.0081411,0.34799,2.8799,-0.13748,0.077531,2.9656,-0.19047,-0.10438,3.1379,-0.30564,-0.22298,3.259,-0.36394,-0.26602,3.2986,0.15264,0.08288,2.8376,0.19167,-0.17968,2.7719,0.11322,-0.3381,2.6437,0.070011,-0.38777,2.5923,-0.06951,-0.27163,2.8484,-0.14083,-0.61289,2.7029,-0.24046,-0.89778,2.5624,-0.27718,-0.94339,2.4878,0.073098,-0.27323,2.8071,0.13723,-0.64685,2.8881,0.1941,-0.93944,3.0405,0.16912,-0.97185,2.9643
-0.015209,-0.22593,2.8096,0.0017473,-0.16559,2.8571,-0.0059006,0.18475,2.8819,-0.027845,0.34218,2.8615,-0.15159,0.060998,2.9223,-0.19813,-0.10341,3.1247,-0.30753,-0.21455,3.2549,-0.36546,-0.25563,3.297,0.11773,0.062785,2.7978,0.17003,-0.18389,2.736,0.07865,-0.34128,2.6158,0.035407,-0.39203,2.5654,-0.083221,-0.29113,2.8204,-0.16664,-0.61542,2.6599,-0.25251,-0.90236,2.5436,-0.29236,-0.95195,2.4723,0.051312,-0.29349,2.7758,0.12496,-0.66502,2.8645,0.19181,-0.93253,3.0391,0.17181,-0.96456,2.9613
-0.039615,-0.23436,2.7784,-0.021595,-0.17495,2.8272,-0.028092,0.17627,2.8546,-0.046809,0.33104,2.8439,-0.16297,0.051359,2.8919,-0.20747,-0.10249,3.1051,-0.31965,-0.20512,3.2468,-0.37051,-0.23281,3.2775,0.0944,0.060343,2.7719,0.14064,-0.19199,2.7011,0.045722,-0.34764,2.5807,0.013681,-0.38428,2.5498,-0.10898,-0.29758,2.7881,-0.17949,-0.60841,2.6325,-0.26694,-0.91862,2.5214,-0.28513,-0.96607,2.4523,0.022823,-0.29919,2.7393,0.12104,-0.67057,2.8529,0.18806,-0.92661,3.032,0.17047,-0.9584,2.9535
-0.071878,-0.23775,2.7436,-0.051126,-0.18065,2.7931,-0.047199,0.16984,2.8307,-0.063753,0.32451,2.8249,-0.18715,0.040237,2.8646,-0.21282,-0.13545,3.0966,-0.35039,-0.21041,3.2406,-0.40642,-0.23065,3.2458,0.065034,0.056051,2.7404,0.10326,-0.19356,2.6502,0.010704,-0.35995,2.5447,-0.032516,-0.41789,2.5028,-0.14424,-0.29991,2.7536,-0.19841,-0.59583,2.5922,-0.27107,-0.91563,2.5089,-0.30627,-0.94919,2.4352,-0.0090776,-0.3034,2.7029,0.10078,-0.66389,2.8198,0.18369,-0.91771,3.0147,0.1668,-0.94918,2.936
-0.088355,-0.23882,2.7196,-0.068939,-0.18205,2.7702,-0.07117,0.16319,2.8024,-0.086388,0.32188,2.8084,-0.20018,0.035259,2.8335,-0.23823,-0.14784,3.0563,-0.39541,-0.22434,3.1966,-0.43575,-0.24949,3.2166,0.045305,0.051187,2.7191,0.075261,-0.19628,2.6148,-0.018124,-0.36532,2.515,-0.058578,-0.42898,2.4793,-0.1513,-0.29953,2.7363,-0.22646,-0.58859,2.5595,-0.28129,-0.90786,2.4777,-0.31483,-0.94147,2.4023,-0.035804,-0.30218,2.6706,0.079048,-0.64074,2.7743,0.18616,-0.92765,3.0087,0.16765,-0.9594,2.9303
-0.11868,-0.25397,2.675,-0.098549,-0.19688,2.7264,-0.092023,0.16023,2.7748,-0.1075,0.32047,2.7816,-0.22218,0.026569,2.7985,-0.25705,-0.16972,3.0146,-0.40581,-0.24773,3.149,-0.45831,-0.25612,3.1615,0.017289,0.041232,2.6825,0.057187,-0.19136,2.5884,-0.036083,-0.36031,2.4898,-0.079444,-0.42106,2.4521,-0.18342,-0.31562,2.6899,-0.25395,-0.58268,2.523,-0.28856,-0.91002,2.4665,-0.32223,-0.94346,2.393,-0.061772,-0.31425,2.6301,0.035573,-0.65871,2.7058,0.18596,-0.94418,2.9815,0.17407,-0.97535,2.9017
-0.13486,-0.24706,2.6561,-0.11498,-0.19149,2.7107,-0.10916,0.16024,2.7545,-0.11949,0.32011,2.7587,-0.23892,0.033717,2.7598,-0.28517,-0.16694,2.9609,-0.43399,-0.26313,3.0746,-0.4843,-0.28767,3.1002,-0.0026797,0.037442,2.6594,0.025602,-0.19241,2.5569,-0.05286,-0.36881,2.4585,-0.086853,-0.42802,2.4274,-0.20126,-0.3063,2.6605,-0.2675,-0.57617,2.5074,-0.29308,-0.90727,2.4601,-0.32333,-0.94055,2.3828,-0.082236,-0.30902,2.6104,0.0086758,-0.67786,2.6485,0.18647,-0.94167,2.9804,0.069662,-0.97864,2.7891
-0.16629,-0.24658,2.6253,-0.14568,-0.19144,2.6806,-0.1317,0.16302,2.7333,-0.1384,0.32218,2.7418,-0.25985,0.047948,2.7579,-0.3085,-0.17399,2.9175,-0.46662,-0.28921,3.008,-0.51748,-0.31722,3.0225,-0.011097,0.038896,2.649,0.016074,-0.19044,2.546,-0.066388,-0.35583,2.4315,-0.095849,-0.41892,2.4029,-0.22895,-0.30292,2.6343,-0.28457,-0.5889,2.4864,-0.29847,-0.90924,2.4533,-0.32876,-0.94253,2.3763,-0.10726,-0.30934,2.5838,-0.06275,-0.65403,2.5527,0.072095,-0.91105,2.7798,0.041808,-0.94434,2.7028
-0.17763,-0.24155,2.6136,-0.15692,-0.1871,2.6699,-0.14289,0.16526,2.72,-0.15907,0.32245,2.7093,-0.27965,0.053531,2.741,-0.35485,-0.1608,2.8713,-0.50535,-0.31068,2.9248,-0.55848,-0.35266,2.9273,-0.024212,0.043637,2.6353,0.0040248,-0.18915,2.5347,-0.072175,-0.37686,2.4234,-0.1021,-0.41534,2.3749,-0.24988,-0.29856,2.6133,-0.29096,-0.59394,2.4779,-0.29909,-0.91196,2.4514,-0.32812,-0.94521,2.3732,-0.12176,-0.30504,2.572,-0.11249,-0.64436,2.4785,0.01204,-0.92218,2.679,0.027737,-0.9753,2.6331
-0.19671,-0.23074,2.5997,-0.17716,-0.17694,2.6557,-0.16621,0.17063,2.7002,-0.17086,0.32215,2.6892,-0.3161,0.050011,2.7341,-0.38622,-0.17443,2.8518,-0.53744,-0.3231,2.827,-0.58358,-0.36249,2.8202,-0.028659,0.04748,2.6297,-0.0079603,-0.1925,2.5225,-0.067018,-0.35912,2.397,-0.09009,-0.40296,2.3625,-0.27424,-0.2932,2.6019,-0.3026,-0.60495,2.4626,-0.29954,-0.91666,2.4514,-0.32671,-0.94993,2.3724,-0.13004,-0.30036,2.5628,-0.14402,-0.62814,2.416,-0.057131,-0.94174,2.5633,-0.05132,-1.0055,2.5283
-0.20796,-0.22152,2.5917,-0.18691,-0.1687,2.6467,-0.17377,0.17355,2.6859,-0.18296,0.33021,2.6712,-0.32538,0.051447,2.7249,-0.41252,-0.16974,2.8137,-0.56028,-0.31784,2.7387,-0.60592,-0.3687,2.7149,-0.042854,0.051669,2.6173,-0.0091325,-0.18758,2.5181,-0.063124,-0.35452,2.39,-0.078258,-0.3914,2.3483,-0.28434,-0.28893,2.5958,-0.32116,-0.60972,2.4641,-0.29949,-0.91978,2.4506,-0.27823,-0.9676,2.4069,-0.14642,-0.2884,2.549,-0.1993,-0.60692,2.364,-0.15387,-0.91485,2.3944,-0.13826,-0.98766,2.3725
-0.21285,-0.21504,2.5851,-0.19505,-0.16218,2.6408,-0.18534,0.17591,2.6752,-0.20192,0.34138,2.6507,-0.34384,0.055305,2.7062,-0.43675,-0.15815,2.7671,-0.57392,-0.29933,2.6564,-0.61797,-0.34589,2.6198,-0.047878,0.055829,2.6116,-0.0065716,-0.17395,2.5195,-0.052497,-0.3426,2.3902,-0.06561,-0.39813,2.3292,-0.29097,-0.28401,2.589,-0.32618,-0.59861,2.4586,-0.30367,-0.90773,2.4479,-0.29635,-0.9299,2.3631,-0.14803,-0.28274,2.5435,-0.22758,-0.56671,2.3239,-0.22764,-0.87688,2.2442,-0.26408,-0.91937,2.2202
-0.2198,-0.20531,2.5785,-0.20295,-0.15372,2.6342,-0.19585,0.17927,2.6678,-0.21488,0.339,2.6389,-0.35697,0.059642,2.7001,-0.45409,-0.14835,2.7368,-0.58038,-0.26137,2.5966,-0.62516,-0.3051,2.5421,-0.054897,0.061007,2.6049,-0.0028472,-0.15938,2.5208,-0.0321,-0.33132,2.3911,-0.038923,-0.39073,2.3334,-0.29792,-0.27652,2.583,-0.34331,-0.58041,2.4739,-0.31079,-0.92298,2.4342,-0.3339,-0.90521,2.3645,-0.15277,-0.27516,2.5372,-0.24078,-0.54289,2.3028,-0.29108,-0.80003,2.1242,-0.31512,-0.83316,2.0439
-0.22407,-0.19681,2.5722,-0.20878,-0.14563,2.628,-0.211,0.18292,2.6577,-0.22385,0.33616,2.6257,-0.36846,0.065529,2.6951,-0.47066,-0.12557,2.7013,-0.58777,-0.22608,2.5432,-0.6308,-0.26723,2.4845,-0.060793,0.066463,2.6002,-0.0012394,-0.15332,2.5225,-0.023537,-0.32647,2.3932,-0.025914,-0.38652,2.3357,-0.30253,-0.26892,2.5754,-0.32118,-0.60263,2.4448,-0.29839,-0.93393,2.4478,-0.31731,-0.93549,2.3596,-0.15278,-0.26579,2.5322,-0.24444,-0.50267,2.2753,-0.31324,-0.75618,2.0803,-0.3368,-0.78937,1.9998
-0.22931,-0.19279,2.566,-0.21486,-0.14199,2.622,-0.22019,0.18469,2.6534,-0.23373,0.33596,2.6185,-0.37749,0.068547,2.6898,-0.47581,-0.12436,2.6965,-0.59045,-0.19489,2.5205,-0.63569,-0.23124,2.4381,-0.071469,0.071479,2.5957,0.0016095,-0.143,2.5253,-0.012641,-0.31785,2.3977,0.005911,-0.35955,2.3627,-0.30608,-0.26586,2.5693,-0.32222,-0.6047,2.4412,-0.30001,-0.92994,2.4478,-0.32096,-0.92998,2.3605,-0.1579,-0.26047,2.5256,-0.25526,-0.47624,2.2761,-0.32382,-0.71298,2.0747,-0.3475,-0.74615,1.9943
-0.24379,-0.18415,2.5618,-0.22698,-0.13565,2.6178,-0.22437,0.18592,2.6514,-0.24078,0.33438,2.6139,-0.387,0.069679,2.6907,-0.49724,-0.11103,2.6726,-0.60628,-0.17452,2.4854,-0.64001,-0.195,2.4096,-0.076846,0.074467,2.5923,0.002898,-0.1419,2.5251,0.031572,-0.31784,2.4042,0.027801,-0.38395,2.3533,-0.32382,-0.25868,2.5678,-0.32418,-0.60001,2.441,-0.30275,-0.92092,2.4464,-0.32355,-0.922,2.3587,-0.17388,-0.2525,2.5168,-0.27129,-0.47529,2.2742,-0.32046,-0.72164,2.0615,-0.34497,-0.75477,1.9813
-0.2478,-0.18138,2.5567,-0.23074,-0.13339,2.6132,-0.22721,0.18719,2.6492,-0.25506,0.33223,2.6058,-0.39214,0.070734,2.6892,-0.51514,-0.10094,2.6583,-0.60385,-0.14287,2.4834,-0.64153,-0.15871,2.386,-0.080099,0.077033,2.589,0.0057272,-0.13975,2.5244,0.038842,-0.31762,2.4074,0.042923,-0.34745,2.3946,-0.32802,-0.25572,2.5618,-0.32513,-0.59869,2.4413,-0.30629,-0.91616,2.4415,-0.32542,-0.91824,2.3532,-0.17807,-0.25011,2.5106,-0.27584,-0.47163,2.2622,-0.32059,-0.73858,2.0572,-0.34539,-0.77173,1.977
-0.2513,-0.17905,2.5525,-0.23367,-0.13145,2.6094,-0.23067,0.1889,2.6483,-0.25934,0.33198,2.6034,-0.3985,0.070714,2.6902,-0.52975,-0.097727,2.6593,-0.6052,-0.12517,2.4958,-0.64131,-0.12846,2.3879,-0.08616,0.079015,2.585,0.009076,-0.13739,2.5228,0.046453,-0.31555,2.4084,0.044339,-0.34592,2.395,-0.33022,-0.25469,2.5586,-0.3253,-0.59943,2.439,-0.30669,-0.91559,2.4416,-0.32313,-0.91993,2.3524,-0.18281,-0.24626,2.5033,-0.2821,-0.48031,2.2465,-0.31409,-0.78462,2.0684,-0.34011,-0.8178,1.9886
-0.25484,-0.17756,2.5486,-0.23723,-0.13006,2.6056,-0.23749,0.1901,2.6463,-0.26457,0.33198,2.6009,-0.40314,0.070777,2.6922,-0.54288,-0.10261,2.6486,-0.6251,-0.10966,2.4428,-0.6404,-0.10876,2.3874,-0.089332,0.079861,2.5828,0.010955,-0.13625,2.5225,0.057951,-0.31432,2.4133,0.050701,-0.34381,2.3997,-0.33392,-0.25373,2.5536,-0.32583,-0.60173,2.4379,-0.30627,-0.91467,2.4415,-0.32195,-0.92013,2.3522,-0.18502,-0.24521,2.4998,-0.28257,-0.47686,2.2476,-0.29649,-0.81231,2.1,-0.32335,-0.84552,2.0204
-0.25841,-0.17728,2.5451,-0.23977,-0.12969,2.6021,-0.24044,0.19151,2.6445,-0.26862,0.33235,2.5995,-0.40479,0.073709,2.694,-0.5217,-0.10195,2.6911,-0.60163,-0.090482,2.5005,-0.63051,-0.082339,2.4127,-0.097682,0.080577,2.5788,0.01135,-0.13616,2.5222,0.061604,-0.31395,2.4142,0.050165,-0.34755,2.4064,-0.33773,-0.2527,2.5489,-0.32584,-0.60154,2.4375,-0.31452,-0.9168,2.433,-0.31686,-0.92237,2.3528,-0.18827,-0.245,2.4975,-0.2805,-0.4826,2.2448,-0.27022,-0.81359,2.1481,-0.29879,-0.84684,2.0692
-0.26057,-0.17651,2.544,-0.24187,-0.12848,2.6009,-0.24379,0.19321,2.6415,-0.26943,0.33482,2.5996,-0.40554,0.074984,2.6946,-0.51658,-0.10011,2.7092,-0.59842,-0.093568,2.5486,-0.62661,-0.077209,2.4433,-0.098047,0.081833,2.578,0.011963,-0.13586,2.5214,0.06114,-0.31465,2.4141,0.075862,-0.36909,2.3872,-0.33953,-0.25205,2.5479,-0.36398,-0.57355,2.4666,-0.31354,-0.91976,2.4339,-0.31665,-0.93389,2.3857,-0.19049,-0.24439,2.4971,-0.27213,-0.49148,2.2562,-0.23518,-0.85445,2.2136,-0.25653,-0.9056,2.1579
-0.26218,-0.17656,2.5431,-0.24275,-0.12807,2.5999,-0.24527,0.19558,2.641,-0.27036,0.3371,2.6006,-0.40506,0.07878,2.6964,-0.49555,-0.10527,2.7446,-0.58967,-0.091842,2.5693,-0.62404,-0.080448,2.4623,-0.10235,0.082685,2.5756,0.011406,-0.13567,2.521,0.059427,-0.31496,2.4137,0.073632,-0.36954,2.3868,-0.34059,-0.2516,2.5468,-0.36197,-0.57235,2.4662,-0.30307,-0.92375,2.4503,-0.29304,-0.93865,2.3685,-0.19275,-0.24415,2.4969,-0.25798,-0.51508,2.2709,-0.20634,-0.87354,2.2746,-0.22183,-0.92688,2.223
-0.26273,-0.17695,2.5398,-0.24312,-0.1281,2.5971,-0.24594,0.19682,2.6402,-0.27071,0.33865,2.6004,-0.40423,0.08029,2.6963,-0.47905,-0.1077,2.7524,-0.61215,-0.10791,2.5771,-0.63505,-0.1081,2.507,-0.10236,0.084711,2.5737,0.0099331,-0.1346,2.5202,0.052815,-0.31543,2.4127,0.065942,-0.36982,2.386,-0.34045,-0.25314,2.5417,-0.32971,-0.62632,2.4631,-0.29846,-0.9323,2.4587,-0.329,-0.96559,2.3806,-0.19309,-0.24298,2.4955,-0.24397,-0.54423,2.2881,-0.17848,-0.88571,2.3434,-0.20901,-0.91899,2.2653
-0.2618,-0.17508,2.5403,-0.2419,-0.12634,2.5973,-0.2449,0.19813,2.6397,-0.27082,0.3409,2.5972,-0.40257,0.081424,2.6978,-0.46902,-0.11043,2.76,-0.6292,-0.14479,2.5639,-0.6332,-0.13043,2.5353,-0.10066,0.087472,2.5737,0.0072169,-0.1338,2.5191,0.037433,-0.31726,2.4107,0.036086,-0.344,2.3989,-0.33931,-0.25216,2.5427,-0.33482,-0.60733,2.4632,-0.30437,-0.91801,2.4525,-0.33533,-0.9513,2.3746,-0.1934,-0.2416,2.496,-0.21863,-0.5626,2.3176,-0.13988,-0.89788,2.4113,-0.15754,-0.95181,2.3664
-0.26135,-0.17481,2.5411,-0.24086,-0.12562,2.5978,-0.24367,0.20137,2.6393,-0.2698,0.34609,2.6009,-0.39588,0.086371,2.7014,-0.45182,-0.11182,2.7658,-0.60636,-0.15363,2.601,-0.62794,-0.17356,2.5702,-0.10045,0.08846,2.5736,0.0045434,-0.13351,2.5172,0.022629,-0.31864,2.4081,0.019271,-0.34794,2.3951,-0.33508,-0.25162,2.5473,-0.33045,-0.60191,2.4609,-0.30558,-0.90618,2.4567,-0.33765,-0.9395,2.3792,-0.19413,-0.2404,2.4963,-0.20661,-0.56274,2.3358,-0.10552,-0.89325,2.4795,-0.087087,-0.97265,2.477
-0.25948,-0.1764,2.5439,-0.23816,-0.12567,2.5999,-0.23802,0.20529,2.6398,-0.26821,0.34726,2.6019,-0.39061,0.087209,2.7042,-0.43958,-0.10889,2.7721,-0.59456,-0.18896,2.6378,-0.63554,-0.22558,2.6021,-0.097964,0.090178,2.5743,0.0027088,-0.13461,2.5154,-0.00088124,-0.32045,2.4052,-0.0098373,-0.37812,2.3658,-0.33139,-0.25356,2.5517,-0.31932,-0.59954,2.4644,-0.30594,-0.9013,2.4594,-0.33876,-0.93464,2.3823,-0.19516,-0.24153,2.4984,-0.17433,-0.55839,2.3643,-0.084871,-0.88517,2.5223,-0.1177,-0.91852,2.4453
-0.25581,-0.17913,2.5487,-0.23471,-0.12748,2.6045,-0.23137,0.20783,2.6444,-0.2638,0.34857,2.6071,-0.36257,0.08854,2.693,-0.43008,-0.11486,2.7797,-0.58401,-0.21071,2.6569,-0.62652,-0.24995,2.6312,-0.095171,0.094677,2.5764,0.0012476,-0.13364,2.5152,-0.011504,-0.31747,2.402,-0.02356,-0.37311,2.3625,-0.3249,-0.25475,2.5591,-0.31863,-0.59881,2.471,-0.30405,-0.90136,2.4612,-0.33605,-0.93468,2.3842,-0.19443,-0.24237,2.5013,-0.14782,-0.56935,2.4003,-0.051816,-0.8855,2.5728,-0.083815,-0.91881,2.4958
-0.24648,-0.18322,2.554,-0.22637,-0.12993,2.6105,-0.2228,0.21136,2.6512,-0.25463,0.35299,2.6186,-0.35314,0.084274,2.6877,-0.41674,-0.12157,2.7862,-0.57231,-0.23804,2.6871,-0.61076,-0.28461,2.6759,-0.090358,0.097589,2.5797,0.00042915,-0.13392,2.5149,-0.025303,-0.31666,2.402,-0.032722,-0.34404,2.381,-0.31311,-0.25577,2.5649,-0.31271,-0.59766,2.4752,-0.30247,-0.90061,2.4634,-0.33315,-0.9339,2.386,-0.18833,-0.24451,2.5065,-0.13948,-0.57898,2.4267,-0.035645,-0.87808,2.6207,-0.066326,-0.91137,2.5433
-0.23663,-0.18822,2.5604,-0.2166,-0.13391,2.617,-0.21408,0.21299,2.6578,-0.24874,0.35504,2.6239,-0.34686,0.083305,2.6914,-0.40428,-0.12398,2.7902,-0.55962,-0.25354,2.7104,-0.56473,-0.27928,2.6956,-0.082134,0.097971,2.5841,0.00023896,-0.13546,2.515,-0.031048,-0.31744,2.4017,-0.049462,-0.33786,2.3852,-0.30331,-0.25676,2.5696,-0.30743,-0.58861,2.4806,-0.30182,-0.89779,2.466,-0.33217,-0.93107,2.3885,-0.17848,-0.25044,2.5168,-0.10471,-0.59575,2.4768,-0.0074964,-0.90161,2.6642,-0.037844,-0.93489,2.5867
-0.22491,-0.18868,2.5698,-0.20549,-0.13413,2.6265,-0.20418,0.21389,2.6666,-0.23739,0.35883,2.6335,-0.33587,0.088652,2.7001,-0.37599,-0.12917,2.8021,-0.54201,-0.24714,2.7313,-0.5275,-0.27794,2.7106,-0.068292,0.099917,2.5935,-0.00021228,-0.1367,2.5159,-0.051229,-0.31665,2.4066,-0.061789,-0.34449,2.3824,-0.29065,-0.25562,2.5798,-0.30078,-0.58387,2.4849,-0.30044,-0.89579,2.4685,-0.32999,-0.92906,2.3908,-0.16691,-0.25181,2.5254,-0.082156,-0.61907,2.528,0.011376,-0.93014,2.7099,-0.018176,-0.96341,2.6323
-0.20707,-0.19355,2.5818,-0.18845,-0.1378,2.638,-0.19182,0.21287,2.6762,-0.22567,0.35679,2.6469,-0.32632,0.083839,2.7075,-0.36813,-0.12758,2.8103,-0.52732,-0.25397,2.7372,-0.50548,-0.2639,2.7158,-0.05927,0.10034,2.6019,0.00067262,-0.13619,2.5173,-0.053772,-0.31532,2.4082,-0.068188,-0.34291,2.3839,-0.27315,-0.25927,2.591,-0.29113,-0.57789,2.4952,-0.29847,-0.89679,2.4724,-0.3282,-0.93014,2.3951,-0.14703,-0.25787,2.5394,-0.063551,-0.62314,2.5638,0.022487,-0.93787,2.7364,-0.0072429,-0.97121,2.6591
-0.19602,-0.19286,2.5971,-0.17537,-0.13729,2.6527,-0.17627,0.21252,2.6885,-0.21073,0.35749,2.663,-0.31095,0.08596,2.7261,-0.35334,-0.13175,2.8137,-0.52034,-0.24968,2.7446,-0.498,-0.25832,2.7176,-0.045316,0.099541,2.6129,0.0065783,-0.13221,2.5227,-0.054163,-0.30919,2.413,-0.08185,-0.35666,2.3771,-0.26025,-0.25825,2.609,-0.27726,-0.56766,2.5141,-0.29617,-0.89642,2.4744,-0.32792,-0.92983,2.3975,-0.13902,-0.25688,2.5535,-0.048685,-0.63186,2.5961,0.025125,-0.94832,2.7544,-0.0066283,-0.98173,2.6774
-0.17799,-0.19505,2.6211,-0.15713,-0.14205,2.6734,-0.15981,0.18621,2.7016,-0.19771,0.35437,2.6769,-0.30115,0.080514,2.7472,-0.34354,-0.1384,2.8316,-0.51097,-0.23926,2.7341,-0.491,-0.26018,2.7136,-0.031951,0.098178,2.6242,0.010676,-0.12904,2.5285,-0.052237,-0.30446,2.4171,-0.082198,-0.35697,2.3825,-0.24155,-0.26385,2.6376,-0.26019,-0.57726,2.5284,-0.29307,-0.89951,2.4777,-0.32716,-0.93304,2.402,-0.12129,-0.26068,2.5737,-0.036661,-0.63441,2.6355,0.02771,-0.95814,2.7645,-0.0063762,-0.99168,2.6887
-0.16665,-0.19631,2.6416,-0.14478,-0.14029,2.6941,-0.14497,0.20824,2.7184,-0.18408,0.35587,2.6882,-0.28771,0.085676,2.7626,-0.33699,-0.13838,2.834,-0.49897,-0.23753,2.7249,-0.50036,-0.26945,2.6912,-0.016781,0.096065,2.6367,0.026861,-0.12355,2.5458,-0.048756,-0.29061,2.4289,-0.08306,-0.35667,2.3904,-0.2346,-0.26357,2.6574,-0.25535,-0.57665,2.5407,-0.29129,-0.90001,2.48,-0.32563,-0.93376,2.404,-0.10539,-0.26312,2.6,-0.031936,-0.6395,2.6451,0.026378,-0.95567,2.7717,0.023559,-0.97849,2.7078
-0.13974,-0.20158,2.6612,-0.12065,-0.14202,2.7128,-0.13419,0.20752,2.7259,-0.16836,0.35597,2.6971,-0.2777,0.084903,2.7686,-0.31736,-0.13086,2.8371,-0.4768,-0.22899,2.7234,-0.48973,-0.26913,2.6789,-0.0028436,0.09296,2.6465,0.030696,-0.12407,2.5526,-0.045117,-0.29186,2.4365,-0.080643,-0.35649,2.3969,-0.21103,-0.26803,2.6721,-0.23195,-0.58619,2.5604,-0.28708,-0.90142,2.4867,-0.31997,-0.9357,2.4105,-0.072017,-0.26873,2.6265,-0.018506,-0.63381,2.6599,0.026209,-0.95604,2.7744,0.026429,-0.97978,2.7132
-0.12368,-0.19797,2.68,-0.10666,-0.1382,2.7316,-0.12183,0.2078,2.7371,-0.14792,0.35464,2.7089,-0.26773,0.08847,2.7813,-0.30447,-0.13438,2.8389,-0.4538,-0.21617,2.6993,-0.4897,-0.25513,2.6639,0.019347,0.092812,2.668,0.042135,-0.12533,2.5693,-0.03062,-0.29638,2.4562,-0.066782,-0.35974,2.4155,-0.19127,-0.26572,2.6948,-0.22171,-0.59351,2.5736,-0.28048,-0.90676,2.4942,-0.31003,-0.94124,2.4163,-0.058354,-0.26649,2.6426,-0.0041266,-0.63355,2.6762,0.02625,-0.95582,2.7746,0.026736,-0.979,2.7139
-0.11154,-0.19549,2.698,-0.096069,-0.13523,2.7479,-0.1123,0.2068,2.7442,-0.1305,0.35304,2.7185,-0.25895,0.093258,2.7884,-0.30187,-0.1331,2.8385,-0.44144,-0.20406,2.6828,-0.46742,-0.23769,2.6351,0.029923,0.092961,2.6815,0.050258,-0.12634,2.5864,-0.023341,-0.29218,2.4659,-0.056158,-0.36102,2.4319,-0.18371,-0.26341,2.7062,-0.21478,-0.59258,2.5903,-0.27149,-0.91007,2.5116,-0.29915,-0.94502,2.4333,-0.039578,-0.26455,2.6737,0.0084589,-0.63601,2.6983,0.026808,-0.94983,2.7766,-0.00085348,-0.98478,2.6983
-0.10111,-0.19345,2.7109,-0.086344,-0.13445,2.7615,-0.099796,0.20223,2.7579,-0.12018,0.34739,2.7254,-0.25226,0.099029,2.8022,-0.3142,-0.08831,2.8562,-0.38114,-0.18113,2.6676,-0.40181,-0.21603,2.6368,0.044233,0.095849,2.6999,0.059594,-0.12829,2.5998,-0.0067409,-0.29633,2.4783,-0.041377,-0.3637,2.4437,-0.17384,-0.26195,2.7182,-0.20928,-0.59312,2.6057,-0.25547,-0.92095,2.5431,-0.287,-0.97801,2.4797,-0.031195,-0.26439,2.6831,0.008347,-0.62741,2.6966,0.026588,-0.94342,2.776,0.00072124,-0.97818,2.6971
-0.092094,-0.18705,2.7237,-0.076972,-0.12887,2.7726,-0.095471,0.20128,2.7658,-0.11308,0.3474,2.73,-0.24998,0.10696,2.8218,-0.31427,-0.085577,2.859,-0.35435,-0.16266,2.6504,-0.35523,-0.1959,2.6053,0.049771,0.098429,2.7073,0.071893,-0.13404,2.6178,0.0020715,-0.29892,2.4943,-0.031591,-0.36948,2.4648,-0.16406,-0.25772,2.7323,-0.20144,-0.58898,2.6186,-0.24017,-0.92409,2.5881,-0.26845,-0.95923,2.5101,-0.021581,-0.25956,2.6943,0.010545,-0.6263,2.7026,0.027256,-0.93883,2.7795,0.013851,-0.99476,2.7344
-0.08635,-0.18591,2.7329,-0.073085,-0.12809,2.7834,-0.088872,0.20333,2.7802,-0.10756,0.34823,2.733,-0.24516,0.10875,2.825,-0.315,-0.083258,2.8579,-0.31462,-0.13842,2.6464,-0.31318,-0.16915,2.6055,0.0628,0.09773,2.7229,0.077018,-0.13352,2.6286,0.017002,-0.31362,2.5243,-0.005634,-0.3564,2.5045,-0.15833,-0.25639,2.7407,-0.19977,-0.58793,2.6333,-0.23056,-0.93984,2.6386,-0.26155,-1.0186,2.6164,-0.015233,-0.25986,2.7038,0.012908,-0.62373,2.7122,0.025287,-0.93967,2.7826,0.00057704,-0.97441,2.7032
-0.080665,-0.18037,2.7458,-0.069,-0.12325,2.7958,-0.084525,0.20308,2.7894,-0.10155,0.34747,2.7384,-0.24267,0.11057,2.8322,-0.32241,-0.079893,2.8607,-0.28816,-0.12042,2.6448,-0.26624,-0.14384,2.6027,0.073657,0.10279,2.7384,0.082449,-0.13403,2.6385,0.027492,-0.31991,2.5428,0.0047267,-0.36258,2.5189,-0.15436,-0.25344,2.7518,-0.19815,-0.58633,2.652,-0.21923,-0.93117,2.6935,-0.25768,-1.0097,2.6895,-0.0078833,-0.25513,2.7174,0.01489,-0.60994,2.7205,0.0249,-0.92457,2.7844,0.0025479,-0.95941,2.7043
-0.078286,-0.17514,2.756,-0.066692,-0.11827,2.8056,-0.082166,0.20495,2.7976,-0.096511,0.34787,2.746,-0.24494,0.10962,2.8429,-0.36175,-0.065621,2.8584,-0.24294,-0.1134,2.6419,-0.23152,-0.13777,2.602,0.078032,0.10879,2.7485,0.090483,-0.13128,2.6595,0.039298,-0.31746,2.5628,0.011002,-0.38479,2.5242,-0.15283,-0.25017,2.7607,-0.19731,-0.58349,2.6755,-0.20796,-0.93886,2.7535,-0.23718,-0.98936,2.7019,-0.0043475,-0.25103,2.7286,0.015831,-0.60428,2.7272,0.026198,-0.91803,2.7859,0.0039176,-0.95295,2.7057
-0.076981,-0.17364,2.7642,-0.065947,-0.117,2.8147,-0.080454,0.20994,2.8118,-0.093346,0.34925,2.7502,-0.24246,0.11135,2.8484,-0.31678,-0.087224,2.8075,-0.21276,-0.11002,2.6178,-0.1961,-0.11708,2.6039,0.077761,0.10703,2.7587,0.093314,-0.13663,2.6707,0.052775,-0.33133,2.5902,0.035862,-0.37992,2.5566,-0.15,-0.24789,2.7682,-0.19705,-0.58186,2.6915,-0.19892,-0.93164,2.7954,-0.22322,-0.98899,2.757,-0.0042628,-0.24983,2.738,0.01587,-0.60207,2.7342,0.029201,-0.91432,2.7907,0.0078471,-0.9489,2.7102
-0.075025,-0.17089,2.7754,-0.065376,-0.11425,2.8254,-0.080426,0.20992,2.8193,-0.088933,0.35376,2.7606,-0.24181,0.11246,2.853,-0.34361,-0.072941,2.8244,-0.15513,-0.10378,2.6406,-0.16705,-0.11102,2.6193,0.07999,0.1066,2.7701,0.098289,-0.1393,2.6886,0.060119,-0.3305,2.597,0.039055,-0.39799,2.5547,-0.14749,-0.24494,2.7769,-0.19818,-0.58158,2.7124,-0.18862,-0.93133,2.8461,-0.22254,-0.98676,2.7989,-0.0019785,-0.24862,2.7525,0.016009,-0.59922,2.7393,0.028619,-0.91222,2.7921,0.0090249,-0.94696,2.7112
-0.074934,-0.17114,2.7836,-0.066932,-0.11454,2.8335,-0.082417,0.20866,2.8274,-0.086987,0.35265,2.7665,-0.24148,0.11102,2.8541,-0.31078,-0.088966,2.8099,-0.13938,-0.097612,2.6401,-0.10085,-0.10688,2.6158,0.079093,0.10691,2.7809,0.098588,-0.13676,2.697,0.064626,-0.32754,2.6028,0.053315,-0.37378,2.5736,-0.14647,-0.24455,2.7833,-0.20016,-0.59116,2.7507,-0.17995,-0.9369,2.8856,-0.2095,-0.99426,2.8458,-0.0021473,-0.24807,2.7625,0.014372,-0.5979,2.7452,0.027992,-0.91208,2.7941,0.010476,-0.94679,2.7127
-0.076368,-0.1733,2.7933,-0.069097,-0.11565,2.8424,-0.083465,0.20878,2.8331,-0.086296,0.35435,2.773,-0.24119,0.10893,2.8548,-0.27558,-0.092815,2.7802,-0.087434,-0.10044,2.6541,-0.079373,-0.10138,2.624,0.073741,0.10815,2.7889,0.094578,-0.13756,2.7007,0.071616,-0.33231,2.613,0.069669,-0.38049,2.5937,-0.14658,-0.2453,2.7922,-0.19938,-0.59424,2.7763,-0.17862,-0.93939,2.8953,-0.19484,-0.9743,2.8137,-0.0054106,-0.24872,2.7753,0.0097336,-0.59567,2.7521,0.026769,-0.9257,2.8007,0.018783,-0.98111,2.7524
-0.078029,-0.17326,2.8015,-0.072474,-0.11554,2.8505,-0.08521,0.20861,2.8403,-0.073186,0.36074,2.7915,-0.24221,0.10931,2.8556,-0.25713,-0.092841,2.7754,-0.050445,-0.078367,2.6513,-0.012798,-0.072445,2.603,0.075068,0.11032,2.8013,0.090932,-0.13091,2.7081,0.076851,-0.32519,2.6194,0.075147,-0.37517,2.5971,-0.14779,-0.24459,2.8009,-0.19606,-0.59814,2.8004,-0.17816,-0.94062,2.9025,-0.19139,-0.97552,2.8204,-0.007367,-0.24804,2.7832,0.004022,-0.59719,2.7575,0.024535,-0.92154,2.8019,0.017708,-0.97624,2.7508
-0.083643,-0.17569,2.8148,-0.078919,-0.11699,2.8628,-0.088803,0.20864,2.8491,-0.086758,0.35929,2.7956,-0.24344,0.10803,2.8561,-0.25694,-0.092359,2.7696,-0.051003,-0.07805,2.6427,-0.01467,-0.073299,2.5933,0.073237,0.10709,2.81,0.090081,-0.13702,2.724,0.081555,-0.33002,2.6265,0.08439,-0.36546,2.6058,-0.15334,-0.24593,2.811,-0.19465,-0.60247,2.8267,-0.17508,-0.9353,2.9161,-0.18624,-0.97044,2.8338,-0.013876,-0.25131,2.8028,0.00058842,-0.59686,2.7622,0.023643,-0.92156,2.802,0.012481,-0.95671,2.7197
-0.089802,-0.17898,2.8252,-0.085366,-0.11895,2.8719,-0.095869,0.21015,2.8565,-0.089874,0.36065,2.8003,-0.25043,0.10612,2.8611,-0.25162,-0.0862,2.756,-0.054873,-0.075402,2.6398,-0.019464,-0.071034,2.5896,0.068011,0.10209,2.8154,0.088884,-0.13685,2.7268,0.085406,-0.33686,2.6248,0.085279,-0.3693,2.6029,-0.15979,-0.24906,2.8252,-0.19816,-0.60449,2.8513,-0.16734,-0.93657,2.9275,-0.17831,-0.97194,2.8453,-0.018969,-0.25345,2.8108,-0.0068807,-0.60104,2.7714,0.02242,-0.92188,2.8028,0.011453,-0.95726,2.7206
