-0.21155,-0.13558,3.0374,-0.21091,-0.071881,3.0684,-0.22755,0.26321,3.0633,-0.25168,0.44578,3.0057,-0.36144,0.14033,3.0874,-0.4155,-0.034168,3.0822,-0.4137,-0.21238,3.0153,-0.32437,-0.31224,2.9734,-0.082661,0.14794,3.0497,-0.0232,-0.09378,3.0466,-0.071783,-0.32517,2.9474,-0.040621,-0.39317,2.949,-0.27213,-0.19722,3.0421,-0.21319,-0.68117,3.0158,-0.28055,-0.86833,2.9563,-0.29101,-0.90319,2.8787,-0.14763,-0.19797,3.0208,-0.18072,-0.6403,2.9981,-0.084643,-0.98769,2.9798,-0.15744,-0.99387,2.8693
-0.21173,-0.1363,3.0371,-0.21129,-0.07292,3.0671,-0.22485,0.25624,3.059,-0.25077,0.44308,3.0024,-0.36244,0.13448,3.0833,-0.41828,-0.044633,3.0811,-0.37825,-0.23517,2.9967,-0.32721,-0.30878,2.9642,-0.081332,0.14652,3.0494,-0.034469,-0.098174,3.0551,-0.056472,-0.30231,2.997,-0.038733,-0.388,2.9541,-0.27299,-0.19878,3.0413,-0.21181,-0.68175,3.016,-0.28266,-0.86949,2.957,-0.18589,-0.97238,2.918,-0.14771,-0.19901,3.0212,-0.22624,-0.62986,2.982,-0.14829,-0.95921,2.9485,-0.1838,-1.0149,2.9072
-0.21166,-0.13637,3.0369,-0.2115,-0.073024,3.0659,-0.22582,0.25493,3.0574,-0.25075,0.44274,2.9993,-0.36331,0.13656,3.0823,-0.41803,-0.040453,3.0758,-0.41025,-0.21886,3.0108,-0.33107,-0.30618,2.955,-0.081757,0.14617,3.0492,-0.024164,-0.095367,3.0489,-0.031014,-0.32085,2.9748,-0.038463,-0.38864,2.9543,-0.27257,-0.19886,3.0406,-0.21645,-0.68247,3.017,-0.15808,-1.0238,3.0197,-0.29366,-0.90493,2.8796,-0.14771,-0.19908,3.0213,-0.18138,-0.6404,2.9976,-0.14899,-0.95917,2.9496,-0.18939,-1.0337,2.9406
-0.21173,-0.13703,3.0365,-0.21176,-0.073801,3.0647,-0.22575,0.25328,3.0563,-0.25145,0.44176,2.995,-0.36432,0.13567,3.081,-0.41651,-0.043563,3.0705,-0.37707,-0.23586,2.9942,-0.33348,-0.30829,2.9586,-0.08183,0.14465,3.0489,-0.024124,-0.094092,3.0507,-0.032637,-0.32307,2.9758,-0.037981,-0.38744,2.9564,-0.27293,-0.19985,3.0401,-0.21861,-0.68281,3.0167,-0.28627,-0.87114,2.9576,-0.21514,-0.97664,2.9159,-0.14765,-0.19973,3.0214,-0.1817,-0.64044,2.9976,-0.14911,-0.95936,2.9506,-0.1884,-1.0342,2.9391
-0.21134,-0.13851,3.0362,-0.21155,-0.075302,3.0632,-0.22583,0.25077,3.0538,-0.25145,0.44027,2.9915,-0.36489,0.13501,3.0797,-0.41401,-0.04592,3.066,-0.36993,-0.2574,2.9877,-0.3358,-0.3063,2.9549,-0.082727,0.14292,3.0479,-0.012546,-0.11606,3.0727,-0.030995,-0.33487,2.9786,-0.034411,-0.39677,2.9586,-0.27222,-0.20131,3.0395,-0.21799,-0.68329,3.0163,-0.28692,-0.87196,2.958,-0.18774,-0.97489,2.9211,-0.14728,-0.20171,3.0223,-0.18178,-0.6404,2.9977,-0.14906,-0.95939,2.9511,-0.18263,-1.0161,2.9067
-0.21201,-0.14013,3.0364,-0.21237,-0.076495,3.0623,-0.22608,0.25026,3.0522,-0.2508,0.44005,2.9888,-0.3663,0.13412,3.0751,-0.3894,-0.084668,3.0525,-0.36589,-0.27512,2.9773,-0.33293,-0.33492,2.9428,-0.08407,0.14122,3.0469,-0.018361,-0.10884,3.0787,-0.054145,-0.31828,2.9882,-0.033873,-0.39695,2.9592,-0.27268,-0.20228,3.0392,-0.21669,-0.6831,3.0157,-0.15876,-1.0214,3.0185,-0.21888,-0.97939,2.9156,-0.14862,-0.20411,3.0242,-0.18301,-0.64179,2.9983,-0.14914,-0.9606,2.9509,-0.18767,-1.0347,2.9363
-0.21152,-0.14158,3.0371,-0.21247,-0.077314,3.0618,-0.22673,0.24973,3.0512,-0.2495,0.43946,2.9865,-0.36616,0.13372,3.0709,-0.38775,-0.096494,3.0472,-0.36201,-0.27426,2.9663,-0.33072,-0.32409,2.9295,-0.08393,0.14007,3.047,-0.019432,-0.10166,3.0755,-0.046587,-0.29451,3.0117,-0.012291,-0.35903,2.9948,-0.27212,-0.20385,3.039,-0.21241,-0.68261,3.0166,-0.15805,-1.019,3.0135,-0.18451,-0.97679,2.9238,-0.14779,-0.20558,3.0265,-0.18357,-0.64295,2.9986,-0.14917,-0.96169,2.9509,-0.10065,-1.0591,2.956
-0.20901,-0.14245,3.0386,-0.21086,-0.07805,3.0618,-0.22715,0.24848,3.049,-0.24811,0.43693,2.9783,-0.36658,0.13353,3.0679,-0.38631,-0.097063,3.0427,-0.34951,-0.34564,2.9437,-0.32992,-0.32206,2.9286,-0.083906,0.14015,3.0473,-0.019381,-0.10093,3.0759,-0.042089,-0.29334,3.0067,-0.012257,-0.35841,2.9956,-0.26979,-0.20538,3.0393,-0.21492,-0.68281,3.0231,-0.16573,-0.92999,3.0121,-0.29246,-0.91678,2.8839,-0.14307,-0.20682,3.0313,-0.18376,-0.64308,2.9989,-0.14868,-0.9617,2.9511,-0.18943,-1.0345,2.9347
-0.20754,-0.1428,3.0388,-0.20991,-0.078329,3.0604,-0.22737,0.24631,3.0455,-0.24651,0.43546,2.9729,-0.36772,0.13278,3.0638,-0.39925,-0.10972,3.0314,-0.35766,-0.27775,2.9488,-0.32736,-0.33812,2.9324,-0.084337,0.14013,3.0478,-0.039206,-0.10481,3.0657,-0.042332,-0.30554,3.0062,-0.013838,-0.38663,2.9926,-0.26817,-0.20658,3.0383,-0.21459,-0.68271,3.0241,-0.16594,-0.93013,3.0103,-0.20479,-0.96776,2.9297,-0.14064,-0.20724,3.0336,-0.18391,-0.64291,2.9988,-0.15048,-0.96152,2.9497,-0.18191,-1.033,2.9332
-0.21061,-0.14404,3.0378,-0.2134,-0.079629,3.0574,-0.22842,0.24296,3.0395,-0.24198,0.43103,2.9635,-0.36641,0.12809,3.0528,-0.38377,-0.11231,3.0195,-0.34567,-0.29772,2.942,-0.32618,-0.3762,2.9163,-0.083103,0.14049,3.0503,-0.037508,-0.10853,3.0648,-0.026714,-0.31764,2.9965,-0.051231,-0.39969,2.9555,-0.27284,-0.20774,3.0349,-0.20756,-0.6829,3.0249,-0.28749,-0.89206,2.9608,-0.20404,-0.97258,2.9286,-0.1453,-0.21016,3.0356,-0.1839,-0.64296,2.9988,-0.15092,-0.96157,2.9493,-0.18678,-1.034,2.9353
-0.21206,-0.14994,3.0367,-0.21613,-0.085208,3.0534,-0.23177,0.23833,3.0307,-0.23625,0.41857,2.9427,-0.3678,0.12147,3.0424,-0.3886,-0.10516,3.0059,-0.3441,-0.30983,2.9323,-0.32526,-0.38849,2.9055,-0.083752,0.13833,3.0501,-0.034979,-0.11112,3.0642,-0.022158,-0.31003,2.9915,-0.018456,-0.38456,2.9541,-0.27265,-0.21381,3.0326,-0.2107,-0.6907,3.0259,-0.16433,-0.93873,3.0064,-0.1939,-0.9794,2.927,-0.14549,-0.21591,3.0381,-0.18279,-0.64325,2.9989,-0.15007,-0.96178,2.9493,-0.18678,-1.0349,2.9369
-0.21232,-0.15276,3.0364,-0.21693,-0.087635,3.0506,-0.23019,0.23485,3.0232,-0.23452,0.41545,2.9395,-0.36726,0.11965,3.0284,-0.39033,-0.098665,2.9851,-0.35598,-0.30828,2.9288,-0.33851,-0.3888,2.9071,-0.085594,0.12651,3.0461,-0.029305,-0.11443,3.0606,-0.0051097,-0.30589,2.9576,-0.0055449,-0.38095,2.929,-0.27239,-0.21571,3.032,-0.20111,-0.60391,3.0171,-0.2862,-0.9068,2.9555,-0.19458,-0.98397,2.926,-0.14599,-0.21917,3.0409,-0.1795,-0.64594,2.9993,-0.1445,-0.96422,2.9502,-0.18733,-1.0349,2.9383
-0.2126,-0.15517,3.0367,-0.21822,-0.089735,3.048,-0.22934,0.23222,3.0175,-0.23196,0.4108,2.931,-0.36423,0.12078,3.0131,-0.39169,-0.12245,2.9775,-0.3796,-0.32983,2.9313,-0.37569,-0.4114,2.9083,-0.084227,0.12488,3.0464,-0.020188,-0.10117,3.0384,0.016058,-0.30196,2.9345,0.024576,-0.38057,2.9111,-0.27279,-0.21864,3.0314,-0.21034,-0.62465,3.0201,-0.2858,-0.90965,2.9552,-0.18532,-0.98862,2.9266,-0.14664,-0.22173,3.0449,-0.16618,-0.64513,3.0046,-0.13763,-0.96404,2.9535,-0.15656,-1.0321,2.9363
-0.21386,-0.15749,3.0358,-0.22007,-0.092083,3.0438,-0.2301,0.22513,2.9992,-0.22729,0.40818,2.9201,-0.36231,0.11975,3.0018,-0.40735,-0.093554,2.9756,-0.40565,-0.34417,2.942,-0.40893,-0.42248,2.9263,-0.082375,0.12446,3.0457,-0.01149,-0.096037,3.0311,0.030858,-0.2892,2.9167,0.045788,-0.3589,2.8769,-0.27519,-0.22183,3.0292,-0.21943,-0.62813,3.0142,-0.27718,-0.9189,2.948,-0.19475,-0.99503,2.9207,-0.14799,-0.22418,3.0478,-0.15066,-0.64714,3.0119,-0.13021,-0.96671,2.9629,-0.14709,-1.0272,2.9394
-0.21395,-0.15985,3.0362,-0.22027,-0.094231,3.0416,-0.22881,0.22426,2.9912,-0.22234,0.40729,2.9128,-0.35977,0.11431,2.988,-0.42075,-0.12838,2.9718,-0.44995,-0.35545,2.9537,-0.45234,-0.42632,2.9373,-0.078989,0.12269,3.0443,0.0019484,-0.084015,3.0079,0.05415,-0.27932,2.8714,0.067398,-0.34251,2.8346,-0.27582,-0.22593,3.0282,-0.17831,-0.65336,3.0292,-0.20994,-0.9527,2.9848,-0.1986,-0.99931,2.9207,-0.14821,-0.22868,3.0538,-0.12828,-0.64125,3.0314,-0.080471,-0.95768,3.0057,-0.16143,-1.0062,2.9718
-0.2125,-0.16087,3.0371,-0.21916,-0.094869,3.0395,-0.22717,0.22439,2.9836,-0.22159,0.40635,2.9056,-0.35845,0.11454,2.9811,-0.43628,-0.11201,2.9859,-0.48043,-0.34203,2.9747,-0.49227,-0.4161,2.9776,-0.078227,0.12239,3.042,0.0062129,-0.082527,2.9967,0.065659,-0.26104,2.8413,0.082067,-0.32023,2.7908,-0.27368,-0.22684,3.0295,-0.18019,-0.65697,3.0298,-0.20789,-0.93604,2.9908,-0.20654,-0.9812,2.9255,-0.1472,-0.22891,3.0572,-0.11579,-0.63914,3.0441,-0.059519,-0.95326,3.0466,-0.12296,-1,3.0183
-0.21236,-0.15627,3.0369,-0.21878,-0.091528,3.0367,-0.22672,0.22423,2.9784,-0.21897,0.40179,2.8912,-0.35797,0.11422,2.9762,-0.44783,-0.10957,2.9979,-0.51505,-0.32202,3.0029,-0.52687,-0.39578,3.0162,-0.074754,0.12603,3.035,0.0082601,-0.069945,2.9822,0.072474,-0.23745,2.7992,0.093446,-0.29129,2.7438,-0.27381,-0.22218,3.03,-0.21897,-0.64303,3.0055,-0.20743,-0.96086,2.9875,-0.19718,-1.0273,2.9457,-0.1453,-0.22622,3.0609,-0.033156,-0.6482,3.098,-0.027077,-0.96964,3.1035,-0.089243,-0.99826,3.0882
-0.21299,-0.15387,3.0339,-0.21944,-0.089509,3.0315,-0.22849,0.22457,2.9729,-0.21726,0.40189,2.8889,-0.35881,0.11521,2.9721,-0.45913,-0.10436,3.0079,-0.5397,-0.30288,3.0492,-0.55722,-0.37554,3.0518,-0.073871,0.1258,3.0276,0.0098379,-0.060714,2.9607,0.077016,-0.21975,2.7789,0.10921,-0.26193,2.7081,-0.27541,-0.21846,3.0272,-0.21812,-0.633,3.001,-0.206,-0.95222,3,-0.21105,-0.99832,2.932,-0.14454,-0.22499,3.0601,-0.021644,-0.64753,3.133,-0.083002,-0.95494,3.1689,-0.1293,-0.98765,3.1402
-0.21225,-0.15344,3.0325,-0.21849,-0.089061,3.0286,-0.23026,0.22614,2.9679,-0.21558,0.40368,2.8887,-0.35855,0.115,2.9694,-0.46637,-0.097632,3.0136,-0.55326,-0.28677,3.095,-0.58034,-0.35479,3.103,-0.078411,0.12907,3.011,0.010386,-0.049392,2.9432,0.079875,-0.18942,2.748,0.10933,-0.2363,2.6822,-0.2749,-0.21728,3.0261,-0.21943,-0.60854,2.9857,-0.21902,-0.93106,2.9736,-0.20669,-0.97339,2.8982,-0.14302,-0.22499,3.0591,-0.0052563,-0.60455,3.1688,-0.07508,-0.91051,3.2094,-0.11488,-0.96913,3.1831
-0.21139,-0.15366,3.0311,-0.21726,-0.089302,3.026,-0.23068,0.22482,2.9615,-0.21599,0.40478,2.8859,-0.35838,0.11535,2.9678,-0.47424,-0.080881,3.0492,-0.55741,-0.27901,3.1092,-0.58377,-0.34192,3.1365,-0.076775,0.12774,3.0067,0.016258,-0.051522,2.9126,0.077225,-0.16737,2.726,0.11435,-0.20489,2.6581,-0.27404,-0.21615,3.0258,-0.21986,-0.61096,2.9711,-0.21908,-0.93361,2.9673,-0.19091,-1.0008,2.9251,-0.14186,-0.22581,3.0564,0.002877,-0.63047,3.1857,-0.064184,-0.90519,3.2467,-0.17804,-0.90041,3.1387
-0.2154,-0.15626,3.0232,-0.21935,-0.091688,3.0184,-0.22958,0.22349,2.9592,-0.21789,0.40459,2.8841,-0.35824,0.11571,2.9662,-0.46863,-0.075476,3.0495,-0.55123,-0.26953,3.1341,-0.57237,-0.32971,3.1653,-0.079051,0.12465,2.9971,0.0079693,-0.049506,2.8891,0.078781,-0.14627,2.6914,0.10727,-0.1729,2.628,-0.27809,-0.21516,3.02,-0.21744,-0.60735,2.9608,-0.21776,-0.92943,2.9666,-0.20835,-0.97187,2.8907,-0.14925,-0.22919,3.0429,0.0091396,-0.6393,3.236,-0.060894,-0.9084,3.2877,-0.071111,-0.95058,3.2082
-0.21689,-0.15641,3.0166,-0.22038,-0.092072,3.0117,-0.22903,0.22361,2.958,-0.22027,0.40526,2.8836,-0.35609,0.11515,2.9617,-0.46089,-0.075429,3.0636,-0.5317,-0.26206,3.1543,-0.5611,-0.32362,3.1781,-0.077866,0.12434,2.9944,0.0080622,-0.04471,2.8801,0.066557,-0.12343,2.6842,0.098704,-0.15782,2.6091,-0.28149,-0.21407,3.0102,-0.21394,-0.60589,2.9573,-0.21713,-0.92827,2.9593,-0.20721,-0.97013,2.8832,-0.14985,-0.22991,3.0374,-0.064148,-0.64377,3.2332,-0.060919,-0.96854,3.3411,-0.1692,-0.98524,3.2433
-0.21424,-0.15656,3.0109,-0.21848,-0.09231,3.0065,-0.22931,0.22398,2.9565,-0.22112,0.40649,2.8834,-0.35468,0.11501,2.9602,-0.45305,-0.075792,3.0663,-0.52095,-0.25707,3.1617,-0.53772,-0.31856,3.1994,-0.076565,0.1224,2.9876,-0.0007882,-0.034063,2.8534,0.050957,-0.1034,2.6481,0.084392,-0.12056,2.5906,-0.27844,-0.21329,3.0062,-0.20923,-0.60051,2.9386,-0.21664,-0.92182,2.9536,-0.20817,-0.96329,2.8771,-0.14524,-0.22986,3.0271,-0.066674,-0.64434,3.2313,-0.042738,-0.97214,3.3628,-0.052545,-0.99683,3.2781
-0.21473,-0.15712,3.0022,-0.21831,-0.093084,2.9993,-0.2289,0.22372,2.9566,-0.22171,0.4062,2.8852,-0.35465,0.11501,2.9623,-0.43318,-0.059887,3.0691,-0.49873,-0.25767,3.1764,-0.51992,-0.32348,3.2049,-0.072095,0.11938,2.9829,-0.001133,-0.032391,2.8461,0.047097,-0.093528,2.6299,0.087378,-0.10366,2.5601,-0.27992,-0.21281,2.9993,-0.20581,-0.60039,2.9385,-0.21077,-0.92183,2.9498,-0.20419,-0.96247,2.8726,-0.14605,-0.2317,3.0112,-0.069745,-0.64198,3.2273,-0.038601,-0.97181,3.3573,-0.051305,-0.99654,3.2726
-0.21443,-0.15935,2.997,-0.2177,-0.09475,2.9955,-0.22521,0.2236,2.962,-0.21963,0.40677,2.89,-0.35318,0.11516,2.9648,-0.43513,-0.075207,3.0944,-0.49259,-0.25672,3.1793,-0.50091,-0.32162,3.2153,-0.070034,0.11791,2.9809,-0.028666,-0.043465,2.8315,0.054643,-0.086948,2.6125,0.10451,-0.091333,2.5502,-0.28067,-0.21458,2.9921,-0.20633,-0.60167,2.9322,-0.20948,-0.92261,2.9482,-0.20403,-0.96223,2.8704,-0.14536,-0.23358,3.0056,0.0039425,-0.64328,3.2441,-0.028195,-0.96876,3.3401,-0.04267,-0.99329,3.2557
-0.21008,-0.16128,2.9919,-0.21398,-0.096429,2.9935,-0.22069,0.22357,2.975,-0.21572,0.40531,2.9027,-0.35135,0.11564,2.9698,-0.43267,-0.076957,3.0981,-0.48672,-0.25564,3.1881,-0.49788,-0.32297,3.2185,-0.068367,0.11446,2.9787,0.0023204,-0.030824,2.841,0.082955,-0.078889,2.6377,0.12375,-0.091823,2.5544,-0.27612,-0.21646,2.9859,-0.21109,-0.63282,2.8989,-0.20904,-0.94725,2.9484,-0.18044,-1.0095,2.9001,-0.13961,-0.23667,2.9954,0.011346,-0.62372,3.1515,0.068732,-0.95775,3.3001,-0.019067,-0.95408,3.1966
-0.20457,-0.1644,2.9864,-0.20852,-0.098945,2.9906,-0.21856,0.22448,2.9787,-0.21114,0.41284,2.9195,-0.35022,0.11547,2.9796,-0.43561,-0.076326,3.1035,-0.49435,-0.2615,3.19,-0.51122,-0.32292,3.2143,-0.067264,0.11274,2.9778,0.03121,-0.034145,2.8116,0.12922,-0.096637,2.6219,0.17251,-0.096259,2.5827,-0.27014,-0.2196,2.9824,-0.17852,-0.59526,2.9401,-0.20608,-0.91362,2.9477,-0.18318,-0.97768,2.8985,-0.13412,-0.23919,2.9847,-0.0019754,-0.65171,3.072,-0.021529,-0.96436,3.0998,-0.03317,-1.0151,3.0977
-0.20079,-0.16604,2.9829,-0.20383,-0.1008,2.9893,-0.20971,0.22468,2.9864,-0.20242,0.4107,2.9272,-0.34631,0.12026,2.9897,-0.44254,-0.072244,3.1071,-0.53673,-0.25636,3.1801,-0.55602,-0.32533,3.2025,-0.061685,0.10994,2.9798,0.056439,-0.045945,2.8587,0.17593,-0.1218,2.6762,0.23624,-0.12559,2.6338,-0.26604,-0.22199,2.9787,-0.20862,-0.62049,2.9097,-0.21134,-0.9367,2.9465,-0.21271,-0.97312,2.867,-0.1316,-0.24065,2.9794,-0.013744,-0.63926,2.9962,-0.02672,-0.95887,3.0049,-0.070917,-0.99713,2.967
-0.1975,-0.16532,2.9758,-0.20021,-0.10114,2.9882,-0.20526,0.22548,2.997,-0.19629,0.40732,2.9378,-0.34433,0.11784,2.9977,-0.46004,-0.069599,3.1074,-0.58372,-0.25998,3.1545,-0.61342,-0.31743,3.1604,-0.055543,0.107,2.9874,0.051399,-0.064463,2.8943,0.19528,-0.15122,2.7523,0.25679,-0.16424,2.7095,-0.26341,-0.22186,2.9675,-0.24679,-0.62112,2.894,-0.20072,-0.93473,2.9317,-0.20199,-0.96971,2.8515,-0.12854,-0.23901,2.968,-0.031061,-0.62953,2.9005,-0.022352,-0.95066,2.8742,-0.023618,-0.98564,2.794
-0.19658,-0.16618,2.9723,-0.19859,-0.10284,2.9891,-0.20021,0.22093,3.0085,-0.18967,0.39967,2.946,-0.33982,0.11358,3.0164,-0.49484,-0.066611,3.0914,-0.63651,-0.24423,3.1096,-0.67715,-0.29983,3.1046,-0.047001,0.10074,3.0005,0.078172,-0.089001,2.9629,0.22154,-0.19036,2.8373,0.28335,-0.20899,2.8019,-0.26352,-0.22375,2.963,-0.25112,-0.62309,2.8929,-0.21194,-0.93814,2.929,-0.21446,-0.97214,2.8483,-0.12703,-0.24105,2.9608,-0.059304,-0.65312,2.8021,-0.030235,-0.94576,2.69,-0.030948,-0.98734,2.622
-0.19557,-0.16983,2.9696,-0.19668,-0.10727,2.9908,-0.19674,0.21478,3.0196,-0.18308,0.39117,2.9564,-0.33587,0.10804,3.0275,-0.50426,-0.060851,3.0804,-0.68088,-0.21984,3.052,-0.72243,-0.27017,3.045,-0.042611,0.0916,3.0115,0.071768,-0.11032,3.0219,0.21257,-0.22024,2.9471,0.286,-0.25398,2.931,-0.26248,-0.22925,2.9576,-0.2503,-0.633,2.8855,-0.21173,-0.94314,2.9282,-0.21393,-0.97639,2.8473,-0.12727,-0.24535,2.9566,-0.097986,-0.65473,2.7284,-0.057429,-0.8714,2.5153,-0.055361,-0.93959,2.4763
-0.18942,-0.18082,2.9721,-0.19112,-0.12047,2.9974,-0.1917,0.19947,3.0332,-0.17832,0.37763,2.9615,-0.33532,0.097444,3.041,-0.54375,-0.043004,3.0396,-0.70533,-0.19167,3.0001,-0.7447,-0.23236,2.9939,-0.034468,0.082705,3.033,0.076381,-0.107,3.0756,0.21355,-0.25211,3.0418,0.25916,-0.28868,3.0307,-0.25321,-0.24123,2.9608,-0.24448,-0.64157,2.8772,-0.21142,-0.94982,2.9211,-0.21142,-0.98234,2.8398,-0.12337,-0.2544,2.9591,-0.11916,-0.59808,2.6673,-0.096716,-0.78658,2.3966,-0.11859,-0.84439,2.3359
-0.18604,-0.18254,2.9725,-0.18888,-0.12306,3.0012,-0.19085,0.19503,3.037,-0.17204,0.36722,2.9639,-0.33365,0.091181,3.0487,-0.50784,-0.015943,3.0445,-0.69502,-0.14355,2.9812,-0.76164,-0.19498,2.9514,-0.027457,0.072081,3.0469,0.083008,-0.1407,3.1251,0.21188,-0.2857,3.1407,0.24963,-0.32626,3.1268,-0.24915,-0.24426,2.9589,-0.25082,-0.59804,2.8816,-0.25371,-0.90948,2.8852,-0.25172,-0.94127,2.8056,-0.11953,-0.25535,2.9604,-0.13386,-0.52094,2.6583,-0.15044,-0.64852,2.3453,-0.14853,-0.68085,2.2639
-0.18017,-0.18321,2.9722,-0.1832,-0.12608,3.0039,-0.18647,0.18407,3.0408,-0.16707,0.36039,2.9651,-0.32996,0.081399,3.058,-0.506,-0.011554,3.042,-0.70464,-0.11292,2.9664,-0.77683,-0.17608,2.9303,-0.022582,0.064948,3.0539,0.075261,-0.15102,3.1408,0.24989,-0.29598,3.1656,0.30485,-0.34188,3.2171,-0.24584,-0.24392,2.959,-0.24317,-0.59556,2.8794,-0.20741,-0.91307,2.9,-0.20606,-0.94531,2.8186,-0.10932,-0.25963,2.9558,-0.14252,-0.46815,2.6268,-0.27909,-0.55707,2.2427,-0.18467,-0.58248,2.2443
-0.1785,-0.18466,2.974,-0.18027,-0.12945,3.0086,-0.17582,0.17524,3.0475,-0.16307,0.3521,2.9722,-0.32499,0.072866,3.0636,-0.50943,-0.0049893,3.0442,-0.69459,-0.090503,2.9696,-0.77433,-0.14693,2.9237,-0.014836,0.058495,3.0614,0.097785,-0.15331,3.1563,0.23059,-0.30138,3.1886,0.2831,-0.35447,3.2355,-0.24638,-0.24447,2.9611,-0.24511,-0.59401,2.8738,-0.2055,-0.91041,2.897,-0.20377,-0.94248,2.8155,-0.10839,-0.26235,2.9567,-0.14878,-0.44378,2.6119,-0.2232,-0.54745,2.3074,-0.22147,-0.57952,2.2259
-0.17798,-0.18355,2.9765,-0.17834,-0.12985,3.0135,-0.17051,0.17233,3.0546,-0.15994,0.34881,2.975,-0.32253,0.070702,3.0699,-0.51078,0.0015171,3.0548,-0.69355,-0.087758,2.9879,-0.76947,-0.14299,2.937,-0.011366,0.059045,3.0633,0.10016,-0.1559,3.1683,0.22335,-0.31291,3.1958,0.27535,-0.36842,3.2404,-0.2488,-0.24232,2.9655,-0.25322,-0.6023,2.8545,-0.19968,-0.90545,2.8931,-0.19922,-0.93737,2.8116,-0.10808,-0.26257,2.9567,-0.15298,-0.43514,2.5955,-0.21816,-0.53251,2.2718,-0.24637,-0.55558,2.2125
-0.17393,-0.18229,2.9808,-0.17186,-0.12969,3.0196,-0.16301,0.17201,3.0584,-0.15245,0.35293,2.9797,-0.30912,0.078822,3.0844,-0.50147,0.011922,3.0814,-0.68122,-0.078976,3.0218,-0.74845,-0.13936,2.9874,-0.0094923,0.060356,3.0635,0.099011,-0.16145,3.1594,0.15548,-0.32601,3.1359,0.25952,-0.38303,3.2236,-0.24466,-0.2388,2.973,-0.25151,-0.60146,2.8563,-0.19785,-0.90119,2.8905,-0.20077,-0.93324,2.8091,-0.10666,-0.26265,2.9577,-0.14488,-0.44578,2.6,-0.20652,-0.57602,2.288,-0.23249,-0.67044,2.2247
-0.16641,-0.17768,2.992,-0.16407,-0.1282,3.0284,-0.15217,0.14932,3.052,-0.14592,0.34329,2.9871,-0.30472,0.081844,3.0916,-0.49353,0.019579,3.115,-0.6632,-0.086725,3.0634,-0.74108,-0.15599,3.0156,-0.0043174,0.061353,3.0621,0.07356,-0.16931,3.121,0.17036,-0.34804,3.0946,0.2034,-0.38213,3.1129,-0.23981,-0.23648,2.9815,-0.24752,-0.60126,2.8646,-0.19234,-0.89951,2.8898,-0.19774,-0.93173,2.8087,-0.097412,-0.25541,2.979,-0.13997,-0.47784,2.6191,-0.1878,-0.63069,2.3169,-0.23324,-0.64201,2.2463
-0.15443,-0.17316,3.0011,-0.15114,-0.12499,3.0384,-0.14631,0.14821,3.055,-0.13905,0.34271,2.9917,-0.29736,0.088056,3.1001,-0.50126,0.010156,3.153,-0.66509,-0.11786,3.0864,-0.71963,-0.17674,3.0659,-0.00073339,0.063143,3.0592,0.073581,-0.17377,3.1049,0.1883,-0.37559,3.0704,0.22829,-0.4303,3.0756,-0.22495,-0.23359,2.9933,-0.22799,-0.58248,2.8956,-0.19481,-0.90196,2.8981,-0.25311,-0.93741,2.8096,-0.086023,-0.24883,2.985,-0.11979,-0.50504,2.6671,-0.15095,-0.67357,2.3708,-0.17828,-0.72926,2.3259
-0.14737,-0.169,3.0073,-0.14169,-0.12285,3.0448,-0.1368,0.14822,3.0576,-0.12794,0.34302,2.9965,-0.28765,0.095068,3.1108,-0.49067,0.018678,3.1734,-0.63076,-0.12393,3.1257,-0.67396,-0.18506,3.1103,0.012857,0.082769,3.0546,0.077998,-0.16373,3.0859,0.17955,-0.37307,3.0132,0.22088,-0.42074,3.0089,-0.2204,-0.23192,2.9977,-0.22504,-0.58625,2.9023,-0.23996,-0.91033,2.8905,-0.25597,-0.94255,2.8126,-0.081108,-0.24677,2.9899,-0.13321,-0.58981,2.6928,-0.12346,-0.75316,2.4424,-0.14298,-0.7945,2.4115
-0.13813,-0.16215,3.014,-0.13072,-0.11342,3.0528,-0.1243,0.17086,3.0609,-0.11717,0.3667,3.0006,-0.27722,0.10691,3.1177,-0.4555,0.014759,3.1989,-0.60917,-0.15109,3.1647,-0.65373,-0.19931,3.1323,0.014851,0.086693,3.0544,0.068954,-0.14334,3.0497,0.15123,-0.34762,2.9664,0.19471,-0.40538,2.95,-0.20708,-0.22482,3.0084,-0.18449,-0.60323,2.8573,-0.23968,-0.91202,2.8917,-0.25607,-0.94452,2.814,-0.071529,-0.23887,2.9977,-0.08971,-0.5797,2.7367,-0.087884,-0.81993,2.5331,-0.1045,-0.85409,2.4468
