-0.52046,-0.17982,3.252,-0.53215,-0.11261,3.2823,-0.52422,0.2331,3.2581,-0.49542,0.40947,3.1878,-0.64816,0.11907,3.2012,-0.71897,-0.10609,3.1856,-0.69699,-0.30916,3.1098,-0.66871,-0.37121,3.0609,-0.37184,0.12521,3.2961,-0.31502,-0.091748,3.308,-0.27614,-0.25099,3.1786,-0.27003,-0.3116,3.1207,-0.58426,-0.23965,3.2322,-0.58179,-0.62403,3.2372,-0.5815,-1.0056,3.3793,-0.60266,-1.0261,3.2595,-0.45797,-0.24505,3.2666,-0.48159,-0.63968,3.2978,-0.52206,-0.9774,3.3484,-0.52776,-1.0314,3.3114
-0.52094,-0.18153,3.2498,-0.53336,-0.1139,3.2786,-0.52462,0.2308,3.2518,-0.49749,0.40517,3.176,-0.64943,0.11844,3.194,-0.71697,-0.10725,3.1763,-0.68503,-0.30309,3.0927,-0.6617,-0.36945,3.0522,-0.37123,0.12494,3.2984,-0.31829,-0.11193,3.3,-0.27142,-0.2703,3.1746,-0.26512,-0.32499,3.1113,-0.58429,-0.24238,3.2279,-0.58967,-0.62343,3.2388,-0.58956,-0.97555,3.3769,-0.58673,-0.99823,3.2419,-0.45854,-0.24701,3.2662,-0.47857,-0.64259,3.3008,-0.52038,-0.97626,3.3495,-0.52505,-1.0319,3.3141
-0.52152,-0.18133,3.2472,-0.53383,-0.11317,3.2741,-0.52644,0.23084,3.2429,-0.49705,0.40372,3.1702,-0.65311,0.11688,3.1892,-0.71503,-0.12078,3.1665,-0.68018,-0.31546,3.0839,-0.65198,-0.38121,3.0417,-0.37387,0.12401,3.2938,-0.32787,-0.12762,3.2902,-0.27609,-0.28875,3.171,-0.26732,-0.3273,3.1305,-0.58486,-0.243,3.2245,-0.59357,-0.62311,3.2389,-0.59504,-0.95817,3.3773,-0.58958,-0.99048,3.2431,-0.4587,-0.2475,3.2652,-0.47946,-0.64085,3.2973,-0.51873,-0.97574,3.349,-0.51212,-1.0401,3.3549
-0.52084,-0.18274,3.2402,-0.534,-0.11427,3.2649,-0.52992,0.23031,3.2319,-0.49769,0.40315,3.1603,-0.65148,0.118,3.1774,-0.71411,-0.11984,3.1595,-0.67147,-0.31233,3.0792,-0.6364,-0.37618,3.0375,-0.38067,0.12296,3.2858,-0.33471,-0.13805,3.2912,-0.27765,-0.29673,3.1716,-0.26845,-0.34921,3.1432,-0.5818,-0.2449,3.2159,-0.59308,-0.62477,3.2388,-0.59467,-0.95784,3.3774,-0.5879,-0.9908,3.2435,-0.45862,-0.24822,3.2615,-0.47542,-0.63981,3.2837,-0.5169,-0.97503,3.3459,-0.49156,-1.0263,3.3181
-0.52457,-0.18594,3.2278,-0.53777,-0.11771,3.2522,-0.53352,0.22701,3.2232,-0.49886,0.39911,3.1486,-0.65329,0.11727,3.1732,-0.71166,-0.11021,3.149,-0.65753,-0.31009,3.0677,-0.6319,-0.36848,3.0337,-0.38276,0.12265,3.284,-0.34012,-0.14142,3.3187,-0.28098,-0.30569,3.1784,-0.2685,-0.35411,3.1443,-0.58376,-0.24674,3.205,-0.59329,-0.62754,3.2377,-0.61262,-0.9635,3.3119,-0.58349,-0.9992,3.2404,-0.46308,-0.25029,3.2487,-0.47856,-0.63731,3.2659,-0.51391,-0.97358,3.3415,-0.51012,-1.0441,3.3298
-0.52445,-0.18684,3.2196,-0.53783,-0.11865,3.2427,-0.53754,0.22515,3.2126,-0.4997,0.39656,3.1397,-0.65624,0.11723,3.1621,-0.71189,-0.10484,3.1391,-0.65582,-0.30424,3.0641,-0.62565,-0.36153,3.0307,-0.39436,0.12399,3.2704,-0.34591,-0.14203,3.3145,-0.2993,-0.32485,3.2171,-0.29051,-0.3634,3.2005,-0.58296,-0.24742,3.1965,-0.60212,-0.62626,3.2252,-0.61303,-0.96657,3.3109,-0.58388,-1.0023,3.2395,-0.4626,-0.24994,3.2413,-0.47935,-0.63646,3.2519,-0.50748,-0.96883,3.3125,-0.48631,-1.0198,3.2648
-0.5234,-0.18216,3.211,-0.53713,-0.11461,3.2332,-0.53879,0.22732,3.2048,-0.49775,0.40043,3.1265,-0.65507,0.11802,3.1565,-0.70701,-0.11637,3.1197,-0.64902,-0.30194,3.0532,-0.61446,-0.36037,3.0259,-0.39037,0.131,3.3176,-0.34968,-0.14088,3.3148,-0.3075,-0.33261,3.2375,-0.29693,-0.36596,3.2159,-0.58179,-0.24429,3.1865,-0.59643,-0.6223,3.2188,-0.6001,-0.97483,3.3068,-0.57024,-1.0104,3.2355,-0.46155,-0.24651,3.2345,-0.48033,-0.63471,3.2321,-0.4961,-0.96501,3.2773,-0.46624,-1.0006,3.206
-0.52166,-0.17906,3.2012,-0.53564,-0.11141,3.2224,-0.53828,0.23094,3.1956,-0.4963,0.40228,3.121,-0.65358,0.11997,3.1463,-0.70626,-0.11615,3.1138,-0.64492,-0.29851,3.0448,-0.61143,-0.3497,3.0218,-0.39254,0.13357,3.3129,-0.35204,-0.13786,3.3153,-0.31484,-0.3321,3.2461,-0.30118,-0.37477,3.2327,-0.57763,-0.24023,3.1769,-0.59625,-0.61648,3.208,-0.56325,-0.99188,3.3531,-0.569,-1.0208,3.2564,-0.4621,-0.23825,3.2205,-0.47554,-0.6333,3.2204,-0.49605,-0.97041,3.2348,-0.46493,-1.0059,3.1641
-0.51901,-0.18118,3.1901,-0.53317,-0.11256,3.2112,-0.53651,0.23407,3.1861,-0.48151,0.4066,3.1084,-0.64964,0.12224,3.1357,-0.7124,-0.084891,3.1066,-0.64641,-0.28845,3.0432,-0.60899,-0.34252,3.0082,-0.39231,0.13488,3.3104,-0.35298,-0.13637,3.3161,-0.32123,-0.3302,3.2503,-0.30118,-0.37708,3.2417,-0.57355,-0.24013,3.167,-0.58738,-0.63488,3.2011,-0.61343,-0.97712,3.3052,-0.5813,-1.0124,3.2349,-0.46064,-0.23906,3.2112,-0.48027,-0.64058,3.2031,-0.49738,-0.96935,3.2234,-0.45982,-1.0214,3.1733
-0.5152,-0.18214,3.1801,-0.5296,-0.11357,3.2008,-0.53303,0.23415,3.1795,-0.47826,0.40499,3.1036,-0.6455,0.12297,3.1241,-0.70491,-0.083336,3.0947,-0.64521,-0.28707,3.0355,-0.6081,-0.3427,2.9995,-0.39188,0.13928,3.3056,-0.35347,-0.1316,3.3154,-0.32272,-0.34355,3.25,-0.29948,-0.39061,3.2431,-0.56808,-0.23919,3.1564,-0.59825,-0.62811,3.1905,-0.61767,-0.97194,3.2995,-0.58511,-1.0223,3.2605,-0.45788,-0.24006,3.2008,-0.48006,-0.63764,3.1911,-0.48288,-0.95203,3.1829,-0.44897,-0.98706,3.1134
-0.50978,-0.17757,3.1642,-0.52411,-0.10998,3.1869,-0.52566,0.23704,3.1739,-0.47382,0.40775,3.0986,-0.63794,0.12649,3.1136,-0.701,-0.081848,3.0859,-0.64338,-0.28267,3.0026,-0.61038,-0.34271,2.9787,-0.389,0.14146,3.2963,-0.35425,-0.12942,3.3098,-0.32133,-0.33753,3.247,-0.30382,-0.40346,3.2268,-0.56228,-0.2336,3.1321,-0.59709,-0.6287,3.1716,-0.61696,-0.96857,3.2968,-0.58505,-1.0191,3.2599,-0.45306,-0.23917,3.1883,-0.47911,-0.63502,3.1788,-0.47894,-0.9339,3.1721,-0.44424,-0.96833,3.1026
-0.49641,-0.17167,3.1562,-0.51321,-0.1053,3.1784,-0.51971,0.23842,3.1649,-0.46725,0.40715,3.0887,-0.62931,0.12569,3.1017,-0.69653,-0.089184,3.0758,-0.64426,-0.28757,2.9917,-0.61598,-0.34477,2.9561,-0.38461,0.14299,3.2838,-0.35397,-0.12725,3.3047,-0.32064,-0.33294,3.2406,-0.31188,-0.3895,3.2053,-0.55113,-0.23154,3.1242,-0.59398,-0.6121,3.1313,-0.61717,-0.94924,3.273,-0.58757,-1.0127,3.227,-0.43424,-0.23357,3.1823,-0.47383,-0.63202,3.1611,-0.49069,-0.95469,3.177,-0.45542,-0.98899,3.1076
-0.48975,-0.1711,3.142,-0.50497,-0.10481,3.1653,-0.50899,0.23711,3.1538,-0.45155,0.39732,3.0626,-0.62467,0.12381,3.0945,-0.69158,-0.090752,3.0673,-0.64885,-0.28661,2.9861,-0.6204,-0.34729,2.949,-0.37856,0.14064,3.2664,-0.34974,-0.1277,3.2983,-0.31657,-0.33292,3.2389,-0.30149,-0.39883,3.2114,-0.54586,-0.23178,3.1103,-0.5792,-0.6151,3.0919,-0.61044,-0.94327,3.2505,-0.59268,-1.0255,3.2454,-0.42858,-0.23501,3.1666,-0.45534,-0.63285,3.1363,-0.4832,-0.96004,3.1688,-0.44956,-0.9943,3.0986
-0.48361,-0.17391,3.1314,-0.49839,-0.10724,3.1551,-0.50049,0.2356,3.1421,-0.44596,0.39976,3.0591,-0.61875,0.1226,3.0877,-0.68833,-0.088878,3.0571,-0.65316,-0.29906,2.9682,-0.63306,-0.35626,2.9305,-0.37367,0.13745,3.2607,-0.34122,-0.13087,3.2907,-0.30935,-0.33206,3.2228,-0.29489,-0.40209,3.2083,-0.54119,-0.23412,3.1022,-0.56977,-0.60311,3.061,-0.59958,-0.93312,3.2163,-0.56656,-0.96752,3.1459,-0.42171,-0.23743,3.1533,-0.44239,-0.63268,3.1311,-0.48162,-0.96381,3.1657,-0.46006,-1.0208,3.1079
-0.4757,-0.17538,3.1184,-0.49171,-0.10928,3.1431,-0.49658,0.23343,3.1332,-0.44107,0.40024,3.0558,-0.61431,0.1201,3.0761,-0.6835,-0.085108,3.0476,-0.65813,-0.30495,2.96,-0.64177,-0.36372,2.9219,-0.36646,0.1331,3.2558,-0.33443,-0.1367,3.2783,-0.29675,-0.33376,3.1941,-0.29013,-0.40315,3.1714,-0.53333,-0.23636,3.088,-0.55643,-0.61089,3.0221,-0.5901,-0.94301,3.1728,-0.55585,-0.97704,3.1029,-0.41239,-0.23839,3.1403,-0.43429,-0.62802,3.1116,-0.48672,-0.96824,3.1635,-0.46292,-1.0187,3.1159
-0.47076,-0.17331,3.1054,-0.48605,-0.10708,3.1306,-0.48996,0.23464,3.1187,-0.42838,0.40427,3.0415,-0.61063,0.12072,3.0676,-0.68105,-0.093582,3.0348,-0.66246,-0.30299,2.9547,-0.65258,-0.36542,2.9098,-0.35933,0.12787,3.2459,-0.32751,-0.14205,3.268,-0.28936,-0.33511,3.1801,-0.28369,-0.40629,3.1645,-0.52845,-0.23512,3.0767,-0.54744,-0.61375,2.9932,-0.54864,-0.96949,3.1874,-0.56181,-0.99888,3.0996,-0.40791,-0.23724,3.1263,-0.42793,-0.6409,3.1543,-0.50144,-0.94352,3.1452,-0.46912,-0.97769,3.0746
-0.46347,-0.16793,3.0883,-0.47992,-0.10337,3.1141,-0.48461,0.23354,3.1045,-0.42109,0.40189,3.0293,-0.60442,0.12211,3.0505,-0.67895,-0.10645,3.0134,-0.67233,-0.31461,2.9327,-0.66305,-0.37227,2.8968,-0.35468,0.12967,3.2309,-0.31307,-0.14014,3.2454,-0.27924,-0.33295,3.1536,-0.2588,-0.40168,3.1356,-0.52139,-0.23105,3.0525,-0.542,-0.60874,2.9667,-0.55626,-0.96911,3.142,-0.59841,-1.0234,3.0654,-0.4,-0.23419,3.1143,-0.42634,-0.64325,3.1433,-0.50334,-0.94646,3.1228,-0.46945,-0.98035,3.0526
-0.4612,-0.17206,3.0684,-0.47712,-0.10684,3.0959,-0.48017,0.2341,3.0897,-0.41549,0.40112,3.0172,-0.5996,0.12505,3.0355,-0.67956,-0.10597,3.0056,-0.67627,-0.30924,2.9218,-0.67531,-0.37475,2.8669,-0.35026,0.12825,3.2113,-0.30819,-0.13503,3.1997,-0.27433,-0.32721,3.1162,-0.25968,-0.39706,3.1,-0.51999,-0.23279,3.0383,-0.53323,-0.59958,2.9303,-0.55597,-0.96358,3.0744,-0.59734,-1.0209,2.9968,-0.39775,-0.23734,3.088,-0.41998,-0.64396,3.1285,-0.51934,-0.9378,3.0856,-0.51726,-0.99713,3.0365
-0.45892,-0.16535,3.0507,-0.47563,-0.10218,3.0798,-0.47858,0.23432,3.0784,-0.41458,0.40361,3.0067,-0.59557,0.12403,3.0176,-0.67923,-0.10175,2.9842,-0.67908,-0.30679,2.9105,-0.6805,-0.37328,2.8689,-0.34806,0.13127,3.1876,-0.30701,-0.12798,3.1856,-0.26845,-0.32313,3.0921,-0.24288,-0.38614,3.0541,-0.51654,-0.2271,3.0146,-0.53105,-0.59586,2.8999,-0.57489,-0.95705,2.9462,-0.58233,-1.0262,2.8959,-0.39618,-0.23214,3.0742,-0.41898,-0.64459,3.128,-0.49176,-0.92967,3.1216,-0.49038,-1.0059,3.0917
-0.45461,-0.16563,3.0281,-0.47148,-0.10217,3.0582,-0.47367,0.2358,3.0594,-0.41158,0.40629,2.989,-0.59471,0.12685,2.9997,-0.67987,-0.10312,2.9648,-0.68546,-0.30839,2.888,-0.69235,-0.37499,2.8493,-0.34536,0.13311,3.1747,-0.30641,-0.12592,3.1744,-0.26039,-0.31767,3.0448,-0.23865,-0.39049,3.0339,-0.51125,-0.22547,2.9972,-0.53164,-0.59279,2.8744,-0.57494,-0.9513,2.8642,-0.54111,-0.98437,2.7937,-0.39383,-0.23069,3.0444,-0.41649,-0.64505,3.1224,-0.48252,-0.93428,3.1288,-0.45572,-0.99182,3.0946
-0.46102,-0.16947,3.0007,-0.47739,-0.10574,3.034,-0.47381,0.23648,3.0449,-0.41428,0.40577,2.9625,-0.59404,0.12539,2.9794,-0.68306,-0.094499,2.9413,-0.6977,-0.3125,2.862,-0.69824,-0.3765,2.8346,-0.34641,0.13003,3.1513,-0.29564,-0.12936,3.0999,-0.25609,-0.31836,3.0283,-0.2326,-0.38132,3.0044,-0.51848,-0.22681,2.9637,-0.53896,-0.59722,2.8438,-0.56843,-0.95332,2.8055,-0.54349,-1.0082,2.7415,-0.40065,-0.23524,3.021,-0.44904,-0.63604,3.0666,-0.48179,-0.9342,3.1343,-0.45296,-0.98901,3.0983
-0.46232,-0.16791,2.9826,-0.47811,-0.10283,3.0139,-0.47821,0.23947,3.0046,-0.41604,0.41244,2.9384,-0.59582,0.12795,2.9584,-0.68824,-0.087211,2.9199,-0.7019,-0.30859,2.8469,-0.70249,-0.37255,2.8122,-0.3455,0.13249,3.1329,-0.29907,-0.12604,3.0727,-0.25277,-0.30355,2.9776,-0.23802,-0.36694,2.9566,-0.51943,-0.2258,2.9488,-0.54184,-0.60165,2.8234,-0.56903,-0.9399,2.7447,-0.55115,-1.0183,2.6915,-0.40207,-0.23391,3.0023,-0.44446,-0.6357,3.0661,-0.48136,-0.937,3.1305,-0.45793,-0.99057,3.0932
-0.46392,-0.16838,2.9554,-0.48242,-0.10548,2.9896,-0.48007,0.23656,2.9952,-0.41792,0.40666,2.9262,-0.59838,0.11841,2.9262,-0.69133,-0.093689,2.8903,-0.70334,-0.30499,2.8223,-0.70198,-0.36939,2.7838,-0.34688,0.12856,3.1169,-0.29829,-0.13563,3.0506,-0.24846,-0.31625,2.9712,-0.23069,-0.37662,2.9398,-0.51996,-0.22699,2.9157,-0.54345,-0.60519,2.798,-0.56983,-0.93536,2.7069,-0.53553,-0.99229,2.6503,-0.40324,-0.23595,2.9773,-0.43174,-0.63989,3.0625,-0.48267,-0.93559,3.1233,-0.4574,-0.98786,3.0813
-0.45912,-0.17477,2.9354,-0.47851,-0.11108,2.9684,-0.48695,0.23185,2.9663,-0.42707,0.40452,2.8989,-0.60303,0.11909,2.9093,-0.69468,-0.092942,2.8733,-0.70053,-0.30517,2.7833,-0.69309,-0.37351,2.7479,-0.35204,0.12029,3.0814,-0.30274,-0.13785,3.0177,-0.24546,-0.31301,2.9388,-0.2371,-0.36955,2.9104,-0.51524,-0.23361,2.9015,-0.54458,-0.60538,2.7676,-0.56955,-0.93935,2.6889,-0.54117,-0.99713,2.6304,-0.39607,-0.23896,2.9558,-0.42754,-0.6449,3.04,-0.47999,-0.93585,3.1243,-0.45526,-0.98753,3.081
-0.46331,-0.1663,2.8996,-0.48365,-0.10649,2.9357,-0.49387,0.23058,2.9457,-0.43067,0.40203,2.878,-0.60969,0.11649,2.8867,-0.7003,-0.098066,2.8406,-0.69984,-0.29839,2.754,-0.69561,-0.36215,2.7121,-0.35801,0.11984,3.0552,-0.30259,-0.13827,3.002,-0.24776,-0.31727,2.9228,-0.23368,-0.37043,2.8847,-0.52185,-0.23045,2.8576,-0.54307,-0.59298,2.7329,-0.56948,-0.94297,2.6811,-0.53504,-0.97508,2.6103,-0.39588,-0.23543,2.9263,-0.4158,-0.6262,2.9962,-0.47444,-0.91752,3.1129,-0.45303,-0.97674,3.0762
-0.47395,-0.17669,2.8714,-0.49245,-0.11447,2.9079,-0.50019,0.22822,2.9174,-0.4365,0.39914,2.8495,-0.61573,0.11612,2.8667,-0.70453,-0.096885,2.82,-0.70103,-0.29461,2.7218,-0.6835,-0.36304,2.6879,-0.36119,0.1099,3.021,-0.30656,-0.14322,2.9826,-0.2463,-0.32392,2.9153,-0.2359,-0.38527,2.855,-0.52971,-0.23572,2.8362,-0.53728,-0.59568,2.7057,-0.56926,-0.94462,2.676,-0.53819,-0.97681,2.6037,-0.41043,-0.24206,2.8889,-0.40173,-0.63902,2.9788,-0.47778,-0.92102,3.1075,-0.45763,-0.97697,3.0767
-0.48257,-0.16917,2.8495,-0.50047,-0.10988,2.887,-0.50384,0.22254,2.8985,-0.44091,0.39295,2.83,-0.62314,0.11315,2.8452,-0.70817,-0.095317,2.7962,-0.69785,-0.28937,2.6997,-0.68293,-0.34913,2.6429,-0.36559,0.10222,3.0056,-0.31068,-0.1575,2.9498,-0.25238,-0.33897,2.8837,-0.23786,-0.39292,2.8425,-0.54651,-0.23212,2.7987,-0.53631,-0.59937,2.6888,-0.56693,-0.94651,2.6714,-0.53419,-1.003,2.628,-0.41408,-0.24146,2.877,-0.39489,-0.6395,2.9416,-0.45288,-0.92853,3.0613,-0.42113,-0.96056,2.9894
-0.48849,-0.16732,2.8257,-0.50584,-0.10914,2.8646,-0.50621,0.22004,2.882,-0.44313,0.39231,2.8173,-0.62857,0.11204,2.8277,-0.71169,-0.092383,2.7729,-0.69688,-0.27978,2.6612,-0.67962,-0.34701,2.6143,-0.37173,0.097197,2.9792,-0.31259,-0.15802,2.9367,-0.26349,-0.33805,2.856,-0.2467,-0.40577,2.8275,-0.55102,-0.23291,2.7791,-0.53156,-0.60312,2.6576,-0.56518,-0.9484,2.6672,-0.53384,-1.003,2.6247,-0.42133,-0.24131,2.8474,-0.39009,-0.63362,2.9081,-0.44892,-0.91587,3.0416,-0.41806,-0.9476,2.9691
-0.49282,-0.16833,2.8068,-0.5109,-0.11029,2.8464,-0.50848,0.21926,2.8672,-0.44326,0.39505,2.8039,-0.62894,0.11113,2.8103,-0.71653,-0.093434,2.7505,-0.69753,-0.27156,2.6374,-0.67898,-0.32971,2.5804,-0.37444,0.090303,2.9687,-0.32495,-0.15239,2.9026,-0.26702,-0.33834,2.8501,-0.24717,-0.41055,2.8117,-0.55752,-0.23484,2.7533,-0.534,-0.60308,2.6456,-0.56371,-0.95014,2.663,-0.53196,-1.0037,2.6222,-0.42478,-0.24476,2.832,-0.33953,-0.62463,2.8041,-0.43354,-0.92631,2.9857,-0.39987,-0.9864,2.9583
-0.49134,-0.17969,2.7902,-0.51055,-0.12031,2.8306,-0.5103,0.21396,2.8526,-0.445,0.3887,2.7876,-0.63135,0.10993,2.7949,-0.72028,-0.091967,2.7244,-0.68643,-0.26935,2.6017,-0.66687,-0.32536,2.5423,-0.37746,0.089035,2.9575,-0.3262,-0.15781,2.896,-0.26946,-0.34271,2.8354,-0.24903,-0.41525,2.7983,-0.55228,-0.23887,2.7431,-0.53096,-0.60914,2.6354,-0.56313,-0.94686,2.6585,-0.5298,-0.97841,2.587,-0.42776,-0.26156,2.8084,-0.34097,-0.62716,2.7655,-0.43274,-0.94463,2.91,-0.39784,-0.99689,2.8874
-0.49744,-0.17685,2.77,-0.51582,-0.11892,2.811,-0.51076,0.2111,2.8349,-0.44596,0.38658,2.7772,-0.6338,0.10399,2.7769,-0.71766,-0.091542,2.7141,-0.68434,-0.25552,2.5815,-0.66058,-0.30964,2.5218,-0.38118,0.086351,2.9398,-0.33353,-0.16088,2.9293,-0.28,-0.34382,2.8204,-0.25091,-0.41537,2.7888,-0.55939,-0.23814,2.7179,-0.53711,-0.62442,2.6179,-0.56227,-0.94876,2.6572,-0.52963,-1.0047,2.6203,-0.43217,-0.25951,2.7937,-0.3458,-0.65224,2.7177,-0.42326,-0.9556,2.7843,-0.39255,-1.0306,2.8072
-0.49914,-0.17608,2.758,-0.51828,-0.11892,2.7997,-0.51025,0.21036,2.8289,-0.44553,0.38547,2.7698,-0.63266,0.10245,2.7632,-0.71784,-0.091273,2.6947,-0.67527,-0.24561,2.5497,-0.6466,-0.28885,2.4834,-0.38217,0.085835,2.937,-0.33983,-0.17174,2.9073,-0.28229,-0.35056,2.8124,-0.25098,-0.41914,2.7802,-0.55998,-0.23649,2.7049,-0.53891,-0.62918,2.6114,-0.5525,-0.95654,2.6571,-0.51655,-0.9879,2.5868,-0.43536,-0.25843,2.78,-0.3505,-0.64549,2.6651,-0.41308,-0.95276,2.7165,-0.42121,-0.99017,2.6771
-0.49977,-0.17295,2.7413,-0.51898,-0.11809,2.7843,-0.51042,0.20693,2.8181,-0.44522,0.38457,2.7628,-0.63373,0.10014,2.7548,-0.71545,-0.08559,2.6722,-0.66659,-0.23948,2.5332,-0.63616,-0.28651,2.4704,-0.38253,0.078303,2.9308,-0.34588,-0.17405,2.9011,-0.27693,-0.36231,2.802,-0.25065,-0.42269,2.7713,-0.56597,-0.23385,2.68,-0.54141,-0.62961,2.6069,-0.55334,-0.9482,2.6493,-0.49874,-0.99828,2.6117,-0.43308,-0.26326,2.7663,-0.35937,-0.64758,2.6261,-0.39856,-0.93688,2.6136,-0.35079,-0.98976,2.5732
-0.49885,-0.1795,2.7329,-0.51877,-0.12341,2.7762,-0.51092,0.20535,2.8111,-0.44487,0.38155,2.7545,-0.63309,0.09774,2.7473,-0.70795,-0.091952,2.6611,-0.65205,-0.22172,2.5051,-0.61252,-0.26706,2.4468,-0.38374,0.074839,2.9285,-0.35138,-0.17477,2.8972,-0.28005,-0.36523,2.7921,-0.25395,-0.42068,2.753,-0.56361,-0.23718,2.6761,-0.53642,-0.63491,2.6003,-0.55513,-0.95135,2.6499,-0.50937,-1.0001,2.5936,-0.43243,-0.26658,2.7554,-0.37485,-0.63965,2.5818,-0.39815,-0.93252,2.5126,-0.3618,-0.96364,2.4425
-0.50052,-0.18615,2.723,-0.52071,-0.1332,2.7645,-0.51379,0.17645,2.7918,-0.44747,0.36486,2.7374,-0.6322,0.096929,2.7385,-0.69064,-0.088954,2.6205,-0.62926,-0.23209,2.4831,-0.58279,-0.27637,2.4288,-0.38493,0.074081,2.9234,-0.35897,-0.17522,2.898,-0.27976,-0.37779,2.78,-0.2547,-0.41502,2.7732,-0.56253,-0.24205,2.6691,-0.51677,-0.63486,2.5824,-0.55557,-0.95062,2.6478,-0.52004,-0.98186,2.5775,-0.43701,-0.2773,2.7409,-0.38733,-0.64812,2.4935,-0.3983,-0.92568,2.4136,-0.36277,-0.95692,2.3434
-0.50069,-0.20737,2.7034,-0.52196,-0.15776,2.7458,-0.5168,0.14323,2.7786,-0.45086,0.33936,2.7321,-0.63127,0.091666,2.7297,-0.66667,-0.079546,2.5966,-0.58369,-0.22327,2.4605,-0.53255,-0.2645,2.4164,-0.38598,0.071412,2.9218,-0.36432,-0.17824,2.8977,-0.28609,-0.35658,2.8245,-0.2566,-0.4169,2.7737,-0.5532,-0.25732,2.6531,-0.50935,-0.63685,2.5674,-0.54493,-0.95168,2.6231,-0.50785,-0.98262,2.5535,-0.44354,-0.2895,2.7216,-0.39124,-0.65755,2.4391,-0.40307,-0.88667,2.3226,-0.36599,-0.91762,2.253
-0.50215,-0.20774,2.6992,-0.52402,-0.15837,2.7415,-0.51764,0.14097,2.7751,-0.452,0.33806,2.7291,-0.62796,0.088156,2.722,-0.6658,-0.074735,2.5668,-0.55107,-0.21394,2.4584,-0.49497,-0.26273,2.4172,-0.38742,0.070722,2.9196,-0.37096,-0.18393,2.9,-0.29144,-0.35963,2.821,-0.26115,-0.41996,2.7707,-0.5535,-0.25783,2.6479,-0.51144,-0.64277,2.5546,-0.55649,-0.9537,2.6391,-0.51831,-0.98466,2.5703,-0.44663,-0.29125,2.7163,-0.41241,-0.63871,2.3966,-0.4251,-0.84402,2.2681,-0.37385,-0.87847,2.2007
-0.50321,-0.20855,2.6916,-0.52642,-0.15985,2.7336,-0.51932,0.13764,2.7692,-0.45299,0.33067,2.7185,-0.62389,0.082703,2.7081,-0.64069,-0.070072,2.5465,-0.50696,-0.19056,2.4551,-0.44437,-0.24917,2.4221,-0.39098,0.066294,2.9148,-0.37386,-0.18665,2.9001,-0.29879,-0.36595,2.8258,-0.26743,-0.4278,2.7781,-0.55449,-0.25956,2.6341,-0.51249,-0.64058,2.5388,-0.57883,-0.92299,2.6021,-0.54705,-0.95443,2.5297,-0.44799,-0.29399,2.7104,-0.40932,-0.61109,2.3936,-0.43127,-0.80608,2.1889,-0.40292,-0.84868,2.1662
-0.50631,-0.20933,2.6837,-0.52652,-0.14969,2.7302,-0.51618,0.19689,2.7805,-0.44948,0.36698,2.7174,-0.61919,0.080869,2.7014,-0.601,-0.080907,2.5464,-0.45255,-0.19414,2.4587,-0.38643,-0.24316,2.4326,-0.39199,0.06557,2.9136,-0.37726,-0.18941,2.9002,-0.33419,-0.29664,2.6725,-0.29152,-0.34435,2.6464,-0.55709,-0.25768,2.632,-0.51788,-0.63019,2.5216,-0.57827,-0.92825,2.6014,-0.54742,-0.95983,2.5287,-0.45416,-0.29113,2.696,-0.40994,-0.60535,2.3823,-0.43936,-0.79431,2.1718,-0.4045,-0.81654,2.0831
-0.5034,-0.21247,2.677,-0.52556,-0.15466,2.7219,-0.51983,0.17319,2.7697,-0.45127,0.362,2.7146,-0.61241,0.077669,2.6969,-0.59081,-0.099847,2.568,-0.43269,-0.18965,2.4859,-0.33809,-0.23279,2.4675,-0.39271,0.065271,2.9122,-0.38572,-0.18442,2.9067,-0.36405,-0.36392,2.6925,-0.28396,-0.42339,2.8057,-0.55299,-0.25745,2.6273,-0.50294,-0.61507,2.4993,-0.57813,-0.92862,2.6012,-0.5469,-0.96023,2.5287,-0.45125,-0.29583,2.6885,-0.47254,-0.63929,2.4606,-0.44942,-0.78544,2.157,-0.44326,-0.81852,2.1365
-0.50324,-0.21226,2.672,-0.52627,-0.15751,2.7158,-0.51992,0.15503,2.7612,-0.45798,0.35332,2.7132,-0.61133,0.076902,2.6957,-0.56569,-0.078083,2.5394,-0.38742,-0.15171,2.483,-0.32407,-0.20155,2.4865,-0.39382,0.06681,2.909,-0.38998,-0.18917,2.9123,-0.36939,-0.37736,2.6795,-0.29893,-0.4365,2.8283,-0.55152,-0.25703,2.621,-0.49834,-0.60997,2.496,-0.5772,-0.93054,2.6008,-0.54613,-0.96203,2.5282,-0.45162,-0.29595,2.6842,-0.39799,-0.57144,2.3705,-0.44141,-0.77138,2.1289,-0.4491,-0.79918,2.1363
-0.50444,-0.21403,2.6685,-0.528,-0.16196,2.7121,-0.52066,0.15179,2.76,-0.46149,0.34764,2.7078,-0.60979,0.075165,2.6942,-0.46742,-0.11849,2.556,-0.32755,-0.17043,2.4936,-0.25868,-0.20007,2.4873,-0.39461,0.07484,2.9019,-0.38967,-0.20034,2.8957,-0.37058,-0.38667,2.6794,-0.30473,-0.43839,2.8362,-0.55216,-0.25814,2.6184,-0.49299,-0.60897,2.4905,-0.57695,-0.93234,2.6005,-0.54517,-0.96371,2.5281,-0.45302,-0.29834,2.6813,-0.44585,-0.59666,2.4479,-0.44158,-0.7728,2.1356,-0.42467,-0.79926,2.131
-0.49855,-0.20529,2.6724,-0.52363,-0.1494,2.7174,-0.52548,0.19588,2.7733,-0.46679,0.36763,2.7099,-0.60986,0.074393,2.6941,-0.64373,-0.16365,2.6426,-0.37644,-0.12945,2.5353,-0.30416,-0.15076,2.5386,-0.3943,0.07768,2.8986,-0.38717,-0.19738,2.8935,-0.36887,-0.36489,2.7079,-0.30842,-0.44056,2.8391,-0.5492,-0.25583,2.619,-0.49036,-0.6064,2.488,-0.57645,-0.93456,2.6003,-0.54235,-0.96581,2.5289,-0.43904,-0.28663,2.6904,-0.44387,-0.59818,2.4482,-0.43955,-0.77239,2.2121,-0.39709,-0.80318,2.1458
-0.49303,-0.21391,2.6686,-0.51959,-0.16318,2.7119,-0.524,0.15631,2.7625,-0.47019,0.3534,2.709,-0.6102,0.074378,2.6949,-0.64228,-0.14801,2.6458,-0.346,-0.13862,2.5697,-0.26472,-0.15076,2.5862,-0.39433,0.080702,2.8939,-0.38599,-0.19435,2.8885,-0.36763,-0.37237,2.6982,-0.31216,-0.4447,2.8382,-0.54072,-0.25861,2.6204,-0.56162,-0.64109,2.52,-0.57567,-0.93787,2.5998,-0.54113,-0.96905,2.5287,-0.43587,-0.29568,2.6826,-0.44,-0.60297,2.4541,-0.43686,-0.83631,2.173,-0.42348,-0.85412,2.1552
-0.49123,-0.21459,2.6671,-0.51851,-0.16355,2.7113,-0.52489,0.15711,2.7625,-0.47157,0.35293,2.7094,-0.61066,0.073988,2.6952,-0.4159,-0.056076,2.6629,-0.29471,-0.14648,2.5843,-0.197,-0.18533,2.6271,-0.39574,0.082292,2.8906,-0.38308,-0.19287,2.8809,-0.37322,-0.38526,2.692,-0.31294,-0.44712,2.835,-0.53689,-0.25955,2.6184,-0.55977,-0.64393,2.5212,-0.57565,-0.93791,2.5999,-0.54087,-0.96908,2.5288,-0.43404,-0.29494,2.6803,-0.43316,-0.60904,2.4713,-0.42883,-0.82282,2.2677,-0.42401,-0.87437,2.2054
-0.4884,-0.21457,2.6671,-0.51652,-0.16347,2.7117,-0.52631,0.1592,2.7641,-0.47381,0.35336,2.7129,-0.61224,0.074274,2.6962,-0.5479,-0.059821,2.5445,-0.37768,-0.12683,2.6033,-0.30465,-0.14524,2.641,-0.39569,0.082833,2.8895,-0.37637,-0.19218,2.8749,-0.37279,-0.38643,2.6918,-0.31186,-0.44959,2.8288,-0.53149,-0.25959,2.6191,-0.54672,-0.66894,2.5297,-0.57562,-0.93777,2.6006,-0.53996,-0.96895,2.5299,-0.43097,-0.29361,2.68,-0.42806,-0.61356,2.4824,-0.41768,-0.83903,2.3091,-0.41494,-0.88853,2.2578
-0.48584,-0.21126,2.6671,-0.51487,-0.1552,2.7145,-0.5284,0.20155,2.7832,-0.48089,0.37633,2.7283,-0.61287,0.075315,2.697,-0.5484,-0.06002,2.5445,-0.37542,-0.12873,2.6114,-0.31482,-0.14685,2.667,-0.39603,0.083621,2.8881,-0.37322,-0.19129,2.8669,-0.35907,-0.36511,2.7121,-0.30636,-0.44344,2.814,-0.52773,-0.25669,2.6189,-0.54581,-0.66737,2.5313,-0.54208,-0.92231,2.6127,-0.53641,-0.96791,2.5313,-0.42936,-0.28054,2.6812,-0.41926,-0.63357,2.5266,-0.41068,-0.86973,2.3525,-0.40922,-0.93049,2.3118
-0.47785,-0.21384,2.6676,-0.50708,-0.16166,2.7146,-0.52632,0.1623,2.7721,-0.48584,0.36306,2.7375,-0.61295,0.076677,2.6977,-0.65002,-0.13272,2.6473,-0.375,-0.12991,2.6127,-0.31383,-0.14759,2.6679,-0.39722,0.090137,2.8835,-0.37107,-0.18447,2.8633,-0.35533,-0.38272,2.6932,-0.30518,-0.4291,2.8133,-0.5169,-0.25897,2.6209,-0.54216,-0.66263,2.5348,-0.53742,-0.92229,2.6173,-0.53595,-0.96844,2.532,-0.41997,-0.28368,2.6796,-0.4239,-0.63464,2.544,-0.41704,-0.90173,2.3936,-0.36744,-0.88811,2.3209
-0.46955,-0.2116,2.6697,-0.50023,-0.16002,2.7165,-0.52493,0.16459,2.7742,-0.4965,0.36822,2.7538,-0.61231,0.077144,2.698,-0.55567,-0.082644,2.5664,-0.28129,-0.055718,2.5641,-0.21908,-0.073069,2.6182,-0.39687,0.093588,2.8823,-0.36588,-0.18055,2.8566,-0.31224,-0.37604,2.8217,-0.29873,-0.42452,2.7885,-0.5057,-0.25626,2.6233,-0.53868,-0.66154,2.538,-0.52745,-0.93808,2.5972,-0.48541,-0.96886,2.53,-0.41505,-0.28111,2.6813,-0.34524,-0.64599,2.5325,-0.41389,-0.95784,2.4451,-0.34676,-0.98459,2.4446
-0.46194,-0.2121,2.6749,-0.49316,-0.16205,2.7207,-0.5207,0.15761,2.7742,-0.49746,0.36427,2.7597,-0.60941,0.083573,2.7002,-0.5601,-0.076918,2.5698,-0.40192,-0.18366,2.5319,-0.22295,-0.072261,2.6172,-0.39307,0.094243,2.8825,-0.36579,-0.16875,2.8632,-0.30423,-0.36079,2.816,-0.28216,-0.42182,2.7759,-0.49607,-0.25754,2.6285,-0.52474,-0.64938,2.5698,-0.52265,-0.9558,2.6067,-0.4702,-1.0134,2.5856,-0.40764,-0.28214,2.6875,-0.33048,-0.66199,2.5622,-0.39319,-0.95467,2.5319,-0.33517,-0.97561,2.5039
-0.45477,-0.21161,2.6809,-0.4869,-0.16232,2.7256,-0.51683,0.15786,2.7767,-0.49571,0.3632,2.7669,-0.60537,0.085799,2.7022,-0.58352,-0.082241,2.5791,-0.34205,-0.090696,2.5912,-0.27984,-0.10805,2.6453,-0.39092,0.095197,2.8825,-0.36199,-0.16735,2.8638,-0.29852,-0.36156,2.8062,-0.27565,-0.41697,2.7714,-0.48922,-0.25827,2.6328,-0.51827,-0.62211,2.5719,-0.51732,-0.95274,2.6277,-0.47517,-0.98351,2.5606,-0.39911,-0.28433,2.6957,-0.31622,-0.66927,2.6038,-0.38418,-0.96283,2.605,-0.3141,-1.0259,2.6551
-0.45301,-0.20956,2.6865,-0.48452,-0.15669,2.733,-0.51133,0.19394,2.7929,-0.48976,0.40033,2.7848,-0.60099,0.089567,2.7068,-0.59559,-0.066605,2.5616,-0.43325,-0.20666,2.5152,-0.38045,-0.16036,2.6645,-0.38799,0.097376,2.8822,-0.35604,-0.1635,2.8665,-0.33489,-0.32436,2.6774,-0.26837,-0.41249,2.7686,-0.48859,-0.25438,2.6428,-0.51691,-0.63157,2.5786,-0.51675,-0.95878,2.6694,-0.5194,-0.99936,2.6227,-0.39995,-0.27129,2.7029,-0.2897,-0.60623,2.6208,-0.3595,-0.94376,2.6771,-0.317,-0.9882,2.651
-0.47018,-0.19206,2.6961,-0.49595,-0.1391,2.743,-0.50724,0.19769,2.7977,-0.48823,0.4034,2.7877,-0.59595,0.093275,2.712,-0.58627,-0.084133,2.5976,-0.40946,-0.2662,2.5097,-0.35934,-0.16932,2.6644,-0.38055,0.10091,2.8858,-0.33174,-0.17044,2.8704,-0.33882,-0.31407,2.6667,-0.25214,-0.40544,2.7653,-0.51317,-0.2369,2.6487,-0.51726,-0.63093,2.5852,-0.54793,-0.95594,2.6549,-0.50649,-0.98671,2.5874,-0.41341,-0.26004,2.7105,-0.29169,-0.63642,2.6691,-0.34549,-0.95247,2.7484,-0.28168,-1.0091,2.7674
-0.46631,-0.19188,2.7012,-0.49175,-0.13824,2.7485,-0.50368,0.20083,2.8025,-0.48167,0.40935,2.7996,-0.58762,0.099472,2.7248,-0.60228,-0.064206,2.5875,-0.45945,-0.24267,2.5389,-0.43081,-0.22454,2.6238,-0.37378,0.10539,2.8873,-0.32488,-0.16603,2.8684,-0.33084,-0.32046,2.6715,-0.24389,-0.39333,2.7508,-0.50869,-0.23643,2.6569,-0.5123,-0.62423,2.5975,-0.5478,-0.95544,2.6555,-0.50775,-0.98618,2.5871,-0.41067,-0.25857,2.7149,-0.28198,-0.63517,2.6913,-0.32652,-0.95411,2.815,-0.26773,-1.0214,2.8452
-0.45936,-0.18587,2.7174,-0.48532,-0.12818,2.7663,-0.49162,0.23216,2.8274,-0.46539,0.42076,2.8046,-0.58106,0.10125,2.7319,-0.58313,-0.081046,2.6212,-0.45768,-0.29048,2.537,-0.43423,-0.34187,2.541,-0.35835,0.10976,2.8939,-0.31482,-0.16262,2.8717,-0.32606,-0.31305,2.709,-0.23782,-0.37762,2.7608,-0.5039,-0.23181,2.672,-0.50976,-0.60987,2.6071,-0.54689,-0.95364,2.6557,-0.50622,-0.98438,2.5876,-0.4028,-0.25215,2.7317,-0.27725,-0.61738,2.7197,-0.30428,-0.93782,2.8703,-0.2699,-1.0116,2.8963
-0.4521,-0.17954,2.7315,-0.47911,-0.12512,2.7766,-0.48261,0.20164,2.8287,-0.4536,0.40788,2.8111,-0.57534,0.10174,2.7401,-0.58738,-0.079926,2.6311,-0.51224,-0.25078,2.5479,-0.45912,-0.33313,2.5467,-0.33507,0.11628,2.9208,-0.29736,-0.1561,2.8737,-0.22713,-0.34852,2.7688,-0.2083,-0.39828,2.7343,-0.50024,-0.22979,2.6805,-0.50775,-0.61294,2.6126,-0.5464,-0.95307,2.6562,-0.50487,-0.98383,2.5886,-0.39174,-0.25085,2.7492,-0.27822,-0.61072,2.7356,-0.27949,-0.94422,2.9533,-0.25222,-1.0014,2.9463
-0.42898,-0.16811,2.753,-0.45479,-0.11202,2.8005,-0.46232,0.23575,2.8558,-0.4458,0.41536,2.822,-0.56746,0.10578,2.757,-0.58637,-0.080728,2.6386,-0.51883,-0.25748,2.5515,-0.48811,-0.34129,2.5473,-0.32978,0.11572,2.922,-0.2771,-0.15322,2.8808,-0.2242,-0.32627,2.7796,-0.2111,-0.38614,2.7412,-0.48103,-0.21901,2.7026,-0.49775,-0.60052,2.6292,-0.5442,-0.95453,2.6588,-0.5045,-0.98528,2.5902,-0.36526,-0.24074,2.7702,-0.27437,-0.63425,2.7897,-0.25922,-0.95189,3.0106,-0.30059,-1.0005,2.9231
-0.4206,-0.17195,2.7653,-0.44566,-0.11439,2.8125,-0.45795,0.23579,2.861,-0.43337,0.41854,2.8372,-0.5588,0.10948,2.7737,-0.5889,-0.085285,2.6618,-0.53053,-0.26594,2.5627,-0.51385,-0.33064,2.5377,-0.31898,0.11538,2.9229,-0.25873,-0.14326,2.8878,-0.20882,-0.32406,2.785,-0.19659,-0.389,2.7496,-0.4706,-0.22173,2.7214,-0.49234,-0.60841,2.6415,-0.54365,-0.95431,2.6599,-0.50636,-0.98511,2.5899,-0.3586,-0.24219,2.7788,-0.28785,-0.59066,2.7938,-0.24654,-0.95202,3.0539,-0.30223,-0.93249,2.9008
-0.39906,-0.17771,2.7918,-0.42307,-0.11878,2.8386,-0.44155,0.23555,2.8756,-0.40542,0.42101,2.8533,-0.54593,0.11012,2.7934,-0.58917,-0.084114,2.6853,-0.55083,-0.25916,2.5844,-0.52715,-0.32942,2.5451,-0.28795,0.11514,2.9312,-0.24711,-0.14706,2.8915,-0.20079,-0.32345,2.7924,-0.19107,-0.39133,2.752,-0.45101,-0.22768,2.7514,-0.48306,-0.61165,2.6507,-0.54351,-0.95612,2.6621,-0.50859,-0.98709,2.5911,-0.33589,-0.24835,2.8047,-0.2912,-0.607,2.8153,-0.24115,-0.96337,3.0828,-0.30466,-0.93042,2.9156
-0.38954,-0.17055,2.8117,-0.41168,-0.11267,2.8565,-0.42636,0.23377,2.8857,-0.39703,0.41796,2.8553,-0.53983,0.10564,2.8159,-0.58731,-0.089964,2.6999,-0.55607,-0.2653,2.5955,-0.53753,-0.33876,2.5596,-0.27575,0.12011,2.9463,-0.2236,-0.14241,2.8802,-0.18911,-0.32645,2.7966,-0.17893,-0.39126,2.7559,-0.44138,-0.2281,2.7769,-0.48021,-0.60823,2.679,-0.54291,-0.95701,2.665,-0.51136,-0.98814,2.5926,-0.32603,-0.22894,2.8245,-0.27964,-0.63643,2.9162,-0.24433,-0.96166,3.0964,-0.34012,-0.84737,2.9166
-0.37207,-0.15377,2.8453,-0.38741,-0.097349,2.8919,-0.39836,0.23568,2.9151,-0.37021,0.41984,2.8715,-0.52708,0.10951,2.8464,-0.59112,-0.075345,2.7449,-0.56185,-0.28129,2.6308,-0.54692,-0.3486,2.593,-0.23688,0.12481,2.927,-0.19796,-0.13735,2.8984,-0.18022,-0.32145,2.8083,-0.16427,-0.38941,2.7718,-0.4365,-0.22559,2.8079,-0.47271,-0.60807,2.7068,-0.54247,-0.95752,2.6679,-0.52235,-0.98868,2.5914,-0.29951,-0.2268,2.8497,-0.26504,-0.63924,2.9689,-0.2458,-0.96893,3.1046,-0.33934,-0.85302,2.9271
-0.36604,-0.15536,2.8576,-0.38102,-0.097785,2.9031,-0.39287,0.23663,2.9208,-0.35475,0.42126,2.885,-0.50937,0.11239,2.8724,-0.5812,-0.072975,2.787,-0.5659,-0.27287,2.657,-0.55118,-0.34516,2.6166,-0.22029,0.12455,2.9484,-0.18321,-0.14091,2.9084,-0.16988,-0.32501,2.8185,-0.1559,-0.39218,2.7811,-0.43029,-0.22515,2.8263,-0.47523,-0.60391,2.7327,-0.54145,-0.95622,2.6714,-0.52281,-0.9876,2.5948,-0.29246,-0.22849,2.8634,-0.26375,-0.63131,2.9707,-0.24825,-0.96646,3.1056,-0.33015,-0.85487,2.9501
-0.35071,-0.16061,2.8858,-0.3652,-0.10095,2.9307,-0.37311,0.23847,2.9429,-0.34097,0.42286,2.9026,-0.49882,0.11727,2.8914,-0.57014,-0.086993,2.8237,-0.56005,-0.26436,2.7034,-0.54805,-0.33727,2.6677,-0.19758,0.1183,2.9695,-0.16932,-0.14175,2.9226,-0.1513,-0.32712,2.8364,-0.14051,-0.39938,2.8072,-0.41688,-0.22598,2.8594,-0.47223,-0.59381,2.7744,-0.53721,-0.9379,2.6818,-0.51732,-0.96962,2.6055,-0.27816,-0.23427,2.8884,-0.26003,-0.6269,2.9846,-0.25019,-0.9645,3.1061,-0.3293,-0.86977,2.9643
-0.33638,-0.16161,2.9094,-0.34807,-0.10001,2.9527,-0.34901,0.24163,2.9559,-0.32933,0.42554,2.9115,-0.48324,0.12373,2.9154,-0.55777,-0.084181,2.8597,-0.55346,-0.27176,2.7283,-0.53709,-0.34407,2.6915,-0.1866,0.12176,2.9776,-0.14683,-0.13056,2.9484,-0.13097,-0.32016,2.8621,-0.13568,-0.39434,2.8237,-0.39945,-0.22685,2.8901,-0.46811,-0.59526,2.8081,-0.52809,-0.92921,2.7014,-0.51168,-0.96158,2.6245,-0.2677,-0.23439,2.912,-0.25616,-0.6252,2.9739,-0.25128,-0.96386,3.1109,-0.23293,-0.99575,3.0341
-0.32717,-0.16015,2.9235,-0.3375,-0.098756,2.9671,-0.33507,0.2405,2.9693,-0.3149,0.42458,2.9235,-0.47125,0.1276,2.9325,-0.53468,-0.094409,2.9118,-0.53884,-0.26743,2.7844,-0.52856,-0.32977,2.73,-0.16979,0.12033,2.9924,-0.13973,-0.12769,2.9567,-0.12268,-0.31516,2.8738,-0.13154,-0.39023,2.8368,-0.39418,-0.22508,2.9021,-0.46343,-0.60621,2.8387,-0.52002,-0.93644,2.7231,-0.5042,-0.9689,2.6461,-0.25646,-0.23371,2.9272,-0.25033,-0.63017,2.9868,-0.25117,-0.9606,3.1232,-0.2851,-0.95103,3.0045
-0.3154,-0.15982,2.945,-0.32337,-0.096898,2.987,-0.32215,0.2437,2.9814,-0.3045,0.42893,2.9356,-0.45384,0.13376,2.9633,-0.52333,-0.093046,2.9394,-0.52429,-0.26726,2.8267,-0.51893,-0.33024,2.771,-0.15922,0.12595,3.0074,-0.13229,-0.12706,2.9708,-0.11255,-0.31758,2.8972,-0.11308,-0.38881,2.8728,-0.38172,-0.22363,2.9278,-0.4551,-0.60281,2.8644,-0.51112,-0.94076,2.7523,-0.49899,-0.9738,2.6749,-0.24756,-0.23206,2.9469,-0.24568,-0.62817,2.9956,-0.24881,-0.96077,3.1293,-0.27145,-0.90521,3.0222
-0.30739,-0.16075,2.9631,-0.31406,-0.097103,3.0034,-0.31335,0.24398,2.9922,-0.29004,0.43105,2.9507,-0.44614,0.13434,2.9808,-0.50655,-0.10524,2.9641,-0.51421,-0.27901,2.8532,-0.51261,-0.33082,2.7803,-0.15232,0.12658,3.0157,-0.10914,-0.12259,3.0079,-0.10579,-0.30749,2.9143,-0.10524,-0.38836,2.8946,-0.37469,-0.22407,2.948,-0.45135,-0.60696,2.8821,-0.50262,-0.94974,2.8048,-0.49286,-0.98321,2.7272,-0.23908,-0.23376,2.9653,-0.24381,-0.62884,3.0044,-0.28001,-0.95836,3.0833,-0.23539,-0.99436,3.0546
-0.30337,-0.15874,2.9769,-0.30839,-0.094777,3.0175,-0.30338,0.24867,3.0076,-0.2813,0.4324,2.9552,-0.44046,0.1358,2.993,-0.49814,-0.10909,2.976,-0.50578,-0.28516,2.8661,-0.49523,-0.3362,2.8153,-0.14705,0.12774,3.0211,-0.10845,-0.1232,3.0115,-0.10284,-0.31144,2.928,-0.097764,-0.39282,2.907,-0.37059,-0.22104,2.9652,-0.44909,-0.60804,2.89,-0.49526,-0.935,2.8729,-0.50302,-0.99038,2.8057,-0.23603,-0.23116,2.977,-0.24144,-0.62976,3.0132,-0.28149,-0.95882,3.0836,-0.2735,-0.99227,3.0059
-0.29452,-0.15747,2.9893,-0.29906,-0.093677,3.0309,-0.29457,0.25095,3.0225,-0.27207,0.43827,2.9721,-0.43164,0.13766,3.0088,-0.49004,-0.10639,3.003,-0.49208,-0.27759,2.8848,-0.48471,-0.33519,2.8241,-0.14253,0.12982,3.0341,-0.10209,-0.11988,3.0282,-0.088662,-0.31429,2.9633,-0.091349,-0.39048,2.9277,-0.36217,-0.21913,2.9742,-0.44473,-0.60721,2.901,-0.48821,-0.96034,2.9277,-0.48865,-1.0111,2.8768,-0.22773,-0.22978,2.9913,-0.23854,-0.63054,3.0228,-0.28605,-0.95713,3.087,-0.27862,-0.99041,3.0091
-0.29231,-0.15468,3.0014,-0.29513,-0.09111,3.0441,-0.28892,0.25491,3.0391,-0.26586,0.43612,2.9905,-0.42274,0.14802,3.0314,-0.48461,-0.098734,3.0166,-0.48421,-0.27978,2.8919,-0.4728,-0.32824,2.8434,-0.13301,0.13418,3.0476,-0.10129,-0.1227,3.0382,-0.07883,-0.32153,2.9886,-0.080785,-0.39614,2.9499,-0.35886,-0.21404,2.9912,-0.4367,-0.61228,2.9264,-0.48031,-0.95713,2.9668,-0.47495,-0.99024,2.8886,-0.22714,-0.22749,2.9984,-0.23745,-0.62726,3.0278,-0.28602,-0.95754,3.0897,-0.27106,-1.0081,3.053
-0.28911,-0.1525,3.0133,-0.29138,-0.089234,3.0559,-0.28611,0.25469,3.048,-0.26061,0.43819,3.0035,-0.42054,0.14647,3.0424,-0.48048,-0.090331,3.0339,-0.47392,-0.28349,2.9034,-0.47316,-0.32885,2.847,-0.13014,0.13459,3.0549,-0.096961,-0.12165,3.0516,-0.077222,-0.32013,2.9983,-0.071484,-0.40094,2.9756,-0.35673,-0.21273,3.0004,-0.43332,-0.60505,2.9435,-0.48578,-0.94935,3.0328,-0.4915,-1.0012,2.9858,-0.2235,-0.22555,3.0117,-0.23717,-0.62003,3.0359,-0.28559,-0.95423,3.0936,-0.27309,-1.0036,3.0655
-0.28696,-0.15288,3.0246,-0.2881,-0.089521,3.0682,-0.27801,0.25609,3.0623,-0.25559,0.43945,3.0139,-0.4168,0.15158,3.0536,-0.47757,-0.071689,3.0567,-0.48041,-0.24551,2.9434,-0.4724,-0.303,2.8825,-0.13072,0.13438,3.0632,-0.097391,-0.12286,3.0575,-0.075726,-0.32371,3.0107,-0.069903,-0.40667,3.0017,-0.35509,-0.21299,3.0104,-0.43328,-0.60669,2.9574,-0.46763,-0.94938,3.0703,-0.48896,-1.0047,3.0219,-0.22242,-0.22505,3.024,-0.2415,-0.61083,3.0426,-0.28529,-0.95498,3.095,-0.28156,-0.98807,3.0167
-0.28395,-0.15236,3.0341,-0.28652,-0.088823,3.0776,-0.27691,0.25659,3.0703,-0.2521,0.44087,3.0324,-0.41651,0.15034,3.0602,-0.47688,-0.08915,3.0548,-0.47507,-0.27252,2.9317,-0.46439,-0.31971,2.8656,-0.12808,0.13124,3.0787,-0.097091,-0.12471,3.0684,-0.067894,-0.32873,3.0423,-0.071409,-0.40771,3.0151,-0.35239,-0.21424,3.0181,-0.4315,-0.60173,2.9821,-0.48531,-0.94185,3.1108,-0.49697,-0.99818,3.07,-0.21874,-0.22434,3.0351,-0.23947,-0.60881,3.0571,-0.28077,-0.93805,3.1022,-0.27487,-0.97121,3.0241
-0.28297,-0.15054,3.0473,-0.28685,-0.0865,3.0902,-0.27845,0.25901,3.0796,-0.25176,0.4465,3.0485,-0.41742,0.15223,3.069,-0.47996,-0.080324,3.0604,-0.4732,-0.26806,2.9337,-0.46163,-0.3173,2.8723,-0.1332,0.13611,3.0936,-0.095217,-0.12538,3.094,-0.068387,-0.32799,3.0489,-0.067271,-0.41044,3.0352,-0.35127,-0.21341,3.0289,-0.43424,-0.59998,3.0036,-0.48436,-0.93388,3.1469,-0.49723,-0.99697,3.1067,-0.21693,-0.22228,3.0522,-0.2401,-0.60936,3.0642,-0.27946,-0.94083,3.1092,-0.2364,-1.0545,3.1218
-0.28395,-0.15125,3.0563,-0.288,-0.086986,3.0996,-0.28145,0.2611,3.0908,-0.25452,0.44787,3.0748,-0.41786,0.15172,3.075,-0.48078,-0.081853,3.0649,-0.47402,-0.24991,2.9425,-0.46498,-0.30751,2.8822,-0.13589,0.14073,3.1002,-0.10658,-0.097371,3.1044,-0.073311,-0.32605,3.0635,-0.071256,-0.40829,3.0455,-0.35227,-0.21483,3.039,-0.43952,-0.60275,3.0257,-0.48992,-0.93299,3.1767,-0.48248,-0.96626,3.0988,-0.21748,-0.22218,3.0598,-0.24222,-0.60783,3.0706,-0.28003,-0.94119,3.11,-0.27481,-1.003,3.0539
-0.28524,-0.15086,3.0657,-0.29026,-0.08625,3.109,-0.28183,0.26353,3.0994,-0.25318,0.44798,3.0788,-0.41942,0.15315,3.0814,-0.48266,-0.082143,3.0688,-0.47469,-0.2483,2.9438,-0.46611,-0.30528,2.8829,-0.1343,0.13892,3.1142,-0.10271,-0.091834,3.1245,-0.076807,-0.32656,3.0833,-0.074386,-0.40423,3.0627,-0.35372,-0.21436,3.0484,-0.44606,-0.60727,3.0551,-0.49404,-0.93978,3.2018,-0.51106,-1.0013,3.1618,-0.21902,-0.22146,3.0696,-0.2457,-0.60747,3.0813,-0.28067,-0.94065,3.1167,-0.26389,-1.0292,3.1136
-0.28622,-0.14972,3.0772,-0.29282,-0.08585,3.1216,-0.28044,0.26227,3.1169,-0.25622,0.44864,3.0885,-0.41941,0.15282,3.0855,-0.4847,-0.085609,3.0706,-0.47497,-0.24964,2.9429,-0.4665,-0.30551,2.8809,-0.13364,0.13705,3.1312,-0.10889,-0.095433,3.1307,-0.087224,-0.32304,3.1019,-0.085786,-0.40144,3.0717,-0.35412,-0.21446,3.0535,-0.44692,-0.60696,3.0701,-0.49844,-0.93504,3.2243,-0.48535,-0.96801,3.147,-0.22153,-0.22125,3.0857,-0.2464,-0.60601,3.0847,-0.28098,-0.93713,3.1194,-0.27423,-1.0007,3.0686
-0.28614,-0.15162,3.0871,-0.29474,-0.086902,3.1306,-0.2838,0.26286,3.1231,-0.25963,0.44941,3.0969,-0.41842,0.15132,3.0905,-0.48686,-0.091598,3.0759,-0.4774,-0.25093,2.9422,-0.46847,-0.30389,2.8774,-0.13276,0.13596,3.1462,-0.1058,-0.13434,3.1722,-0.09555,-0.32597,3.1124,-0.097818,-0.40487,3.0882,-0.35271,-0.21681,3.0629,-0.45121,-0.60763,3.0844,-0.49622,-0.92742,3.2554,-0.5192,-1.0219,3.2551,-0.22146,-0.22295,3.0972,-0.24772,-0.60336,3.0908,-0.28187,-0.93541,3.1207,-0.27283,-0.99886,3.0678
-0.28762,-0.15092,3.096,-0.2955,-0.086787,3.1389,-0.28769,0.26039,3.1286,-0.26185,0.44811,3.1068,-0.42588,0.15202,3.1048,-0.48921,-0.083722,3.0845,-0.48026,-0.24223,2.9493,-0.47154,-0.29499,2.8845,-0.13549,0.13423,3.1542,-0.11592,-0.11488,3.1957,-0.10198,-0.32544,3.1167,-0.10184,-0.4071,3.0984,-0.35449,-0.21754,3.0714,-0.45399,-0.60692,3.1027,-0.49904,-0.9306,3.2671,-0.49719,-0.9954,3.2314,-0.22168,-0.22353,3.106,-0.24993,-0.60265,3.0975,-0.28245,-0.93322,3.1213,-0.2761,-0.9966,3.0674
-0.29464,-0.15097,3.1041,-0.30388,-0.086788,3.1477,-0.2978,0.26188,3.1392,-0.27317,0.45158,3.1203,-0.42957,0.15146,3.1135,-0.49318,-0.080614,3.0865,-0.48188,-0.24055,2.9514,-0.47241,-0.29282,2.8864,-0.14439,0.13153,3.1672,-0.11831,-0.11655,3.1956,-0.11878,-0.33187,3.1149,-0.11786,-0.41102,3.096,-0.36024,-0.21728,3.0775,-0.45716,-0.6046,3.1172,-0.50046,-0.92936,3.2801,-0.51987,-1.0235,3.2806,-0.22927,-0.22342,3.1156,-0.25171,-0.60002,3.102,-0.28354,-0.92842,3.1199,-0.26823,-0.96159,3.0431
-0.29925,-0.15304,3.1135,-0.30943,-0.088379,3.1574,-0.30602,0.26338,3.1497,-0.2777,0.44969,3.1245,-0.43777,0.14932,3.1244,-0.5048,-0.072814,3.0961,-0.48469,-0.23885,2.9563,-0.47443,-0.28916,2.8897,-0.14761,0.13492,3.1822,-0.13533,-0.094428,3.1801,-0.12389,-0.33486,3.1205,-0.14558,-0.39376,3.0631,-0.36381,-0.21876,3.0891,-0.46372,-0.61561,3.1497,-0.50414,-0.95075,3.2949,-0.5237,-1.0259,3.2952,-0.23384,-0.22326,3.1229,-0.25527,-0.59869,3.1055,-0.28448,-0.92646,3.1196,-0.26838,-0.95956,3.043
-0.30745,-0.15884,3.1222,-0.31661,-0.09356,3.1669,-0.31591,0.26153,3.1611,-0.28518,0.45061,3.1388,-0.447,0.14869,3.1343,-0.51496,-0.08528,3.1132,-0.48578,-0.23004,2.9643,-0.47611,-0.28006,2.8975,-0.17671,0.14006,3.1809,-0.13714,-0.10613,3.2375,-0.14231,-0.3259,3.1252,-0.13174,-0.4077,3.1096,-0.36879,-0.22139,3.0991,-0.46578,-0.6162,3.1567,-0.50542,-0.95143,3.2965,-0.49318,-1.0601,3.3546,-0.24264,-0.22469,3.1289,-0.26051,-0.59914,3.1085,-0.28479,-0.92699,3.1182,-0.27687,-0.98984,3.0636
-0.31713,-0.1541,3.1317,-0.32687,-0.090105,3.1757,-0.32493,0.25943,3.1671,-0.29543,0.44487,3.1446,-0.4618,0.14739,3.1486,-0.52296,-0.07268,3.1182,-0.49098,-0.22947,2.9747,-0.47686,-0.28076,2.8981,-0.17916,0.13439,3.202,-0.17124,-0.084869,3.1896,-0.15003,-0.32977,3.1287,-0.13816,-0.40194,3.1126,-0.38092,-0.21945,3.1064,-0.469,-0.61644,3.1659,-0.50569,-0.95186,3.2975,-0.45286,-1.0237,3.2727,-0.25072,-0.22311,3.141,-0.26582,-0.59895,3.113,-0.28582,-0.92685,3.1177,-0.27498,-0.98868,3.0606
-0.32706,-0.15663,3.1399,-0.3376,-0.0928,3.1846,-0.33907,0.2578,3.1797,-0.3147,0.44012,3.1557,-0.47477,0.14322,3.1582,-0.52873,-0.086648,3.1169,-0.5012,-0.24421,2.9862,-0.47659,-0.28175,2.9061,-0.17971,0.13033,3.2132,-0.1634,-0.12124,3.2249,-0.15195,-0.32719,3.1479,-0.15175,-0.39832,3.1359,-0.39224,-0.22344,3.1206,-0.47103,-0.61859,3.1829,-0.50543,-0.95373,3.31,-0.49021,-0.98661,3.2331,-0.26038,-0.22458,3.1457,-0.27014,-0.59847,3.1193,-0.28774,-0.9299,3.1181,-0.27595,-0.9903,3.0602
-0.33799,-0.1558,3.1499,-0.34924,-0.092641,3.1945,-0.35184,0.25525,3.189,-0.33031,0.43436,3.1652,-0.47675,0.14319,3.1607,-0.54418,-0.086185,3.128,-0.50377,-0.23765,2.992,-0.48131,-0.28205,2.9242,-0.19826,0.13197,3.2171,-0.18156,-0.11857,3.2099,-0.16625,-0.33633,3.1477,-0.16913,-0.39799,3.1216,-0.40209,-0.222,3.1273,-0.47418,-0.61694,3.1887,-0.5038,-0.95617,3.3184,-0.45113,-1.0225,3.2927,-0.2714,-0.2234,3.1566,-0.27424,-0.59988,3.1227,-0.28895,-0.93239,3.118,-0.27631,-0.99243,3.0606
-0.35019,-0.16542,3.1614,-0.36022,-0.10051,3.2061,-0.36482,0.25389,3.2021,-0.34461,0.43702,3.169,-0.4969,0.14111,3.1708,-0.54997,-0.093576,3.138,-0.51693,-0.24327,2.9979,-0.48803,-0.28765,2.9323,-0.2105,0.12988,3.2197,-0.18971,-0.11584,3.2135,-0.18954,-0.36446,3.1342,-0.17373,-0.41617,3.1135,-0.40992,-0.22855,3.1452,-0.47678,-0.61612,3.1952,-0.50008,-0.95067,3.3256,-0.5009,-1.0078,3.2803,-0.28531,-0.22677,3.1625,-0.27707,-0.60007,3.1257,-0.28998,-0.93086,3.1179,-0.23938,-1.0566,3.1354
-0.35933,-0.16618,3.169,-0.37042,-0.10176,3.2141,-0.37689,0.2512,3.2118,-0.35525,0.43577,3.1785,-0.52093,0.13488,3.1832,-0.5614,-0.093222,3.1455,-0.51722,-0.24771,3.0152,-0.48433,-0.28793,2.9487,-0.22869,0.13023,3.2373,-0.19068,-0.10379,3.2518,-0.20748,-0.32043,3.1535,-0.19224,-0.39724,3.1238,-0.42099,-0.22987,3.1534,-0.47903,-0.61244,3.2024,-0.50159,-0.94952,3.324,-0.4759,-1.0597,3.3681,-0.29326,-0.22659,3.1696,-0.28099,-0.59831,3.1284,-0.29048,-0.93066,3.1179,-0.23429,-1.0006,3.1001
-0.36769,-0.16735,3.1797,-0.37919,-0.1027,3.2243,-0.39306,0.25032,3.2178,-0.37531,0.43849,3.195,-0.53099,0.13053,3.1913,-0.56853,-0.097032,3.151,-0.5197,-0.24912,3.0192,-0.4846,-0.29111,2.9551,-0.23972,0.13289,3.2402,-0.21504,-0.086857,3.2356,-0.22898,-0.32911,3.1275,-0.20045,-0.39798,3.1275,-0.42695,-0.23291,3.1631,-0.4821,-0.61114,3.2118,-0.5027,-0.94962,3.3231,-0.4778,-1.0614,3.3704,-0.30243,-0.22874,3.183,-0.28702,-0.60133,3.1337,-0.2911,-0.93295,3.1199,-0.27766,-0.96582,3.0427
-0.37767,-0.16812,3.1891,-0.38908,-0.10438,3.2347,-0.40648,0.24686,3.2307,-0.39454,0.43486,3.1967,-0.54533,0.12941,3.2037,-0.58307,-0.10308,3.1622,-0.53364,-0.25655,3.034,-0.4927,-0.28167,2.9764,-0.25891,0.12801,3.2448,-0.22134,-0.089305,3.2557,-0.21279,-0.31944,3.181,-0.21238,-0.39249,3.1504,-0.43749,-0.23503,3.1724,-0.48521,-0.61335,3.2236,-0.50449,-0.95881,3.3267,-0.50785,-1.0162,3.2816,-0.30975,-0.22941,3.1902,-0.29112,-0.60574,3.1371,-0.29137,-0.93387,3.12,-0.27976,-0.9665,3.0423
-0.38811,-0.16885,3.1985,-0.40119,-0.10495,3.2426,-0.42307,0.2438,3.2327,-0.40348,0.432,3.1984,-0.55568,0.12847,3.207,-0.59397,-0.10222,3.1716,-0.54212,-0.2595,3.0453,-0.50149,-0.28641,2.984,-0.26658,0.12119,3.2557,-0.2215,-0.10148,3.2797,-0.21918,-0.32099,3.1853,-0.2301,-0.39341,3.135,-0.44813,-0.23733,3.1815,-0.49326,-0.6133,3.2333,-0.50027,-0.95716,3.3379,-0.50428,-1.012,3.2924,-0.31864,-0.23228,3.2019,-0.29523,-0.60882,3.1411,-0.29168,-0.93386,3.1203,-0.27814,-0.96676,3.0431
-0.39675,-0.16741,3.2082,-0.4109,-0.10499,3.2525,-0.43359,0.23827,3.2435,-0.42073,0.4195,3.214,-0.5652,0.12466,3.2156,-0.60373,-0.10723,3.1799,-0.54974,-0.26098,3.0537,-0.51714,-0.30103,2.9985,-0.27467,0.12508,3.2692,-0.23397,-0.10611,3.2901,-0.22957,-0.32218,3.1917,-0.22545,-0.38877,3.1519,-0.45651,-0.2378,3.1882,-0.5009,-0.62214,3.2469,-0.50082,-0.9567,3.3384,-0.50584,-1.0161,3.2996,-0.32558,-0.23213,3.2131,-0.29812,-0.61213,3.1512,-0.2923,-0.93434,3.1227,-0.27765,-0.9671,3.0456
