0.016135,-0.21048,2.6317,0.0050757,-0.15591,2.6359,-0.029388,0.11487,2.61,-0.015667,0.28131,2.5594,-0.15305,-0.0040988,2.5883,-0.22941,-0.14714,2.5451,-0.42864,0.018288,2.3403,-0.46052,0.060072,2.285,0.16437,0.038364,2.6665,0.23848,-0.16332,2.6656,0.2224,-0.28343,2.529,0.20536,-0.34491,2.4862,-0.042409,-0.28651,2.6253,-0.0044242,-0.60971,2.457,-0.041947,-0.93478,2.5474,-0.026513,-0.98362,2.5036,0.092713,-0.27311,2.6454,0.078389,-0.65772,2.6523,0.038664,-0.95783,2.7371,0.056093,-0.99182,2.6677
0.005949,-0.17631,2.5905,-0.0031862,-0.12308,2.5952,-0.032057,0.14275,2.5711,-0.025022,0.30866,2.5185,-0.169,0.025371,2.5513,-0.25013,-0.11178,2.5089,-0.47442,0.058711,2.3528,-0.50278,0.095949,2.3216,0.1554,0.066626,2.6209,0.235,-0.14637,2.6193,0.23132,-0.27186,2.4871,0.206,-0.31381,2.4915,-0.059397,-0.25629,2.5744,-0.0091067,-0.58398,2.3942,-0.032971,-0.8994,2.4265,-0.01157,-0.95459,2.383,0.088164,-0.25339,2.6127,0.093509,-0.64902,2.649,0.043662,-0.9593,2.7448,0.067812,-1.0079,2.7335
-0.0005201,-0.1627,2.5455,-0.0097226,-0.10778,2.5523,-0.041876,0.16688,2.535,-0.03943,0.33308,2.4901,-0.17621,0.044692,2.526,-0.25737,-0.1014,2.501,-0.50779,0.081073,2.373,-0.54746,0.123,2.3424,0.14093,0.09906,2.5837,0.22869,-0.070483,2.5945,0.22289,-0.20993,2.4786,0.21764,-0.2645,2.435,-0.061424,-0.23877,2.5442,-0.023137,-0.54107,2.3579,-0.033429,-0.86763,2.3274,-0.018683,-0.92108,2.2661,0.075506,-0.2243,2.551,0.10773,-0.61983,2.636,0.054489,-0.95717,2.7504,0.067412,-0.99049,2.6797
-0.0039068,-0.14593,2.4996,-0.014305,-0.090301,2.5064,-0.049489,0.18981,2.4975,-0.053505,0.35615,2.4483,-0.18564,0.066257,2.4799,-0.26488,-0.085777,2.4733,-0.52769,0.089052,2.3906,-0.5867,0.13346,2.373,0.10086,0.11785,2.5735,0.22633,-0.055839,2.5758,0.22725,-0.18895,2.4488,0.21897,-0.2362,2.4082,-0.061586,-0.21821,2.494,-0.019479,-0.53372,2.3257,-0.028626,-0.84475,2.2475,-0.013358,-0.87717,2.1768,0.070292,-0.20335,2.5022,0.12127,-0.59952,2.6128,0.072694,-0.90913,2.7306,0.083014,-0.97116,2.6963
-0.006044,-0.13392,2.452,-0.016566,-0.078017,2.4613,-0.05428,0.20606,2.4651,-0.058521,0.36433,2.424,-0.19229,0.082072,2.4565,-0.27406,-0.062918,2.466,-0.55027,0.087927,2.4016,-0.60494,0.12875,2.3868,0.096168,0.13176,2.5399,0.22522,-0.04794,2.5446,0.23538,-0.18278,2.4174,0.2283,-0.20594,2.377,-0.060752,-0.20279,2.446,-0.020274,-0.54106,2.2878,-0.028509,-0.83717,2.1879,-0.02104,-0.8859,2.1205,0.065714,-0.19284,2.4505,0.13909,-0.57416,2.5802,0.10414,-0.92587,2.7192,0.11658,-0.95733,2.6476
-0.013747,-0.13716,2.4089,-0.023751,-0.081014,2.4211,-0.057997,0.20652,2.4297,-0.06229,0.36021,2.3723,-0.18987,0.086141,2.4107,-0.27383,-0.080026,2.4294,-0.55979,0.074639,2.4105,-0.6347,0.097817,2.4138,0.082783,0.13337,2.4926,0.19888,-0.019061,2.5428,0.24361,-0.18114,2.3945,0.23908,-0.20607,2.3567,-0.066979,-0.20197,2.4047,-0.017509,-0.52372,2.2578,-0.022011,-0.82032,2.155,-0.011924,-0.86707,2.0861,0.054164,-0.19251,2.4038,0.15487,-0.57178,2.5429,0.12734,-0.91166,2.7019,0.16054,-0.98428,2.7236
-0.023113,-0.1517,2.3622,-0.032485,-0.095039,2.3769,-0.061431,0.19859,2.3953,-0.067995,0.35518,2.3542,-0.18935,0.078451,2.3775,-0.38556,-0.021736,2.4091,-0.56982,0.021801,2.3776,-0.63182,0.037429,2.4001,0.075027,0.13459,2.4582,0.19738,-0.040413,2.5042,0.2656,-0.19474,2.3704,0.28496,-0.24379,2.3363,-0.074384,-0.21503,2.3579,-0.024433,-0.52449,2.2513,-0.014639,-0.86302,2.0901,0.030189,-0.9399,2.0657,0.040905,-0.20226,2.3533,0.15716,-0.57119,2.4814,0.17074,-0.89567,2.6541,0.20238,-0.94175,2.6411
-0.008679,-0.17624,2.3113,-0.021468,-0.11873,2.3292,-0.063571,0.18533,2.3595,-0.071055,0.33987,2.3134,-0.18739,0.055943,2.3299,-0.37262,-0.060324,2.3743,-0.55812,-0.033666,2.3389,-0.61184,-0.027349,2.3652,0.074223,0.11168,2.4205,0.19912,-0.056713,2.4881,0.29661,-0.20096,2.3646,0.32692,-0.24315,2.3257,-0.052146,-0.23422,2.3054,-0.021452,-0.53792,2.1528,-0.0087566,-0.8592,2.0507,0.0025765,-0.95227,1.9959,0.051132,-0.23014,2.3016,0.15884,-0.59128,2.4208,0.19938,-0.89939,2.5932,0.23212,-0.93918,2.5639
-0.016438,-0.1903,2.2782,-0.027737,-0.13285,2.2996,-0.063468,0.17038,2.3304,-0.073741,0.33246,2.2837,-0.18625,0.037518,2.296,-0.35091,-0.10535,2.3273,-0.54965,-0.10282,2.2829,-0.60569,-0.094167,2.2985,0.073849,0.07269,2.3788,0.19733,-0.11168,2.4323,0.32688,-0.23046,2.3613,0.3599,-0.25437,2.3367,-0.065015,-0.24903,2.2654,-0.033355,-0.56364,2.1047,-0.021954,-0.85266,2.0397,0.0064826,-0.96873,1.984,0.044761,-0.24539,2.2708,0.15938,-0.60576,2.3564,0.18751,-0.86137,2.5125,0.2971,-0.98064,2.5985
-0.024046,-0.20247,2.2474,-0.032064,-0.14578,2.2707,-0.055887,0.15695,2.299,-0.076009,0.32779,2.256,-0.18461,0.020214,2.2733,-0.34747,-0.14955,2.2735,-0.50135,-0.19264,2.1854,-0.558,-0.20294,2.1839,0.095915,0.053486,2.3109,0.18891,-0.11318,2.4252,0.31604,-0.22102,2.3667,0.35414,-0.24898,2.3485,-0.08187,-0.2658,2.2261,-0.046047,-0.56896,2.0887,-0.0081269,-0.95536,2.0525,0.0070609,-0.99032,1.9914,0.041741,-0.2658,2.2409,0.17665,-0.57338,2.2543,0.20518,-0.87831,2.3729,0.2413,-0.94321,2.358
-0.027361,-0.20658,2.2304,-0.034504,-0.15017,2.2567,-0.05784,0.15347,2.2835,-0.07723,0.32367,2.2322,-0.18235,0.015547,2.2604,-0.31378,-0.16534,2.2315,-0.44329,-0.24002,2.1279,-0.48647,-0.26455,2.1123,0.066508,0.062571,2.3153,0.17611,-0.11764,2.3952,0.33706,-0.26457,2.3892,0.35446,-0.2774,2.3747,-0.083483,-0.26792,2.2146,-0.052546,-0.57173,2.0808,-0.024887,-0.85769,2.0313,0.0084657,-0.99126,1.9926,0.038576,-0.26886,2.2252,0.17177,-0.59812,2.1728,0.19766,-0.8634,2.266,0.20673,-0.89256,2.194
-0.030397,-0.21132,2.2059,-0.037571,-0.15511,2.235,-0.058158,0.15114,2.263,-0.079351,0.32,2.2205,-0.17825,0.0092489,2.2359,-0.29217,-0.17834,2.1957,-0.39167,-0.26972,2.072,-0.42344,-0.30056,2.0575,0.064311,0.062864,2.3021,0.17389,-0.11484,2.3867,0.30397,-0.24819,2.3909,0.35062,-0.2956,2.395,-0.087604,-0.27004,2.1895,-0.063082,-0.58643,2.0644,0.012438,-0.90375,2.0384,0.013315,-0.93379,1.964,0.035607,-0.27366,2.2002,0.14972,-0.60601,2.0999,0.11288,-0.92585,2.0563,0.12712,-0.98609,2.0277
-0.026627,-0.21419,2.183,-0.035067,-0.15829,2.2169,-0.057267,0.15179,2.2541,-0.083014,0.31956,2.2105,-0.17371,0.0088092,2.2223,-0.23745,-0.1812,2.1711,-0.34608,-0.27683,2.0319,-0.37258,-0.31027,2.0115,0.064832,0.065561,2.2878,0.17369,-0.11768,2.3636,0.28771,-0.2503,2.3965,0.34285,-0.29556,2.4021,-0.082447,-0.27347,2.1622,-0.069719,-0.58285,2.059,-0.030118,-0.87128,2.0335,-0.027531,-0.9009,1.9589,0.038878,-0.27408,2.1772,0.11774,-0.59751,2.0303,0.089453,-0.89063,1.8986,0.1147,-0.94786,1.864
-0.02175,-0.22001,2.1715,-0.031249,-0.16398,2.2068,-0.056289,0.15013,2.2438,-0.085955,0.31762,2.1978,-0.16723,0.008387,2.2071,-0.23127,-0.17918,2.1592,-0.32771,-0.27318,2.0084,-0.34656,-0.30224,1.9857,0.065426,0.065998,2.2724,0.17074,-0.11581,2.3547,0.27706,-0.25257,2.3954,0.33146,-0.29878,2.4124,-0.074371,-0.27871,2.1521,-0.054315,-0.60001,2.042,-0.030285,-0.87139,2.0333,0.016075,-0.95086,2.0407,0.040529,-0.27651,2.1666,0.089202,-0.58683,1.9682,0.060206,-0.82152,1.7607,0.06485,-0.85114,1.6863
-0.018125,-0.22375,2.1473,-0.026082,-0.17294,2.1846,-0.051342,0.11936,2.2233,-0.084164,0.30249,2.1945,-0.16595,0.0078951,2.1982,-0.23321,-0.17748,2.1488,-0.34574,-0.27151,1.9759,-0.36457,-0.29597,1.9632,0.064294,0.066456,2.2592,0.16672,-0.11501,2.3452,0.26929,-0.25491,2.3936,0.32315,-0.30547,2.4197,-0.066664,-0.28035,2.1252,-0.057814,-0.62531,2.0274,-0.029883,-0.88371,2.0338,-0.028563,-0.91331,1.9593,0.041789,-0.28272,2.1363,0.066369,-0.59095,1.8999,0.032531,-0.79098,1.6716,0.042402,-0.80199,1.5805
-0.02573,-0.22509,2.1413,-0.032674,-0.17495,2.1804,-0.051663,0.11888,2.2202,-0.085737,0.30001,2.1886,-0.16507,0.0049832,2.1909,-0.24113,-0.17175,2.1287,-0.37934,-0.24549,1.9606,-0.39965,-0.26006,1.9462,0.064794,0.065861,2.2495,0.16766,-0.11487,2.3365,0.26594,-0.25818,2.3904,0.31999,-0.30967,2.4177,-0.07752,-0.28094,2.1209,-0.061214,-0.62997,2.0303,-0.028222,-0.89379,2.0343,-0.025451,-0.92337,1.9598,0.031547,-0.28274,2.1308,0.04621,-0.53985,1.8723,0.029964,-0.67712,1.6414,0.032734,-0.70669,1.5669
-0.034551,-0.21936,2.1357,-0.040273,-0.16771,2.1771,-0.052312,0.14785,2.2212,-0.088987,0.31393,2.1843,-0.16493,0.0065772,2.1867,-0.26323,-0.1526,2.1164,-0.42275,-0.20813,1.9661,-0.44354,-0.21602,1.9553,0.065769,0.065241,2.238,0.175,-0.11661,2.3168,0.26248,-0.25907,2.3796,0.31614,-0.31097,2.4081,-0.090817,-0.27316,2.119,-0.085833,-0.62225,2.0345,-0.028365,-0.8931,2.0307,-0.026056,-0.92269,1.9562,0.02265,-0.27525,2.123,0.040696,-0.50307,1.8284,0.012905,-0.61053,1.5663,0.015214,-0.64012,1.4917
-0.037439,-0.21704,2.1316,-0.042097,-0.16577,2.1744,-0.051702,0.14795,2.2181,-0.089831,0.31391,2.1823,-0.16578,0.0081878,2.1849,-0.30116,-0.15857,2.1178,-0.45478,-0.16794,1.9917,-0.49595,-0.17566,1.973,0.067843,0.065666,2.2271,0.19446,-0.097124,2.2889,0.26405,-0.24956,2.3465,0.3118,-0.30052,2.3855,-0.093619,-0.27165,2.117,-0.080073,-0.61968,2.0234,-0.028123,-0.89341,2.0299,-0.025398,-0.92299,1.9553,0.019255,-0.27114,2.1158,0.026662,-0.45416,1.8255,0.0047738,-0.56447,1.5318,0.007499,-0.59405,1.4572
-0.040714,-0.21185,2.127,-0.040953,-0.16101,2.171,-0.050482,0.15081,2.2155,-0.091161,0.31607,2.1789,-0.16909,0.011226,2.1858,-0.3429,-0.13194,2.1306,-0.48785,-0.11036,2.0278,-0.52627,-0.13064,2.0112,0.086846,0.05511,2.185,0.196,-0.11007,2.2757,0.29396,-0.25337,2.3231,0.34065,-0.29701,2.3363,-0.098279,-0.2683,2.1141,-0.11097,-0.57903,2.0287,-0.029918,-0.89004,2.0291,-0.040568,-0.91986,1.9553,0.017252,-0.26588,2.1085,0.015651,-0.41603,1.8071,-0.0092881,-0.53561,1.4743,-0.019938,-0.56542,1.4005
-0.042368,-0.1937,2.1244,-0.041658,-0.14544,2.1693,-0.050299,0.15498,2.2131,-0.092567,0.3194,2.1774,-0.17828,0.021831,2.192,-0.32398,-0.1015,2.1611,-0.50899,-0.082227,2.0774,-0.55086,-0.088203,2.0648,0.098346,0.067536,2.1833,0.20494,-0.1026,2.2559,0.31518,-0.24552,2.278,0.36113,-0.28242,2.2817,-0.10302,-0.25919,2.1137,-0.083895,-0.61615,2.0286,-0.025906,-0.89841,2.0276,-0.035606,-0.92821,1.9537,0.020018,-0.2515,2.1022,0.015736,-0.39765,1.8068,0.010012,-0.49615,1.5627,0.00031163,-0.52595,1.4888
-0.04406,-0.18546,2.124,-0.042009,-0.13696,2.1697,-0.051222,0.16326,2.2115,-0.095872,0.32679,2.1751,-0.18512,0.031222,2.2008,-0.33573,-0.079909,2.1922,-0.5154,-0.052852,2.1288,-0.58193,-0.04455,2.1245,0.097682,0.070207,2.1783,0.22349,-0.087294,2.2125,0.34771,-0.22123,2.1988,0.37877,-0.26025,2.2338,-0.10624,-0.25215,2.1152,-0.08322,-0.60835,2.0259,-0.024904,-0.89324,2.0287,-0.035563,-0.92305,1.9549,0.01937,-0.24238,2.0993,0.030512,-0.37872,1.7623,-0.011006,-0.51145,1.4474,-0.041627,-0.53127,1.4124
-0.047787,-0.1721,2.1236,-0.043513,-0.12491,2.1697,-0.051419,0.17081,2.2106,-0.098044,0.33326,2.1748,-0.19454,0.041853,2.2112,-0.34137,-0.076587,2.2197,-0.53819,-0.029811,2.1782,-0.59148,-0.021059,2.1866,0.096955,0.07567,2.1721,0.25409,-0.093159,2.1734,0.39151,-0.2135,2.1607,0.44464,-0.2357,2.1682,-0.1119,-0.24125,2.1158,-0.087886,-0.56642,2.0348,-0.026842,-0.88088,2.0268,-0.040325,-0.91076,1.9536,0.017333,-0.23278,2.0965,0.029532,-0.38316,1.7535,-0.0050903,-0.50882,1.4544,-0.018574,-0.5387,1.3811
-0.049114,-0.16321,2.1252,-0.043564,-0.11602,2.1714,-0.05288,0.17821,2.2096,-0.10056,0.33847,2.1752,-0.19882,0.04611,2.2171,-0.363,-0.056826,2.2434,-0.54493,-0.015146,2.2237,-0.60509,-0.0036956,2.2369,0.097081,0.082593,2.1671,0.2582,-0.07858,2.1409,0.40731,-0.18833,2.1108,0.4577,-0.19359,2.098,-0.11427,-0.23591,2.1177,-0.091886,-0.54746,2.0413,-0.027267,-0.86654,2.0281,-0.04279,-0.89646,1.9553,0.017038,-0.22337,2.0967,0.033629,-0.36863,1.7998,0.022211,-0.52037,1.5089,-0.019153,-0.53506,1.4477
-0.05036,-0.16017,2.1254,-0.043389,-0.11269,2.172,-0.053425,0.18328,2.2096,-0.1037,0.34269,2.1758,-0.20176,0.047282,2.2215,-0.36328,-0.049489,2.2591,-0.5457,-0.014135,2.2685,-0.59955,-0.0043825,2.2814,0.096057,0.088795,2.1619,0.25724,-0.072428,2.1223,0.41275,-0.15503,2.0581,0.46432,-0.16812,2.0525,-0.11592,-0.23269,2.1199,-0.09113,-0.54604,2.0437,-0.034186,-0.84479,2.0094,-0.053815,-0.81664,1.9803,0.015397,-0.22068,2.0951,0.038362,-0.39246,1.7789,0.011527,-0.56482,1.4591,-0.016321,-0.56815,1.4263
-0.050872,-0.15816,2.1256,-0.042721,-0.11064,2.1725,-0.053036,0.1864,2.21,-0.10467,0.34526,2.1769,-0.20262,0.04982,2.2269,-0.36489,-0.046195,2.283,-0.53783,-0.018156,2.3092,-0.58504,-0.0073351,2.3233,0.094567,0.090257,2.1591,0.25507,-0.060874,2.0994,0.40152,-0.11894,2.0162,0.45726,-0.13045,1.9958,-0.11655,-0.23044,2.1214,-0.086328,-0.55057,2.0462,-0.020927,-0.87716,2.0325,-0.040026,-0.90716,1.9605,0.014219,-0.21855,2.0935,0.044332,-0.40528,1.7891,0.018127,-0.61969,1.4868,0.0043775,-0.61237,1.4676
-0.052816,-0.15648,2.1265,-0.043106,-0.10887,2.1735,-0.05342,0.18891,2.2105,-0.10587,0.34753,2.179,-0.20437,0.051004,2.2342,-0.36081,-0.050109,2.3031,-0.53275,-0.036636,2.3401,-0.56277,-0.030653,2.3483,0.093624,0.091261,2.157,0.24385,-0.042197,2.08,0.38799,-0.098695,1.981,0.44315,-0.10767,1.9626,-0.1194,-0.22864,2.1252,-0.080243,-0.54922,2.0557,-0.024175,-0.86133,2.0362,-0.045093,-0.89139,1.9648,0.011582,-0.21706,2.0923,0.043762,-0.43622,1.8113,0.041141,-0.64464,1.5837,0.022543,-0.6366,1.5489
-0.053079,-0.15626,2.1267,-0.042304,-0.10866,2.1739,-0.053302,0.19043,2.2115,-0.10886,0.34946,2.1816,-0.20356,0.050852,2.2394,-0.34374,-0.064044,2.3228,-0.51343,-0.076094,2.3676,-0.55013,-0.049678,2.3965,0.091972,0.091592,2.1549,0.23726,-0.03645,2.0644,0.36697,-0.075361,1.9487,0.43614,-0.083253,1.914,-0.11887,-0.22858,2.1264,-0.079685,-0.54925,2.0578,-0.023172,-0.86353,2.0382,-0.045259,-0.89362,1.9671,0.010103,-0.21624,2.0907,0.047357,-0.46503,1.817,0.038269,-0.73071,1.5761,0.016183,-0.7608,1.505
-0.053516,-0.15595,2.1275,-0.041469,-0.10834,2.175,-0.053071,0.19134,2.2134,-0.10968,0.35062,2.1833,-0.20198,0.050881,2.2463,-0.32422,-0.082322,2.3372,-0.48598,-0.12354,2.3896,-0.52732,-0.11982,2.4083,0.090008,0.09179,2.1532,0.22766,-0.030725,2.0492,0.35571,-0.068535,1.9318,0.41771,-0.071777,1.8889,-0.11896,-0.22721,2.1311,-0.076648,-0.56468,2.0606,-0.023222,-0.86411,2.0383,-0.046781,-0.89422,1.9678,0.0091333,-0.21594,2.0902,0.054325,-0.49,1.8404,0.04789,-0.79859,1.6471,0.045325,-0.82916,1.5828
-0.054341,-0.15813,2.1304,-0.041036,-0.11166,2.1774,-0.05372,0.16733,2.2104,-0.10801,0.3453,2.1891,-0.19907,0.051065,2.2535,-0.30284,-0.11592,2.3587,-0.46398,-0.17178,2.399,-0.5052,-0.18324,2.4244,0.088864,0.091547,2.1523,0.21365,-0.031972,2.0393,0.34232,-0.064136,1.8927,0.39044,-0.068328,1.8536,-0.11692,-0.23116,2.1368,-0.08398,-0.54451,2.0677,-0.028096,-0.85193,2.0398,-0.054008,-0.88213,1.9701,0.0074419,-0.21723,2.0911,0.059939,-0.48661,1.8651,0.061733,-0.81876,1.7458,0.035822,-0.84896,1.6761
-0.053946,-0.15878,2.1329,-0.03982,-0.11263,2.1802,-0.053138,0.1688,2.2141,-0.10758,0.34733,2.1943,-0.19533,0.052726,2.2576,-0.28834,-0.12449,2.351,-0.41704,-0.23102,2.4017,-0.4644,-0.24666,2.4288,0.087756,0.090793,2.1518,0.19824,-0.030147,2.0304,0.29762,-0.064218,1.8694,0.34741,-0.069298,1.8288,-0.11531,-0.23151,2.1396,-0.080783,-0.5657,2.0677,-0.023367,-0.8698,2.0396,-0.050365,-0.90003,1.9703,0.0071838,-0.21768,2.0926,0.067236,-0.51432,1.8877,0.076377,-0.85764,1.8296,0.06735,-0.91301,1.7865
-0.052098,-0.16062,2.1359,-0.03777,-0.11419,2.1832,-0.05245,0.16961,2.2169,-0.10643,0.34894,2.2011,-0.19316,0.052759,2.2613,-0.25656,-0.14092,2.344,-0.35742,-0.26852,2.4018,-0.38389,-0.29772,2.4307,0.087295,0.089759,2.1526,0.18884,-0.034679,2.0238,0.28661,-0.069371,1.8501,0.3288,-0.071749,1.8134,-0.11182,-0.23268,2.1439,-0.078209,-0.57034,2.0703,-0.023705,-0.86593,2.0392,-0.051608,-0.89621,1.9703,0.0081283,-0.2197,2.0943,0.061491,-0.53017,1.9274,0.08628,-0.88005,1.934,0.058377,-0.91033,1.8651
-0.05037,-0.16199,2.1421,-0.035794,-0.11601,2.1895,-0.050527,0.17036,2.2253,-0.10605,0.34882,2.2067,-0.19016,0.051859,2.2658,-0.24178,-0.14966,2.338,-0.29498,-0.31067,2.3756,-0.30656,-0.35449,2.4065,0.085704,0.086138,2.1565,0.1731,-0.041978,2.0181,0.24751,-0.083383,1.857,0.27625,-0.085941,1.8273,-0.10889,-0.23338,2.1504,-0.080797,-0.55884,2.0795,0.024875,-0.86709,2.0453,-0.0032472,-0.89735,1.9764,0.0082621,-0.22157,2.0995,0.058619,-0.56465,1.9764,0.12772,-0.88733,1.951,0.096085,-0.97599,1.993
-0.047731,-0.16272,2.1498,-0.03315,-0.11788,2.1982,-0.047586,0.16833,2.2376,-0.10005,0.35055,2.2239,-0.18573,0.05426,2.2743,-0.19715,-0.17343,2.32,-0.24314,-0.33658,2.3556,-0.25576,-0.39011,2.3905,0.087673,0.082811,2.1664,0.17817,-0.067801,2.0448,0.22037,-0.096792,1.8645,0.25784,-0.09749,1.8233,-0.10597,-0.23342,2.157,-0.084762,-0.55868,2.0802,-0.001362,-0.87352,2.0754,0.039119,-0.94862,2.0401,0.0099685,-0.22217,2.1053,0.062884,-0.5759,1.9837,0.10186,-0.86928,2.0992,0.088022,-0.95016,2.0569
-0.046169,-0.16858,2.1664,-0.032275,-0.12286,2.215,-0.043815,0.16746,2.2505,-0.09701,0.34845,2.2352,-0.18338,0.053953,2.2797,-0.18547,-0.16046,2.309,-0.16663,-0.36618,2.3225,-0.16951,-0.42582,2.3642,0.088292,0.079533,2.1829,0.16322,-0.085171,2.0883,0.17414,-0.12717,1.8897,0.1981,-0.11562,1.8562,-0.10539,-0.23682,2.1713,-0.082557,-0.56008,2.087,0.031236,-0.85389,2.1599,0.031068,-0.91819,2.0937,0.010777,-0.22648,2.1277,0.045529,-0.58314,2.0459,0.10136,-0.83693,2.1762,0.074092,-0.87089,2.1028
-0.044543,-0.17228,2.1809,-0.031663,-0.12652,2.2302,-0.04123,0.1656,2.2645,-0.09189,0.34632,2.2508,-0.17845,0.05509,2.2901,-0.20993,-0.12575,2.3203,-0.11972,-0.42209,2.3071,-0.27861,-0.32167,2.4042,0.090696,0.077041,2.2027,0.13865,-0.079021,2.0812,0.15406,-0.13225,1.903,0.16389,-0.13589,1.8746,-0.10365,-0.23822,2.1821,-0.063896,-0.60375,2.1034,-0.026706,-0.86846,2.0519,-0.049566,-0.89864,1.9811,0.011767,-0.22941,2.1459,-0.0099381,-0.60617,2.0897,0.14876,-0.81874,2.1903,0.063737,-0.87299,2.1414
-0.041623,-0.17345,2.193,-0.030481,-0.12899,2.2437,-0.040101,0.16236,2.285,-0.08647,0.34379,2.2672,-0.17277,0.053693,2.3027,-0.20776,-0.11692,2.3377,-0.12623,-0.42214,2.2466,-0.27629,-0.31279,2.4215,0.095606,0.077223,2.2282,0.14152,-0.097854,2.1225,0.12376,-0.15037,1.9429,0.12021,-0.1633,1.9012,-0.099881,-0.23704,2.1939,-0.083381,-0.54622,2.1265,-0.033083,-0.84459,2.0607,-0.05327,-0.87462,1.989,0.014471,-0.23063,2.1569,-0.0086187,-0.60983,2.1096,0.048712,-0.84936,2.1601,0.028474,-0.87865,2.0891
-0.039653,-0.17634,2.22,-0.028924,-0.13208,2.2697,-0.035691,0.15495,2.3011,-0.077374,0.33692,2.2915,-0.16867,0.049343,2.318,-0.20168,-0.12579,2.3554,-0.12979,-0.42615,2.2431,-0.27014,-0.32162,2.4392,0.103,0.075401,2.2495,0.15085,-0.11227,2.1552,0.076416,-0.1845,1.9507,0.063527,-0.19769,1.9057,-0.098839,-0.23908,2.2234,-0.075836,-0.55919,2.1206,-0.031983,-0.83839,2.0596,-0.049872,-0.86845,1.9873,0.016537,-0.23507,2.1829,0.070334,-0.62892,2.1953,0.044076,-0.90296,2.2402,0.028465,-0.94964,2.2122
-0.037736,-0.18346,2.2443,-0.02679,-0.13889,2.2944,-0.033181,0.15016,2.3265,-0.072392,0.33407,2.309,-0.16682,0.042367,2.3402,-0.14708,-0.20431,2.3313,-0.24488,-0.27985,2.4127,-0.1585,-0.46849,2.2888,0.10378,0.067,2.2706,0.12994,-0.13795,2.1889,0.05947,-0.21995,2.0223,0.037866,-0.2262,1.9861,-0.097504,-0.24493,2.2465,-0.055734,-0.56284,2.1452,-0.03288,-0.83875,2.0619,-0.053357,-0.86882,1.9903,0.019133,-0.24377,2.2083,0.013807,-0.63839,2.1965,0.047953,-0.87206,2.2387,0.029054,-0.90133,2.1673
-0.036121,-0.18934,2.276,-0.026485,-0.14308,2.3244,-0.030328,0.14543,2.3445,-0.067201,0.32952,2.3291,-0.16523,0.039363,2.3597,-0.15847,-0.19781,2.3592,-0.18355,-0.36351,2.2904,-0.18941,-0.43878,2.285,0.10953,0.0586,2.2989,0.13189,-0.15142,2.2102,0.044508,-0.23923,2.0742,0.026388,-0.23831,2.059,-0.097197,-0.25145,2.2824,-0.06515,-0.58147,2.2182,-0.043087,-0.82272,2.0947,-0.057733,-0.85278,2.0217,0.021441,-0.254,2.2395,0.0096475,-0.6375,2.2249,0.034138,-0.91433,2.2895,0.019215,-0.96131,2.259
-0.032805,-0.19138,2.3073,-0.026881,-0.14573,2.3565,-0.025357,0.13907,2.3723,-0.059421,0.32324,2.3455,-0.1613,0.038032,2.3766,-0.17875,-0.19256,2.3738,-0.20617,-0.37424,2.3231,-0.21757,-0.44067,2.3055,0.12955,0.051155,2.3403,0.11584,-0.16616,2.2398,0.012482,-0.2693,2.1043,0.0046366,-0.25102,2.0978,-0.095572,-0.25675,2.308,-0.017943,-0.59725,2.2942,-0.039442,-0.80402,2.0925,-0.010477,-0.88479,2.0584,0.025619,-0.25644,2.2778,0.0053956,-0.63529,2.281,0.020787,-0.92654,2.3164,0.011884,-0.95584,2.2432
-0.031291,-0.1925,2.3369,-0.024507,-0.14599,2.3851,-0.016884,0.13958,2.3972,-0.04413,0.32537,2.38,-0.16101,0.033173,2.3987,-0.18822,-0.19695,2.3837,-0.22363,-0.36939,2.3367,-0.24582,-0.43244,2.3324,0.13311,0.049482,2.3647,0.1143,-0.17601,2.2745,0.012419,-0.27599,2.1569,-0.030042,-0.30046,2.1275,-0.09792,-0.25881,2.3314,-0.017134,-0.60055,2.3115,-0.045316,-0.82907,2.1194,-0.018238,-0.906,2.0761,0.028624,-0.25945,2.3153,0.0056715,-0.62407,2.3031,0.013883,-0.91984,2.329,0.0055459,-0.94927,2.2557
-0.011972,-0.18994,2.3683,-0.010197,-0.14081,2.4181,-0.0093366,0.16377,2.4352,-0.041464,0.33092,2.3925,-0.15559,0.035364,2.4196,-0.19629,-0.19017,2.4033,-0.24736,-0.36569,2.3535,-0.26453,-0.43036,2.3406,0.14145,0.046244,2.4057,0.1254,-0.16811,2.3199,0.017992,-0.26786,2.2258,-0.018729,-0.31112,2.198,-0.08022,-0.25953,2.3618,-0.015783,-0.61988,2.3441,-0.042506,-0.84495,2.144,-0.019732,-0.92412,2.1023,0.055389,-0.25142,2.3477,0.0011945,-0.61503,2.3309,0.010556,-0.92304,2.3514,0.0072728,-0.9524,2.2777
-0.0089785,-0.19247,2.3955,-0.0072174,-0.14135,2.4441,-0.0056673,0.16464,2.4563,-0.031398,0.33271,2.431,-0.15248,0.036147,2.4416,-0.20814,-0.18997,2.4268,-0.27954,-0.3561,2.3672,-0.30354,-0.41514,2.3627,0.1465,0.048085,2.4268,0.11972,-0.1636,2.3526,-0.021437,-0.32151,2.2596,-0.076266,-0.34278,2.2182,-0.077116,-0.2589,2.3854,-0.017936,-0.61434,2.366,-0.049482,-0.85261,2.1797,-0.052566,-0.88272,2.1054,0.055954,-0.25945,2.3808,0.0051077,-0.61204,2.3545,0.010342,-0.92813,2.3658,0.0069583,-0.95769,2.2921
0.0040973,-0.19237,2.4253,0.0016399,-0.13965,2.4737,-0.0017385,0.16814,2.4795,-0.027647,0.33941,2.4469,-0.14859,0.035682,2.4592,-0.21275,-0.18864,2.4371,-0.30012,-0.34042,2.377,-0.33026,-0.40475,2.3716,0.14906,0.052913,2.4652,0.13813,-0.13542,2.4214,-0.017818,-0.28345,2.3134,-0.056688,-0.31154,2.28,-0.06214,-0.2591,2.4114,-0.054968,-0.58843,2.3034,-0.064053,-0.86182,2.211,-0.061756,-0.89248,2.1368,0.072109,-0.25997,2.4164,0.014169,-0.62476,2.3815,0.0070396,-0.93463,2.3885,0.0085233,-0.96441,2.3149
0.014076,-0.18488,2.4569,0.011163,-0.13262,2.505,0.0015253,0.17374,2.5121,-0.021815,0.34369,2.477,-0.14714,0.038929,2.4886,-0.2149,-0.18252,2.4503,-0.31315,-0.31904,2.3905,-0.34703,-0.37567,2.3865,0.15594,0.057424,2.4918,0.13481,-0.1485,2.438,-0.021166,-0.29655,2.3301,-0.060008,-0.32462,2.2967,-0.051488,-0.25416,2.4405,-0.059447,-0.57901,2.3351,-0.058338,-0.87988,2.2538,-0.041995,-0.9677,2.2303,0.082646,-0.25293,2.4476,0.016335,-0.60924,2.3942,0.0046722,-0.93452,2.4152,0.0053546,-0.96425,2.3415
0.017749,-0.17942,2.4824,0.016146,-0.1271,2.5305,0.0057323,0.17889,2.5375,-0.018969,0.34843,2.4957,-0.14773,0.045434,2.5162,-0.20947,-0.17618,2.4637,-0.31907,-0.30678,2.3988,-0.34498,-0.35978,2.3955,0.15438,0.062521,2.5107,0.15503,-0.1393,2.4921,0.062083,-0.33955,2.3912,-0.039787,-0.31543,2.3508,-0.047534,-0.24867,2.4689,-0.064021,-0.56595,2.348,-0.06169,-0.86879,2.3088,-0.057069,-0.92641,2.2565,0.086236,-0.24671,2.4716,0.079272,-0.60312,2.4899,2.0936e-05,-0.93012,2.4462,-0.0013363,-0.95989,2.3725
0.019623,-0.17423,2.504,0.017314,-0.12167,2.5505,0.0063998,0.18214,2.554,-0.012242,0.35383,2.5209,-0.14614,0.051129,2.5362,-0.20617,-0.17189,2.4861,-0.32078,-0.28548,2.4139,-0.35756,-0.34003,2.3992,0.15411,0.066508,2.5332,0.16931,-0.14488,2.5043,0.011416,-0.2612,2.4044,-0.02739,-0.28925,2.3711,-0.046098,-0.24392,2.4886,-0.067152,-0.56059,2.3711,-0.063806,-0.88693,2.3779,-0.064401,-0.91692,2.3043,0.089211,-0.24159,2.4963,0.018834,-0.594,2.4691,0.032225,-0.91424,2.5671,0.03163,-0.94423,2.4935
0.020422,-0.16931,2.529,0.018245,-0.11677,2.5754,0.0086494,0.18792,2.5818,-0.012542,0.35361,2.5478,-0.14721,0.055768,2.5659,-0.21712,-0.14745,2.5221,-0.32412,-0.29232,2.4121,-0.35042,-0.33866,2.4037,0.16132,0.068501,2.5634,0.15571,-0.15925,2.5281,0.10538,-0.3438,2.4349,0.054198,-0.37225,2.4014,-0.046261,-0.24028,2.5143,-0.064844,-0.56531,2.3975,-0.064067,-0.90523,2.446,-0.064442,-0.93512,2.3723,0.090424,-0.2385,2.5185,0.0022305,-0.58617,2.4615,0.0010931,-0.91175,2.5398,0.0007182,-0.94164,2.4661
0.019109,-0.16694,2.5477,0.016379,-0.11477,2.5941,0.0091939,0.19006,2.6037,-0.010029,0.35788,2.5733,-0.14449,0.058064,2.5807,-0.21694,-0.13932,2.54,-0.30755,-0.26429,2.4426,-0.34439,-0.32431,2.4148,0.16408,0.069317,2.5853,0.16702,-0.16368,2.5338,0.12709,-0.34208,2.4528,0.10471,-0.3854,2.4379,-0.048035,-0.23835,2.5275,-0.064966,-0.56473,2.4263,-0.072741,-0.92558,2.5314,-0.072757,-0.97344,2.4833,0.089757,-0.23915,2.5435,0.0058161,-0.58887,2.4836,0.0081931,-0.90856,2.5765,0.030459,-0.96239,2.5479
0.019169,-0.16931,2.571,0.015675,-0.11615,2.6169,0.0058353,0.1929,2.6274,-0.010726,0.36019,2.6025,-0.14355,0.057322,2.6002,-0.21609,-0.13491,2.5581,-0.29682,-0.2643,2.4575,-0.33252,-0.32019,2.4312,0.16297,0.073891,2.6075,0.17759,-0.16196,2.5681,0.14841,-0.34648,2.4754,0.13795,-0.395,2.4495,-0.045902,-0.23972,2.5534,-0.062028,-0.58594,2.4732,-0.065195,-0.93612,2.6035,-0.060718,-0.98209,2.5543,0.088793,-0.24094,2.5636,0.073552,-0.60375,2.5672,0.025886,-0.90359,2.602,0.003504,-0.95573,2.577
0.015288,-0.17308,2.5879,0.011919,-0.12016,2.6346,0.006639,0.19111,2.6508,-0.011574,0.35801,2.6202,-0.14125,0.057186,2.616,-0.21339,-0.13634,2.5765,-0.28874,-0.26408,2.4692,-0.32627,-0.32197,2.4387,0.15937,0.071938,2.6296,0.18112,-0.16251,2.5839,0.18196,-0.3374,2.5086,0.18359,-0.40186,2.4829,-0.050188,-0.24153,2.5669,-0.063956,-0.5977,2.5193,-0.072698,-0.92421,2.6669,-0.063674,-0.9718,2.6277,0.081799,-0.24334,2.5829,0.0021986,-0.59658,2.5511,0.045118,-0.90547,2.6095,0.048404,-0.93499,2.5357
0.014795,-0.17463,2.6067,0.010328,-0.12233,2.655,0.0030772,0.19276,2.6792,-0.014382,0.36092,2.6499,-0.14009,0.055338,2.6381,-0.2055,-0.16023,2.5927,-0.27633,-0.28298,2.4768,-0.31493,-0.34327,2.4485,0.15155,0.074102,2.6558,0.18488,-0.15929,2.6145,0.19011,-0.32899,2.522,0.18742,-0.39753,2.4903,-0.049036,-0.24214,2.5815,-0.058251,-0.59758,2.5704,-0.090573,-0.90536,2.7467,-0.086422,-0.93459,2.6728,0.081344,-0.24486,2.6028,0.040613,-0.61536,2.5799,0.050758,-0.91899,2.616,0.079793,-0.96021,2.5606
0.011304,-0.17709,2.6275,0.0067438,-0.12659,2.6758,-0.00020458,0.17418,2.6992,-0.017162,0.35515,2.6807,-0.14118,0.060472,2.6631,-0.20873,-0.16141,2.6173,-0.25409,-0.29842,2.5055,-0.28521,-0.34583,2.4834,0.15099,0.073257,2.6809,0.18831,-0.15862,2.6329,0.21969,-0.33171,2.5562,0.21462,-0.39626,2.5212,-0.051803,-0.24326,2.6032,-0.063753,-0.60242,2.622,-0.092558,-0.89303,2.8035,-0.096332,-0.94038,2.7713,0.07712,-0.24729,2.6223,0.023216,-0.62163,2.6002,0.050025,-0.91673,2.617,0.054432,-0.94587,2.543
0.0096462,-0.18043,2.6481,0.0028657,-0.12797,2.6967,-0.0044806,0.19283,2.7239,-0.019927,0.36067,2.7013,-0.14108,0.059708,2.6725,-0.20495,-0.16384,2.6387,-0.24882,-0.29999,2.525,-0.2723,-0.36197,2.5118,0.15018,0.068956,2.704,0.19488,-0.16214,2.6628,0.23127,-0.32301,2.5733,0.24196,-0.3898,2.5471,-0.052288,-0.24571,2.6215,-0.081916,-0.61406,2.6677,-0.10386,-0.89431,2.8649,-0.095811,-0.92343,2.7912,0.074593,-0.25107,2.6458,0.020016,-0.62506,2.6202,0.049955,-0.91421,2.6206,0.058005,-0.94333,2.5469
0.0059834,-0.18978,2.6729,-0.00046403,-0.13844,2.7224,-0.0055919,0.17081,2.7456,-0.02415,0.35506,2.7297,-0.14436,0.054599,2.6922,-0.20347,-0.1661,2.658,-0.22536,-0.32331,2.5721,-0.24746,-0.35651,2.5605,0.14369,0.069688,2.724,0.20067,-0.15819,2.6975,0.25254,-0.31381,2.6199,0.2583,-0.37833,2.5779,-0.053612,-0.25504,2.6544,-0.084475,-0.60606,2.7066,-0.1028,-0.88192,2.9093,-0.05822,-0.93586,2.8607,0.069414,-0.25277,2.6632,0.026504,-0.62093,2.6266,0.048594,-0.915,2.6225,0.087509,-0.95786,2.5737
-0.0044311,-0.19024,2.697,-0.0096181,-0.13581,2.7464,-0.017789,0.19229,2.7711,-0.02689,0.35428,2.7461,-0.15417,0.053131,2.7209,-0.20267,-0.17796,2.6975,-0.21987,-0.32829,2.5985,-0.2386,-0.3637,2.5928,0.13545,0.06974,2.7418,0.19935,-0.15634,2.7184,0.25806,-0.30611,2.6432,0.27739,-0.36049,2.6138,-0.063909,-0.25555,2.6787,-0.090633,-0.61424,2.7663,-0.10016,-0.89495,2.963,-0.059092,-0.94366,2.9189,0.057101,-0.25219,2.69,0.041119,-0.61017,2.6359,0.047651,-0.91553,2.6239,0.083372,-0.95859,2.5741
-0.010075,-0.19074,2.7193,-0.014909,-0.13573,2.7672,-0.021194,0.18916,2.7829,-0.030643,0.35357,2.7804,-0.16041,0.048574,2.7452,-0.20207,-0.18371,2.7133,-0.21086,-0.34789,2.6415,-0.23899,-0.37948,2.6162,0.13598,0.071029,2.7665,0.19947,-0.15615,2.742,0.26044,-0.30508,2.6652,0.2859,-0.36405,2.6378,-0.070761,-0.2572,2.7032,-0.091224,-0.60526,2.7989,-0.097295,-0.87347,2.9748,-0.058802,-0.89308,2.9112,0.053062,-0.25281,2.7103,0.040876,-0.60563,2.6445,0.047365,-0.91616,2.6249,0.052276,-0.94574,2.5511
-0.021356,-0.19707,2.7487,-0.02277,-0.14085,2.7949,-0.026187,0.18117,2.8001,-0.035318,0.35041,2.7948,-0.16952,0.043132,2.7812,-0.2065,-0.18657,2.7437,-0.21854,-0.35056,2.6619,-0.23805,-0.39675,2.6565,0.1288,0.066521,2.7849,0.19515,-0.15916,2.7681,0.2606,-0.30717,2.6925,0.28805,-0.36465,2.6584,-0.086228,-0.26706,2.7385,-0.093119,-0.60971,2.8372,-0.10064,-0.88641,3.0162,-0.058681,-0.93515,2.9778,0.042845,-0.25828,2.739,0.038653,-0.60716,2.6548,0.045782,-0.91969,2.6275,0.07719,-0.96494,2.577
-0.029126,-0.2014,2.782,-0.028654,-0.14525,2.8275,-0.034476,0.1717,2.8285,-0.051892,0.34526,2.8167,-0.18129,0.036668,2.8103,-0.20667,-0.19258,2.7654,-0.21775,-0.36524,2.7227,-0.23355,-0.42122,2.6921,0.12185,0.060103,2.7981,0.18981,-0.16545,2.7891,0.25577,-0.31237,2.7162,0.28066,-0.37473,2.6881,-0.094509,-0.27445,2.7747,-0.098952,-0.61964,2.897,-0.094022,-0.90533,3.0522,-0.063947,-0.96516,3.024,0.036531,-0.2618,2.769,0.033802,-0.61091,2.6779,0.043618,-0.91789,2.631,0.040554,-0.94829,2.5573
-0.033957,-0.21159,2.8069,-0.033572,-0.15318,2.8515,-0.04175,0.17143,2.8528,-0.061703,0.34291,2.832,-0.18573,0.031502,2.8294,-0.21025,-0.20428,2.7917,-0.21554,-0.37698,2.7488,-0.22872,-0.4399,2.7549,0.10643,0.054716,2.8153,0.18766,-0.16554,2.8148,0.25652,-0.32513,2.7549,0.27369,-0.38083,2.7301,-0.097645,-0.28444,2.8024,-0.10322,-0.6271,2.9344,-0.094378,-0.92075,3.0707,-0.06309,-0.98573,3.0398,0.031134,-0.26859,2.792,0.03603,-0.61603,2.6932,0.043473,-0.91688,2.6408,0.039801,-0.94742,2.5672
-0.041641,-0.21255,2.8426,-0.040753,-0.15309,2.8838,-0.053895,0.16852,2.8732,-0.07796,0.33832,2.8589,-0.19865,0.033517,2.8636,-0.21446,-0.2035,2.8291,-0.21266,-0.36999,2.7738,-0.2305,-0.43825,2.7706,0.10383,0.051817,2.8355,0.18301,-0.16963,2.8322,0.24581,-0.33001,2.775,0.26534,-0.39012,2.7479,-0.10417,-0.28711,2.8431,-0.10482,-0.6271,2.9617,-0.095327,-0.9287,3.08,-0.10615,-0.98734,3.0288,0.024206,-0.27182,2.8287,0.035437,-0.62494,2.7148,0.040761,-0.9179,2.646,0.034263,-0.94934,2.573
-0.048612,-0.21453,2.8659,-0.04768,-0.15418,2.9055,-0.059859,0.16858,2.8915,-0.088385,0.33886,2.8859,-0.2033,0.034679,2.879,-0.21519,-0.2028,2.8519,-0.20738,-0.38222,2.8278,-0.22753,-0.44446,2.8174,0.086326,0.052944,2.8532,0.17212,-0.16481,2.8595,0.22631,-0.32573,2.7979,0.23494,-0.39794,2.791,-0.11065,-0.28742,2.8652,-0.107,-0.62981,2.9958,-0.094553,-0.93099,3.0921,-0.10075,-0.96275,3.0192,0.015551,-0.27163,2.8551,0.034796,-0.62537,2.7588,0.041337,-0.90648,2.6716,0.031939,-0.95962,2.6088
-0.051204,-0.21947,2.8953,-0.050342,-0.15837,2.9344,-0.067611,0.16899,2.9241,-0.095523,0.33731,2.903,-0.20788,0.032201,2.9044,-0.22334,-0.20485,2.8987,-0.21864,-0.38439,2.8548,-0.23006,-0.45479,2.8612,0.076251,0.049644,2.8731,0.15838,-0.16953,2.8764,0.22456,-0.33562,2.8123,0.234,-0.40879,2.7952,-0.11076,-0.28994,2.9002,-0.1004,-0.63564,3.0198,-0.091254,-0.93098,3.1045,-0.098855,-0.96264,3.0316,0.012461,-0.27485,2.8784,0.039476,-0.62686,2.7915,0.0422,-0.90099,2.6981,0.028603,-0.96777,2.637
-0.054804,-0.21926,2.912,-0.054097,-0.15783,2.9488,-0.071854,0.16759,2.9348,-0.099385,0.33618,2.9216,-0.21314,0.030877,2.9303,-0.22775,-0.20648,2.9207,-0.23313,-0.38772,2.9004,-0.23419,-0.4603,2.8867,0.068683,0.0503,2.8966,0.15187,-0.16985,2.8911,0.20058,-0.34785,2.8235,0.20614,-0.4111,2.8086,-0.11381,-0.29022,2.9161,-0.10203,-0.63513,3.0337,-0.092537,-0.93237,3.1098,-0.10091,-0.96445,3.0372,0.0085715,-0.27414,2.8979,0.03696,-0.63082,2.8015,0.037765,-0.91593,2.7269,0.027354,-0.96709,2.6614
-0.062027,-0.21598,2.939,-0.061239,-0.15406,2.9719,-0.081888,0.16743,2.9521,-0.10266,0.33928,2.9429,-0.21703,0.034957,2.9626,-0.23104,-0.20139,2.9493,-0.2401,-0.39126,2.9219,-0.24538,-0.44808,2.9213,0.065715,0.051704,2.9181,0.14326,-0.17057,2.9167,0.18874,-0.34238,2.851,0.19214,-0.40916,2.8231,-0.12084,-0.28819,2.945,-0.10544,-0.62897,3.0503,-0.096092,-0.92916,3.1183,-0.10698,-0.962,3.0465,0.0025473,-0.27178,2.9248,0.029455,-0.61469,2.8352,0.031106,-0.91555,2.7738,0.026231,-0.97132,2.7143
-0.063467,-0.21271,2.9572,-0.062993,-0.1505,2.9875,-0.085831,0.16987,2.9661,-0.10484,0.34263,2.9553,-0.22083,0.036073,2.9791,-0.23419,-0.20129,2.983,-0.2403,-0.37614,2.9472,-0.24514,-0.44305,2.9438,0.06285,0.056864,2.9305,0.13384,-0.16796,2.9284,0.16603,-0.34004,2.8701,0.17804,-0.39986,2.8375,-0.12194,-0.28559,2.9644,-0.09719,-0.64234,3.0745,-0.096117,-0.93967,3.125,-0.1079,-0.9729,3.0534,0.0015982,-0.26874,2.9435,0.027262,-0.62044,2.8401,0.024051,-0.93063,2.832,0.020714,-0.99364,2.7849
-0.064966,-0.20794,2.9725,-0.064402,-0.14607,3.0029,-0.084622,0.1761,2.9902,-0.11077,0.34421,2.9705,-0.22322,0.037501,2.9935,-0.24012,-0.19424,3.0002,-0.24543,-0.37779,2.9842,-0.24967,-0.44117,2.9743,0.055651,0.063767,2.9502,0.12252,-0.16313,2.9343,0.15477,-0.33878,2.8863,0.16731,-0.40303,2.8457,-0.12314,-0.27929,2.977,-0.10387,-0.61959,3.0664,-0.096503,-0.9389,3.1262,-0.10736,-0.97141,3.0541,-0.001514,-0.26381,2.9603,0.020587,-0.61366,2.8732,0.019492,-0.93686,2.8932,0.017166,-0.98934,2.8387
-0.066249,-0.20628,2.9864,-0.0656,-0.14474,3.0167,-0.088553,0.1776,3.008,-0.11138,0.34731,2.992,-0.2237,0.040373,3.0075,-0.24016,-0.19537,3.023,-0.24819,-0.39712,3.0039,-0.25328,-0.45882,3.0042,0.055757,0.065211,2.9598,0.10987,-0.1655,2.9424,0.14718,-0.33947,2.8848,0.15183,-0.40551,2.8444,-0.12414,-0.27626,2.9909,-0.1051,-0.62143,3.0647,-0.095929,-0.93937,3.1272,-0.10779,-0.97169,3.0551,-0.0023565,-0.26326,2.9716,0.019047,-0.60997,2.8834,0.013593,-0.93943,2.9495,0.0088422,-0.99076,2.8952
-0.068165,-0.20519,2.9958,-0.067788,-0.14386,3.0267,-0.088962,0.1797,3.0234,-0.11206,0.34509,2.9968,-0.22305,0.04204,3.0168,-0.24174,-0.19402,3.0297,-0.24655,-0.37779,3.0208,-0.26169,-0.45353,3.0259,0.052596,0.066239,2.9714,0.10332,-0.16542,2.9478,0.14025,-0.3373,2.888,0.1295,-0.39918,2.849,-0.12576,-0.27382,2.9987,-0.10494,-0.62217,3.0638,-0.094159,-0.94204,3.1278,-0.086061,-0.99108,3.0637,-0.0052025,-0.26253,2.9817,-0.0039925,-0.62628,2.9545,0.013777,-0.90786,2.9855,-0.0062994,-0.96543,2.9635
-0.070519,-0.20496,3.0058,-0.069602,-0.14349,3.0358,-0.088625,0.17942,3.0301,-0.1123,0.34398,3.0043,-0.22291,0.043156,3.0252,-0.23644,-0.19143,3.0474,-0.24701,-0.37721,3.0216,-0.26079,-0.45299,3.0288,0.051292,0.067699,2.9793,0.09587,-0.16558,2.9573,0.09835,-0.35083,2.8838,0.11145,-0.40398,2.8528,-0.12862,-0.27274,3.0082,-0.091574,-0.63111,3.0532,-0.091827,-0.95201,3.1228,-0.10368,-0.98412,3.0506,-0.0079801,-0.26268,2.9924,0.0029034,-0.63295,2.9854,-0.018359,-0.93926,3.0398,-0.030215,-0.97137,2.9676
-0.071379,-0.20475,3.0123,-0.071399,-0.14431,3.0434,-0.088593,0.17611,3.0434,-0.11039,0.34324,3.0115,-0.22311,0.042347,3.0309,-0.23653,-0.19312,3.0482,-0.24871,-0.3812,3.0333,-0.25975,-0.45271,3.0521,0.056114,0.065919,2.9965,0.090947,-0.1692,2.9681,0.091543,-0.34982,2.8844,0.088818,-0.40056,2.8544,-0.13014,-0.27219,3.0132,-0.089239,-0.63393,3.0524,-0.043643,-1.0043,3.1677,-0.054457,-1.0091,3.0827,-0.008243,-0.26381,2.9985,-0.019251,-0.6266,2.9946,0.003022,-0.98139,3.1117,-0.032016,-0.97852,2.9872
