-0.35741,-0.26496,2.5235,-0.36416,-0.20692,2.5629,-0.3416,0.12059,2.6051,-0.29045,0.28773,2.6003,-0.46394,0.0099978,2.5486,-0.55531,-0.22226,2.5518,-0.59073,-0.39587,2.4725,-0.6012,-0.44237,2.4507,-0.20149,-0.021717,2.673,-0.19249,-0.23581,2.6634,-0.2022,-0.44113,2.5095,-0.1898,-0.49082,2.4703,-0.42286,-0.31839,2.492,-0.48206,-0.60866,2.3693,-0.52973,-0.85166,2.2728,-0.49342,-0.88839,2.2374,-0.29712,-0.3352,2.5268,-0.27565,-0.64774,2.6159,-0.29517,-0.90948,2.7327,-0.27478,-0.9395,2.6598
-0.35885,-0.26579,2.5052,-0.36807,-0.20672,2.5436,-0.36337,0.12107,2.5605,-0.31263,0.28771,2.5674,-0.4756,0.010541,2.5249,-0.57395,-0.22099,2.5245,-0.60788,-0.39773,2.4525,-0.61092,-0.45199,2.4399,-0.21063,-0.027143,2.6494,-0.21026,-0.27644,2.5986,-0.20649,-0.44763,2.4526,-0.19775,-0.49064,2.4205,-0.42027,-0.32445,2.4731,-0.48934,-0.60437,2.3249,-0.52714,-0.86706,2.2384,-0.49269,-0.89632,2.2161,-0.29302,-0.3368,2.5144,-0.28556,-0.65213,2.6062,-0.29678,-0.90533,2.7232,-0.28029,-0.93598,2.6499
-0.37224,-0.26629,2.4675,-0.37951,-0.2083,2.5071,-0.37135,0.12147,2.5423,-0.32595,0.29455,2.5442,-0.49552,0.010536,2.4883,-0.59148,-0.22131,2.4989,-0.63382,-0.39716,2.4251,-0.64673,-0.44041,2.3988,-0.2458,-0.014355,2.5321,-0.22403,-0.25248,2.5518,-0.21649,-0.44035,2.4362,-0.20813,-0.47783,2.383,-0.43673,-0.3262,2.4342,-0.49714,-0.60732,2.2915,-0.52906,-0.93178,2.2238,-0.50801,-0.9606,2.1525,-0.30953,-0.33539,2.4703,-0.30951,-0.67566,2.5742,-0.28691,-0.90923,2.746,-0.27036,-0.97078,2.7161
-0.3798,-0.25848,2.4403,-0.38642,-0.20167,2.4813,-0.38869,0.12497,2.5093,-0.34637,0.29222,2.5236,-0.50975,0.010178,2.4649,-0.61002,-0.2203,2.4648,-0.65097,-0.39778,2.3997,-0.66351,-0.44908,2.3865,-0.25398,-0.015726,2.4962,-0.23035,-0.24887,2.5397,-0.22788,-0.42722,2.4007,-0.21016,-0.4807,2.3681,-0.44772,-0.32174,2.4046,-0.50345,-0.60166,2.2693,-0.53916,-0.86228,2.1621,-0.5233,-0.97276,2.1351,-0.31147,-0.33331,2.449,-0.33103,-0.6697,2.526,-0.30618,-0.88441,2.7172,-0.28601,-0.94367,2.6707
-0.3918,-0.25981,2.407,-0.39773,-0.20281,2.4483,-0.40034,0.1259,2.4844,-0.36418,0.29345,2.5041,-0.52393,0.01196,2.4352,-0.62091,-0.22058,2.4345,-0.6698,-0.39727,2.3738,-0.6867,-0.44999,2.3584,-0.25904,-0.021783,2.4576,-0.25373,-0.259,2.4767,-0.23532,-0.4377,2.3693,-0.20758,-0.49143,2.3437,-0.46138,-0.32241,2.3724,-0.51523,-0.63512,2.2404,-0.5395,-0.9516,2.1902,-0.52964,-0.98022,2.1164,-0.32121,-0.33518,2.4085,-0.33819,-0.68286,2.4818,-0.27065,-0.92603,2.6837,-0.29902,-0.95181,2.6195
-0.40111,-0.26088,2.3818,-0.40639,-0.20347,2.4243,-0.41307,0.12869,2.4563,-0.37838,0.2942,2.4782,-0.53775,0.014596,2.4104,-0.63924,-0.22055,2.4086,-0.68775,-0.39573,2.3428,-0.70168,-0.43595,2.3393,-0.27746,-0.0071356,2.4265,-0.27093,-0.25349,2.4447,-0.23447,-0.4363,2.355,-0.20801,-0.4757,2.3417,-0.46751,-0.32142,2.3557,-0.52264,-0.63971,2.2198,-0.53039,-0.95486,2.1995,-0.52047,-0.98328,2.1256,-0.33318,-0.33167,2.3784,-0.34236,-0.64182,2.3314,-0.32781,-0.89192,2.5501,-0.27777,-0.96492,2.5481
-0.43851,-0.26119,2.3315,-0.43976,-0.20789,2.3765,-0.42558,0.11075,2.424,-0.3872,0.29138,2.4457,-0.54605,0.019496,2.3907,-0.64425,-0.21771,2.3795,-0.70682,-0.39134,2.3255,-0.72259,-0.42671,2.3173,-0.28614,-0.0036616,2.4047,-0.28518,-0.24849,2.4107,-0.23425,-0.44215,2.3439,-0.20342,-0.48138,2.3302,-0.50242,-0.31169,2.3046,-0.53158,-0.61671,2.2151,-0.53776,-0.95798,2.1892,-0.53015,-0.98645,2.1151,-0.38109,-0.33995,2.3221,-0.36697,-0.64826,2.2717,-0.30545,-0.94549,2.5477,-0.32766,-0.96009,2.4623
-0.44794,-0.26173,2.3098,-0.4485,-0.20916,2.3568,-0.43397,0.11058,2.407,-0.39675,0.29309,2.42,-0.5561,0.023336,2.3718,-0.65626,-0.21426,2.3604,-0.7242,-0.38788,2.3117,-0.73909,-0.42543,2.3016,-0.29794,-0.00070011,2.3798,-0.2889,-0.24417,2.4028,-0.23488,-0.44195,2.3399,-0.20068,-0.49505,2.3294,-0.51038,-0.31047,2.2854,-0.54128,-0.62982,2.2299,-0.52576,-0.95878,2.2029,-0.51829,-0.98718,2.1288,-0.39189,-0.33787,2.2983,-0.39272,-0.66275,2.216,-0.36779,-0.93022,2.3666,-0.32318,-0.99214,2.3795
-0.45237,-0.2541,2.2935,-0.45328,-0.19846,2.3421,-0.44131,0.14619,2.3975,-0.40068,0.31065,2.4039,-0.56556,0.028695,2.3546,-0.67249,-0.20472,2.3436,-0.73909,-0.37689,2.2855,-0.74697,-0.40476,2.2688,-0.30313,7.8048e-05,2.3612,-0.2975,-0.23838,2.3912,-0.25213,-0.42771,2.3599,-0.21333,-0.48983,2.3377,-0.51646,-0.30554,2.267,-0.53041,-0.66374,2.1934,-0.47297,-0.92183,2.2104,-0.52435,-0.98509,2.1334,-0.39397,-0.32753,2.2816,-0.42079,-0.64619,2.1604,-0.38335,-0.90357,2.3312,-0.37553,-0.93194,2.2571
-0.46054,-0.24631,2.2732,-0.46019,-0.19298,2.3235,-0.44808,0.12799,2.3709,-0.41169,0.31057,2.3826,-0.57186,0.032707,2.3433,-0.68273,-0.19637,2.331,-0.7532,-0.36039,2.2535,-0.75873,-0.39302,2.2468,-0.3069,0.0084913,2.346,-0.30596,-0.22498,2.3748,-0.2608,-0.41529,2.3585,-0.22347,-0.48169,2.3512,-0.52433,-0.29878,2.2492,-0.54417,-0.66245,2.181,-0.53214,-0.95062,2.2051,-0.5275,-0.97903,2.1308,-0.40299,-0.31791,2.2591,-0.44992,-0.6384,2.1402,-0.42806,-0.92993,2.2291,-0.42342,-0.95835,2.1547
-0.46328,-0.23668,2.2629,-0.46344,-0.18279,2.3139,-0.45226,0.15517,2.3659,-0.41376,0.32121,2.3737,-0.58097,0.035131,2.3352,-0.69281,-0.18938,2.3171,-0.75757,-0.35619,2.2407,-0.76898,-0.38785,2.222,-0.30651,0.017006,2.3383,-0.31379,-0.2125,2.3592,-0.33361,-0.39194,2.2571,-0.23469,-0.47002,2.3658,-0.52811,-0.29243,2.2387,-0.55037,-0.67789,2.1766,-0.45135,-0.92219,2.1193,-0.46014,-0.95626,2.0459,-0.40367,-0.30486,2.2485,-0.47234,-0.63873,2.0254,-0.42759,-0.92699,2.2246,-0.42248,-0.95541,2.1502
-0.47159,-0.23099,2.2478,-0.46929,-0.17872,2.3011,-0.45546,0.15614,2.3594,-0.41928,0.32467,2.3594,-0.5883,0.036441,2.3286,-0.69879,-0.1779,2.3045,-0.76615,-0.33919,2.2175,-0.7752,-0.37709,2.2028,-0.31466,0.01946,2.3226,-0.31589,-0.20818,2.3537,-0.33858,-0.3932,2.2504,-0.23893,-0.46528,2.3713,-0.53751,-0.28379,2.2259,-0.59197,-0.62116,2.197,-0.53752,-0.81401,2.1402,-0.50543,-0.80085,2.0552,-0.41185,-0.29877,2.2305,-0.48888,-0.61115,2.0529,-0.47484,-0.89745,2.0219,-0.47116,-0.92598,1.9476
-0.47364,-0.2283,2.2423,-0.47096,-0.17621,2.2954,-0.45743,0.156,2.3511,-0.42429,0.3248,2.347,-0.59266,0.037326,2.3227,-0.70923,-0.17146,2.288,-0.77174,-0.33467,2.2016,-0.78206,-0.36799,2.1806,-0.32142,0.019616,2.3117,-0.31927,-0.20538,2.3505,-0.35498,-0.38871,2.2332,-0.25726,-0.46511,2.3611,-0.54085,-0.28167,2.2194,-0.59274,-0.61642,2.1951,-0.53588,-0.81306,2.1374,-0.52567,-0.79004,2.0492,-0.41301,-0.29628,2.2265,-0.4972,-0.60293,1.9619,-0.5301,-0.77178,1.7605,-0.55108,-0.73468,1.8169
-0.47326,-0.226,2.2382,-0.47057,-0.17435,2.2918,-0.45972,0.15589,2.3453,-0.42594,0.3263,2.3352,-0.59594,0.03735,2.3185,-0.71104,-0.16715,2.2815,-0.77508,-0.32441,2.1844,-0.78878,-0.35726,2.1581,-0.32405,0.0232,2.3054,-0.32562,-0.20213,2.3421,-0.35672,-0.37457,2.225,-0.25703,-0.4609,2.3594,-0.54004,-0.28063,2.2158,-0.59011,-0.59831,2.1846,-0.51222,-0.83856,2.1803,-0.51959,-0.80836,2.094,-0.41181,-0.29213,2.2219,-0.48043,-0.58121,2.0481,-0.56733,-0.7097,1.7147,-0.63179,-0.70141,1.7426
-0.47531,-0.22485,2.2323,-0.47275,-0.1737,2.2863,-0.46294,0.15497,2.3396,-0.42853,0.32573,2.3274,-0.59815,0.035439,2.3131,-0.71319,-0.16508,2.2765,-0.77779,-0.3169,2.1704,-0.79644,-0.36528,2.1386,-0.32615,0.022475,2.2994,-0.32709,-0.20162,2.3399,-0.35755,-0.37563,2.2204,-0.25753,-0.45984,2.3566,-0.54208,-0.27983,2.2104,-0.53391,-0.61527,2.0744,-0.51519,-0.81677,2.1695,-0.53018,-0.78666,2.0842,-0.41361,-0.29071,2.2158,-0.49916,-0.57482,2.029,-0.58816,-0.68344,1.6691,-0.65756,-0.67157,1.6621
-0.47633,-0.22291,2.2274,-0.47408,-0.17284,2.2819,-0.46485,0.15199,2.3345,-0.43,0.32031,2.3184,-0.6008,0.03446,2.3076,-0.71585,-0.1595,2.2701,-0.77929,-0.31145,2.1633,-0.80211,-0.36768,2.1181,-0.32854,0.020382,2.295,-0.32951,-0.20204,2.3347,-0.36046,-0.37246,2.2128,-0.25697,-0.45959,2.3501,-0.54478,-0.27827,2.2029,-0.54033,-0.60663,2.0563,-0.51596,-0.81545,2.1685,-0.53581,-0.78519,2.0842,-0.41334,-0.289,2.2119,-0.50389,-0.55401,2.0284,-0.62126,-0.64891,1.6863,-0.66771,-0.66219,1.6193
-0.47687,-0.22218,2.2232,-0.47483,-0.17265,2.2778,-0.46618,0.14714,2.3265,-0.43176,0.31702,2.314,-0.60184,0.031866,2.3037,-0.71685,-0.15721,2.266,-0.78068,-0.30461,2.1528,-0.79735,-0.35294,2.1164,-0.33056,0.016372,2.2917,-0.33052,-0.20269,2.3307,-0.36544,-0.36787,2.2032,-0.26108,-0.43727,2.3423,-0.54639,-0.27762,2.1978,-0.55811,-0.58672,2.027,-0.52306,-0.78293,2.1376,-0.53436,-0.73806,2.0584,-0.41294,-0.2885,2.209,-0.53567,-0.57004,2.0158,-0.63634,-0.63479,1.6703,-0.63974,-0.66586,1.5931
-0.47865,-0.22233,2.2172,-0.47686,-0.17381,2.2724,-0.46687,0.14401,2.3227,-0.4335,0.31414,2.3102,-0.60319,0.028825,2.3001,-0.71837,-0.16017,2.2612,-0.7815,-0.30661,2.1462,-0.79886,-0.36048,2.1092,-0.32954,0.013095,2.291,-0.33295,-0.20294,2.3238,-0.36514,-0.36586,2.1997,-0.26368,-0.43911,2.3324,-0.54893,-0.27696,2.1922,-0.55118,-0.56066,2.0376,-0.52626,-0.76098,2.1274,-0.52429,-0.78948,2.0529,-0.41421,-0.28945,2.2017,-0.53806,-0.56688,2.0101,-0.64362,-0.63012,1.6615,-0.64558,-0.66118,1.5843
-0.47638,-0.2206,2.2128,-0.47533,-0.17342,2.2689,-0.46736,0.14169,2.3206,-0.43409,0.31234,2.3071,-0.60389,0.027433,2.2988,-0.71968,-0.16271,2.2568,-0.78157,-0.31001,2.1423,-0.79926,-0.36378,2.1033,-0.32944,0.011197,2.2895,-0.33315,-0.2032,2.3213,-0.36657,-0.36175,2.1952,-0.40854,-0.44304,2.1275,-0.54703,-0.27636,2.1857,-0.55032,-0.55863,2.036,-0.52796,-0.75827,2.1243,-0.52613,-0.78678,2.0499,-0.40955,-0.2873,2.1972,-0.54226,-0.56679,2.003,-0.65016,-0.63303,1.6485,-0.65188,-0.66417,1.5713
-0.47748,-0.22141,2.2106,-0.47611,-0.17456,2.2672,-0.4675,0.1405,2.3201,-0.43527,0.30975,2.3033,-0.60477,0.026038,2.2981,-0.71984,-0.1629,2.2552,-0.78026,-0.31188,2.1423,-0.79786,-0.36404,2.1016,-0.32983,0.0094247,2.2883,-0.33297,-0.20439,2.318,-0.36478,-0.36215,2.1914,-0.26038,-0.44257,2.3141,-0.54801,-0.27664,2.1849,-0.54907,-0.55387,2.0353,-0.52854,-0.75358,2.1213,-0.52685,-0.78212,2.0468,-0.41092,-0.28718,2.1938,-0.54192,-0.56615,2.0027,-0.64956,-0.63315,1.6479,-0.65131,-0.66433,1.5707
-0.47812,-0.22047,2.2093,-0.47644,-0.17421,2.2661,-0.46753,0.13931,2.3186,-0.43675,0.30817,2.3016,-0.60542,0.02461,2.298,-0.71347,-0.16386,2.2577,-0.77569,-0.31116,2.1432,-0.79388,-0.36962,2.0987,-0.33049,0.0083692,2.2872,-0.33117,-0.20268,2.3149,-0.36132,-0.36446,2.1903,-0.25701,-0.44325,2.3038,-0.54931,-0.27603,2.1838,-0.54458,-0.55055,2.0383,-0.52789,-0.75233,2.1219,-0.52647,-0.78088,2.0474,-0.41129,-0.28644,2.192,-0.54118,-0.56841,2.0012,-0.64196,-0.64307,1.6483,-0.68809,-0.65681,1.5876
-0.4788,-0.21889,2.208,-0.47689,-0.17325,2.265,-0.46741,0.13903,2.3179,-0.43731,0.30779,2.3002,-0.60585,0.023323,2.298,-0.69688,-0.17883,2.2572,-0.77417,-0.31625,2.1401,-0.79089,-0.37543,2.0959,-0.33019,0.0079113,2.2869,-0.32937,-0.20117,2.3118,-0.36285,-0.36648,2.1792,-0.2533,-0.45752,2.2981,-0.55067,-0.27508,2.1823,-0.54427,-0.55154,2.0379,-0.52769,-0.75386,2.1222,-0.52637,-0.78243,2.0477,-0.41185,-0.2858,2.1908,-0.53788,-0.56975,2.0028,-0.61075,-0.68145,1.6746,-0.66388,-0.66478,1.6309
-0.47753,-0.21821,2.2065,-0.47576,-0.17292,2.2637,-0.46793,0.13873,2.317,-0.43802,0.30767,2.2993,-0.60614,0.023281,2.2984,-0.70878,-0.17579,2.256,-0.77117,-0.32127,2.1391,-0.77999,-0.36426,2.1084,-0.33072,0.0084134,2.2852,-0.32862,-0.19953,2.3066,-0.36465,-0.37055,2.1747,-0.24999,-0.45494,2.2836,-0.54928,-0.27513,2.1811,-0.53557,-0.55254,2.0496,-0.52502,-0.76462,2.1316,-0.5238,-0.7932,2.0572,-0.40951,-0.28411,2.1885,-0.52967,-0.56747,2.0158,-0.60739,-0.68617,1.691,-0.66926,-0.69263,1.6573
-0.47808,-0.21755,2.2048,-0.47595,-0.17242,2.2622,-0.46899,0.13897,2.3158,-0.43841,0.30811,2.299,-0.6066,0.023643,2.2994,-0.70688,-0.17475,2.2578,-0.76412,-0.32419,2.1437,-0.7819,-0.38401,2.1008,-0.33153,0.0095761,2.2833,-0.32744,-0.19877,2.3024,-0.35211,-0.37684,2.1708,-0.24443,-0.44591,2.2825,-0.54977,-0.27442,2.1798,-0.53329,-0.55396,2.0521,-0.52422,-0.76831,2.1342,-0.52333,-0.79691,2.0597,-0.4098,-0.28306,2.1863,-0.51777,-0.56723,2.0299,-0.57651,-0.69357,1.7363,-0.62953,-0.7216,1.6988
-0.47852,-0.2175,2.2042,-0.47527,-0.17226,2.2616,-0.46899,0.13952,2.3144,-0.43952,0.30913,2.2988,-0.6071,0.023967,2.3013,-0.70079,-0.17648,2.2622,-0.76178,-0.32422,2.1477,-0.77781,-0.38595,2.1068,-0.33423,0.01251,2.2795,-0.326,-0.19809,2.2981,-0.35524,-0.37524,2.1702,-0.24677,-0.43686,2.2766,-0.55027,-0.27443,2.1801,-0.5404,-0.65072,2.1261,-0.52298,-0.77052,2.1356,-0.5235,-0.79912,2.0612,-0.41089,-0.28266,2.1855,-0.51299,-0.57758,2.0369,-0.55858,-0.71044,1.7624,-0.62286,-0.73582,1.7473
-0.47864,-0.21792,2.2029,-0.47485,-0.17244,2.2609,-0.47039,0.14041,2.3142,-0.44032,0.30987,2.2983,-0.60652,0.025301,2.303,-0.69956,-0.17673,2.264,-0.76,-0.32708,2.1529,-0.77492,-0.38891,2.1117,-0.33534,0.014763,2.2773,-0.32684,-0.19707,2.2921,-0.35332,-0.37391,2.171,-0.25097,-0.42571,2.2664,-0.54945,-0.2761,2.1783,-0.54331,-0.60732,2.0292,-0.54552,-0.87414,2.0881,-0.54738,-0.90281,2.0137,-0.41136,-0.28214,2.1847,-0.50535,-0.58429,2.0442,-0.53814,-0.73172,1.7934,-0.57631,-0.77297,1.7504
-0.4764,-0.2168,2.2012,-0.47261,-0.17155,2.2593,-0.47147,0.14139,2.3129,-0.44272,0.31189,2.2985,-0.60655,0.025894,2.3048,-0.69889,-0.17612,2.2667,-0.7559,-0.33285,2.1639,-0.77181,-0.39419,2.1224,-0.33555,0.016135,2.275,-0.32574,-0.19647,2.2876,-0.35267,-0.37673,2.17,-0.25075,-0.42175,2.2603,-0.54623,-0.27569,2.1778,-0.51313,-0.57515,2.0777,-0.51044,-0.89533,2.1309,-0.51838,-0.82506,2.1286,-0.40871,-0.27858,2.1813,-0.49037,-0.59059,2.0659,-0.50766,-0.91557,2.1663,-0.51963,-0.94018,2.0859
-0.47507,-0.21763,2.2002,-0.47073,-0.17177,2.2583,-0.47176,0.14275,2.3121,-0.44487,0.31391,2.2986,-0.60691,0.027037,2.3064,-0.69685,-0.17522,2.2722,-0.75452,-0.33141,2.1689,-0.76981,-0.39389,2.1289,-0.33566,0.018268,2.2717,-0.32505,-0.19634,2.2823,-0.35141,-0.379,2.1684,-0.24909,-0.42013,2.2548,-0.54388,-0.27753,2.1802,-0.51959,-0.61006,2.0666,-0.50765,-0.88708,2.1302,-0.52164,-0.81776,2.1325,-0.40792,-0.27845,2.179,-0.45781,-0.54202,2.0479,-0.50784,-0.82877,2.1614,-0.51681,-0.79735,2.0757
-0.47576,-0.21883,2.2009,-0.47022,-0.17217,2.2587,-0.4726,0.14413,2.3113,-0.44642,0.31492,2.2983,-0.60705,0.028095,2.3085,-0.69783,-0.17471,2.2754,-0.75384,-0.33237,2.1736,-0.76639,-0.3895,2.1399,-0.33597,0.020831,2.2675,-0.32449,-0.19601,2.2789,-0.35368,-0.3753,2.16,-0.24757,-0.41798,2.2483,-0.54352,-0.27891,2.1842,-0.50508,-0.57987,2.095,-0.50651,-0.88889,2.1324,-0.52248,-0.81996,2.1318,-0.4099,-0.2798,2.1787,-0.47075,-0.55557,1.9851,-0.49908,-0.83907,2.171,-0.50182,-0.8101,2.084
-0.47573,-0.21874,2.2017,-0.46943,-0.17152,2.2592,-0.47285,0.14695,2.3101,-0.44687,0.31616,2.2975,-0.60615,0.029768,2.3098,-0.69204,-0.17547,2.2838,-0.75175,-0.33411,2.1862,-0.76152,-0.37734,2.1644,-0.33624,0.023499,2.2647,-0.32335,-0.19558,2.2748,-0.35182,-0.37403,2.1567,-0.24664,-0.41387,2.2406,-0.54284,-0.27882,2.1861,-0.50578,-0.57325,2.1028,-0.50869,-0.87575,2.1289,-0.52581,-0.80843,2.1424,-0.41076,-0.28007,2.1792,-0.43914,-0.57122,2.0712,-0.46852,-0.87704,1.9701,-0.47548,-0.90579,1.8961
-0.47558,-0.21949,2.2022,-0.46835,-0.17143,2.2594,-0.47182,0.14975,2.3088,-0.44764,0.31835,2.2966,-0.60629,0.032386,2.3123,-0.69014,-0.17716,2.2909,-0.75076,-0.33532,2.1928,-0.76075,-0.37926,2.1695,-0.33716,0.025532,2.2608,-0.32152,-0.19517,2.2693,-0.34645,-0.38587,2.1596,-0.24458,-0.40993,2.2323,-0.54131,-0.27975,2.1891,-0.49668,-0.58556,2.1103,-0.50508,-0.87565,2.1339,-0.52768,-0.80942,2.1443,-0.41148,-0.28086,2.1794,-0.4383,-0.63182,2.0119,-0.46159,-0.88635,1.9855,-0.46976,-0.91508,1.9115
-0.47511,-0.22087,2.2032,-0.46716,-0.17159,2.2599,-0.47064,0.15262,2.3075,-0.44746,0.32017,2.2954,-0.60539,0.033664,2.3129,-0.69096,-0.17701,2.2951,-0.74868,-0.33846,2.2013,-0.75789,-0.38183,2.1834,-0.33668,0.027503,2.2568,-0.31971,-0.19478,2.2643,-0.24549,-0.39047,2.1995,-0.20332,-0.41628,2.1986,-0.53875,-0.28141,2.1927,-0.53901,-0.62275,2.1608,-0.50712,-0.86782,2.1346,-0.52992,-0.80526,2.1585,-0.41228,-0.28176,2.1796,-0.4095,-0.60661,2.0406,-0.47187,-0.83396,2.0814,-0.45904,-0.81628,2.0758
-0.47432,-0.22232,2.2044,-0.46536,-0.17182,2.2607,-0.4699,0.15548,2.3062,-0.44673,0.32223,2.2952,-0.6044,0.036156,2.3152,-0.6872,-0.17948,2.3056,-0.74692,-0.34482,2.2213,-0.75636,-0.38241,2.2042,-0.33754,0.02906,2.2524,-0.28799,-0.18374,2.2394,-0.24447,-0.39021,2.1968,-0.20129,-0.41518,2.1945,-0.53674,-0.28287,2.1956,-0.54999,-0.63303,2.1794,-0.44826,-0.82778,2.0837,-0.53041,-0.80668,2.1638,-0.41278,-0.28277,2.1798,-0.41154,-0.63186,2.068,-0.36664,-0.85739,2.0365,-0.47709,-0.846,2.1042
-0.47238,-0.22362,2.206,-0.46254,-0.17188,2.2618,-0.46878,0.15774,2.3051,-0.44626,0.32392,2.2947,-0.60346,0.038414,2.3193,-0.68344,-0.1807,2.3117,-0.74127,-0.35059,2.2376,-0.74869,-0.38564,2.2207,-0.33679,0.030956,2.2499,-0.28542,-0.18382,2.2377,-0.23635,-0.38852,2.1921,-0.19081,-0.41777,2.1886,-0.53378,-0.28489,2.1986,-0.53655,-0.63353,2.1755,-0.36471,-0.81382,2.049,-0.43157,-0.82513,2.0491,-0.41204,-0.28381,2.1808,-0.41462,-0.62465,2.0989,-0.34661,-0.85885,2.084,-0.47127,-0.85948,2.1338
-0.46734,-0.22541,2.2079,-0.45756,-0.17254,2.2633,-0.46669,0.15952,2.3048,-0.4449,0.32719,2.2952,-0.60114,0.039707,2.3209,-0.6777,-0.1834,2.3203,-0.73506,-0.35861,2.2614,-0.74089,-0.39705,2.2419,-0.33451,0.032989,2.2483,-0.31056,-0.19623,2.2495,-0.23265,-0.38767,2.188,-0.18596,-0.41628,2.1862,-0.52756,-0.28708,2.2014,-0.53476,-0.63173,2.1805,-0.48575,-0.93074,2.1965,-0.50023,-0.9596,2.1236,-0.40776,-0.28466,2.1821,-0.37813,-0.62038,2.1041,-0.32643,-0.86357,2.133,-0.38308,-0.86069,2.1283
-0.4569,-0.22865,2.2115,-0.44767,-0.17427,2.2665,-0.46205,0.1609,2.3054,-0.44293,0.32913,2.2957,-0.59587,0.040494,2.3209,-0.6694,-0.18158,2.3318,-0.72457,-0.35923,2.2801,-0.73046,-0.39893,2.2665,-0.33126,0.034142,2.2468,-0.30804,-0.195,2.2471,-0.22893,-0.38535,2.1847,-0.18597,-0.41503,2.1832,-0.51545,-0.29013,2.2057,-0.51124,-0.62766,2.1777,-0.50867,-0.9365,2.2044,-0.5236,-0.96541,2.1316,-0.39804,-0.28694,2.1859,-0.3655,-0.63014,2.123,-0.30573,-0.88257,2.1807,-0.32781,-0.91418,2.107
-0.45116,-0.22827,2.215,-0.44211,-0.17356,2.2697,-0.45853,0.16251,2.3066,-0.43904,0.33053,2.2963,-0.58942,0.041793,2.3216,-0.6588,-0.18573,2.3404,-0.70891,-0.36693,2.2997,-0.71749,-0.39892,2.287,-0.32397,0.038329,2.2482,-0.305,-0.19592,2.246,-0.22333,-0.38796,2.1832,-0.17929,-0.41782,2.1825,-0.51012,-0.28986,2.2085,-0.50998,-0.62982,2.1822,-0.50393,-0.93746,2.2074,-0.51928,-0.96644,2.1347,-0.39097,-0.28644,2.1909,-0.34989,-0.63941,2.1443,-0.28754,-0.89371,2.2125,-0.31087,-0.93488,2.1496
-0.44144,-0.22857,2.2205,-0.43186,-0.17319,2.2749,-0.44905,0.1652,2.3093,-0.43217,0.33245,2.298,-0.58128,0.043355,2.3235,-0.64531,-0.19361,2.3511,-0.6984,-0.3749,2.3163,-0.70399,-0.41526,2.3099,-0.32047,0.039053,2.2485,-0.27217,-0.1866,2.2348,-0.22246,-0.38625,2.1825,-0.17594,-0.41352,2.1757,-0.49981,-0.29034,2.2153,-0.50775,-0.62976,2.1865,-0.49977,-0.94002,2.2054,-0.51554,-0.96905,2.1328,-0.3818,-0.28639,2.1961,-0.33088,-0.66145,2.1768,-0.26931,-0.90283,2.2712,-0.25131,-0.98958,2.2589
-0.43219,-0.22862,2.2263,-0.42226,-0.17307,2.2803,-0.43767,0.16554,2.3122,-0.42537,0.33269,2.3005,-0.57418,0.044698,2.3272,-0.63437,-0.19703,2.3611,-0.67241,-0.38295,2.3431,-0.68639,-0.41848,2.3303,-0.3099,0.039478,2.2514,-0.29639,-0.19432,2.2463,-0.21637,-0.38476,2.1826,-0.17126,-0.41568,2.1718,-0.49201,-0.29083,2.2206,-0.50693,-0.62797,2.1913,-0.49694,-0.94172,2.202,-0.51328,-0.97081,2.1296,-0.3719,-0.28713,2.2026,-0.32654,-0.65407,2.1849,-0.2564,-0.897,2.3119,-0.25979,-0.93819,2.2529
-0.42505,-0.22933,2.2344,-0.41449,-0.17333,2.2874,-0.42772,0.16493,2.3147,-0.41616,0.33101,2.3015,-0.56429,0.047087,2.3311,-0.61964,-0.19652,2.3732,-0.6572,-0.38243,2.3552,-0.67194,-0.4348,2.3452,-0.30099,0.037827,2.2534,-0.25841,-0.20181,2.232,-0.21298,-0.38417,2.1832,-0.16994,-0.41723,2.1697,-0.48431,-0.29164,2.2313,-0.5047,-0.62636,2.1942,-0.49434,-0.9421,2.202,-0.51068,-0.97128,2.1295,-0.36593,-0.28805,2.2103,-0.323,-0.64281,2.1957,-0.24906,-0.91015,2.3374,-0.22874,-0.96193,2.3097
-0.4153,-0.22847,2.2459,-0.40346,-0.17233,2.2976,-0.41733,0.16311,2.3193,-0.40614,0.32888,2.3067,-0.55403,0.049883,2.3438,-0.60392,-0.19452,2.3867,-0.63585,-0.38136,2.3821,-0.64583,-0.4355,2.3723,-0.2879,0.03568,2.2575,-0.24903,-0.20695,2.2363,-0.20991,-0.38626,2.183,-0.16948,-0.42133,2.1666,-0.47599,-0.29142,2.2441,-0.50108,-0.62268,2.2007,-0.49092,-0.94087,2.1968,-0.51053,-0.97033,2.1253,-0.35562,-0.28872,2.2215,-0.30771,-0.65714,2.2317,-0.24199,-0.92674,2.3564,-0.23862,-0.97249,2.3099
-0.4067,-0.22807,2.2582,-0.3942,-0.17113,2.3083,-0.4061,0.1631,2.3224,-0.39171,0.33075,2.313,-0.54077,0.050595,2.3505,-0.56074,-0.18636,2.3892,-0.61648,-0.38039,2.3963,-0.61934,-0.42406,2.4019,-0.27479,0.033188,2.2624,-0.23512,-0.20859,2.2477,-0.20477,-0.3865,2.1824,-0.17138,-0.41709,2.1649,-0.46831,-0.28974,2.2585,-0.49216,-0.61752,2.2081,-0.51265,-0.86977,2.1556,-0.449,-0.84534,2.1367,-0.34641,-0.29061,2.2358,-0.30617,-0.6543,2.2408,-0.24236,-0.92118,2.3599,-0.24015,-0.96764,2.3141
-0.38737,-0.22991,2.2719,-0.37585,-0.17197,2.3212,-0.38988,0.16196,2.328,-0.38012,0.32828,2.3183,-0.52618,0.049997,2.3543,-0.53922,-0.1805,2.4074,-0.565,-0.36059,2.4263,-0.57926,-0.39606,2.4191,-0.26133,0.031283,2.2713,-0.22738,-0.21001,2.2509,-0.19673,-0.3876,2.1845,-0.16893,-0.42944,2.1601,-0.44726,-0.29085,2.2741,-0.48581,-0.6145,2.2148,-0.51251,-0.864,2.1637,-0.47444,-0.91644,2.1353,-0.32786,-0.29164,2.2497,-0.30789,-0.63186,2.2439,-0.24417,-0.927,2.3704,-0.22789,-0.97559,2.3392
-0.37873,-0.2308,2.2809,-0.36704,-0.17254,2.3302,-0.37854,0.16199,2.3357,-0.36351,0.32892,2.3256,-0.51291,0.049076,2.3623,-0.52524,-0.18079,2.4161,-0.55137,-0.36847,2.3464,-0.55955,-0.41467,2.4426,-0.24782,0.030261,2.2793,-0.21527,-0.20984,2.2574,-0.19071,-0.38736,2.1876,-0.17091,-0.41874,2.1646,-0.43932,-0.29098,2.2832,-0.47875,-0.61221,2.2263,-0.51333,-0.85904,2.1648,-0.53528,-0.89161,2.0915,-0.31874,-0.2936,2.259,-0.29822,-0.64161,2.2698,-0.24703,-0.93182,2.3725,-0.2458,-0.9751,2.3184
-0.3634,-0.23045,2.2968,-0.35259,-0.17128,2.3437,-0.36757,0.16039,2.3402,-0.35373,0.3266,2.3295,-0.50012,0.047446,2.3722,-0.50932,-0.18143,2.4309,-0.53575,-0.36052,2.4552,-0.54242,-0.38536,2.4498,-0.22996,0.031841,2.2901,-0.20226,-0.21114,2.2658,-0.18311,-0.38766,2.1905,-0.16453,-0.41816,2.1641,-0.4253,-0.291,2.3005,-0.47047,-0.61001,2.2438,-0.51857,-0.85567,2.1805,-0.53863,-0.8891,2.1069,-0.30115,-0.29481,2.2769,-0.29395,-0.64098,2.2783,-0.24997,-0.92741,2.375,-0.24782,-0.97128,2.3228
-0.35659,-0.23072,2.3124,-0.34305,-0.17076,2.3566,-0.35562,0.1588,2.3456,-0.34064,0.32421,2.3371,-0.48969,0.047747,2.3878,-0.4954,-0.18285,2.4476,-0.52248,-0.36076,2.4772,-0.51962,-0.39508,2.4767,-0.22294,0.030082,2.2935,-0.1913,-0.21116,2.2762,-0.17771,-0.38566,2.1942,-0.16449,-0.41655,2.1641,-0.41884,-0.29089,2.3223,-0.46513,-0.60858,2.267,-0.52324,-0.85202,2.1876,-0.54674,-0.88567,2.1152,-0.29554,-0.29623,2.2911,-0.28869,-0.64039,2.2927,-0.24886,-0.92841,2.381,-0.24675,-0.97277,2.3307
-0.35084,-0.23264,2.3272,-0.33492,-0.17225,2.3705,-0.34433,0.1576,2.3563,-0.32941,0.32421,2.3438,-0.47723,0.049538,2.4019,-0.48729,-0.18089,2.4612,-0.51978,-0.35955,2.4837,-0.51974,-0.39008,2.4816,-0.21614,0.02924,2.2996,-0.18501,-0.21106,2.2829,-0.16631,-0.38823,2.2094,-0.15699,-0.41925,2.1714,-0.4124,-0.29138,2.3382,-0.46399,-0.61055,2.2926,-0.52374,-0.84815,2.2015,-0.54922,-0.88209,2.1299,-0.29256,-0.29805,2.3041,-0.28096,-0.63834,2.3083,-0.24813,-0.92267,2.3838,-0.24937,-0.96961,2.3377
-0.34644,-0.23255,2.3425,-0.32997,-0.1713,2.3835,-0.33438,0.15854,2.3638,-0.32014,0.32532,2.3523,-0.47027,0.051218,2.4158,-0.48064,-0.18124,2.4687,-0.5172,-0.35932,2.491,-0.52543,-0.41388,2.4962,-0.20231,0.02795,2.3118,-0.17372,-0.20814,2.2971,-0.16271,-0.38304,2.2155,-0.15384,-0.39678,2.186,-0.4089,-0.29048,2.3564,-0.46001,-0.60757,2.319,-0.52396,-0.8372,2.2246,-0.54778,-0.87124,2.1525,-0.28918,-0.30018,2.3198,-0.27138,-0.63663,2.3321,-0.24747,-0.92177,2.3851,-0.2482,-0.96912,2.3409
-0.33912,-0.23281,2.3591,-0.3226,-0.17028,2.3981,-0.327,0.16077,2.3737,-0.31199,0.32588,2.3629,-0.45996,0.05527,2.4228,-0.473,-0.176,2.4796,-0.51428,-0.3526,2.5054,-0.52239,-0.4072,2.5104,-0.19666,0.026187,2.3178,-0.16688,-0.20858,2.3064,-0.15837,-0.38175,2.2204,-0.14877,-0.39698,2.1906,-0.40078,-0.29003,2.3746,-0.45753,-0.6069,2.3404,-0.51459,-0.85241,2.2605,-0.53286,-0.89385,2.2018,-0.28278,-0.30065,2.3362,-0.26586,-0.63229,2.3452,-0.24616,-0.91505,2.3856,-0.24542,-0.96938,2.3452
-0.33488,-0.22931,2.371,-0.3184,-0.16655,2.4075,-0.32263,0.16259,2.3801,-0.30921,0.33072,2.3792,-0.45566,0.059508,2.4364,-0.46732,-0.17111,2.492,-0.5136,-0.34855,2.5067,-0.52133,-0.40312,2.5126,-0.19264,0.030131,2.3277,-0.15834,-0.20635,2.3156,-0.14881,-0.38078,2.2327,-0.13384,-0.39891,2.2072,-0.39686,-0.28723,2.3868,-0.45806,-0.6067,2.3583,-0.51144,-0.85792,2.2903,-0.53822,-0.89157,2.2211,-0.27839,-0.29708,2.3491,-0.25874,-0.6273,2.3609,-0.24606,-0.91162,2.388,-0.27284,-0.94527,2.3187
-0.33152,-0.22384,2.3851,-0.314,-0.16174,2.4205,-0.31438,0.16541,2.3955,-0.30213,0.3321,2.3926,-0.45152,0.064536,2.4526,-0.46379,-0.16624,2.5051,-0.51139,-0.34436,2.511,-0.51854,-0.39878,2.5186,-0.18767,0.033195,2.3366,-0.15128,-0.20534,2.3264,-0.14055,-0.38005,2.2441,-0.12786,-0.39439,2.2234,-0.39398,-0.28188,2.4026,-0.45777,-0.60706,2.368,-0.50624,-0.87028,2.3367,-0.53444,-0.90376,2.268,-0.27615,-0.29334,2.3604,-0.25637,-0.6252,2.3698,-0.24527,-0.90812,2.3901,-0.27347,-0.9416,2.3213
-0.32898,-0.22205,2.3949,-0.31176,-0.15976,2.4294,-0.3096,0.16869,2.4055,-0.29876,0.33492,2.4023,-0.44808,0.06584,2.462,-0.46262,-0.16651,2.5115,-0.51387,-0.344,2.5143,-0.52052,-0.39878,2.5195,-0.18353,0.037233,2.3476,-0.14704,-0.20458,2.3398,-0.13458,-0.37996,2.2603,-0.12217,-0.39561,2.233,-0.39094,-0.27997,2.4136,-0.45777,-0.60879,2.3822,-0.49992,-0.8766,2.3616,-0.52771,-0.91002,2.2927,-0.27446,-0.29119,2.3695,-0.25255,-0.62482,2.3812,-0.24311,-0.90216,2.3964,-0.2709,-0.93558,2.3275
-0.32726,-0.22095,2.4088,-0.3097,-0.15869,2.4427,-0.30575,0.17083,2.4207,-0.29177,0.33664,2.4121,-0.44508,0.066847,2.4775,-0.46437,-0.16978,2.5173,-0.51884,-0.34675,2.5144,-0.52946,-0.40114,2.5149,-0.17993,0.038869,2.36,-0.14543,-0.20565,2.3492,-0.12756,-0.38412,2.2793,-0.11158,-0.39967,2.2567,-0.38944,-0.27949,2.4297,-0.45667,-0.62008,2.4031,-0.49118,-0.90427,2.4146,-0.51959,-0.93758,2.3459,-0.27334,-0.29025,2.3808,-0.25187,-0.62517,2.3907,-0.24053,-0.90553,2.4005,-0.26894,-0.93884,2.3318
-0.32626,-0.22291,2.42,-0.30961,-0.15999,2.4528,-0.3063,0.17098,2.4303,-0.29373,0.33617,2.425,-0.44317,0.065373,2.4849,-0.46859,-0.17173,2.5231,-0.52405,-0.35582,2.5303,-0.53354,-0.40324,2.5115,-0.17998,0.036882,2.3703,-0.14232,-0.20629,2.3657,-0.12198,-0.38293,2.2914,-0.10606,-0.40007,2.2712,-0.38772,-0.28158,2.441,-0.45397,-0.62503,2.4188,-0.47895,-0.92527,2.4642,-0.50265,-0.97264,2.4179,-0.27246,-0.29138,2.3924,-0.25056,-0.62484,2.3962,-0.23933,-0.9066,2.4035,-0.2673,-0.94005,2.3347
-0.32707,-0.22332,2.4325,-0.31145,-0.16055,2.4654,-0.30828,0.17054,2.4454,-0.2954,0.33638,2.4413,-0.44244,0.066072,2.4952,-0.47058,-0.1734,2.534,-0.52524,-0.35598,2.5297,-0.53553,-0.41074,2.5264,-0.17954,0.036919,2.3867,-0.13996,-0.20642,2.3814,-0.11778,-0.38623,2.3182,-0.10062,-0.4197,2.2819,-0.38848,-0.2821,2.4522,-0.44933,-0.63501,2.44,-0.47256,-0.94469,2.514,-0.49923,-0.978,2.4446,-0.27301,-0.29184,2.4052,-0.24905,-0.6251,2.4011,-0.23928,-0.90229,2.4047,-0.26595,-0.9356,2.3353
-0.32726,-0.22369,2.4417,-0.31211,-0.16092,2.4742,-0.31066,0.17002,2.456,-0.29746,0.33699,2.4586,-0.44529,0.064373,2.51,-0.48959,-0.17983,2.5566,-0.52851,-0.3649,2.5284,-0.53937,-0.41941,2.5269,-0.17986,0.039116,2.3993,-0.14187,-0.20521,2.3927,-0.11811,-0.38491,2.3294,-0.097077,-0.42252,2.2956,-0.38915,-0.28376,2.46,-0.44392,-0.63458,2.4537,-0.4626,-0.94034,2.5562,-0.48618,-0.99356,2.5108,-0.27198,-0.29173,2.4155,-0.2479,-0.62468,2.4053,-0.23897,-0.90204,2.4051,-0.26595,-0.9353,2.3357
-0.32746,-0.22367,2.4505,-0.3123,-0.16138,2.4834,-0.31091,0.16883,2.4688,-0.29846,0.33389,2.4737,-0.44816,0.061837,2.5252,-0.4934,-0.18488,2.5611,-0.53072,-0.36984,2.5283,-0.54572,-0.41417,2.5254,-0.17925,0.037922,2.4109,-0.14281,-0.20614,2.4101,-0.11901,-0.38425,2.3419,-0.10005,-0.40502,2.3196,-0.39023,-0.28518,2.4686,-0.44255,-0.63128,2.4733,-0.45436,-0.94727,2.5977,-0.4838,-1.0035,2.5642,-0.27148,-0.29192,2.4231,-0.24778,-0.62545,2.4074,-0.23937,-0.89822,2.4068,-0.26678,-0.93126,2.3375
-0.33038,-0.22452,2.464,-0.31564,-0.16251,2.4973,-0.31645,0.16831,2.4859,-0.30663,0.33257,2.4869,-0.4524,0.059229,2.5374,-0.49808,-0.18874,2.5674,-0.53531,-0.37244,2.5265,-0.55349,-0.42372,2.5168,-0.18546,0.04065,2.4242,-0.1465,-0.20266,2.4234,-0.12044,-0.38238,2.362,-0.097296,-0.41084,2.3518,-0.39299,-0.28714,2.4812,-0.43964,-0.64,2.5063,-0.44861,-0.93866,2.6229,-0.47608,-0.97158,2.5537,-0.2738,-0.29215,2.4364,-0.24885,-0.62734,2.4119,-0.23974,-0.89849,2.4072,-0.26722,-0.93142,2.338
-0.33314,-0.22477,2.4739,-0.31969,-0.16334,2.5085,-0.32409,0.16572,2.5013,-0.31074,0.33201,2.5048,-0.45904,0.055973,2.554,-0.50348,-0.19313,2.5791,-0.54154,-0.37347,2.5241,-0.55865,-0.42483,2.513,-0.18734,0.040528,2.4444,-0.14741,-0.20319,2.4378,-0.12508,-0.3842,2.379,-0.099834,-0.41174,2.3571,-0.39546,-0.28825,2.4899,-0.43871,-0.6401,2.5148,-0.44601,-0.94149,2.6304,-0.46604,-0.99238,2.5952,-0.27554,-0.29232,2.4456,-0.25035,-0.62771,2.4157,-0.24029,-0.89864,2.4084,-0.26657,-0.9313,2.3386
-0.33611,-0.22687,2.4864,-0.32214,-0.16551,2.522,-0.32784,0.1648,2.5164,-0.31926,0.33183,2.5151,-0.46771,0.049765,2.5714,-0.50833,-0.19977,2.5867,-0.55213,-0.37741,2.525,-0.56004,-0.39775,2.5203,-0.19573,0.039422,2.4576,-0.15329,-0.20474,2.4497,-0.13006,-0.38739,2.398,-0.10273,-0.41632,2.3748,-0.39801,-0.29106,2.5021,-0.43774,-0.64263,2.5339,-0.4403,-0.94867,2.6435,-0.46758,-0.98125,2.5741,-0.27854,-0.29343,2.4573,-0.25483,-0.62785,2.4237,-0.24078,-0.89874,2.4092,-0.26805,-0.93131,2.3398
-0.3423,-0.22952,2.4997,-0.32819,-0.16799,2.5362,-0.33221,0.16404,2.5305,-0.33284,0.33114,2.5302,-0.47282,0.047703,2.5827,-0.5131,-0.20197,2.5921,-0.55915,-0.37783,2.5259,-0.56571,-0.39801,2.5202,-0.20888,0.040042,2.4761,-0.16279,-0.20221,2.4653,-0.12893,-0.38482,2.4217,-0.10979,-0.41316,2.3935,-0.40359,-0.29418,2.5148,-0.43927,-0.63799,2.5459,-0.43818,-0.9477,2.6444,-0.46459,-0.98019,2.5746,-0.28591,-0.29432,2.4713,-0.25755,-0.62784,2.4304,-0.24221,-0.89913,2.4096,-0.26862,-0.93161,2.3398
-0.3481,-0.22992,2.5146,-0.33394,-0.16847,2.5518,-0.34112,0.16328,2.5462,-0.34853,0.32972,2.547,-0.47878,0.046698,2.5958,-0.52079,-0.20042,2.6041,-0.56251,-0.37416,2.529,-0.57428,-0.39879,2.5205,-0.21318,0.040171,2.4872,-0.16748,-0.20419,2.4826,-0.13739,-0.38571,2.4314,-0.1195,-0.41602,2.4098,-0.40877,-0.2948,2.5312,-0.43949,-0.637,2.5692,-0.43559,-0.94876,2.6472,-0.46247,-0.98127,2.5775,-0.29141,-0.29382,2.4848,-0.2636,-0.62728,2.4454,-0.24316,-0.89904,2.4103,-0.27004,-0.93154,2.3407
-0.35264,-0.2326,2.5277,-0.33954,-0.17099,2.5654,-0.35041,0.16088,2.5594,-0.35363,0.32892,2.5635,-0.48456,0.043603,2.6059,-0.52711,-0.20178,2.6164,-0.57167,-0.37199,2.5335,-0.58167,-0.39969,2.5218,-0.22587,0.042238,2.5046,-0.17358,-0.20182,2.501,-0.14783,-0.38291,2.4451,-0.12759,-0.43065,2.425,-0.4117,-0.29701,2.5428,-0.44036,-0.63558,2.5793,-0.43416,-0.94846,2.6503,-0.46009,-0.98103,2.5803,-0.29607,-0.29496,2.4991,-0.26762,-0.63075,2.4557,-0.24391,-0.90559,2.4147,-0.26984,-0.93816,2.3447
-0.36028,-0.23251,2.5466,-0.34564,-0.17126,2.5834,-0.3597,0.15729,2.5765,-0.36739,0.32114,2.579,-0.49681,0.045629,2.6364,-0.53481,-0.19986,2.6284,-0.5811,-0.37162,2.5505,-0.58946,-0.40116,2.5296,-0.23208,0.039979,2.5165,-0.18229,-0.20382,2.514,-0.16153,-0.38836,2.4691,-0.13594,-0.4355,2.4317,-0.41932,-0.29866,2.567,-0.44181,-0.63422,2.5958,-0.43321,-0.94657,2.6517,-0.46259,-0.97937,2.5832,-0.30271,-0.2951,2.5133,-0.27262,-0.63151,2.4658,-0.24429,-0.90888,2.4179,-0.27367,-0.94167,2.3493
-0.36426,-0.23712,2.5647,-0.35112,-0.17541,2.6013,-0.37164,0.15283,2.5935,-0.37994,0.31624,2.5963,-0.50353,0.040136,2.6466,-0.54126,-0.19925,2.6391,-0.5851,-0.37061,2.5586,-0.59465,-0.4076,2.5368,-0.24515,0.041025,2.5328,-0.18906,-0.20333,2.5288,-0.17299,-0.39351,2.4912,-0.15253,-0.43252,2.4539,-0.42081,-0.3023,2.5819,-0.44329,-0.63447,2.6134,-0.43246,-0.93995,2.6568,-0.46129,-0.97297,2.5881,-0.30684,-0.29786,2.5359,-0.27366,-0.63227,2.4732,-0.24387,-0.90356,2.4221,-0.2727,-0.93658,2.3535
-0.36953,-0.24182,2.5832,-0.35692,-0.17935,2.618,-0.38356,0.14872,2.6084,-0.39479,0.31102,2.6111,-0.51399,0.031134,2.6651,-0.5478,-0.20361,2.6475,-0.5958,-0.37726,2.5762,-0.6,-0.41031,2.5522,-0.25824,0.038934,2.545,-0.19831,-0.20694,2.5466,-0.18038,-0.40049,2.5098,-0.1594,-0.44694,2.4869,-0.4251,-0.30963,2.606,-0.4465,-0.63427,2.6296,-0.43223,-0.93611,2.6603,-0.46278,-0.96959,2.5926,-0.31082,-0.30074,2.55,-0.2748,-0.63393,2.4882,-0.24409,-0.90009,2.4292,-0.27463,-0.93357,2.3615
-0.37348,-0.24696,2.6015,-0.36196,-0.18336,2.6335,-0.39282,0.14464,2.6198,-0.40704,0.30381,2.6204,-0.52202,0.024581,2.6826,-0.55696,-0.21131,2.6633,-0.59907,-0.38487,2.5872,-0.60381,-0.4157,2.5639,-0.27087,0.035292,2.5587,-0.20586,-0.20952,2.558,-0.1795,-0.40388,2.5274,-0.1589,-0.45998,2.5202,-0.42681,-0.31565,2.6269,-0.44478,-0.63649,2.6492,-0.43195,-0.938,2.6645,-0.46366,-0.97211,2.5977,-0.31477,-0.30565,2.5675,-0.27373,-0.63855,2.51,-0.24326,-0.9016,2.4388,-0.27498,-0.93571,2.3721
-0.37753,-0.24913,2.621,-0.3669,-0.18441,2.6495,-0.4,0.14411,2.6317,-0.42015,0.30332,2.637,-0.5296,0.020359,2.6984,-0.55825,-0.21451,2.6802,-0.6002,-0.38601,2.5993,-0.60678,-0.41954,2.5836,-0.27928,0.033339,2.5674,-0.21143,-0.20926,2.5785,-0.17815,-0.41012,2.5466,-0.15177,-0.45705,2.5373,-0.42938,-0.31927,2.6488,-0.44166,-0.6369,2.6669,-0.43169,-0.93774,2.6707,-0.46531,-0.99697,2.6507,-0.31914,-0.30766,2.587,-0.2713,-0.64321,2.5293,-0.24354,-0.90299,2.4468,-0.27672,-0.93778,2.381
-0.37934,-0.24972,2.6363,-0.37114,-0.18449,2.6625,-0.41044,0.14405,2.6454,-0.42946,0.30363,2.6531,-0.53506,0.021076,2.711,-0.55777,-0.21911,2.6958,-0.60228,-0.39401,2.6269,-0.60885,-0.42033,2.5987,-0.28385,0.033521,2.5799,-0.21792,-0.20981,2.59,-0.17495,-0.40575,2.569,-0.13624,-0.46365,2.5633,-0.42989,-0.31991,2.6624,-0.43983,-0.64116,2.6823,-0.43101,-0.94016,2.6747,-0.4646,-1.0002,2.6535,-0.32013,-0.30772,2.6049,-0.27014,-0.64508,2.5489,-0.2417,-0.90269,2.4643,-0.27462,-0.93787,2.3987
-0.38046,-0.25267,2.6512,-0.37436,-0.18695,2.6758,-0.41766,0.14236,2.6595,-0.43699,0.30258,2.6619,-0.54029,0.018575,2.7232,-0.55899,-0.22945,2.7193,-0.60501,-0.40044,2.6394,-0.60564,-0.42824,2.6257,-0.29146,0.033992,2.5944,-0.21888,-0.20747,2.6026,-0.17396,-0.40123,2.5921,-0.14499,-0.43832,2.5876,-0.43034,-0.32232,2.6758,-0.4366,-0.64384,2.6987,-0.43091,-0.93881,2.6767,-0.46348,-0.97422,2.611,-0.32024,-0.30948,2.6203,-0.26461,-0.64594,2.566,-0.23981,-0.90867,2.4935,-0.27238,-0.94409,2.4278
-0.38196,-0.25141,2.6648,-0.37673,-0.18585,2.6871,-0.42256,0.14134,2.6709,-0.4394,0.30226,2.6695,-0.54781,0.01367,2.746,-0.56003,-0.22927,2.7405,-0.59529,-0.40874,2.6788,-0.60327,-0.43549,2.6626,-0.29278,0.034871,2.6066,-0.21862,-0.20588,2.6166,-0.16675,-0.40323,2.6021,-0.13675,-0.445,2.6047,-0.43082,-0.32263,2.6929,-0.43705,-0.64518,2.7068,-0.43096,-0.93866,2.6787,-0.46497,-0.97447,2.6139,-0.32107,-0.30844,2.6317,-0.26142,-0.64864,2.5871,-0.23165,-0.90964,2.5281,-0.26566,-0.94545,2.4634
-0.38297,-0.24897,2.6773,-0.37939,-0.18376,2.698,-0.42606,0.14103,2.6821,-0.44576,0.30409,2.6893,-0.54853,0.014464,2.7519,-0.56034,-0.23144,2.7603,-0.59106,-0.41129,2.697,-0.60175,-0.45792,2.6746,-0.29452,0.035091,2.6168,-0.21705,-0.20314,2.6359,-0.17054,-0.38508,2.6232,-0.14447,-0.42218,2.6058,-0.43041,-0.32064,2.708,-0.43648,-0.64547,2.711,-0.43073,-0.93939,2.6807,-0.4639,-0.97532,2.6156,-0.32231,-0.30668,2.6417,-0.25883,-0.6498,2.5991,-0.22509,-0.93188,2.5727,-0.20245,-1.0057,2.5321
-0.38321,-0.24856,2.6886,-0.38014,-0.18335,2.708,-0.42649,0.14117,2.6937,-0.44675,0.30377,2.7012,-0.54867,0.010129,2.7665,-0.55223,-0.2406,2.7777,-0.58171,-0.42572,2.7401,-0.58987,-0.45696,2.7225,-0.2968,0.033182,2.6291,-0.21598,-0.2047,2.6425,-0.16402,-0.40145,2.6303,-0.14021,-0.42547,2.6164,-0.43003,-0.3217,2.7211,-0.43418,-0.64639,2.7248,-0.43127,-0.94156,2.6819,-0.46512,-0.97753,2.6171,-0.32293,-0.30595,2.6513,-0.25713,-0.65335,2.6157,-0.21958,-0.94355,2.6225,-0.2146,-1.0032,2.5808
-0.38411,-0.25006,2.7049,-0.38201,-0.18453,2.7224,-0.42571,0.14091,2.7076,-0.44736,0.30384,2.7065,-0.54768,0.012641,2.7755,-0.54632,-0.23991,2.7957,-0.57285,-0.4259,2.7615,-0.58059,-0.46179,2.7411,-0.29561,0.034145,2.6436,-0.21509,-0.20452,2.6521,-0.16598,-0.38722,2.6395,-0.13142,-0.42855,2.632,-0.4315,-0.32177,2.7322,-0.434,-0.64653,2.7285,-0.43208,-0.94281,2.6841,-0.46482,-0.97881,2.6189,-0.32389,-0.30708,2.6755,-0.25346,-0.65679,2.6315,-0.21787,-0.93761,2.6653,-0.22586,-0.99543,2.615
-0.3847,-0.25034,2.7167,-0.38264,-0.18499,2.7332,-0.42517,0.14013,2.7213,-0.44775,0.30355,2.7206,-0.55,0.011677,2.7992,-0.54203,-0.24105,2.8151,-0.56507,-0.42776,2.7812,-0.57834,-0.48071,2.7697,-0.29155,0.034798,2.6596,-0.21154,-0.20412,2.6667,-0.16231,-0.38548,2.6493,-0.12739,-0.42159,2.6428,-0.43308,-0.32215,2.7447,-0.43478,-0.64743,2.7301,-0.43263,-0.94182,2.6871,-0.46628,-0.97772,2.6221,-0.3241,-0.30811,2.6843,-0.25019,-0.65603,2.6503,-0.21636,-0.94372,2.7134,-0.25001,-0.97963,2.6485
-0.38436,-0.25144,2.7269,-0.38272,-0.18609,2.7431,-0.42265,0.14078,2.7345,-0.44653,0.3027,2.7333,-0.54607,0.011561,2.8057,-0.52932,-0.2193,2.8225,-0.55825,-0.42415,2.7963,-0.57259,-0.47678,2.7929,-0.2895,0.034534,2.6705,-0.20762,-0.20388,2.6762,-0.15408,-0.38403,2.658,-0.12519,-0.42073,2.6423,-0.43289,-0.32221,2.7543,-0.43567,-0.64983,2.7361,-0.43283,-0.94351,2.6872,-0.46597,-0.97906,2.6218,-0.32439,-0.30944,2.6938,-0.24779,-0.6536,2.6808,-0.20823,-0.94343,2.7583,-0.24137,-0.97898,2.6929
-0.38236,-0.25184,2.737,-0.38042,-0.18674,2.7533,-0.41701,0.13995,2.7489,-0.44195,0.30265,2.7436,-0.54177,0.012404,2.8191,-0.51693,-0.22636,2.8451,-0.54998,-0.43222,2.8316,-0.56865,-0.49941,2.818,-0.28514,0.034677,2.683,-0.20178,-0.20332,2.6872,-0.1518,-0.38412,2.6609,-0.12641,-0.42254,2.6423,-0.43139,-0.32243,2.7647,-0.43741,-0.64789,2.7456,-0.4333,-0.94294,2.6883,-0.46671,-0.97809,2.6229,-0.32269,-0.31058,2.7023,-0.24723,-0.65543,2.7009,-0.20817,-0.94286,2.8151,-0.24158,-0.97801,2.7496
-0.37718,-0.25457,2.7505,-0.37531,-0.1892,2.7657,-0.40877,0.13825,2.7582,-0.43426,0.30283,2.7595,-0.53702,0.010559,2.8254,-0.51366,-0.22833,2.8569,-0.54657,-0.43504,2.8432,-0.56531,-0.49145,2.8139,-0.27779,0.0322,2.6952,-0.1961,-0.20656,2.6966,-0.14942,-0.38754,2.6626,-0.1245,-0.42386,2.6459,-0.42721,-0.32498,2.7794,-0.4376,-0.64708,2.7536,-0.43367,-0.94197,2.6908,-0.46562,-0.9772,2.6247,-0.31782,-0.31433,2.716,-0.24759,-0.65778,2.7212,-0.20385,-0.95269,2.8599,-0.19088,-1.0072,2.8333
-0.37231,-0.25566,2.7596,-0.36871,-0.19081,2.7753,-0.3956,0.13559,2.7721,-0.42192,0.30022,2.7731,-0.52406,0.010808,2.8458,-0.50711,-0.23062,2.8653,-0.54382,-0.41029,2.8356,-0.5544,-0.47505,2.8165,-0.26816,0.031008,2.7084,-0.192,-0.21005,2.7041,-0.14513,-0.39092,2.6703,-0.12414,-0.42493,2.6484,-0.4237,-0.32524,2.7869,-0.43638,-0.64852,2.7637,-0.43423,-0.94244,2.6925,-0.4681,-0.9772,2.6271,-0.3137,-0.31629,2.7249,-0.24464,-0.67063,2.7484,-0.20238,-0.962,2.9046,-0.21526,-1.0132,2.8705
-0.36554,-0.25762,2.7698,-0.3615,-0.19266,2.786,-0.38608,0.13548,2.783,-0.40558,0.30294,2.7965,-0.51694,0.010189,2.8541,-0.50076,-0.23339,2.875,-0.53397,-0.4138,2.8472,-0.54692,-0.46423,2.8236,-0.26039,0.026528,2.7221,-0.18485,-0.21409,2.7178,-0.14247,-0.39391,2.6702,-0.12336,-0.43656,2.6508,-0.41815,-0.32584,2.7956,-0.43223,-0.64892,2.7697,-0.4352,-0.94208,2.696,-0.46796,-0.97664,2.6298,-0.30718,-0.31877,2.7359,-0.23904,-0.6711,2.7652,-0.20225,-0.96329,2.9141,-0.20545,-1.0132,2.8823
-0.3592,-0.26095,2.7838,-0.35517,-0.19562,2.799,-0.37949,0.13321,2.7928,-0.39734,0.29902,2.8013,-0.50404,0.0089643,2.8714,-0.49182,-0.23492,2.8887,-0.53263,-0.43573,2.8812,-0.5438,-0.46529,2.857,-0.24918,0.02172,2.738,-0.17832,-0.22108,2.7294,-0.13721,-0.40117,2.6814,-0.12022,-0.45603,2.6539,-0.41179,-0.32739,2.8103,-0.42039,-0.64659,2.7793,-0.43582,-0.94182,2.6976,-0.46894,-0.97665,2.6318,-0.30114,-0.32412,2.7511,-0.22902,-0.68494,2.7971,-0.20138,-0.97041,2.9272,-0.20666,-1.0209,2.8886
-0.34923,-0.26394,2.7994,-0.34403,-0.19842,2.8147,-0.36049,0.13292,2.8083,-0.37473,0.29735,2.8163,-0.49158,0.012214,2.8812,-0.48412,-0.22835,2.9008,-0.5266,-0.42795,2.8854,-0.53801,-0.45716,2.8581,-0.23834,0.019014,2.7519,-0.17086,-0.22504,2.7365,-0.13622,-0.4069,2.69,-0.12441,-0.45502,2.67,-0.40277,-0.32777,2.8251,-0.41752,-0.64769,2.7861,-0.43459,-0.94139,2.7012,-0.46712,-0.97589,2.635,-0.29285,-0.32721,2.7676,-0.22542,-0.67587,2.807,-0.20398,-0.97515,2.9381,-0.19683,-1.019,2.9137
-0.33872,-0.26483,2.8142,-0.33197,-0.19952,2.8308,-0.3418,0.13366,2.8275,-0.36609,0.29703,2.8214,-0.47905,0.00941,2.8952,-0.46222,-0.22836,2.923,-0.52092,-0.40012,2.8587,-0.53915,-0.44748,2.8585,-0.22439,0.020045,2.767,-0.16541,-0.22669,2.7452,-0.13541,-0.40917,2.6969,-0.1251,-0.46172,2.6758,-0.39424,-0.3285,2.8379,-0.41031,-0.64855,2.7938,-0.4333,-0.93927,2.7065,-0.46565,-0.97324,2.6399,-0.28267,-0.32739,2.7831,-0.22152,-0.67118,2.8217,-0.20562,-0.9794,2.9425,-0.23796,-1.0134,2.8759
-0.3275,-0.26632,2.827,-0.32083,-0.20065,2.842,-0.33158,0.13189,2.8331,-0.33803,0.30079,2.8357,-0.4587,0.011106,2.9044,-0.4549,-0.22454,2.9327,-0.51311,-0.41934,2.8794,-0.52587,-0.49913,2.8833,-0.21265,0.019328,2.7807,-0.15247,-0.22739,2.7652,-0.13646,-0.40865,2.7048,-0.12929,-0.4548,2.6942,-0.3839,-0.32718,2.8485,-0.40205,-0.65094,2.8012,-0.43211,-0.93107,2.7108,-0.4642,-0.96552,2.6442,-0.27042,-0.3275,2.8018,-0.21521,-0.66873,2.8349,-0.20846,-0.97468,2.9468,-0.20498,-1.0117,2.9238
-0.31752,-0.26703,2.8445,-0.31056,-0.20195,2.8593,-0.31676,0.12739,2.8481,-0.3306,0.2953,2.8377,-0.44705,0.016098,2.916,-0.44715,-0.22018,2.9443,-0.50218,-0.40151,2.8807,-0.52294,-0.40451,2.8445,-0.19513,0.0077618,2.7966,-0.14269,-0.23549,2.7772,-0.13277,-0.41866,2.723,-0.12712,-0.45872,2.7101,-0.37478,-0.32694,2.8667,-0.39024,-0.6458,2.8174,-0.43205,-0.92561,2.714,-0.46256,-0.96001,2.6467,-0.26157,-0.32963,2.8183,-0.21429,-0.66704,2.8509,-0.20989,-0.97652,2.9471,-0.20394,-1.0131,2.922
-0.30474,-0.26808,2.861,-0.29864,-0.2028,2.8737,-0.306,0.12568,2.8577,-0.3171,0.29313,2.8463,-0.43509,0.01753,2.9288,-0.43635,-0.20518,2.965,-0.49547,-0.38413,2.8872,-0.53147,-0.41801,2.8774,-0.18176,0.0064084,2.8124,-0.13585,-0.23207,2.7915,-0.12882,-0.41423,2.7324,-0.12096,-0.47217,2.7213,-0.36374,-0.32636,2.8805,-0.38818,-0.64676,2.819,-0.4135,-0.92546,2.7448,-0.44341,-0.97257,2.6779,-0.24631,-0.33168,2.8401,-0.22742,-0.6674,2.8641,-0.21178,-0.97991,2.9516,-0.24138,-1.0148,2.8842
-0.29734,-0.26806,2.8726,-0.2909,-0.20313,2.8852,-0.29121,0.12473,2.8703,-0.30109,0.29421,2.8619,-0.42524,0.020038,2.9353,-0.4357,-0.20216,2.9675,-0.4842,-0.3594,2.8983,-0.51946,-0.39851,2.8468,-0.16973,0.0059473,2.8278,-0.12729,-0.23526,2.8007,-0.12132,-0.42107,2.7551,-0.12048,-0.47207,2.7422,-0.3572,-0.32539,2.892,-0.38108,-0.64603,2.8327,-0.41537,-0.92038,2.7464,-0.44566,-0.98951,2.6915,-0.24061,-0.33186,2.8502,-0.23574,-0.69925,2.8898,-0.21474,-0.98318,2.9508,-0.20775,-1.0287,2.9114
-0.2895,-0.26475,2.8836,-0.28264,-0.20014,2.897,-0.28008,0.1269,2.8847,-0.29343,0.29132,2.8669,-0.4136,0.025512,2.9486,-0.4356,-0.20301,2.9678,-0.48515,-0.36128,2.8985,-0.51417,-0.40393,2.88,-0.15758,0.0049312,2.8451,-0.11548,-0.2371,2.8279,-0.11763,-0.41941,2.7667,-0.12296,-0.45923,2.7415,-0.35082,-0.32214,2.9008,-0.3795,-0.64531,2.8388,-0.40856,-0.91934,2.7543,-0.44486,-0.9872,2.702,-0.23205,-0.32896,2.863,-0.22926,-0.69743,2.8984,-0.21633,-0.98347,2.9549,-0.19701,-1.022,2.9336
-0.28093,-0.26068,2.8943,-0.27532,-0.19634,2.9062,-0.27625,0.12841,2.8909,-0.2738,0.29958,2.8864,-0.40772,0.029115,2.9574,-0.43768,-0.21324,2.9776,-0.4871,-0.38117,2.8963,-0.51443,-0.3927,2.8521,-0.15089,0.01004,2.8583,-0.11429,-0.23351,2.8324,-0.10802,-0.42076,2.7957,-0.10864,-0.48203,2.7763,-0.34179,-0.31837,2.9109,-0.37831,-0.64244,2.8434,-0.38465,-0.93093,2.7936,-0.42049,-0.97712,2.7308,-0.22248,-0.32454,2.8757,-0.23305,-0.69361,2.9025,-0.21207,-0.97107,2.9539,-0.23757,-1.0057,2.8848
-0.27281,-0.2553,2.9038,-0.26798,-0.1913,2.9159,-0.27162,0.13174,2.9032,-0.2697,0.30189,2.8927,-0.40472,0.029955,2.9632,-0.43352,-0.212,2.9894,-0.48341,-0.38046,2.9069,-0.50845,-0.41192,2.887,-0.14848,0.013301,2.8665,-0.11253,-0.23083,2.8479,-0.10634,-0.41847,2.8142,-0.10402,-0.48919,2.7874,-0.33395,-0.31351,2.9182,-0.37613,-0.6419,2.8485,-0.38158,-0.93997,2.8029,-0.4184,-0.98591,2.7408,-0.21293,-0.31851,2.8868,-0.22565,-0.6615,2.9101,-0.2109,-0.9771,2.9574,-0.20725,-1.0246,2.9125
-0.26695,-0.25253,2.9118,-0.26216,-0.18893,2.9241,-0.26732,0.13256,2.9146,-0.26988,0.3014,2.8938,-0.3998,0.033289,2.9765,-0.42971,-0.21129,3.0005,-0.47882,-0.37685,2.9108,-0.50395,-0.41963,2.8875,-0.14356,0.01599,2.8753,-0.10797,-0.22962,2.8636,-0.10347,-0.41657,2.8282,-0.10435,-0.47337,2.8022,-0.32694,-0.31141,2.9288,-0.36898,-0.64096,2.8608,-0.38528,-0.94626,2.8265,-0.42173,-1.0164,2.7934,-0.20825,-0.31689,2.891,-0.22244,-0.65891,2.9137,-0.2107,-0.97987,2.9621,-0.23673,-1.0142,2.8931
-0.26358,-0.25144,2.9195,-0.25927,-0.18785,2.9316,-0.26663,0.13369,2.9224,-0.27014,0.3022,2.9076,-0.39807,0.032733,2.9829,-0.42437,-0.21002,3.0172,-0.4749,-0.36901,2.9156,-0.49858,-0.41202,2.8903,-0.14334,0.018669,2.8817,-0.10768,-0.22358,2.8751,-0.1036,-0.4098,2.8371,-0.10389,-0.47426,2.8135,-0.32269,-0.31059,2.9379,-0.36758,-0.64209,2.8655,-0.37988,-0.94959,2.854,-0.40608,-0.98405,2.7851,-0.20475,-0.31542,2.8973,-0.19321,-0.65675,2.9238,-0.20909,-0.97942,2.9632,-0.23529,-1.0139,2.8943
-0.26078,-0.25137,2.9271,-0.2571,-0.18752,2.9391,-0.26506,0.13479,2.9305,-0.27163,0.30098,2.9195,-0.39652,0.032361,2.9877,-0.42135,-0.21408,3.0183,-0.4719,-0.37917,2.9313,-0.49656,-0.38705,2.8784,-0.13987,0.015648,2.892,-0.10044,-0.22649,2.8951,-0.10304,-0.41338,2.8584,-0.1026,-0.46757,2.8311,-0.32018,-0.31076,2.9446,-0.36607,-0.64516,2.8744,-0.37108,-0.95207,2.9072,-0.39289,-1.0284,2.8757,-0.20115,-0.31536,2.9055,-0.19347,-0.6556,2.9264,-0.20278,-0.97342,2.9669,-0.19048,-1.0246,2.9496
-0.25881,-0.25008,2.9342,-0.25472,-0.18643,2.9473,-0.26267,0.13622,2.9437,-0.27071,0.3002,2.9229,-0.39406,0.034086,3.0024,-0.4205,-0.21376,3.0217,-0.46755,-0.3821,2.9372,-0.48799,-0.42668,2.9106,-0.13571,0.015141,2.9004,-0.09903,-0.22068,2.9012,-0.099517,-0.40916,2.8729,-0.092635,-0.46924,2.8579,-0.31857,-0.31023,2.9512,-0.3609,-0.64428,2.892,-0.36254,-0.9633,2.9279,-0.397,-1.0211,2.9017,-0.19907,-0.31429,2.9111,-0.19227,-0.65735,2.9313,-0.20071,-0.96864,2.9665,-0.22662,-1.0027,2.8972
-0.25929,-0.25096,2.9429,-0.25572,-0.18719,2.9558,-0.26309,0.13605,2.9498,-0.27175,0.30061,2.9373,-0.39398,0.032887,3.0042,-0.41568,-0.19661,3.0416,-0.46428,-0.36578,2.9595,-0.48054,-0.39587,2.9342,-0.13522,0.016827,2.9133,-0.096302,-0.20218,2.9147,-0.10132,-0.40627,2.8768,-0.09559,-0.46624,2.8575,-0.31944,-0.31099,2.957,-0.35651,-0.64272,2.9094,-0.34328,-0.95355,2.9678,-0.37876,-1.0108,2.9264,-0.19857,-0.31416,2.9243,-0.19038,-0.65315,2.9351,-0.20526,-0.96444,2.9644,-0.22866,-0.99859,2.8943
-0.26128,-0.25008,2.9519,-0.25756,-0.18614,2.9649,-0.26353,0.13752,2.9578,-0.27292,0.30055,2.9429,-0.39481,0.034062,3.0065,-0.4206,-0.21059,3.0433,-0.46583,-0.38144,2.9622,-0.48284,-0.44077,2.9391,-0.13457,0.018463,2.9224,-0.098286,-0.20481,2.9246,-0.09064,-0.41124,2.9095,-0.085598,-0.46656,2.8962,-0.3219,-0.30982,2.9665,-0.35698,-0.64,2.9257,-0.34473,-0.95611,3.0014,-0.37439,-1.0132,2.9725,-0.20102,-0.31323,2.9329,-0.19277,-0.65281,2.9389,-0.20578,-0.96475,2.9661,-0.23725,-1.0134,2.9578
-0.26308,-0.25146,2.9571,-0.25968,-0.18733,2.9704,-0.26524,0.13734,2.9625,-0.26827,0.30265,2.9558,-0.39569,0.033976,3.0109,-0.42246,-0.20375,3.0475,-0.46369,-0.37751,2.9713,-0.48252,-0.41521,2.9422,-0.13453,0.017069,2.9334,-0.098363,-0.20486,2.9319,-0.096506,-0.4083,2.8965,-0.097204,-0.46056,2.8705,-0.32352,-0.31097,2.9707,-0.35918,-0.64251,2.9517,-0.3392,-0.95812,3.0187,-0.36943,-1.013,3.0023,-0.20296,-0.315,2.9391,-0.19455,-0.65379,2.9436,-0.20659,-0.96364,2.9665,-0.22658,-0.99774,2.8953
-0.26569,-0.24998,2.9652,-0.26206,-0.18589,2.979,-0.26867,0.13921,2.9724,-0.27348,0.30787,2.9665,-0.39966,0.033658,3.0212,-0.42732,-0.2122,3.059,-0.459,-0.38973,2.9928,-0.48074,-0.43353,2.9691,-0.13814,0.021103,2.94,-0.10071,-0.20883,2.9398,-0.092609,-0.40624,2.9084,-0.092851,-0.46554,2.8809,-0.32642,-0.31032,2.9796,-0.35981,-0.63832,2.9606,-0.3406,-0.95557,3.0304,-0.37365,-1.0123,3.0087,-0.20505,-0.3134,2.9453,-0.19636,-0.65376,2.9458,-0.20943,-0.96089,2.9679,-0.19643,-1.0171,2.9503
-0.26883,-0.24671,2.9738,-0.265,-0.18302,2.987,-0.27319,0.13984,2.9788,-0.27865,0.30883,2.9733,-0.41285,0.0325,3.0424,-0.42966,-0.21982,3.0647,-0.46649,-0.40367,3.025,-0.46391,-0.44873,3.0126,-0.14162,0.028282,2.9506,-0.10308,-0.20968,2.9463,-0.094962,-0.4041,2.9133,-0.092617,-0.46609,2.8862,-0.33,-0.3093,2.9882,-0.35992,-0.63562,2.9782,-0.34251,-0.94256,3.0672,-0.37094,-1.0036,3.0352,-0.20701,-0.31071,2.9539,-0.19905,-0.65409,2.9485,-0.20783,-0.95987,2.9681,-0.19589,-1.0166,2.95
-0.27278,-0.24785,2.9799,-0.27013,-0.18421,2.994,-0.28142,0.13907,2.9882,-0.28437,0.30877,2.9784,-0.41406,0.031811,3.0437,-0.43216,-0.21096,3.0899,-0.47314,-0.39779,3.0251,-0.50503,-0.41112,2.9799,-0.14467,0.030012,2.9635,-0.10432,-0.20976,2.9527,-0.095849,-0.40369,2.9161,-0.092642,-0.46378,2.8893,-0.333,-0.31053,2.993,-0.36341,-0.63467,2.9912,-0.34379,-0.94393,3.0718,-0.3641,-0.97797,3.0008,-0.21153,-0.31052,2.9612,-0.20063,-0.65391,2.9519,-0.20762,-0.96032,2.9683,-0.19509,-1.0172,2.9495
-0.2791,-0.24825,2.9889,-0.27639,-0.18471,3.0024,-0.28667,0.13748,2.9943,-0.29057,0.30563,2.986,-0.41879,0.033098,3.0508,-0.4357,-0.20891,3.0945,-0.48064,-0.39661,3.0393,-0.50164,-0.45418,3.0349,-0.14843,0.029304,2.9709,-0.11073,-0.21268,2.9575,-0.10025,-0.40442,2.9156,-0.10251,-0.45572,2.8957,-0.33902,-0.31159,3.0037,-0.36775,-0.63853,3.0048,-0.34629,-0.94018,3.0852,-0.37262,-0.99961,3.0542,-0.21807,-0.31082,2.9691,-0.20318,-0.65445,2.9542,-0.20712,-0.96001,2.9687,-0.19395,-1.0167,2.9502
