-0.30691,0.017111,2.6611,-0.29804,0.083435,2.6894,-0.32345,0.4279,2.6877,-0.32489,0.60518,2.6373,-0.46769,0.31108,2.7746,-0.45779,0.049135,2.7752,-0.50473,-0.17353,2.7451,-0.51616,-0.26987,2.7414,-0.16192,0.31866,2.6348,-0.11026,0.049245,2.6186,-0.11211,-0.1938,2.5164,-0.10832,-0.27281,2.5005,-0.37371,-0.060213,2.684,-0.37485,-0.54038,2.6706,-0.35584,-0.92928,2.6942,-0.38389,-0.98574,2.6505,-0.23706,-0.056374,2.6243,-0.17406,-0.54934,2.6484,-0.15245,-0.9384,2.6919,-0.17402,-0.99255,2.6402
-0.31128,0.017215,2.6601,-0.30405,0.083757,2.6887,-0.33094,0.42989,2.6875,-0.32676,0.60512,2.6344,-0.47383,0.31805,2.7645,-0.49691,0.031675,2.7788,-0.51998,-0.21256,2.7273,-0.52634,-0.29445,2.7272,-0.16425,0.3163,2.6361,-0.11768,0.04721,2.6262,-0.1128,-0.19356,2.536,-0.10741,-0.27779,2.5128,-0.37823,-0.059525,2.6814,-0.37703,-0.56093,2.6808,-0.35798,-0.92578,2.6948,-0.38423,-0.98185,2.6499,-0.2402,-0.056177,2.6244,-0.1776,-0.55117,2.6471,-0.15365,-0.93939,2.6928,-0.17577,-0.99344,2.6414
-0.31561,0.015838,2.6586,-0.3101,0.082969,2.687,-0.34028,0.43146,2.6847,-0.32861,0.60273,2.6311,-0.48057,0.31847,2.7556,-0.50272,0.032283,2.7739,-0.52545,-0.20167,2.7228,-0.53617,-0.28939,2.7161,-0.16789,0.31503,2.6366,-0.12074,0.046484,2.6306,-0.11263,-0.19236,2.5492,-0.09737,-0.28024,2.5377,-0.38221,-0.061578,2.6788,-0.37905,-0.56377,2.6857,-0.36079,-0.9259,2.6978,-0.38493,-0.98285,2.6508,-0.24311,-0.056667,2.6243,-0.18034,-0.55277,2.6462,-0.15581,-0.94221,2.6922,-0.177,-0.99595,2.639
-0.31864,0.016275,2.6561,-0.31383,0.083258,2.685,-0.34451,0.4324,2.6859,-0.33142,0.60631,2.6285,-0.48693,0.31728,2.7452,-0.51225,0.033339,2.7643,-0.53192,-0.19441,2.7076,-0.54185,-0.2844,2.6974,-0.17762,0.32049,2.6348,-0.12362,0.054925,2.6348,-0.10508,-0.19708,2.5627,-0.093684,-0.28279,2.548,-0.38551,-0.060966,2.6737,-0.38142,-0.5585,2.6897,-0.36325,-0.92524,2.6989,-0.39016,-0.96215,2.6203,-0.24578,-0.055161,2.6229,-0.18206,-0.55354,2.6461,-0.15852,-0.94219,2.6904,-0.17714,-0.99628,2.6338
-0.32012,0.016691,2.6533,-0.31651,0.08433,2.6819,-0.35011,0.43658,2.681,-0.3349,0.61117,2.6231,-0.48842,0.31788,2.7405,-0.51571,0.032602,2.7593,-0.53774,-0.18908,2.6991,-0.55303,-0.27884,2.6844,-0.17765,0.32062,2.6356,-0.12274,0.054884,2.6391,-0.10239,-0.19919,2.5708,-0.085165,-0.28416,2.5623,-0.38649,-0.060273,2.6694,-0.38285,-0.55837,2.6916,-0.36443,-0.9231,2.7016,-0.38304,-0.97814,2.6497,-0.24651,-0.05446,2.6218,-0.18251,-0.55476,2.6467,-0.15945,-0.94312,2.6915,-0.17283,-0.99696,2.6331
-0.32209,0.016102,2.6495,-0.31967,0.084136,2.6779,-0.35375,0.43709,2.6767,-0.33638,0.61328,2.6209,-0.49102,0.31784,2.7321,-0.52008,0.032975,2.754,-0.54282,-0.19406,2.6884,-0.55701,-0.28113,2.6779,-0.17803,0.32051,2.6353,-0.12272,0.054473,2.6394,-0.10049,-0.20048,2.574,-0.078842,-0.28739,2.5678,-0.38759,-0.060436,2.6652,-0.38369,-0.55835,2.6911,-0.36638,-0.91972,2.7016,-0.38263,-0.97523,2.6483,-0.24819,-0.054683,2.6194,-0.18223,-0.55545,2.6469,-0.15915,-0.94225,2.6955,-0.16416,-0.99756,2.6449
-0.32224,0.015554,2.6441,-0.32108,0.083681,2.6724,-0.35672,0.43671,2.6722,-0.33652,0.6136,2.6202,-0.49204,0.31677,2.7233,-0.52109,0.032436,2.7493,-0.54455,-0.18849,2.6728,-0.56095,-0.27381,2.6512,-0.1786,0.32005,2.6338,-0.12096,0.05424,2.6402,-0.094977,-0.20284,2.5751,-0.068032,-0.29495,2.5752,-0.38681,-0.06109,2.6559,-0.38709,-0.55594,2.6865,-0.36767,-0.91957,2.7018,-0.3826,-0.976,2.6481,-0.24787,-0.054786,2.6166,-0.18161,-0.55698,2.6478,-0.15818,-0.93991,2.7028,-0.14231,-1.0164,2.6814
-0.32224,0.014784,2.6383,-0.32171,0.082809,2.6673,-0.35633,0.43646,2.6697,-0.33629,0.61383,2.6176,-0.49063,0.31319,2.7148,-0.52407,0.048399,2.7387,-0.54341,-0.17515,2.673,-0.56033,-0.26394,2.6541,-0.1764,0.31784,2.6329,-0.11511,0.053156,2.6396,-0.082693,-0.20782,2.5725,-0.065003,-0.28533,2.5674,-0.38741,-0.061293,2.6465,-0.38862,-0.549,2.6719,-0.36985,-0.91925,2.6991,-0.38394,-0.97507,2.6467,-0.24746,-0.055992,2.6131,-0.17829,-0.56132,2.649,-0.15585,-0.93957,2.71,-0.15047,-0.99822,2.6591
-0.32245,0.014356,2.6324,-0.32216,0.082407,2.662,-0.35527,0.43696,2.6649,-0.33604,0.61465,2.615,-0.48931,0.3134,2.709,-0.51968,0.029768,2.7312,-0.54554,-0.2016,2.6679,-0.56524,-0.28708,2.6493,-0.17447,0.31745,2.6313,-0.10885,0.050344,2.6336,-0.068282,-0.20174,2.56,-0.061333,-0.27654,2.5492,-0.3878,-0.061086,2.6418,-0.38862,-0.56203,2.6539,-0.36796,-0.9351,2.697,-0.38129,-0.99051,2.6461,-0.24733,-0.056816,2.6069,-0.17557,-0.56227,2.6517,-0.15107,-0.93704,2.7231,-0.14639,-0.99536,2.6643
-0.32023,0.014054,2.6269,-0.31952,0.082323,2.6555,-0.34885,0.43588,2.6535,-0.33304,0.61322,2.6075,-0.48683,0.31315,2.7,-0.51668,0.028853,2.7254,-0.54675,-0.20662,2.6684,-0.56514,-0.29088,2.6499,-0.16717,0.31689,2.6224,-0.09675,0.050377,2.6188,-0.058818,-0.20086,2.5335,-0.053406,-0.27518,2.5139,-0.38645,-0.061053,2.6374,-0.38557,-0.56511,2.6285,-0.36917,-0.93799,2.6928,-0.38213,-0.99372,2.6449,-0.24498,-0.058168,2.6017,-0.17231,-0.5607,2.6538,-0.14745,-0.93361,2.7259,-0.13927,-0.99183,2.6722
-0.31805,0.015459,2.6205,-0.31667,0.083079,2.6489,-0.34324,0.43221,2.6454,-0.33087,0.61188,2.604,-0.4847,0.3122,2.6947,-0.51544,0.028445,2.7232,-0.54443,-0.20834,2.6706,-0.55869,-0.29347,2.6594,-0.15885,0.3156,2.6126,-0.090167,0.048457,2.6107,-0.053019,-0.19758,2.5108,-0.046252,-0.28579,2.4719,-0.38566,-0.060474,2.631,-0.37862,-0.55821,2.5818,-0.37369,-0.94099,2.686,-0.37756,-1.0173,2.6754,-0.24221,-0.057946,2.5958,-0.16566,-0.55972,2.6558,-0.14012,-0.93171,2.7291,-0.13835,-0.98802,2.6768
-0.31387,0.012808,2.6141,-0.31194,0.080371,2.6416,-0.33629,0.42854,2.6356,-0.32741,0.61008,2.5986,-0.47832,0.30793,2.6848,-0.51049,0.031354,2.7212,-0.53451,-0.21147,2.6814,-0.54711,-0.29627,2.6763,-0.15563,0.30832,2.603,-0.076948,0.040732,2.5906,-0.044445,-0.18942,2.4744,-0.038692,-0.27635,2.4434,-0.38325,-0.062549,2.6254,-0.37792,-0.56602,2.5366,-0.38437,-0.93829,2.6749,-0.3901,-0.99561,2.6322,-0.2371,-0.061798,2.59,-0.15827,-0.55682,2.6524,-0.13605,-0.93461,2.7299,-0.094412,-1.0083,2.7398
-0.30888,0.010078,2.6088,-0.30674,0.077641,2.6348,-0.32852,0.4235,2.6249,-0.32253,0.60343,2.5899,-0.47365,0.30235,2.6768,-0.50597,0.039875,2.725,-0.52496,-0.22826,2.6917,-0.53703,-0.3078,2.691,-0.14885,0.3036,2.5947,-0.076289,0.040962,2.5755,-0.04384,-0.18934,2.4335,-0.03777,-0.27717,2.3939,-0.37984,-0.064806,2.6221,-0.37579,-0.54765,2.4926,-0.39663,-0.93616,2.6628,-0.40233,-0.99348,2.6171,-0.23102,-0.065695,2.584,-0.14558,-0.56026,2.6441,-0.13314,-0.93749,2.7309,-0.13294,-0.9919,2.6811
-0.30512,0.010917,2.6024,-0.30315,0.077945,2.6269,-0.32351,0.41824,2.6137,-0.31689,0.59725,2.5754,-0.46639,0.30485,2.6654,-0.47427,0.038605,2.6958,-0.51327,-0.22164,2.6987,-0.52706,-0.30782,2.7036,-0.14313,0.29979,2.5859,-0.070027,0.037666,2.5445,-0.044079,-0.18899,2.3885,-0.039524,-0.26622,2.3612,-0.37662,-0.064294,2.6168,-0.38883,-0.53643,2.4476,-0.42155,-0.92964,2.6032,-0.42604,-0.98712,2.5587,-0.22757,-0.065188,2.5785,-0.12695,-0.57415,2.646,-0.13034,-0.9432,2.7335,-0.13016,-0.99821,2.6853
-0.29522,0.0085824,2.5864,-0.29401,0.075153,2.6085,-0.3142,0.41323,2.5927,-0.30986,0.5938,2.5606,-0.46033,0.29624,2.6463,-0.46388,0.037277,2.6928,-0.46741,-0.20589,2.705,-0.49764,-0.29736,2.7129,-0.14116,0.2984,2.574,-0.072917,0.040362,2.5228,-0.046519,-0.18084,2.3564,-0.049278,-0.25103,2.306,-0.3671,-0.066537,2.5988,-0.39288,-0.52561,2.4187,-0.44145,-0.91104,2.5435,-0.43784,-0.97731,2.4827,-0.21774,-0.064807,2.5664,-0.12412,-0.53259,2.6282,-0.12952,-0.93195,2.7289,-0.14683,-0.97,2.6482
-0.29405,0.0078184,2.577,-0.29354,0.074736,2.5978,-0.315,0.41427,2.5832,-0.30749,0.59398,2.547,-0.45928,0.29475,2.6299,-0.45725,0.037394,2.6886,-0.463,-0.20401,2.7072,-0.47447,-0.2992,2.7234,-0.13943,0.29657,2.5585,-0.077862,0.040012,2.497,-0.061569,-0.15194,2.3204,-0.060098,-0.22568,2.2763,-0.36562,-0.067786,2.5893,-0.40851,-0.52223,2.3774,-0.45753,-0.91603,2.4762,-0.46352,-0.96947,2.4175,-0.21598,-0.065469,2.5574,-0.12486,-0.51975,2.6188,-0.1286,-0.92277,2.7233,-0.14569,-0.96083,2.6425
-0.2916,0.0094137,2.5595,-0.292,0.076034,2.5784,-0.31365,0.41235,2.5624,-0.30649,0.59444,2.5345,-0.45767,0.29146,2.6034,-0.45154,0.039662,2.6786,-0.45214,-0.20303,2.7096,-0.45984,-0.2869,2.7248,-0.13834,0.29482,2.5397,-0.084796,0.043034,2.4734,-0.077459,-0.14561,2.2832,-0.078007,-0.21152,2.2279,-0.36336,-0.065833,2.5715,-0.4144,-0.50606,2.3593,-0.4816,-0.88368,2.378,-0.49688,-0.92191,2.2969,-0.21315,-0.065026,2.5416,-0.12564,-0.52046,2.6108,-0.12599,-0.92688,2.7137,-0.14127,-0.96511,2.6326
-0.29221,0.007266,2.5396,-0.29348,0.073818,2.5578,-0.31835,0.41034,2.5458,-0.30756,0.59073,2.5129,-0.45716,0.28725,2.5863,-0.44997,0.036443,2.6632,-0.44858,-0.20309,2.7092,-0.45592,-0.28648,2.7262,-0.13829,0.29173,2.5221,-0.091699,0.047371,2.4474,-0.10163,-0.13151,2.2423,-0.10541,-0.1948,2.174,-0.36326,-0.066191,2.5536,-0.41955,-0.48303,2.3412,-0.49776,-0.85145,2.2909,-0.51318,-0.88948,2.2098,-0.21327,-0.067984,2.5187,-0.13302,-0.53914,2.5815,-0.11173,-0.95854,2.7543,-0.12696,-0.99595,2.6745
-0.29763,0.0084569,2.5191,-0.29948,0.074407,2.5345,-0.32407,0.40639,2.5188,-0.3128,0.58818,2.494,-0.45879,0.28454,2.5603,-0.44994,0.034245,2.6441,-0.4442,-0.204,2.7062,-0.45329,-0.28627,2.7268,-0.13824,0.28948,2.4996,-0.10507,0.05224,2.4088,-0.12208,-0.12412,2.2046,-0.13722,-0.18138,2.1318,-0.37135,-0.063097,2.5311,-0.42583,-0.48321,2.3333,-0.50845,-0.82385,2.2241,-0.5231,-0.86239,2.1432,-0.216,-0.06921,2.5017,-0.14533,-0.52633,2.5523,-0.11738,-0.9502,2.7377,-0.12794,-0.98864,2.6576
-0.30237,-0.0063682,2.495,-0.30541,0.060285,2.5107,-0.33087,0.39683,2.5023,-0.31577,0.57838,2.472,-0.46343,0.27481,2.527,-0.50128,0.056795,2.6256,-0.44436,-0.2034,2.6983,-0.45235,-0.28601,2.7248,-0.14462,0.27689,2.477,-0.11287,0.051167,2.3937,-0.15224,-0.11557,2.1491,-0.1728,-0.18668,2.0565,-0.37624,-0.077153,2.5055,-0.43401,-0.47843,2.3227,-0.52239,-0.79056,2.1765,-0.53439,-0.82844,2.0947,-0.2191,-0.082033,2.4792,-0.14867,-0.55158,2.5359,-0.11819,-0.94437,2.728,-0.12925,-0.98235,2.6478
-0.30785,-0.022414,2.4678,-0.31058,0.044899,2.4828,-0.33833,0.38504,2.4773,-0.32058,0.56475,2.4475,-0.4685,0.2645,2.505,-0.46195,0.019148,2.5926,-0.45465,-0.21102,2.6758,-0.45528,-0.28873,2.7117,-0.1562,0.25032,2.4407,-0.13205,0.045247,2.3484,-0.16596,-0.07309,2.1523,-0.21058,-0.16572,2.0105,-0.3794,-0.091938,2.4786,-0.44847,-0.47759,2.3009,-0.54457,-0.76215,2.1118,-0.5612,-0.80003,2.0292,-0.22683,-0.096851,2.4503,-0.15156,-0.54839,2.5131,-0.11995,-0.93709,2.7163,-0.13457,-0.97498,2.6366
-0.31762,-0.030798,2.4342,-0.32005,0.035868,2.451,-0.34263,0.37559,2.4516,-0.33013,0.55401,2.4316,-0.48034,0.25254,2.469,-0.47037,0.014127,2.5683,-0.46753,-0.20828,2.653,-0.48125,-0.28669,2.6706,-0.16612,0.2441,2.4203,-0.15681,0.04675,2.3015,-0.19992,-0.070213,2.0974,-0.25065,-0.14076,1.9639,-0.38777,-0.10106,2.4379,-0.46756,-0.47011,2.2632,-0.55624,-0.75331,2.0755,-0.56923,-0.79016,1.9917,-0.23999,-0.10505,2.42,-0.16057,-0.53463,2.4824,-0.12049,-0.93568,2.7127,-0.13102,-0.97296,2.6321
-0.33206,-0.045348,2.393,-0.33461,0.021857,2.4147,-0.35726,0.36787,2.4281,-0.33985,0.54924,2.4132,-0.49358,0.24368,2.4362,-0.48444,0.0015287,2.5335,-0.4924,-0.21684,2.6206,-0.48942,-0.29125,2.6613,-0.17561,0.23362,2.39,-0.17224,0.03997,2.2755,-0.23323,-0.07813,2.0531,-0.29669,-0.11822,1.9206,-0.40039,-0.11165,2.3963,-0.47949,-0.48152,2.2134,-0.56326,-0.7557,2.0412,-0.57657,-0.79163,1.9571,-0.25438,-0.12371,2.3764,-0.16254,-0.52853,2.4619,-0.14498,-0.89441,2.6696,-0.15593,-0.9303,2.5868
-0.3504,-0.0468,2.354,-0.35226,0.019752,2.3776,-0.37527,0.36586,2.3929,-0.35459,0.54947,2.3919,-0.51293,0.23957,2.4118,-0.50806,-0.0073571,2.5057,-0.52506,-0.22013,2.5825,-0.53191,-0.29797,2.6213,-0.19498,0.22886,2.3584,-0.21106,0.032532,2.2232,-0.26829,-0.066,2.0238,-0.33818,-0.10493,1.8789,-0.42051,-0.11495,2.3544,-0.49241,-0.47631,2.1661,-0.60095,-0.88768,1.9974,-0.61818,-0.93434,1.9104,-0.27385,-0.12382,2.334,-0.18643,-0.52587,2.4125,-0.14665,-0.88034,2.6429,-0.1594,-0.91601,2.5603
-0.37216,-0.042573,2.3108,-0.37133,0.021645,2.3408,-0.38618,0.36739,2.3733,-0.37325,0.55419,2.3706,-0.5275,0.24426,2.3847,-0.53799,-0.0045785,2.4651,-0.56194,-0.22111,2.5354,-0.57163,-0.3091,2.5778,-0.21434,0.23324,2.3233,-0.25401,0.024509,2.1692,-0.32857,-0.065279,1.9428,-0.37625,-0.099308,1.8462,-0.44172,-0.10964,2.3098,-0.52305,-0.47593,2.1137,-0.59689,-0.90703,1.9847,-0.61188,-0.95529,1.9053,-0.29783,-0.11818,2.2882,-0.21248,-0.51884,2.3643,-0.15188,-0.86251,2.6052,-0.16664,-0.89689,2.5224
-0.40022,-0.036625,2.2744,-0.3952,0.026651,2.3103,-0.40792,0.37446,2.3549,-0.38978,0.5598,2.35,-0.54628,0.2515,2.3713,-0.56593,-0.0021528,2.4369,-0.60786,-0.22398,2.4848,-0.62055,-0.31295,2.5243,-0.24778,0.24103,2.2851,-0.26437,0.025596,2.1535,-0.34315,-0.071952,1.91,-0.3873,-0.10591,1.8328,-0.46971,-0.10126,2.2718,-0.54569,-0.46789,2.0807,-0.60574,-0.90643,1.9565,-0.6255,-0.95477,1.8795,-0.32919,-0.11105,2.245,-0.24803,-0.50443,2.2982,-0.15861,-0.82497,2.5576,-0.18047,-0.85897,2.4763
-0.42851,-0.034728,2.2366,-0.41968,0.027319,2.2771,-0.42314,0.37919,2.3402,-0.40904,0.563,2.3306,-0.55943,0.25083,2.3564,-0.59304,0.0095332,2.4082,-0.655,-0.22869,2.4385,-0.66413,-0.32185,2.4681,-0.26613,0.23665,2.2498,-0.273,0.039029,2.1279,-0.35373,-0.077085,1.8987,-0.40765,-0.13877,1.7963,-0.49747,-0.099785,2.2383,-0.56741,-0.45879,2.0474,-0.60362,-0.91947,1.9704,-0.62199,-0.96389,1.9033,-0.3599,-0.10746,2.1993,-0.27243,-0.54481,2.2464,-0.16041,-0.83134,2.5308,-0.14619,-0.91378,2.4889
-0.45933,-0.032088,2.2056,-0.44521,0.028195,2.2489,-0.43652,0.38233,2.3253,-0.42871,0.56515,2.304,-0.57569,0.25364,2.3538,-0.62286,0.015527,2.3801,-0.70385,-0.23345,2.3846,-0.72231,-0.32494,2.396,-0.28797,0.23409,2.2198,-0.28116,0.035332,2.1087,-0.35896,-0.087584,1.8895,-0.41339,-0.1583,1.7816,-0.53017,-0.09817,2.2101,-0.58218,-0.46034,2.0406,-0.61708,-0.93131,1.9725,-0.64782,-0.97604,1.9082,-0.39707,-0.10285,2.1573,-0.36484,-0.53136,2.1702,-0.13325,-0.8772,2.5368,-0.16297,-0.90992,2.459
-0.47908,-0.026555,2.1796,-0.46008,0.032009,2.2268,-0.44606,0.38704,2.3127,-0.44025,0.57221,2.2911,-0.58716,0.257,2.352,-0.63608,0.023682,2.36,-0.7503,-0.23512,2.3261,-0.77154,-0.32219,2.3218,-0.30355,0.23993,2.201,-0.30796,0.046829,2.0709,-0.37448,-0.12135,1.8417,-0.40604,-0.18524,1.7761,-0.55111,-0.092483,2.1826,-0.60278,-0.46191,2.0308,-0.61034,-0.93315,1.9793,-0.64159,-0.97784,1.9138,-0.42078,-0.095891,2.1275,-0.40166,-0.53505,2.0962,-0.17768,-0.83774,2.4532,-0.21178,-0.87088,2.3775
-0.49265,-0.01433,2.161,-0.47124,0.038408,2.2072,-0.46209,0.35923,2.28,-0.45615,0.56668,2.274,-0.60017,0.26045,2.3503,-0.65591,0.029905,2.3312,-0.7898,-0.20728,2.2981,-0.82132,-0.28932,2.2806,-0.32172,0.24819,2.1809,-0.31334,0.04348,2.0558,-0.36786,-0.13014,1.8405,-0.39475,-0.20305,1.7776,-0.56008,-0.090173,2.1719,-0.61665,-0.49324,2.0398,-0.62978,-0.93264,1.9918,-0.66885,-0.97602,1.9204,-0.44277,-0.079568,2.0906,-0.46606,-0.48399,2.0156,-0.25394,-0.76537,2.3215,-0.29285,-0.7985,2.2482
-0.51736,-0.0068775,2.1381,-0.4912,0.041755,2.185,-0.46739,0.36181,2.2721,-0.46788,0.57002,2.2617,-0.61188,0.25704,2.3441,-0.70079,0.04132,2.3341,-0.83042,-0.20595,2.2404,-0.87328,-0.30388,2.209,-0.34257,0.25373,2.1621,-0.31933,0.037081,2.0412,-0.35544,-0.14421,1.8439,-0.37445,-0.22315,1.7916,-0.58473,-0.087231,2.1546,-0.58041,-0.48339,1.9842,-0.68903,-0.92223,2.0165,-0.73156,-0.95641,1.9456,-0.47132,-0.071956,2.0671,-0.49452,-0.47473,1.9436,-0.31731,-0.77227,2.1847,-0.36193,-0.8079,2.1139
-0.52528,-0.0015417,2.1295,-0.49786,0.046431,2.1761,-0.47569,0.36551,2.2577,-0.48329,0.57393,2.2458,-0.62156,0.25922,2.3432,-0.72649,0.014679,2.2998,-0.86275,-0.18971,2.1829,-0.91124,-0.26477,2.1478,-0.35099,0.25631,2.1486,-0.32027,0.032663,2.0344,-0.33884,-0.18043,1.8458,-0.35239,-0.2566,1.8083,-0.59427,-0.086264,2.147,-0.58364,-0.47121,1.9268,-0.67009,-0.93114,2.0128,-0.71429,-0.96513,1.9429,-0.47961,-0.067332,2.0549,-0.5486,-0.47128,1.8809,-0.36491,-0.79209,2.0871,-0.4117,-0.82749,2.0177
-0.52315,0.006528,2.1092,-0.49615,0.054167,2.1576,-0.48276,0.37485,2.2437,-0.49507,0.58219,2.2363,-0.62713,0.26176,2.3372,-0.73268,0.034572,2.2821,-0.86884,-0.16834,2.1244,-0.93028,-0.21702,2.1038,-0.36347,0.25943,2.1332,-0.32186,0.030277,2.0303,-0.3233,-0.19352,1.8588,-0.32953,-0.26975,1.8299,-0.59029,-0.079244,2.1241,-0.60604,-0.48771,1.9965,-0.66864,-0.93674,1.9235,-0.71527,-0.97088,1.8553,-0.47238,-0.057587,2.0333,-0.59733,-0.44033,1.838,-0.41794,-0.78266,1.963,-0.46717,-0.81804,1.8953
-0.5224,0.016391,2.0976,-0.49515,0.067173,2.1465,-0.49408,0.40307,2.236,-0.5114,0.58388,2.2251,-0.63348,0.26401,2.3305,-0.75635,0.033601,2.2465,-0.90848,-0.14599,2.0928,-0.95825,-0.2009,2.0449,-0.37457,0.26202,2.1221,-0.32034,0.010071,2.0146,-0.30729,-0.19677,1.8753,-0.30187,-0.28603,1.8581,-0.58913,-0.073929,2.1159,-0.61933,-0.47439,1.9829,-0.66273,-0.9199,1.9687,-0.71309,-0.96457,1.9045,-0.46976,-0.047935,2.0168,-0.64394,-0.39982,1.7933,-0.51172,-0.71241,1.8234,-0.56242,-0.74751,1.7566
-0.52761,0.019449,2.0906,-0.50031,0.069739,2.1401,-0.50125,0.40268,2.2288,-0.5224,0.58442,2.2146,-0.58882,0.27705,2.3017,-0.75788,0.039058,2.2339,-0.91416,-0.11384,2.0561,-0.96819,-0.17417,1.9958,-0.38556,0.26379,2.1112,-0.31944,0.0095484,2.0145,-0.27752,-0.21671,1.9007,-0.26517,-0.30625,1.8902,-0.59407,-0.071289,2.1094,-0.65434,-0.46418,1.9778,-0.56618,-0.88981,1.9944,-0.60671,-0.91824,1.9356,-0.47354,-0.044216,2.0106,-0.67327,-0.36191,1.7701,-0.58872,-0.74777,1.705,-0.63783,-0.78141,1.6383
-0.53453,0.024503,2.08,-0.50645,0.073501,2.1307,-0.5062,0.40375,2.2214,-0.52922,0.58683,2.2076,-0.59573,0.27565,2.2927,-0.75388,0.054098,2.2232,-0.9129,-0.092122,2.0341,-0.96916,-0.15018,1.9609,-0.39066,0.26829,2.1026,-0.31822,0.0092505,2.0146,-0.26307,-0.21715,1.9172,-0.23882,-0.30791,1.9185,-0.60029,-0.069706,2.0977,-0.62901,-0.53737,1.9761,-0.58191,-0.93468,1.9539,-0.63098,-0.96856,1.8872,-0.48204,-0.036319,1.9988,-0.68517,-0.3141,1.7557,-0.63157,-0.72948,1.6408,-0.68065,-0.76336,1.5742
-0.51787,0.031326,2.0745,-0.49709,0.079685,2.1253,-0.51481,0.40378,2.2129,-0.53761,0.58736,2.2,-0.60378,0.27414,2.2847,-0.7601,0.062238,2.2056,-0.91749,-0.075082,1.9987,-0.97409,-0.1407,1.9276,-0.40558,0.26892,2.0931,-0.31357,0.0087151,2.0155,-0.25052,-0.19899,1.9435,-0.23166,-0.29361,1.9348,-0.57071,-0.065084,2.0947,-0.63778,-0.45979,1.973,-0.63924,-0.8973,1.9396,-0.67348,-0.93821,1.8855,-0.46106,-0.028474,1.9929,-0.68827,-0.31041,1.7509,-0.73016,-0.67631,1.5491,-0.77988,-0.70991,1.4828
-0.54988,0.041273,2.0668,-0.52071,0.086774,2.1177,-0.5215,0.40477,2.2055,-0.5485,0.58824,2.1936,-0.6107,0.27225,2.2778,-0.75929,0.063879,2.1969,-0.91628,-0.070956,1.9935,-0.96581,-0.12893,1.906,-0.40811,0.2716,2.0894,-0.30886,0.0080603,2.0169,-0.23159,-0.22182,1.9567,-0.21292,-0.28916,1.9627,-0.61593,-0.051676,2.0896,-0.63371,-0.45658,1.9689,-0.65313,-0.88722,1.9376,-0.70251,-0.93405,1.878,-0.49472,-0.021923,1.9811,-0.68197,-0.29707,1.7489,-0.74146,-0.5184,1.4974,-0.79585,-0.55481,1.4322
-0.55541,0.041065,2.0628,-0.5257,0.087143,2.1133,-0.53071,0.40416,2.1963,-0.55701,0.58604,2.1892,-0.6168,0.27112,2.2738,-0.75864,0.065599,2.1937,-0.91104,-0.06547,1.9932,-0.96206,-0.12491,1.8994,-0.42094,0.27313,2.0817,-0.30744,0.013486,2.0186,-0.22166,-0.22264,1.9641,-0.20471,-0.29139,1.9725,-0.62089,-0.05162,2.086,-0.63559,-0.45153,1.9615,-0.65023,-0.88611,1.9483,-0.69814,-0.93133,1.8845,-0.50061,-0.022096,1.9778,-0.66885,-0.30529,1.7412,-0.76723,-0.49737,1.4732,-0.82453,-0.53372,1.4104
-0.55752,0.040924,2.0595,-0.52748,0.087133,2.11,-0.53647,0.40282,2.1918,-0.56506,0.58327,2.1848,-0.62144,0.26847,2.2707,-0.76486,0.060647,2.1816,-0.91131,-0.06827,1.9805,-0.95951,-0.1273,1.8882,-0.42818,0.27332,2.0753,-0.30329,0.018036,2.021,-0.21254,-0.2234,1.9716,-0.19542,-0.2921,1.9789,-0.62202,-0.052054,2.0834,-0.63838,-0.45007,1.9579,-0.64636,-0.88587,1.9468,-0.69465,-0.93086,1.8828,-0.50302,-0.021946,1.9733,-0.66454,-0.29987,1.7227,-0.7905,-0.47789,1.4539,-0.84867,-0.51418,1.392
-0.55909,0.04058,2.0583,-0.52919,0.08714,2.1088,-0.54185,0.40212,2.1868,-0.57035,0.58246,2.1819,-0.62629,0.26507,2.267,-0.76555,0.050581,2.1651,-0.91523,-0.089833,1.9562,-0.96483,-0.14131,1.8756,-0.43358,0.27007,2.0695,-0.3017,0.017907,2.0202,-0.20642,-0.21576,1.9721,-0.18532,-0.28339,1.9799,-0.62277,-0.052485,2.0831,-0.63771,-0.44821,1.9554,-0.6522,-0.88462,1.9364,-0.70125,-0.92975,1.8744,-0.50458,-0.022701,1.9717,-0.67269,-0.29027,1.7145,-0.80024,-0.46882,1.4468,-0.85867,-0.50489,1.3849
-0.56063,0.040397,2.0586,-0.53092,0.08713,2.1091,-0.54665,0.40119,2.183,-0.57681,0.58022,2.1774,-0.62734,0.26588,2.2658,-0.76275,0.050312,2.1688,-0.88856,-0.095856,1.9943,-0.94334,-0.15852,1.9053,-0.43676,0.26903,2.0669,-0.30121,0.018729,2.0193,-0.2034,-0.21084,1.9699,-0.18062,-0.27797,1.9763,-0.62333,-0.053453,2.0855,-0.6373,-0.44833,1.953,-0.65563,-0.88456,1.9283,-0.70486,-0.92969,1.8677,-0.507,-0.022839,1.9716,-0.69451,-0.27309,1.7026,-0.80454,-0.47057,1.4362,-0.86302,-0.50651,1.3743
-0.56451,0.039123,2.0603,-0.53502,0.08604,2.1108,-0.552,0.39995,2.1818,-0.58101,0.57851,2.1754,-0.6294,0.26476,2.2631,-0.75639,0.045981,2.1753,-0.88171,-0.12171,2.0073,-0.93656,-0.18946,1.9242,-0.43872,0.26853,2.0659,-0.30542,0.017369,2.0143,-0.20127,-0.20781,1.9652,-0.1761,-0.27445,1.9704,-0.626,-0.055752,2.089,-0.62489,-0.44994,1.958,-0.68365,-0.88114,1.9145,-0.73785,-0.92521,1.8496,-0.51117,-0.024182,1.9726,-0.69826,-0.27121,1.7009,-0.80282,-0.47324,1.4355,-0.86103,-0.50904,1.3733
-0.56815,0.036461,2.0618,-0.53854,0.083826,2.1122,-0.55552,0.39904,2.181,-0.58467,0.57727,2.1731,-0.6305,0.26394,2.2624,-0.7526,0.038549,2.1825,-0.86885,-0.14123,2.0305,-0.92938,-0.22358,1.9435,-0.44014,0.26835,2.0655,-0.30442,0.018773,2.0124,-0.20812,-0.18394,1.9461,-0.17718,-0.26195,1.9547,-0.62851,-0.060155,2.0923,-0.63344,-0.44981,1.9532,-0.66287,-0.88906,1.9244,-0.71328,-0.93401,1.8616,-0.51559,-0.027471,1.9737,-0.69936,-0.27187,1.6997,-0.79218,-0.48695,1.4469,-0.85037,-0.52266,1.3846
-0.56954,0.035515,2.0651,-0.53867,0.083509,2.1139,-0.55658,0.39855,2.1797,-0.58811,0.57629,2.1716,-0.6711,0.28024,2.2758,-0.74627,0.042308,2.2029,-0.86631,-0.18318,2.0513,-0.90524,-0.25769,1.9941,-0.44101,0.26844,2.0654,-0.30689,0.018612,2.008,-0.21007,-0.1872,1.9339,-0.18214,-0.26652,1.9284,-0.62797,-0.062279,2.0997,-0.63027,-0.44801,1.9337,-0.65904,-0.88815,1.9276,-0.71182,-0.93295,1.8674,-0.51908,-0.028781,1.9772,-0.70288,-0.272,1.7043,-0.79618,-0.63858,1.4545,-0.83387,-0.68106,1.3876
-0.57086,0.034624,2.0706,-0.53975,0.083122,2.1182,-0.55805,0.39836,2.1798,-0.59023,0.57664,2.172,-0.6365,0.26201,2.2692,-0.73736,0.0063845,2.2115,-0.83135,-0.20481,2.1071,-0.85995,-0.26145,2.071,-0.44122,0.26937,2.0657,-0.30774,0.020456,2.0057,-0.21588,-0.19963,1.9011,-0.1946,-0.26974,1.8945,-0.62779,-0.063376,2.1077,-0.63229,-0.46295,1.9597,-0.65742,-0.88728,1.9282,-0.7101,-0.93208,1.8674,-0.52097,-0.030767,1.9825,-0.69846,-0.27971,1.7155,-0.77224,-0.67107,1.4969,-0.81498,-0.71091,1.4328
-0.57209,0.034496,2.0766,-0.54086,0.083255,2.1235,-0.56115,0.39722,2.1808,-0.59202,0.57707,2.1728,-0.6756,0.2785,2.284,-0.73125,0.002033,2.2336,-0.7852,-0.24497,2.1319,-0.82797,-0.29961,2.1281,-0.44132,0.2698,2.0662,-0.31139,0.02127,2.0018,-0.22653,-0.19839,1.8825,-0.21547,-0.27111,1.8563,-0.62738,-0.065232,2.1179,-0.6294,-0.45207,1.9692,-0.65939,-0.88444,1.9305,-0.71308,-0.92899,1.8691,-0.52161,-0.031809,1.9858,-0.6944,-0.29169,1.7265,-0.72226,-0.69889,1.5392,-0.76701,-0.73366,1.4781
-0.5725,0.033214,2.0839,-0.54096,0.082724,2.1303,-0.564,0.39752,2.1855,-0.59378,0.57715,2.1751,-0.63728,0.25984,2.2776,-0.67059,-0.0012138,2.262,-0.77047,-0.22896,2.2031,-0.76949,-0.33766,2.1731,-0.44087,0.27037,2.068,-0.31323,0.022726,1.9969,-0.23687,-0.19519,1.8638,-0.22458,-0.2672,1.8392,-0.62729,-0.064781,2.1239,-0.62716,-0.51969,1.9723,-0.66161,-0.89767,1.8981,-0.7155,-0.93173,1.8352,-0.52153,-0.034276,1.9947,-0.67389,-0.324,1.751,-0.64855,-0.73798,1.6088,-0.70245,-0.77204,1.546
-0.57433,0.023055,2.0941,-0.54259,0.076066,2.1399,-0.56529,0.39762,2.1887,-0.59434,0.57704,2.1783,-0.67332,0.28191,2.2955,-0.65923,0.030588,2.2924,-0.71198,-0.249,2.2506,-0.72891,-0.34663,2.2376,-0.44001,0.27063,2.0721,-0.31857,0.023994,1.9929,-0.26062,-0.17599,1.8507,-0.24555,-0.25225,1.8176,-0.6278,-0.071432,2.1298,-0.62334,-0.51079,1.9796,-0.67212,-0.91009,1.9115,-0.72459,-0.94428,1.8475,-0.52531,-0.043107,2.014,-0.65455,-0.36262,1.7721,-0.59354,-0.7679,1.6718,-0.64601,-0.80209,1.6078
-0.5721,0.012051,2.1033,-0.541,0.06626,2.1499,-0.56561,0.39511,2.1963,-0.59295,0.57454,2.1863,-0.6352,0.26196,2.3006,-0.63783,0.0042761,2.3144,-0.66758,-0.22274,2.1704,-0.68111,-0.35364,2.3025,-0.43676,0.2668,2.0801,-0.32631,0.040061,2.0022,-0.2777,-0.17366,1.8372,-0.2706,-0.24734,1.7961,-0.62622,-0.077985,2.1359,-0.6256,-0.45863,1.9932,-0.60829,-0.91187,2.0328,-0.65971,-0.94605,1.968,-0.52141,-0.052643,2.0269,-0.63131,-0.39539,1.803,-0.55251,-0.79918,1.7491,-0.60393,-0.83336,1.6843
-0.56412,0.0071861,2.1084,-0.53451,0.061323,2.1565,-0.56279,0.39105,2.2058,-0.58874,0.57171,2.1958,-0.63247,0.26273,2.3079,-0.62487,0.0090377,2.34,-0.65971,-0.24294,2.2089,-0.6387,-0.35453,2.3659,-0.43111,0.26512,2.0914,-0.32864,0.040167,2.0041,-0.30039,-0.15971,1.8236,-0.29029,-0.24425,1.7797,-0.61584,-0.083665,2.1407,-0.61433,-0.51819,1.986,-0.7123,-0.91747,1.909,-0.76296,-0.95154,1.8436,-0.51411,-0.055635,2.0314,-0.60691,-0.43429,1.8296,-0.4737,-0.79485,1.8826,-0.52436,-0.82892,1.8171
-0.55988,-0.0070933,2.1273,-0.53121,0.048713,2.1758,-0.56014,0.3849,2.2217,-0.58476,0.5661,2.2073,-0.66296,0.27858,2.3145,-0.62422,0.051692,2.3616,-0.60532,-0.22708,2.4037,-0.59699,-0.32644,2.4158,-0.42455,0.26115,2.1061,-0.33162,0.037462,2.0126,-0.31509,-0.16079,1.8143,-0.31906,-0.23948,1.7646,-0.61241,-0.094825,2.1588,-0.59005,-0.44407,1.934,-0.52177,-0.90292,1.8546,-0.56963,-0.93674,1.7869,-0.50832,-0.069758,2.0545,-0.57296,-0.47237,1.888,-0.47627,-0.76092,1.8618,-0.57861,-0.77559,1.8864
-0.56193,-0.0093778,2.1366,-0.53226,0.045361,2.1853,-0.55594,0.38104,2.233,-0.57792,0.56376,2.2219,-0.65895,0.27984,2.3316,-0.59547,0.01628,2.3922,-0.57314,-0.24004,2.4512,-0.56306,-0.32753,2.4673,-0.41753,0.25517,2.122,-0.33303,0.037771,2.024,-0.33651,-0.14528,1.8205,-0.35125,-0.20786,1.7665,-0.61912,-0.09422,2.1697,-0.6173,-0.50207,1.9627,-0.61759,-0.92707,1.9736,-0.66653,-0.96085,1.9067,-0.50915,-0.074167,2.0653,-0.5515,-0.47109,1.9391,-0.39905,-0.85567,2.0378,-0.56672,-0.77112,1.8987
-0.55504,-0.026476,2.1579,-0.52701,0.031102,2.2072,-0.54961,0.37554,2.2472,-0.56997,0.55956,2.2339,-0.65291,0.27517,2.3384,-0.59325,0.024063,2.4019,-0.55187,-0.23645,2.4869,-0.53832,-0.32462,2.5152,-0.40695,0.24982,2.1448,-0.33112,0.041127,2.0499,-0.35465,-0.12376,1.8414,-0.3744,-0.18871,1.776,-0.61359,-0.10284,2.1811,-0.55357,-0.53262,1.9816,-0.71512,-0.92379,1.9661,-0.75973,-0.95757,1.8962,-0.50088,-0.09003,2.0977,-0.52675,-0.50263,1.989,-0.35996,-0.89016,2.0833,-0.47706,-0.68274,1.9891
-0.54312,-0.032453,2.1762,-0.51681,0.024778,2.2274,-0.53925,0.37254,2.2701,-0.56112,0.55499,2.2482,-0.64621,0.2724,2.3515,-0.58871,0.031613,2.4211,-0.5363,-0.2129,2.5106,-0.51933,-0.30589,2.5372,-0.39642,0.24601,2.1686,-0.32946,0.038145,2.0631,-0.36768,-0.11607,1.8626,-0.39655,-0.17528,1.792,-0.60036,-0.10905,2.199,-0.52969,-0.52591,2.0266,-0.61284,-0.96409,1.9683,-0.65411,-0.99764,1.8963,-0.48842,-0.094572,2.1175,-0.46793,-0.57345,2.0524,-0.3395,-0.85146,2.3405,-0.45412,-0.829,2.1029
-0.53217,-0.038633,2.2029,-0.50707,0.01973,2.2536,-0.53217,0.36897,2.29,-0.54894,0.55089,2.2653,-0.63893,0.26804,2.375,-0.5723,0.032639,2.4574,-0.54126,-0.15967,2.5236,-0.52054,-0.24948,2.5575,-0.38512,0.24234,2.197,-0.32322,0.028939,2.0907,-0.38156,-0.11845,1.8846,-0.41104,-0.16662,1.8137,-0.59025,-0.11299,2.2236,-0.59479,-0.48527,2.0716,-0.64181,-0.95105,1.9576,-0.686,-0.99771,1.8843,-0.47538,-0.10216,2.1489,-0.47336,-0.52246,2.1105,-0.32533,-0.8791,2.4249,-0.4388,-0.8442,2.1815
-0.51249,-0.041592,2.2494,-0.4903,0.018979,2.2989,-0.52213,0.36593,2.3153,-0.53694,0.54925,2.2856,-0.59187,0.2672,2.3906,-0.71681,-0.028113,2.3576,-0.5302,-0.22004,2.5627,-0.50936,-0.31315,2.5859,-0.3677,0.24561,2.2319,-0.31957,0.017428,2.1344,-0.38196,-0.11374,1.915,-0.42019,-0.16386,1.8449,-0.57055,-0.11374,2.2721,-0.59619,-0.52188,2.1036,-0.63175,-0.94695,1.9753,-0.67198,-0.99402,1.9002,-0.45297,-0.1057,2.1994,-0.46772,-0.52003,2.1673,-0.32174,-0.89994,2.4827,-0.43256,-0.85459,2.2272
-0.49616,-0.04296,2.28,-0.47578,0.017982,2.3281,-0.51136,0.36466,2.3452,-0.52118,0.54597,2.3057,-0.62052,0.26298,2.4219,-0.60317,0.080548,2.4998,-0.54075,-0.1857,2.5625,-0.51371,-0.33061,2.5977,-0.35476,0.24095,2.2573,-0.30693,0.017679,2.1604,-0.37632,-0.12034,1.9563,-0.42195,-0.16978,1.8794,-0.55299,-0.11539,2.3051,-0.58419,-0.52638,2.1463,-0.62474,-0.94613,1.9996,-0.66499,-0.99395,1.9236,-0.4348,-0.10815,2.2301,-0.44644,-0.51473,2.236,-0.3141,-0.91992,2.5263,-0.41806,-0.86569,2.275
-0.48232,-0.050334,2.3133,-0.46482,0.012461,2.3609,-0.5003,0.36035,2.3643,-0.50327,0.54077,2.3281,-0.61112,0.25449,2.4377,-0.55368,0.012079,2.5306,-0.53312,-0.26215,2.5922,-0.52872,-0.36723,2.6125,-0.33837,0.23512,2.2942,-0.29411,-0.010226,2.184,-0.36098,-0.12167,1.9998,-0.40609,-0.18772,1.9242,-0.54286,-0.11935,2.3328,-0.5744,-0.53211,2.1742,-0.61709,-0.95052,2.0238,-0.65341,-0.99865,1.9458,-0.41769,-0.11748,2.2725,-0.44221,-0.52696,2.2743,-0.31292,-0.95171,2.5824,-0.40221,-0.90578,2.3463
-0.46917,-0.052976,2.3549,-0.45107,0.010792,2.3995,-0.48752,0.3564,2.3961,-0.49251,0.53838,2.3452,-0.60422,0.24083,2.4815,-0.5628,0.00070442,2.5555,-0.54138,-0.27567,2.5987,-0.5368,-0.36707,2.6135,-0.32411,0.22979,2.3274,-0.2874,-0.016519,2.1981,-0.34247,-0.15264,2.0298,-0.38069,-0.21005,1.9628,-0.53017,-0.12371,2.3792,-0.56542,-0.5303,2.207,-0.60825,-0.94633,2.0489,-0.65055,-0.99567,1.9754,-0.40391,-0.12207,2.3121,-0.43494,-0.53139,2.3089,-0.31374,-0.96107,2.5891,-0.40193,-0.91246,2.3779
-0.45013,-0.049961,2.3929,-0.43545,0.014493,2.435,-0.47328,0.3553,2.4206,-0.4773,0.53586,2.3715,-0.60018,0.2385,2.5065,-0.56287,-0.0025077,2.5618,-0.55948,-0.27501,2.5994,-0.57508,-0.36803,2.6052,-0.30878,0.23493,2.3646,-0.26407,-0.0041834,2.2644,-0.31384,-0.16321,2.0737,-0.34029,-0.22787,2.0193,-0.516,-0.12205,2.4121,-0.53192,-0.48441,2.2357,-0.56634,-0.77289,2.0991,-0.60358,-0.8112,2.0237,-0.37842,-0.12111,2.3581,-0.36227,-0.58637,2.3895,-0.3146,-0.96013,2.588,-0.40736,-0.89589,2.3528
-0.43725,-0.046142,2.4224,-0.42592,0.017553,2.4629,-0.46268,0.35281,2.4471,-0.4691,0.53266,2.3877,-0.59402,0.24081,2.5258,-0.57097,-0.0052358,2.5791,-0.58849,-0.27805,2.5962,-0.60562,-0.36619,2.5969,-0.29167,0.2361,2.3986,-0.25249,0.012658,2.3186,-0.27753,-0.18671,2.126,-0.29447,-0.25011,2.0692,-0.50323,-0.1179,2.4437,-0.54636,-0.52,2.2297,-0.55893,-0.85402,2.1446,-0.50912,-0.91355,2.1568,-0.36372,-0.11857,2.3892,-0.4092,-0.513,2.3447,-0.31474,-0.95689,2.5863,-0.39928,-0.9008,2.3684
-0.42829,-0.036632,2.4647,-0.41755,0.027433,2.4997,-0.45244,0.35402,2.4724,-0.45346,0.53455,2.4175,-0.58377,0.24536,2.563,-0.57701,-0.0057394,2.5906,-0.58682,-0.26551,2.4916,-0.63806,-0.37458,2.5888,-0.27915,0.23761,2.4303,-0.22858,0.0064738,2.3642,-0.23257,-0.20274,2.1765,-0.24138,-0.27317,2.1256,-0.49885,-0.11182,2.4849,-0.55372,-0.46223,2.2614,-0.53424,-0.82694,2.2396,-0.56602,-0.86551,2.1635,-0.35005,-0.1117,2.4359,-0.39759,-0.51561,2.3695,-0.3131,-0.96825,2.5923,-0.38855,-0.91862,2.3975
-0.41813,-0.033523,2.4877,-0.41232,0.03022,2.5211,-0.44835,0.35774,2.5019,-0.44012,0.5367,2.4365,-0.58146,0.2446,2.5753,-0.60294,-0.011308,2.6279,-0.65735,-0.25874,2.6049,-0.67669,-0.35129,2.5924,-0.2682,0.24296,2.466,-0.19885,-0.011562,2.4028,-0.17966,-0.22505,2.2445,-0.18091,-0.29826,2.199,-0.4878,-0.10904,2.5083,-0.53688,-0.45173,2.3015,-0.50143,-0.86335,2.3551,-0.5088,-0.92216,2.3024,-0.33801,-0.10889,2.4584,-0.41906,-0.5219,2.3832,-0.31356,-0.97168,2.595,-0.39763,-0.9401,2.4233
-0.40274,-0.027869,2.5114,-0.39849,0.035106,2.5432,-0.43783,0.35859,2.5278,-0.43097,0.5404,2.4605,-0.57717,0.24396,2.6041,-0.61637,-0.024218,2.642,-0.67272,-0.25917,2.595,-0.70147,-0.34785,2.5677,-0.25562,0.2527,2.4942,-0.17944,-0.0060645,2.4573,-0.13693,-0.23253,2.3263,-0.12455,-0.3161,2.2876,-0.4722,-0.10703,2.5301,-0.53546,-0.50356,2.3216,-0.47609,-0.89513,2.4587,-0.47885,-0.9659,2.4277,-0.32156,-0.10225,2.4811,-0.38541,-0.54834,2.4189,-0.3523,-0.9442,2.551,-0.3903,-0.99803,2.4857
-0.39412,-0.024645,2.5316,-0.39308,0.038868,2.5615,-0.43387,0.36409,2.5474,-0.42362,0.54709,2.484,-0.57155,0.24893,2.6199,-0.62094,-0.022955,2.6456,-0.70067,-0.25668,2.5782,-0.72125,-0.34852,2.5565,-0.24823,0.26075,2.5264,-0.16074,-0.0053393,2.5052,-0.096317,-0.23954,2.3939,-0.077774,-0.32009,2.3653,-0.46381,-0.1036,2.5474,-0.51841,-0.50963,2.3559,-0.45672,-0.89043,2.538,-0.4745,-0.98078,2.5255,-0.3098,-0.096924,2.5068,-0.37726,-0.56009,2.4422,-0.34692,-0.92438,2.5696,-0.37151,-1.0106,2.5659
-0.38612,-0.019117,2.5566,-0.38697,0.044856,2.584,-0.42997,0.3699,2.5689,-0.41802,0.5474,2.5049,-0.56505,0.25353,2.6334,-0.6278,-0.005428,2.6511,-0.71895,-0.2497,2.5649,-0.75546,-0.33322,2.5427,-0.24067,0.26863,2.5486,-0.14318,0.00049822,2.5477,-0.054545,-0.23194,2.4766,-0.030738,-0.30593,2.4582,-0.45563,-0.098384,2.5689,-0.49701,-0.49794,2.4015,-0.45117,-0.86937,2.6044,-0.45135,-0.93718,2.5585,-0.30098,-0.091748,2.5345,-0.3634,-0.54091,2.4776,-0.34875,-0.91042,2.5853,-0.36358,-0.96558,2.5332
-0.37754,-0.015429,2.5781,-0.37969,0.048981,2.6046,-0.42288,0.37851,2.5952,-0.41031,0.55313,2.5253,-0.56071,0.26167,2.6532,-0.63117,0.0043144,2.657,-0.73213,-0.23894,2.5559,-0.76887,-0.31577,2.5211,-0.23599,0.26949,2.576,-0.12915,0.0067397,2.5933,-0.020228,-0.22417,2.5621,0.012172,-0.29865,2.5618,-0.44722,-0.095529,2.5856,-0.4834,-0.50257,2.458,-0.43691,-0.85685,2.6864,-0.43573,-0.92565,2.6328,-0.29153,-0.088055,2.5606,-0.32987,-0.55936,2.5038,-0.33467,-0.94882,2.5942,-0.3457,-1.0036,2.54
-0.37296,-0.012902,2.5955,-0.3766,0.05178,2.6209,-0.4215,0.38299,2.6153,-0.40323,0.55988,2.5507,-0.55814,0.26608,2.6688,-0.62738,0.046854,2.6719,-0.73197,-0.20494,2.5576,-0.77608,-0.29565,2.5122,-0.23162,0.2726,2.5996,-0.1219,0.016067,2.6402,0.0051859,-0.21323,2.6442,0.036836,-0.28285,2.6478,-0.44139,-0.091775,2.6018,-0.47408,-0.51272,2.4937,-0.42399,-0.85574,2.7365,-0.43475,-0.91917,2.7009,-0.28715,-0.086044,2.5776,-0.33029,-0.56592,2.5168,-0.32971,-0.94452,2.5948,-0.34111,-0.99904,2.541
-0.37117,-0.01089,2.6146,-0.37552,0.053849,2.6394,-0.41606,0.38657,2.6362,-0.39791,0.55985,2.5757,-0.55403,0.26902,2.6827,-0.62731,0.050104,2.6773,-0.73066,-0.19211,2.5487,-0.77119,-0.26982,2.5074,-0.22599,0.28042,2.6304,-0.11666,0.027358,2.6735,0.0081344,-0.1833,2.7156,0.046426,-0.2569,2.7325,-0.43934,-0.089404,2.6146,-0.46163,-0.51801,2.5555,-0.40887,-0.86935,2.7869,-0.42116,-0.90631,2.7047,-0.28768,-0.085696,2.6031,-0.33116,-0.56672,2.5391,-0.32831,-0.94455,2.5967,-0.33844,-0.99896,2.5429
-0.36882,-0.011433,2.6341,-0.37401,0.054236,2.6567,-0.41408,0.38894,2.6508,-0.39514,0.56094,2.5995,-0.55066,0.27067,2.7005,-0.62673,0.051805,2.6837,-0.72754,-0.17986,2.5405,-0.77121,-0.26607,2.4805,-0.2177,0.28309,2.6559,-0.10895,0.04223,2.7234,0.024419,-0.18187,2.7918,0.062886,-0.25144,2.8226,-0.43647,-0.089112,2.6399,-0.439,-0.52774,2.6103,-0.37704,-0.89319,2.8259,-0.386,-0.93059,2.7418,-0.28558,-0.08516,2.6186,-0.32542,-0.54704,2.5627,-0.32193,-0.92703,2.5988,-0.33219,-0.96427,2.5165
-0.36796,-0.011784,2.6497,-0.37349,0.054179,2.6731,-0.41187,0.39403,2.6743,-0.38828,0.56469,2.6191,-0.54754,0.27493,2.712,-0.62216,0.057272,2.6977,-0.71332,-0.16621,2.5347,-0.74919,-0.23717,2.4811,-0.216,0.28571,2.6725,-0.10669,0.053617,2.7556,0.012058,-0.13486,2.8352,0.053052,-0.23064,2.8909,-0.4351,-0.088665,2.6533,-0.43274,-0.53397,2.6603,-0.34759,-0.89598,2.8639,-0.35677,-0.93259,2.7811,-0.28601,-0.084273,2.6334,-0.32498,-0.54556,2.5806,-0.32184,-0.92887,2.6002,-0.33103,-0.96547,2.5174
-0.36497,-0.0088969,2.6674,-0.3711,0.057255,2.6906,-0.40966,0.39712,2.6916,-0.38481,0.56702,2.636,-0.544,0.27893,2.7292,-0.61483,0.066255,2.7258,-0.69605,-0.15083,2.5382,-0.72568,-0.22215,2.4784,-0.21399,0.29188,2.6984,-0.11455,0.06019,2.781,0.022209,-0.15877,2.9308,0.043941,-0.22548,2.949,-0.43216,-0.086084,2.6688,-0.40617,-0.55675,2.721,-0.31052,-0.91835,2.9155,-0.31761,-0.95492,2.8324,-0.28296,-0.079514,2.6534,-0.313,-0.54088,2.5877,-0.31716,-0.92595,2.6044,-0.3133,-0.99841,2.5482
-0.36181,-0.0047657,2.685,-0.368,0.061228,2.7074,-0.40769,0.40023,2.7082,-0.38471,0.56958,2.6594,-0.5433,0.27417,2.7485,-0.6085,0.06439,2.739,-0.67741,-0.14762,2.5443,-0.69966,-0.21328,2.4789,-0.21692,0.29672,2.7132,-0.1269,0.067923,2.8578,0.014897,-0.16178,2.9532,0.036316,-0.23364,2.9884,-0.42967,-0.08364,2.6868,-0.39547,-0.54036,2.7505,-0.30074,-0.9071,2.9203,-0.30925,-0.94379,2.8375,-0.27861,-0.072893,2.671,-0.30579,-0.53895,2.5981,-0.31382,-0.9297,2.609,-0.32232,-0.9664,2.5261
-0.35805,-0.00068289,2.7062,-0.36617,0.064948,2.726,-0.40868,0.39977,2.7227,-0.37812,0.57432,2.6773,-0.54208,0.27351,2.7643,-0.60286,0.062132,2.7502,-0.64172,-0.14328,2.5541,-0.65568,-0.2088,2.4839,-0.20978,0.29134,2.7445,-0.13077,0.069061,2.89,-0.001559,-0.16497,3.0014,0.027469,-0.2333,3.0278,-0.42575,-0.081962,2.7049,-0.39582,-0.52618,2.8004,-0.29858,-0.90237,2.9314,-0.30292,-0.93937,2.8483,-0.27255,-0.069489,2.6972,-0.30117,-0.54014,2.6045,-0.312,-0.93167,2.6118,-0.31634,-0.96868,2.5288
-0.35444,-0.0047599,2.7243,-0.36199,0.061775,2.7428,-0.40549,0.39861,2.7397,-0.37526,0.57544,2.6955,-0.53852,0.27331,2.7884,-0.58973,0.049439,2.7732,-0.62282,-0.15241,2.561,-0.62929,-0.22475,2.4873,-0.21219,0.29274,2.7543,-0.13595,0.069584,2.9042,-0.0098822,-0.16656,3.0149,0.0046107,-0.23934,3.0564,-0.4186,-0.085819,2.7303,-0.39279,-0.52533,2.823,-0.29635,-0.9042,2.941,-0.30434,-0.94152,2.8584,-0.27203,-0.070175,2.7093,-0.29651,-0.54265,2.6119,-0.31144,-0.93482,2.6152,-0.32021,-0.98931,2.5602
-0.34973,-0.0037979,2.7415,-0.35707,0.062924,2.7615,-0.40098,0.40395,2.7682,-0.37014,0.58308,2.7159,-0.52942,0.27892,2.8036,-0.57738,0.041924,2.7862,-0.59337,-0.16281,2.587,-0.59839,-0.23764,2.519,-0.21219,0.29224,2.7694,-0.14529,0.069708,2.925,-0.031574,-0.16725,3.0422,-0.020415,-0.24781,3.0936,-0.41375,-0.084151,2.7438,-0.39056,-0.51748,2.8538,-0.29414,-0.90608,2.9588,-0.30233,-0.94262,2.8758,-0.26861,-0.066833,2.7277,-0.2928,-0.54025,2.6185,-0.30768,-0.93877,2.6274,-0.31709,-0.99004,2.5672
-0.34937,-0.0072213,2.7585,-0.35655,0.059761,2.7776,-0.40086,0.40056,2.782,-0.3653,0.58109,2.735,-0.525,0.28102,2.8216,-0.56583,0.044004,2.8144,-0.57349,-0.17098,2.6086,-0.57263,-0.24721,2.5473,-0.21437,0.29065,2.7804,-0.1438,0.061654,2.9378,-0.050346,-0.1757,3.0708,-0.026126,-0.25106,3.1008,-0.41262,-0.086228,2.7647,-0.38755,-0.51508,2.8674,-0.29243,-0.90381,2.9627,-0.30265,-0.94074,2.8802,-0.26941,-0.068617,2.7409,-0.28808,-0.53676,2.6239,-0.29843,-0.93956,2.6446,-0.30363,-0.99318,2.5872
-0.34781,-0.0092841,2.7752,-0.35447,0.058293,2.7936,-0.39582,0.40134,2.7977,-0.36189,0.57893,2.7431,-0.5202,0.28152,2.8357,-0.55883,0.040204,2.8292,-0.55526,-0.18643,2.6421,-0.55325,-0.25889,2.5838,-0.21086,0.2905,2.7956,-0.14099,0.05251,2.9456,-0.060669,-0.17398,3.0636,-0.043576,-0.25403,3.0993,-0.41168,-0.086964,2.7836,-0.36779,-0.53447,2.8774,-0.29011,-0.90606,2.9649,-0.3001,-0.94309,2.8824,-0.26901,-0.070584,2.7562,-0.28703,-0.53652,2.6246,-0.27291,-0.93429,2.7009,-0.26421,-1.0109,2.6542
-0.34691,-0.0098882,2.7883,-0.35234,0.057979,2.8049,-0.39119,0.40156,2.8069,-0.36097,0.57704,2.7533,-0.51576,0.2821,2.856,-0.55075,0.031219,2.8456,-0.54128,-0.1939,2.6891,-0.53777,-0.26148,2.6345,-0.20577,0.28947,2.8058,-0.14333,0.047997,2.9472,-0.069573,-0.1751,3.0574,-0.065585,-0.26178,3.0969,-0.41134,-0.087833,2.7987,-0.36755,-0.53378,2.8857,-0.30787,-0.91469,2.9344,-0.28652,-0.94829,2.8867,-0.26894,-0.071872,2.7688,-0.28526,-0.53617,2.627,-0.25524,-0.92355,2.7369,-0.24478,-1.0076,2.6922
-0.34564,-0.0057596,2.8016,-0.35024,0.061832,2.8168,-0.38513,0.40337,2.8167,-0.35694,0.5796,2.7654,-0.51099,0.28743,2.8687,-0.54037,0.029346,2.8611,-0.53742,-0.20226,2.7134,-0.5351,-0.28013,2.6821,-0.20369,0.28577,2.812,-0.14138,0.041132,2.9505,-0.081269,-0.18074,3.0358,-0.082493,-0.2657,3.0698,-0.41141,-0.082453,2.8148,-0.38094,-0.51385,2.9019,-0.30714,-0.91284,2.9389,-0.28416,-0.94539,2.8882,-0.26812,-0.069585,2.7799,-0.27628,-0.51281,2.6301,-0.23305,-0.91577,2.7608,-0.21626,-0.99379,2.7355
-0.34482,-0.0032557,2.8121,-0.34811,0.064303,2.8271,-0.37595,0.40637,2.8294,-0.34885,0.58222,2.7769,-0.50546,0.29164,2.8845,-0.52685,0.015511,2.8804,-0.53344,-0.21493,2.765,-0.52945,-0.28538,2.7132,-0.19753,0.28713,2.8219,-0.14174,0.035578,2.9483,-0.083252,-0.1827,2.9837,-0.083049,-0.26571,3.0325,-0.41224,-0.079546,2.8268,-0.36654,-0.52951,2.8931,-0.29711,-0.90854,2.9708,-0.29767,-0.97314,2.9073,-0.26788,-0.069257,2.7891,-0.26651,-0.52383,2.6471,-0.2116,-0.91822,2.7852,-0.2088,-0.99382,2.7414
-0.34421,0.0015768,2.8209,-0.34671,0.068681,2.8346,-0.37176,0.40812,2.8343,-0.34305,0.58603,2.7873,-0.50256,0.29693,2.8958,-0.5239,0.016647,2.8953,-0.52984,-0.22097,2.7974,-0.53378,-0.30611,2.7764,-0.19085,0.28951,2.8292,-0.14052,0.034556,2.9458,-0.081949,-0.19868,2.9715,-0.080385,-0.287,3.0035,-0.41267,-0.074768,2.8368,-0.38012,-0.51063,2.904,-0.29287,-0.89581,2.9739,-0.30907,-0.93347,2.8926,-0.26786,-0.067215,2.7964,-0.25948,-0.53141,2.6559,-0.1941,-0.92145,2.7955,-0.17782,-1.0004,2.7674
-0.34167,0.001478,2.8269,-0.34355,0.069034,2.84,-0.36515,0.41066,2.8392,-0.34024,0.58675,2.7922,-0.49796,0.29878,2.8998,-0.52146,0.017604,2.9145,-0.5264,-0.22244,2.8308,-0.53083,-0.30572,2.7976,-0.18998,0.29004,2.8302,-0.13948,0.033702,2.9305,-0.079881,-0.22788,2.9339,-0.06577,-0.31063,2.9525,-0.40956,-0.0733,2.8432,-0.37246,-0.50888,2.9104,-0.28613,-0.89758,2.9769,-0.30325,-0.93527,2.8959,-0.26658,-0.067933,2.8031,-0.24623,-0.541,2.6734,-0.1769,-0.92481,2.8018,-0.16604,-1.0015,2.7603
-0.33867,0.0017322,2.835,-0.34023,0.069819,2.8477,-0.361,0.41463,2.8476,-0.33437,0.5894,2.7968,-0.49425,0.30026,2.9045,-0.51615,0.014392,2.924,-0.52434,-0.22221,2.875,-0.53985,-0.31244,2.8427,-0.18594,0.29202,2.8315,-0.1185,0.037806,2.8843,-0.079154,-0.21212,2.8461,-0.069362,-0.28627,2.8495,-0.40697,-0.073211,2.8508,-0.35594,-0.56794,2.944,-0.26716,-0.9393,2.997,-0.29528,-0.99614,2.9422,-0.26347,-0.068818,2.8113,-0.22888,-0.55018,2.6939,-0.15831,-0.92114,2.8013,-0.15432,-1.0037,2.7622
-0.33592,0.0019062,2.8391,-0.33678,0.070076,2.8514,-0.35534,0.41463,2.8512,-0.32829,0.59184,2.8049,-0.48959,0.30202,2.9128,-0.50945,0.017827,2.9444,-0.52753,-0.21798,2.8964,-0.53825,-0.30954,2.8671,-0.17901,0.29026,2.8315,-0.11302,0.032307,2.8737,-0.071495,-0.22011,2.8178,-0.046311,-0.30658,2.8104,-0.40484,-0.073753,2.8561,-0.35185,-0.56405,2.9444,-0.266,-0.94272,3.0035,-0.29591,-0.99623,2.9424,-0.2612,-0.070092,2.8143,-0.21462,-0.56252,2.7108,-0.12376,-0.93828,2.8083,-0.13238,-0.99426,2.7518
-0.33246,0.0025664,2.8415,-0.3324,0.07042,2.8541,-0.34899,0.4135,2.8557,-0.32581,0.59482,2.8087,-0.48577,0.30314,2.9237,-0.50319,0.019249,2.9574,-0.53016,-0.22651,2.9255,-0.53875,-0.31863,2.8976,-0.17657,0.29084,2.831,-0.10789,0.025518,2.8489,-0.055266,-0.23365,2.781,-0.046326,-0.3083,2.7544,-0.4018,-0.074073,2.8592,-0.34755,-0.56277,2.9434,-0.26527,-0.94317,3.0084,-0.29652,-0.99528,2.9433,-0.25842,-0.06998,2.8154,-0.20138,-0.56836,2.7256,-0.11539,-0.94082,2.8101,-0.13032,-0.99497,2.7543
-0.32357,0.0018187,2.8399,-0.32336,0.069275,2.8535,-0.34153,0.41103,2.8584,-0.32428,0.59548,2.8114,-0.47945,0.30364,2.9316,-0.50141,0.020032,2.966,-0.53376,-0.23443,2.9447,-0.54302,-0.32925,2.9381,-0.17082,0.28962,2.8293,-0.10658,0.026662,2.8385,-0.050481,-0.22213,2.7367,-0.03913,-0.3017,2.703,-0.39099,-0.076637,2.8564,-0.34205,-0.56441,2.9432,-0.26513,-0.9438,3.0059,-0.29702,-0.99615,2.943,-0.25025,-0.070405,2.8125,-0.18897,-0.56631,2.7425,-0.10871,-0.93144,2.8136,-0.13347,-0.96881,2.7344
-0.31008,-1.2944e-05,2.8372,-0.31035,0.067766,2.8525,-0.33325,0.41151,2.8612,-0.31812,0.5965,2.8148,-0.47388,0.30153,2.9368,-0.49852,0.023634,2.9798,-0.53022,-0.23135,2.9693,-0.544,-0.32366,2.949,-0.16642,0.28909,2.827,-0.10082,0.028729,2.8267,-0.054082,-0.21137,2.7147,-0.04574,-0.29015,2.6636,-0.37578,-0.08001,2.855,-0.33075,-0.57199,2.9446,-0.26442,-0.9437,3.0007,-0.28903,-0.99801,2.9395,-0.23615,-0.071054,2.8058,-0.17451,-0.57017,2.761,-0.10373,-0.93757,2.8162,-0.12269,-1.0005,2.7732
-0.30367,-0.0015773,2.8352,-0.30351,0.066745,2.8517,-0.32754,0.41335,2.8622,-0.31176,0.59636,2.8171,-0.46564,0.29947,2.9411,-0.49083,0.022525,2.9854,-0.5289,-0.22859,2.9823,-0.55142,-0.31974,2.9848,-0.15642,0.28907,2.8255,-0.095199,0.033198,2.8121,-0.057299,-0.19905,2.6686,-0.048813,-0.27458,2.6318,-0.36912,-0.080803,2.8524,-0.32624,-0.57232,2.9435,-0.26472,-0.94462,2.9966,-0.30079,-1.0052,2.9513,-0.23067,-0.071635,2.8033,-0.16668,-0.57254,2.7722,-0.10243,-0.93928,2.82,-0.12187,-1.0004,2.772
-0.29779,-0.0020467,2.833,-0.29659,0.066869,2.851,-0.31916,0.41893,2.8638,-0.30849,0.5991,2.8178,-0.45695,0.29906,2.943,-0.48789,0.029567,2.9904,-0.52861,-0.22683,2.9943,-0.55077,-0.32019,2.9908,-0.15268,0.29008,2.8221,-0.087815,0.035787,2.7991,-0.055605,-0.18883,2.6553,-0.044121,-0.25843,2.599,-0.36308,-0.080621,2.8504,-0.31958,-0.57247,2.9394,-0.26372,-0.94213,2.9918,-0.29938,-1.0044,2.9395,-0.22601,-0.07155,2.8005,-0.15846,-0.57239,2.7809,-0.10234,-0.93742,2.8209,-0.12328,-0.99802,2.7716
