-0.15416,-0.18963,2.5784,-0.1242,-0.1296,2.6225,-0.11128,0.21741,2.6191,-0.1274,0.38633,2.6052,-0.24319,0.10807,2.6758,-0.26501,-0.18732,2.6529,-0.32752,-0.35939,2.6608,-0.33703,-0.41002,2.6404,-0.012774,0.091659,2.5322,0.016736,-0.14209,2.4962,-0.018536,-0.35778,2.4112,-0.024506,-0.41946,2.4462,-0.21495,-0.24823,2.5977,-0.21658,-0.61152,2.6821,-0.19135,-0.936,2.7806,-0.26103,-0.94954,2.6585,-0.10776,-0.25252,2.541,-0.094377,-0.57386,2.3953,-0.026967,-0.87446,2.297,-0.067839,-0.90865,2.2262
-0.15132,-0.19592,2.5501,-0.11999,-0.13568,2.5955,-0.10462,0.21809,2.6013,-0.12289,0.3853,2.589,-0.23303,0.10095,2.652,-0.25255,-0.17161,2.627,-0.31798,-0.36616,2.6293,-0.3399,-0.42937,2.6095,-0.0063727,0.089813,2.5074,0.025815,-0.15987,2.4584,-0.0094655,-0.36562,2.3827,-0.012418,-0.43336,2.4162,-0.21175,-0.25647,2.5713,-0.22078,-0.6264,2.6634,-0.19103,-0.93545,2.77,-0.26002,-0.94763,2.6448,-0.10587,-0.25471,2.5074,-0.094431,-0.57452,2.3585,-0.03164,-0.87158,2.2784,-0.073618,-0.90545,2.2079
-0.14017,-0.20177,2.5073,-0.10875,-0.14231,2.5542,-0.093077,0.21537,2.5714,-0.11364,0.38486,2.5607,-0.22474,0.095156,2.6183,-0.24909,-0.17406,2.6058,-0.31357,-0.36466,2.5948,-0.33861,-0.42241,2.5744,-0.00048218,0.085031,2.4759,0.029794,-0.1593,2.4281,-0.007554,-0.36602,2.3565,-0.019988,-0.43546,2.3843,-0.2015,-0.26341,2.5279,-0.23534,-0.62074,2.6119,-0.19126,-0.91933,2.7401,-0.23327,-0.95288,2.6695,-0.094432,-0.25719,2.4681,-0.098483,-0.57409,2.3196,-0.036625,-0.87564,2.2652,-0.078633,-0.90919,2.1946
-0.1329,-0.19773,2.4861,-0.10192,-0.13925,2.5336,-0.086212,0.2137,2.5484,-0.1048,0.38194,2.5406,-0.22299,0.093494,2.6069,-0.27035,-0.16956,2.6254,-0.30876,-0.3657,2.561,-0.33213,-0.41006,2.5491,0.012793,0.086493,2.4603,0.042716,-0.16783,2.3972,0.014819,-0.35804,2.3153,0.019679,-0.41556,2.2117,-0.19667,-0.26242,2.507,-0.24148,-0.62962,2.578,-0.19264,-0.92444,2.7217,-0.2343,-0.95802,2.6509,-0.083901,-0.25507,2.4415,-0.10239,-0.58014,2.2959,-0.038562,-0.87508,2.253,-0.080226,-0.90866,2.1821
-0.12256,-0.19836,2.4542,-0.093771,-0.14153,2.5054,-0.080741,0.21197,2.5345,-0.097463,0.37668,2.52,-0.21759,0.084979,2.5808,-0.25975,-0.17994,2.5963,-0.30674,-0.37581,2.539,-0.32814,-0.41679,2.5046,0.021346,0.085443,2.4446,0.058659,-0.16835,2.3682,0.023569,-0.35727,2.2794,0.0023073,-0.41163,2.2486,-0.18769,-0.26534,2.4746,-0.25534,-0.61326,2.5155,-0.19521,-0.89751,2.6664,-0.23457,-0.93077,2.5941,-0.071323,-0.25568,2.4052,-0.10004,-0.57685,2.2799,-0.039557,-0.87466,2.2447,-0.078915,-0.90792,2.1724
-0.11911,-0.19868,2.4369,-0.089716,-0.14206,2.4872,-0.07484,0.20944,2.5135,-0.092706,0.37563,2.5068,-0.21044,0.088149,2.5602,-0.25577,-0.17227,2.5794,-0.30492,-0.36954,2.5272,-0.32779,-0.42479,2.4936,0.031289,0.082343,2.4183,0.066371,-0.17327,2.3532,0.028382,-0.35566,2.2522,0.028141,-0.41469,2.2202,-0.18374,-0.26521,2.4552,-0.25269,-0.62294,2.4844,-0.20355,-0.91665,2.633,-0.23407,-1.0048,2.6701,-0.068316,-0.25682,2.3897,-0.096681,-0.57879,2.2513,-0.03926,-0.8746,2.2394,-0.079154,-0.90792,2.1674
-0.11328,-0.19483,2.4096,-0.085299,-0.14038,2.4615,-0.073577,0.20559,2.494,-0.092262,0.37487,2.4949,-0.21228,0.084548,2.548,-0.24991,-0.1796,2.5629,-0.29973,-0.37327,2.4956,-0.31612,-0.4196,2.4797,0.037672,0.081928,2.4078,0.074864,-0.16605,2.3379,0.035185,-0.34665,2.2332,0.044083,-0.40195,2.1991,-0.17981,-0.26265,2.4245,-0.25223,-0.62455,2.4262,-0.20652,-0.89648,2.5596,-0.23803,-0.95453,2.548,-0.060634,-0.25514,2.3632,-0.097396,-0.58327,2.2419,-0.039792,-0.87296,2.2325,-0.078432,-0.90613,2.1598
-0.10892,-0.19626,2.3918,-0.081878,-0.1424,2.4454,-0.07107,0.20413,2.4846,-0.085038,0.37099,2.4771,-0.21086,0.076973,2.5251,-0.24835,-0.18609,2.548,-0.29917,-0.37835,2.4765,-0.31682,-0.41965,2.4515,0.042366,0.078382,2.389,0.08179,-0.16755,2.314,0.041782,-0.34894,2.2109,0.054497,-0.40882,2.1794,-0.17557,-0.26429,2.4073,-0.25166,-0.62219,2.3769,-0.21193,-0.91844,2.4873,-0.25539,-0.9731,2.4734,-0.055528,-0.25815,2.3408,-0.094909,-0.59476,2.2297,-0.039797,-0.8742,2.2296,-0.077347,-0.90728,2.1563
-0.10558,-0.19946,2.3713,-0.077938,-0.14581,2.4263,-0.067973,0.20375,2.4743,-0.083557,0.36773,2.4594,-0.21032,0.075309,2.5111,-0.24335,-0.18844,2.5239,-0.29364,-0.38198,2.4573,-0.3091,-0.4208,2.4247,0.038093,0.074806,2.3726,0.083872,-0.16567,2.3007,0.047543,-0.3486,2.1988,0.062318,-0.41349,2.1648,-0.17127,-0.26632,2.3838,-0.25016,-0.63226,2.3421,-0.22128,-0.93894,2.4125,-0.27041,-0.98936,2.3999,-0.053297,-0.26013,2.3232,-0.093523,-0.59951,2.2223,-0.04047,-0.87355,2.2241,-0.078996,-0.90667,2.1513
-0.10581,-0.20194,2.3611,-0.076168,-0.14736,2.4134,-0.070891,0.19881,2.4524,-0.084414,0.36636,2.4499,-0.21012,0.074601,2.5062,-0.2396,-0.18977,2.5178,-0.28826,-0.37939,2.4374,-0.30867,-0.4199,2.4203,0.031994,0.07054,2.3529,0.086088,-0.1665,2.2794,0.050495,-0.35077,2.1799,0.068389,-0.41728,2.1504,-0.16977,-0.26816,2.3785,-0.24767,-0.62269,2.2933,-0.22652,-0.91847,2.3203,-0.26881,-0.95175,2.2497,-0.055575,-0.26297,2.3088,-0.091628,-0.60121,2.2141,-0.038835,-0.87588,2.2224,-0.081128,-0.90916,2.1518
-0.10369,-0.20266,2.3492,-0.074497,-0.14796,2.4016,-0.071301,0.19939,2.4429,-0.086137,0.36594,2.4404,-0.21004,0.073789,2.497,-0.23315,-0.19744,2.5035,-0.28634,-0.3843,2.4193,-0.30733,-0.43988,2.3919,0.031227,0.071233,2.3446,0.088467,-0.17052,2.2649,0.051634,-0.35509,2.1665,0.073295,-0.42095,2.1366,-0.1664,-0.26828,2.3671,-0.25107,-0.60484,2.2522,-0.24298,-0.86697,2.2207,-0.28531,-0.90023,2.1501,-0.053291,-0.26408,2.2979,-0.067377,-0.63501,2.2073,-0.029065,-0.89218,2.2331,-0.01589,-0.96753,2.2278
-0.10304,-0.20268,2.3469,-0.073087,-0.14745,2.3986,-0.071216,0.20094,2.4368,-0.089785,0.36502,2.4323,-0.21022,0.073966,2.4906,-0.22765,-0.19729,2.4969,-0.28103,-0.38079,2.405,-0.29978,-0.43076,2.3806,0.028836,0.073621,2.3329,0.085886,-0.17064,2.2538,0.0506,-0.36117,2.1527,0.084044,-0.41482,2.1353,-0.16523,-0.26845,2.3661,-0.2488,-0.56071,2.2328,-0.24246,-0.84287,2.1376,-0.28629,-0.87622,2.068,-0.052842,-0.26432,2.294,-0.069267,-0.63461,2.1985,-0.032633,-0.85547,2.2293,-0.063903,-0.92232,2.229
-0.10275,-0.20326,2.3448,-0.073084,-0.14712,2.3961,-0.072213,0.2017,2.4269,-0.091827,0.36573,2.421,-0.20289,0.073801,2.4723,-0.22357,-0.1971,2.4856,-0.27839,-0.38144,2.3972,-0.29682,-0.42545,2.3737,0.024856,0.073156,2.324,0.087306,-0.17123,2.2408,0.079261,-0.36897,2.1376,0.098855,-0.42243,2.1334,-0.16424,-0.26838,2.3653,-0.17924,-0.57808,2.1972,-0.24063,-0.81393,2.0558,-0.28397,-0.84737,1.986,-0.053124,-0.26521,2.2921,-0.14639,-0.60002,2.1756,-0.033576,-0.85326,2.2266,-0.11868,-0.89977,2.0975
-0.10179,-0.2027,2.3401,-0.071957,-0.14575,2.3904,-0.074854,0.20341,2.4198,-0.095497,0.36564,2.413,-0.20304,0.075156,2.4662,-0.22135,-0.19563,2.4822,-0.27644,-0.38284,2.3791,-0.30777,-0.43437,2.3568,0.0214,0.075857,2.3151,0.088497,-0.16938,2.2361,0.10591,-0.36194,2.1409,0.096933,-0.41258,2.1317,-0.16188,-0.26844,2.3622,-0.27126,-0.56422,2.2243,-0.24038,-0.78703,1.9911,-0.26362,-0.82427,1.9256,-0.052386,-0.26342,2.2867,-0.14534,-0.59614,2.166,-0.033771,-0.85196,2.2215,-0.12054,-0.87519,2.0794
-0.099103,-0.20033,2.3297,-0.070204,-0.1441,2.381,-0.076896,0.20375,2.4157,-0.097316,0.36668,2.409,-0.20386,0.07314,2.4596,-0.21693,-0.19664,2.4784,-0.27545,-0.38408,2.3656,-0.29796,-0.42285,2.3376,0.019403,0.076671,2.3089,0.091002,-0.16757,2.2347,0.064146,-0.37648,2.1304,0.065253,-0.44019,2.1103,-0.15644,-0.2672,2.3544,-0.25371,-0.57028,2.192,-0.2468,-0.77144,1.9495,-0.25012,-0.76542,1.9351,-0.050299,-0.25976,2.2715,-0.1391,-0.57535,2.154,-0.034876,-0.8493,2.2196,-0.1109,-0.86131,2.077
-0.095951,-0.20203,2.3231,-0.067513,-0.14504,2.3746,-0.07929,0.20359,2.4116,-0.10099,0.36514,2.4048,-0.20385,0.074289,2.453,-0.21174,-0.20063,2.461,-0.27325,-0.38826,2.3617,-0.28796,-0.43697,2.3348,0.016191,0.07518,2.3004,0.093131,-0.17161,2.2272,0.066973,-0.37053,2.1277,0.11086,-0.40698,2.1174,-0.15104,-0.26895,2.3451,-0.25414,-0.56626,2.1795,-0.24043,-0.74199,1.9121,-0.28582,-0.77554,1.8436,-0.047653,-0.25948,2.2683,-0.1437,-0.58244,2.1265,-0.043717,-0.85239,2.2037,-0.089402,-0.86267,2.1238
-0.09785,-0.20911,2.3282,-0.068359,-0.14947,2.3759,-0.083705,0.19957,2.3992,-0.10907,0.36225,2.3962,-0.20458,0.072502,2.4484,-0.20581,-0.19795,2.449,-0.2672,-0.38661,2.3514,-0.27076,-0.42178,2.3014,0.011828,0.073188,2.2911,0.097697,-0.17891,2.2137,0.091763,-0.3861,2.1164,0.10054,-0.44337,2.1042,-0.15222,-0.27291,2.3541,-0.14839,-0.52187,2.11,-0.21833,-0.72594,1.8663,-0.25575,-0.72511,1.8617,-0.04912,-0.26653,2.278,-0.14549,-0.57613,2.1073,-0.047615,-0.84061,2.2015,-0.077972,-0.87117,2.1618
-0.096807,-0.2061,2.3299,-0.06751,-0.14738,2.3769,-0.083732,0.19954,2.3988,-0.11277,0.36116,2.3937,-0.20449,0.071631,2.4486,-0.20551,-0.19906,2.4487,-0.26731,-0.38606,2.3414,-0.26077,-0.3981,2.3101,0.011951,0.073103,2.2906,0.099876,-0.1784,2.2135,0.092505,-0.38703,2.1158,0.1175,-0.43402,2.0999,-0.15092,-0.27065,2.3588,-0.1513,-0.51567,2.1055,-0.21395,-0.72577,1.864,-0.24651,-0.71879,1.8563,-0.048253,-0.26588,2.2776,-0.091851,-0.59401,2.186,-0.045956,-0.83775,2.2028,-0.089414,-0.85069,2.1221
-0.096252,-0.20533,2.3297,-0.066912,-0.14675,2.3768,-0.082542,0.19995,2.3987,-0.11315,0.36129,2.3929,-0.20421,0.070985,2.4479,-0.20509,-0.19859,2.4501,-0.26792,-0.38327,2.3403,-0.2704,-0.4191,2.2956,0.012622,0.073326,2.2904,0.10024,-0.17868,2.2133,0.067448,-0.37012,2.1153,0.11361,-0.41562,2.1034,-0.15066,-0.27024,2.3584,-0.14663,-0.51202,2.1065,-0.20759,-0.72223,1.8638,-0.2361,-0.72305,1.8622,-0.047533,-0.26519,2.2773,-0.090286,-0.59464,2.1847,-0.045108,-0.83741,2.2023,-0.088333,-0.85091,2.1215
-0.095995,-0.20357,2.3294,-0.066999,-0.14529,2.3767,-0.082388,0.20039,2.3977,-0.11339,0.36192,2.3919,-0.20403,0.07105,2.4473,-0.20499,-0.19788,2.4481,-0.2683,-0.38039,2.338,-0.27421,-0.415,2.2906,0.017035,0.075417,2.2907,0.10782,-0.15534,2.2307,0.047693,-0.34798,2.1171,0.12055,-0.40883,2.1118,-0.15063,-0.26913,2.3581,-0.14059,-0.50986,2.1102,-0.20447,-0.72181,1.8702,-0.25078,-0.75595,1.8026,-0.047236,-0.26412,2.2767,-0.089843,-0.59471,2.1843,-0.044708,-0.83668,2.2028,-0.073913,-0.86908,2.1636
-0.095883,-0.2034,2.3293,-0.067476,-0.14509,2.3771,-0.081875,0.20141,2.3978,-0.11305,0.3637,2.3916,-0.20291,0.074229,2.4423,-0.2055,-0.19439,2.4445,-0.26825,-0.37774,2.3366,-0.26407,-0.39092,2.2977,0.017474,0.076294,2.2908,0.10514,-0.17464,2.2234,0.050608,-0.34942,2.1198,0.13956,-0.39608,2.1717,-0.15056,-0.26821,2.3574,-0.14154,-0.51096,2.1092,-0.19926,-0.73251,1.8779,-0.2445,-0.76659,1.8096,-0.046809,-0.2639,2.2774,-0.089035,-0.59372,2.1841,-0.042447,-0.83564,2.2049,-0.084797,-0.85219,2.1234
-0.096077,-0.20211,2.3293,-0.068247,-0.1439,2.3776,-0.081748,0.20261,2.3977,-0.11268,0.36547,2.3908,-0.20255,0.075224,2.4395,-0.20727,-0.19336,2.4417,-0.26787,-0.37251,2.3322,-0.26633,-0.39021,2.2938,0.018876,0.079197,2.2937,0.10508,-0.17227,2.2244,0.061464,-0.37145,2.1256,0.12333,-0.40184,2.1466,-0.15139,-0.26548,2.3568,-0.23534,-0.52974,2.0984,-0.21935,-0.71674,1.89,-0.24107,-0.77199,1.8177,-0.046782,-0.26266,2.278,-0.082822,-0.59836,2.1855,-0.040766,-0.83758,2.207,-0.076803,-0.87249,2.1685
-0.093325,-0.19461,2.3127,-0.067126,-0.13974,2.3656,-0.081925,0.20325,2.397,-0.10907,0.37033,2.3902,-0.20265,0.076068,2.4384,-0.20888,-0.19241,2.4417,-0.26803,-0.37073,2.3277,-0.26792,-0.38735,2.2923,0.020648,0.081097,2.2952,0.10416,-0.16911,2.2276,0.060723,-0.36897,2.1281,0.12105,-0.40053,2.151,-0.1481,-0.25911,2.3351,-0.13956,-0.51257,2.1172,-0.21671,-0.72796,1.9044,-0.22043,-0.81644,1.8602,-0.041945,-0.2513,2.2556,-0.083172,-0.59656,2.1858,-0.039514,-0.83654,2.2094,-0.074737,-0.87556,2.1729
-0.091693,-0.19284,2.3121,-0.065718,-0.13771,2.365,-0.081393,0.20611,2.3972,-0.10252,0.37555,2.3898,-0.2035,0.07856,2.4386,-0.21241,-0.19137,2.4412,-0.26584,-0.36795,2.3235,-0.27312,-0.39293,2.2868,0.021433,0.081423,2.2953,0.10232,-0.1571,2.2366,0.073091,-0.36981,2.132,0.11936,-0.40956,2.1546,-0.14701,-0.25764,2.3339,-0.14184,-0.55457,2.1278,-0.21162,-0.74952,1.9202,-0.20615,-0.90819,1.9356,-0.039038,-0.25027,2.2563,-0.083412,-0.59593,2.1863,-0.036552,-0.84812,2.2133,-0.077717,-0.87546,2.184
-0.091559,-0.19122,2.3124,-0.065503,-0.1359,2.3649,-0.081099,0.20806,2.3974,-0.098408,0.37923,2.3896,-0.20799,0.078136,2.4427,-0.2151,-0.19306,2.4393,-0.26786,-0.36352,2.3214,-0.27707,-0.39302,2.2836,0.023516,0.083769,2.2958,0.10072,-0.16273,2.2367,0.064608,-0.36007,2.1392,0.088451,-0.42431,2.1394,-0.14783,-0.25648,2.3342,-0.14751,-0.55314,2.1403,-0.20594,-0.79741,1.9887,-0.24223,-0.86661,1.9474,-0.038448,-0.24951,2.2574,-0.083349,-0.59366,2.1876,-0.038123,-0.84663,2.2122,-0.094191,-0.86575,2.1479
-0.091363,-0.19058,2.3129,-0.065524,-0.13488,2.3653,-0.081223,0.21061,2.3967,-0.096147,0.38334,2.3882,-0.21078,0.082751,2.4448,-0.21952,-0.17227,2.4388,-0.26779,-0.34912,2.3297,-0.27468,-0.38352,2.2897,0.024381,0.084594,2.2967,0.10041,-0.15226,2.2456,0.084649,-0.36605,2.1501,0.094445,-0.41812,2.1433,-0.14844,-0.25559,2.3349,-0.14581,-0.54866,2.1483,-0.20122,-0.87502,2.0871,-0.24285,-0.90942,2.0142,-0.037552,-0.24919,2.2595,-0.082417,-0.59339,2.1903,-0.038229,-0.84702,2.2123,-0.10152,-0.86837,2.1658
-0.091722,-0.18865,2.3145,-0.066168,-0.13295,2.3666,-0.08144,0.21215,2.3966,-0.093108,0.38599,2.3868,-0.21216,0.085725,2.4451,-0.22072,-0.17008,2.4358,-0.27184,-0.34705,2.3283,-0.28228,-0.35698,2.3015,0.025951,0.086318,2.2985,0.097242,-0.15222,2.2501,0.065443,-0.34946,2.1588,0.081938,-0.41402,2.1444,-0.15001,-0.25333,2.3361,-0.22965,-0.56703,2.1678,-0.18231,-0.84857,2.1169,-0.23365,-0.90001,2.0855,-0.037006,-0.24786,2.2635,-0.12313,-0.59102,2.1885,-0.038498,-0.8452,2.2129,-0.091211,-0.89726,2.2061
-0.092645,-0.18707,2.3167,-0.067754,-0.13129,2.3687,-0.081662,0.21379,2.3969,-0.092451,0.38788,2.3861,-0.21359,0.089656,2.4453,-0.2265,-0.16781,2.4329,-0.27346,-0.34858,2.3289,-0.29859,-0.39315,2.2973,0.029699,0.091416,2.3029,0.10357,-0.1502,2.2658,0.064361,-0.34985,2.163,0.078052,-0.41562,2.1512,-0.15217,-0.25152,2.3368,-0.23018,-0.57182,2.1849,-0.20613,-0.86361,2.1816,-0.24088,-0.91572,2.1507,-0.037017,-0.24713,2.269,-0.067898,-0.60603,2.1987,-0.02981,-0.86693,2.2049,-0.094366,-0.90716,2.1857
-0.093994,-0.18513,2.321,-0.069565,-0.12866,2.3729,-0.081385,0.21829,2.3987,-0.092634,0.38961,2.386,-0.21482,0.095027,2.4467,-0.23031,-0.14811,2.4499,-0.27142,-0.32786,2.3412,-0.29385,-0.37355,2.308,0.030812,0.094148,2.3086,0.097063,-0.15895,2.2704,0.061822,-0.37366,2.1676,0.074319,-0.41803,2.161,-0.1543,-0.24932,2.3396,-0.23238,-0.57216,2.2191,-0.19887,-0.86302,2.2519,-0.23253,-0.91487,2.2239,-0.038474,-0.24602,2.277,-0.06918,-0.59983,2.2059,-0.04089,-0.86511,2.2129,-0.07972,-0.89864,2.1405
-0.094822,-0.18223,2.325,-0.071835,-0.12521,2.3775,-0.082291,0.22297,2.4018,-0.091385,0.39122,2.3864,-0.21641,0.10146,2.4481,-0.21577,-0.13266,2.4446,-0.27419,-0.32837,2.3415,-0.28406,-0.36101,2.2993,0.034132,0.097488,2.3174,0.099876,-0.16024,2.2761,0.063884,-0.34891,2.1903,0.033284,-0.40809,2.1704,-0.15568,-0.24681,2.3414,-0.23177,-0.57788,2.2519,-0.18932,-0.86912,2.3243,-0.22361,-0.92012,2.2969,-0.038432,-0.24417,2.283,-0.070963,-0.59678,2.2133,-0.042342,-0.8645,2.2166,-0.078774,-0.89796,2.1429
-0.097753,-0.17919,2.3322,-0.075566,-0.1216,2.3845,-0.084189,0.22663,2.4049,-0.092219,0.39303,2.3882,-0.21786,0.10372,2.4497,-0.21907,-0.13068,2.4496,-0.27714,-0.32762,2.3452,-0.29036,-0.36123,2.3073,0.03603,0.10014,2.3253,0.097723,-0.15706,2.2841,0.060884,-0.34585,2.1978,0.036955,-0.40811,2.1784,-0.15986,-0.2438,2.347,-0.22385,-0.59052,2.2954,-0.17883,-0.8996,2.4075,-0.21348,-0.93309,2.333,-0.040612,-0.24171,2.2934,-0.071523,-0.60061,2.2224,-0.040124,-0.8699,2.2212,-0.074779,-0.90339,2.1467
-0.099682,-0.17781,2.3386,-0.0785,-0.11992,2.3916,-0.083913,0.23058,2.4122,-0.092596,0.3956,2.3921,-0.21911,0.10544,2.4517,-0.24522,-0.15229,2.4513,-0.28221,-0.34318,2.341,-0.29295,-0.36459,2.3078,0.036331,0.10162,2.3362,0.091648,-0.15609,2.2945,0.053483,-0.34456,2.2074,0.070679,-0.39586,2.2349,-0.16215,-0.24184,2.3511,-0.21969,-0.60124,2.3346,-0.1723,-0.91383,2.4823,-0.20464,-0.9472,2.4067,-0.043049,-0.24033,2.3022,-0.074162,-0.60003,2.2323,-0.040767,-0.87111,2.2239,-0.073109,-0.90448,2.1483
-0.10443,-0.17428,2.3526,-0.084248,-0.11582,2.405,-0.086378,0.23359,2.4191,-0.093339,0.39559,2.3947,-0.22228,0.1073,2.4567,-0.25476,-0.15256,2.4577,-0.29035,-0.34797,2.3506,-0.30199,-0.40986,2.3274,0.036802,0.10674,2.3511,0.087727,-0.15322,2.3039,0.049754,-0.34215,2.2173,0.067909,-0.41196,2.2344,-0.16763,-0.23792,2.3635,-0.20763,-0.6127,2.3792,-0.16678,-0.9214,2.5356,-0.1954,-0.98264,2.5152,-0.047761,-0.2369,2.3188,-0.079321,-0.59703,2.2427,-0.040171,-0.8705,2.2287,-0.069903,-0.90395,2.152
-0.11129,-0.17287,2.3662,-0.090368,-0.11382,2.4176,-0.089616,0.235,2.4265,-0.097863,0.396,2.4037,-0.22778,0.10893,2.466,-0.2675,-0.13409,2.4833,-0.28872,-0.32219,2.3733,-0.29892,-0.36979,2.3446,0.032408,0.10957,2.36,0.085743,-0.15026,2.3142,0.04655,-0.34054,2.2309,0.058545,-0.38767,2.2351,-0.17673,-0.23779,2.3783,-0.19844,-0.61268,2.4185,-0.16752,-0.9135,2.5672,-0.19693,-0.97757,2.5391,-0.053984,-0.2343,2.3331,-0.086306,-0.598,2.2595,-0.040844,-0.86944,2.2318,-0.056895,-0.92186,2.2044
-0.11539,-0.17178,2.3778,-0.093985,-0.11264,2.4289,-0.092856,0.23586,2.4359,-0.10288,0.39745,2.4177,-0.23878,0.1115,2.4851,-0.27329,-0.13553,2.4913,-0.29284,-0.32653,2.3869,-0.29726,-0.36858,2.3537,0.027665,0.11123,2.3728,0.064748,-0.13016,2.3437,0.04846,-0.32564,2.2474,0.053678,-0.38737,2.2366,-0.18149,-0.23633,2.388,-0.19579,-0.59837,2.4472,-0.16359,-0.91294,2.5837,-0.19411,-0.94663,2.5075,-0.057418,-0.23368,2.3463,-0.088307,-0.5947,2.2667,-0.043226,-0.86858,2.2368,-0.07374,-0.90227,2.1605
-0.11918,-0.16842,2.394,-0.097891,-0.10925,2.4441,-0.09851,0.23618,2.4469,-0.10741,0.39881,2.428,-0.24366,0.11265,2.4969,-0.27831,-0.13338,2.4961,-0.29453,-0.32662,2.3971,-0.2972,-0.37047,2.363,0.023802,0.11213,2.3834,0.062592,-0.13119,2.3487,0.036557,-0.32601,2.2645,0.045476,-0.41083,2.2481,-0.18613,-0.23464,2.4061,-0.19459,-0.5971,2.4828,-0.15663,-0.91996,2.5968,-0.18738,-0.95387,2.5208,-0.060081,-0.23058,2.3618,-0.093791,-0.58209,2.2776,-0.045725,-0.86686,2.242,-0.076475,-0.90076,2.1659
-0.12411,-0.16923,2.4092,-0.10386,-0.10991,2.46,-0.10859,0.23577,2.4653,-0.11294,0.39904,2.4417,-0.24489,0.11341,2.5061,-0.28213,-0.13395,2.5041,-0.30101,-0.32419,2.4134,-0.301,-0.37995,2.376,0.017602,0.1139,2.3961,0.056627,-0.13244,2.3623,0.0012563,-0.33293,2.2802,0.032496,-0.41907,2.255,-0.18895,-0.23565,2.4198,-0.1908,-0.59426,2.5072,-0.15113,-0.91399,2.6061,-0.18155,-0.94784,2.5299,-0.065738,-0.22982,2.3777,-0.094706,-0.57796,2.2865,-0.046037,-0.86943,2.2464,-0.076452,-0.90328,2.1702
-0.13003,-0.16781,2.4243,-0.10888,-0.10834,2.4749,-0.11357,0.23881,2.4818,-0.11614,0.40339,2.4583,-0.25045,0.11542,2.5235,-0.28973,-0.14005,2.5187,-0.30527,-0.33251,2.4327,-0.30592,-0.38237,2.3997,0.010122,0.1142,2.4088,0.044541,-0.14104,2.3771,0.018769,-0.33382,2.2948,0.024393,-0.38773,2.2735,-0.19507,-0.23383,2.4355,-0.19397,-0.59055,2.5298,-0.14875,-0.9171,2.6107,-0.18042,-0.95096,2.535,-0.07176,-0.22808,2.3928,-0.097744,-0.57603,2.2948,-0.046912,-0.86885,2.2504,-0.07858,-0.90271,2.1747
-0.13749,-0.16536,2.4426,-0.11407,-0.10565,2.491,-0.11607,0.23958,2.4919,-0.12195,0.40168,2.4689,-0.26128,0.11724,2.5497,-0.29575,-0.14618,2.5274,-0.30985,-0.34228,2.4514,-0.30988,-0.37523,2.4212,0.0022721,0.11549,2.422,0.034194,-0.14027,2.3871,0.0049067,-0.33406,2.3086,0.0089451,-0.41156,2.2814,-0.20477,-0.23244,2.4576,-0.19538,-0.59916,2.5518,-0.14621,-0.92787,2.6162,-0.18042,-0.96198,2.5419,-0.078366,-0.2266,2.4089,-0.10196,-0.57319,2.3067,-0.046956,-0.87034,2.255,-0.081167,-0.90445,2.1806
-0.14336,-0.16554,2.458,-0.12028,-0.10579,2.5062,-0.12329,0.23706,2.5031,-0.12963,0.39938,2.4777,-0.26386,0.11939,2.5589,-0.30259,-0.14111,2.5484,-0.31193,-0.33562,2.4602,-0.31278,-0.37595,2.4351,-0.0011149,0.11278,2.4321,0.028737,-0.14203,2.4003,-0.0020308,-0.3351,2.3213,-0.0040183,-0.41545,2.2981,-0.20942,-0.2321,2.4732,-0.1986,-0.59981,2.5661,-0.14404,-0.93063,2.6205,-0.17806,-0.96493,2.546,-0.085039,-0.228,2.4247,-0.10355,-0.57258,2.3186,-0.048358,-0.86873,2.2602,-0.082375,-0.90303,2.1858
-0.15212,-0.16405,2.4747,-0.12883,-0.10426,2.5226,-0.12788,0.23778,2.5163,-0.13647,0.40078,2.4941,-0.26734,0.12047,2.5688,-0.30703,-0.13998,2.5596,-0.31792,-0.33847,2.48,-0.3172,-0.38099,2.4525,-0.0096142,0.11369,2.4485,0.018981,-0.13712,2.4208,-0.010217,-0.33084,2.3404,-0.014427,-0.38131,2.3209,-0.21725,-0.22917,2.4919,-0.20234,-0.59645,2.5697,-0.14461,-0.92952,2.6234,-0.17767,-0.96385,2.5486,-0.096223,-0.22691,2.4408,-0.1098,-0.57433,2.331,-0.04769,-0.87257,2.2681,-0.080748,-0.9069,2.1933
-0.15877,-0.16416,2.4895,-0.13536,-0.10488,2.5377,-0.13357,0.23714,2.5346,-0.14192,0.40144,2.5047,-0.27169,0.12028,2.5831,-0.30979,-0.1408,2.5693,-0.32395,-0.343,2.4988,-0.32282,-0.38575,2.4698,-0.014227,0.11337,2.4633,0.013546,-0.13645,2.4346,-0.021724,-0.33401,2.3602,-0.02848,-0.40819,2.3561,-0.22396,-0.22917,2.5065,-0.2036,-0.59737,2.5725,-0.14543,-0.9297,2.6249,-0.17844,-0.96388,2.5499,-0.10312,-0.22633,2.4549,-0.11352,-0.56979,2.3412,-0.048415,-0.87431,2.2747,-0.081427,-0.90848,2.1998
-0.16506,-0.16326,2.5023,-0.14028,-0.10399,2.5495,-0.13738,0.23662,2.5442,-0.14646,0.40083,2.5146,-0.28315,0.11796,2.6048,-0.30277,-0.12156,2.5918,-0.32886,-0.33665,2.5135,-0.32306,-0.3881,2.494,-0.019374,0.11371,2.475,0.0097475,-0.13724,2.4443,-0.02145,-0.33873,2.378,-0.026361,-0.34009,2.3689,-0.23158,-0.22916,2.5221,-0.20416,-0.5985,2.5788,-0.14445,-0.93136,2.6306,-0.16997,-0.98949,2.5946,-0.10911,-0.22699,2.4656,-0.11668,-0.56711,2.3492,-0.04626,-0.87935,2.286,-0.080974,-0.91363,2.2119
-0.17182,-0.16419,2.5224,-0.14715,-0.10497,2.5698,-0.14439,0.23608,2.5664,-0.15575,0.40255,2.539,-0.28597,0.11853,2.6194,-0.31387,-0.13502,2.6167,-0.34167,-0.35374,2.5542,-0.34052,-0.39935,2.5257,-0.028873,0.11252,2.4922,0.0027863,-0.13735,2.4694,-0.022556,-0.33286,2.3945,-0.043157,-0.38101,2.3639,-0.23692,-0.22921,2.5407,-0.21389,-0.57783,2.5925,-0.15338,-0.90882,2.63,-0.1882,-0.94301,2.5559,-0.11695,-0.22754,2.4866,-0.12388,-0.56982,2.3645,-0.038429,-0.8845,2.3498,-0.073253,-0.9187,2.2758
-0.17233,-0.16375,2.5254,-0.14829,-0.10478,2.5734,-0.14727,0.23597,2.5722,-0.15781,0.40231,2.5443,-0.28666,0.11833,2.6219,-0.3152,-0.13569,2.619,-0.34242,-0.34766,2.558,-0.34356,-0.39872,2.529,-0.029825,0.11262,2.4971,0.0010024,-0.13619,2.4781,-0.03739,-0.32942,2.3857,-0.039276,-0.37067,2.3742,-0.23726,-0.22884,2.5424,-0.21825,-0.55963,2.5778,-0.15967,-0.88797,2.6234,-0.19397,-0.92208,2.549,-0.11706,-0.22694,2.4904,-0.12405,-0.57248,2.3702,-0.029138,-0.88973,2.3844,-0.035761,-0.94566,2.333
-0.17363,-0.16374,2.5281,-0.15039,-0.10512,2.5769,-0.15068,0.23625,2.5795,-0.15897,0.40144,2.5481,-0.28782,0.11774,2.6252,-0.31683,-0.13698,2.62,-0.34493,-0.35145,2.5636,-0.35706,-0.40467,2.5583,-0.030669,0.11166,2.5033,0.00044453,-0.13555,2.481,-0.043624,-0.3319,2.3945,-0.052649,-0.40006,2.3793,-0.23837,-0.22881,2.5451,-0.21659,-0.57486,2.5904,-0.15626,-0.90456,2.6294,-0.18983,-0.93851,2.5546,-0.11793,-0.22694,2.4918,-0.12162,-0.5735,2.378,-0.026179,-0.88849,2.3968,-0.059749,-0.92244,2.3221
-0.17535,-0.16404,2.5313,-0.15222,-0.10577,2.5807,-0.15105,0.23675,2.5864,-0.15976,0.40078,2.5544,-0.28932,0.11737,2.6291,-0.31781,-0.13875,2.6211,-0.34689,-0.35246,2.5681,-0.35778,-0.40771,2.5627,-0.031819,0.11079,2.5083,-0.0019301,-0.13365,2.4822,-0.037819,-0.32919,2.3981,-0.040699,-0.36172,2.3915,-0.23982,-0.22894,2.5474,-0.20786,-0.59989,2.5994,-0.14858,-0.93137,2.636,-0.17423,-0.98493,2.5962,-0.12,-0.22711,2.4947,-0.11879,-0.57307,2.3876,-0.017115,-0.89092,2.4184,-0.050329,-0.9247,2.3435
-0.17611,-0.16436,2.5325,-0.15313,-0.10611,2.5822,-0.15102,0.23715,2.5884,-0.16058,0.40088,2.5569,-0.29036,0.11705,2.6307,-0.31793,-0.14074,2.6222,-0.34923,-0.35587,2.5754,-0.35496,-0.41046,2.59,-0.032628,0.11003,2.5117,-0.0064914,-0.13517,2.4821,-0.036045,-0.32871,2.4033,-0.042377,-0.36847,2.3875,-0.24047,-0.22914,2.5488,-0.20888,-0.60015,2.6004,-0.14956,-0.93157,2.6358,-0.18233,-0.96531,2.5606,-0.12117,-0.22737,2.4955,-0.1144,-0.57443,2.3973,-0.0089907,-0.89262,2.4354,-0.041763,-0.92636,2.3603
-0.17608,-0.16452,2.5329,-0.15327,-0.10629,2.5828,-0.15133,0.23712,2.5894,-0.16085,0.40097,2.5589,-0.29075,0.11675,2.6312,-0.31836,-0.14185,2.6233,-0.3506,-0.3582,2.5797,-0.36638,-0.41261,2.5927,-0.034029,0.11015,2.5136,-0.011446,-0.13371,2.4807,-0.035954,-0.33775,2.4199,-0.039645,-0.36686,2.396,-0.24028,-0.22924,2.5493,-0.20893,-0.60044,2.6005,-0.14949,-0.93204,2.6374,-0.18205,-0.96576,2.5621,-0.12119,-0.22739,2.4958,-0.10744,-0.5788,2.4097,-0.0020702,-0.89476,2.4419,-0.034633,-0.92848,2.3666
-0.17661,-0.16427,2.5338,-0.15382,-0.10606,2.5838,-0.15148,0.23748,2.5905,-0.16134,0.40138,2.5618,-0.29121,0.11807,2.6323,-0.33525,-0.14131,2.6359,-0.35052,-0.35843,2.5804,-0.35449,-0.41467,2.5857,-0.0346,0.11123,2.5152,-0.024412,-0.13706,2.4955,-0.034743,-0.33195,2.3976,-0.039149,-0.38829,2.3919,-0.24056,-0.22824,2.5499,-0.20818,-0.59956,2.6002,-0.14971,-0.93204,2.6373,-0.18216,-0.96575,2.5619,-0.12217,-0.22744,2.4974,-0.098226,-0.58402,2.4211,0.0084651,-0.89837,2.4516,-0.023984,-0.93208,2.3763
-0.1765,-0.16407,2.5342,-0.15385,-0.10576,2.5842,-0.15176,0.23844,2.5906,-0.16217,0.40188,2.5637,-0.29168,0.11781,2.6324,-0.33507,-0.1436,2.6345,-0.35087,-0.35889,2.5806,-0.35505,-0.41569,2.5818,-0.03476,0.11226,2.516,-0.023618,-0.13543,2.4979,-0.033024,-0.33317,2.4007,-0.035845,-0.38922,2.4006,-0.24024,-0.22772,2.55,-0.20739,-0.59922,2.5988,-0.14905,-0.93221,2.6371,-0.18136,-0.96593,2.5618,-0.12204,-0.22746,2.4978,-0.091534,-0.5878,2.4302,0.01384,-0.90197,2.4554,-0.018469,-0.93569,2.38
-0.17558,-0.16372,2.5338,-0.15327,-0.10542,2.5839,-0.15242,0.23887,2.5906,-0.16223,0.4018,2.5637,-0.29204,0.11773,2.6326,-0.33366,-0.14341,2.6279,-0.35047,-0.36109,2.5792,-0.35839,-0.41701,2.5718,-0.034709,0.11269,2.5162,-0.0079371,-0.13207,2.4807,-0.032811,-0.32631,2.4008,-0.035633,-0.38806,2.4005,-0.23905,-0.22731,2.5492,-0.20537,-0.59846,2.5964,-0.14783,-0.93215,2.6374,-0.18011,-0.96588,2.562,-0.12048,-0.22736,2.4974,-0.077614,-0.603,2.4426,0.018541,-0.90835,2.4578,-0.013734,-0.94208,2.3824
-0.1718,-0.164,2.5319,-0.15069,-0.1055,2.5827,-0.15209,0.23924,2.5905,-0.16185,0.40161,2.5641,-0.29168,0.11746,2.631,-0.33285,-0.14461,2.6266,-0.35085,-0.35103,2.5756,-0.35504,-0.41084,2.5688,-0.034531,0.11273,2.5158,0.0019,-0.1323,2.4817,-0.029112,-0.32073,2.3775,-0.034662,-0.38695,2.3997,-0.23335,-0.22772,2.5458,-0.20306,-0.59828,2.5935,-0.14707,-0.93293,2.6372,-0.17911,-0.96665,2.5617,-0.1162,-0.22756,2.4956,-0.072063,-0.60014,2.448,0.021179,-0.90878,2.4603,-0.010857,-0.9425,2.3848
-0.17041,-0.16452,2.5307,-0.14942,-0.106,2.5818,-0.1509,0.23929,2.5905,-0.1619,0.40152,2.5633,-0.29069,0.11875,2.63,-0.33184,-0.14445,2.6241,-0.34968,-0.35429,2.571,-0.35377,-0.41074,2.5624,-0.03391,0.11305,2.5158,0.0055091,-0.13202,2.48,-0.025795,-0.32934,2.3981,-0.033981,-0.3863,2.3969,-0.23187,-0.2284,2.5444,-0.19859,-0.59933,2.5907,-0.14631,-0.93198,2.6366,-0.17813,-0.96566,2.561,-0.11521,-0.22761,2.4948,-0.068138,-0.59394,2.4565,0.028278,-0.91268,2.4643,-0.0035402,-0.94636,2.3887
-0.16839,-0.16448,2.5295,-0.1473,-0.10601,2.5806,-0.14848,0.23969,2.5897,-0.16118,0.40188,2.5634,-0.29047,0.11845,2.6297,-0.3291,-0.1442,2.6209,-0.34784,-0.35216,2.5669,-0.34955,-0.4111,2.5509,-0.032615,0.11348,2.515,0.0081198,-0.13656,2.4738,-0.0079231,-0.33059,2.3926,-0.027694,-0.3792,2.3955,-0.23031,-0.22908,2.5432,-0.19357,-0.59865,2.5873,-0.14447,-0.93102,2.6367,-0.17633,-0.96468,2.5611,-0.11292,-0.22747,2.4934,-0.056993,-0.60323,2.4628,0.028892,-0.91181,2.4651,-0.0029719,-0.94547,2.3896
-0.16404,-0.16274,2.5272,-0.14314,-0.10492,2.5788,-0.14387,0.23986,2.5894,-0.16073,0.40218,2.5632,-0.28905,0.11857,2.6279,-0.32542,-0.1409,2.6173,-0.34446,-0.34328,2.5562,-0.34436,-0.41193,2.5414,-0.027524,0.11681,2.5137,0.011344,-0.13499,2.4691,-0.002094,-0.33108,2.3923,-0.026251,-0.37987,2.3945,-0.22651,-0.22815,2.5408,-0.18766,-0.59713,2.5799,-0.1419,-0.92746,2.6337,-0.17341,-0.96103,2.5579,-0.10811,-0.22503,2.4903,-0.053714,-0.59383,2.4685,0.032393,-0.91254,2.4678,0.00088187,-0.94611,2.392
-0.15564,-0.16386,2.522,-0.13686,-0.10583,2.5749,-0.14078,0.24015,2.5881,-0.15964,0.4024,2.5624,-0.28428,0.11734,2.6233,-0.32058,-0.14164,2.6099,-0.34068,-0.34094,2.5462,-0.33765,-0.41408,2.5287,-0.013636,0.11834,2.5159,0.019268,-0.13411,2.4659,0.00042728,-0.33258,2.3905,-0.013321,-0.3794,2.387,-0.2166,-0.23145,2.5332,-0.18463,-0.59788,2.5767,-0.14132,-0.92668,2.6324,-0.1704,-0.96013,2.5556,-0.10016,-0.2247,2.4861,-0.039189,-0.58852,2.4699,0.034304,-0.91191,2.4691,0.0052245,-0.94535,2.3922
-0.15092,-0.16394,2.5193,-0.13247,-0.10591,2.5725,-0.13775,0.2407,2.5873,-0.15673,0.40345,2.5624,-0.28137,0.11775,2.6211,-0.3161,-0.13969,2.6025,-0.33194,-0.34122,2.5381,-0.33024,-0.41587,2.5181,-0.011313,0.11884,2.5152,0.024782,-0.13455,2.4643,0.0052857,-0.33486,2.3898,-0.0046894,-0.37833,2.3834,-0.21238,-0.2316,2.5304,-0.18312,-0.59572,2.5729,-0.14122,-0.92455,2.6309,-0.16999,-0.95795,2.5539,-0.09457,-0.2247,2.4826,-0.034011,-0.58742,2.4717,0.037581,-0.91098,2.4712,0.0088033,-0.94438,2.3943
-0.14604,-0.16386,2.5171,-0.12775,-0.10564,2.5704,-0.13416,0.24188,2.5862,-0.1533,0.40666,2.5633,-0.27966,0.11825,2.6205,-0.31253,-0.13465,2.6006,-0.32439,-0.33844,2.5247,-0.31972,-0.40793,2.5014,-0.008077,0.12099,2.5142,0.029515,-0.13488,2.4626,0.010753,-0.33063,2.3865,-0.00096899,-0.37614,2.3826,-0.20812,-0.23208,2.5274,-0.18137,-0.59207,2.5669,-0.14099,-0.92427,2.6296,-0.16981,-0.95766,2.5526,-0.088889,-0.2241,2.481,-0.025643,-0.58096,2.4716,0.04089,-0.90849,2.473,0.012075,-0.94187,2.3961
-0.14218,-0.16385,2.515,-0.12393,-0.10551,2.5683,-0.13122,0.24234,2.5841,-0.15181,0.4078,2.5632,-0.27599,0.11831,2.6187,-0.31022,-0.13446,2.5996,-0.32208,-0.3392,2.5233,-0.31741,-0.40785,2.4968,-0.0059223,0.12352,2.5131,0.033863,-0.13451,2.4595,0.015062,-0.33137,2.3865,0.00041614,-0.37707,2.382,-0.2038,-0.232,2.5243,-0.18015,-0.59011,2.5639,-0.14038,-0.92189,2.6291,-0.16931,-0.9553,2.5523,-0.084865,-0.22376,2.4799,-0.024832,-0.57949,2.4721,0.038818,-0.9035,2.4728,0.0098926,-0.93691,2.3959
-0.13832,-0.16287,2.514,-0.12039,-0.1046,2.5674,-0.12826,0.24302,2.5831,-0.15112,0.40741,2.5626,-0.27277,0.1175,2.6168,-0.3058,-0.13237,2.5967,-0.31339,-0.34004,2.5146,-0.32627,-0.41709,2.5144,-0.0029842,0.12621,2.5133,0.037631,-0.1318,2.4567,0.017361,-0.32915,2.3857,0.0058748,-0.38128,2.3831,-0.20012,-0.23158,2.5237,-0.17886,-0.5889,2.5622,-0.14018,-0.92208,2.6289,-0.16881,-0.95549,2.5519,-0.080617,-0.22245,2.4784,-0.020471,-0.57726,2.4738,0.038796,-0.90213,2.4726,0.010161,-0.93554,2.3956
