-0.58552,-0.1808,2.3578,-0.5837,-0.12739,2.4112,-0.5937,0.19775,2.4314,-0.60591,0.36801,2.3912,-0.72974,0.063176,2.4337,-0.78177,-0.13486,2.4231,-0.74001,-0.33921,2.2676,-0.77476,-0.3787,2.2947,-0.45404,0.077035,2.4124,-0.42069,-0.12718,2.3754,-0.46496,-0.32798,2.2739,-0.47823,-0.39073,2.2199,-0.64853,-0.24345,2.3464,-0.67273,-0.56917,2.2854,-0.69414,-0.82078,2.2505,-0.69996,-0.85183,2.1726,-0.52119,-0.24699,2.3396,-0.51874,-0.58559,2.4058,-0.49191,-0.92202,2.497,-0.54722,-0.87703,2.3651
-0.59481,-0.17888,2.3502,-0.59157,-0.12599,2.4034,-0.59933,0.19721,2.4236,-0.6105,0.36678,2.3858,-0.73444,0.06354,2.4304,-0.77779,-0.14469,2.4158,-0.76621,-0.34322,2.2909,-0.79126,-0.38178,2.3302,-0.45857,0.078866,2.4047,-0.44697,-0.13861,2.3533,-0.48299,-0.3432,2.2476,-0.50612,-0.3813,2.1809,-0.65899,-0.24173,2.3406,-0.67646,-0.57323,2.2774,-0.69611,-0.82496,2.2453,-0.70322,-0.85602,2.1675,-0.53103,-0.24512,2.3303,-0.52427,-0.58537,2.3938,-0.49407,-0.92165,2.4946,-0.55172,-0.87615,2.3598
-0.60063,-0.17958,2.3443,-0.59645,-0.12678,2.3977,-0.60302,0.19697,2.4197,-0.61647,0.36716,2.381,-0.73899,0.063094,2.427,-0.76272,-0.16077,2.3871,-0.76877,-0.34777,2.2895,-0.7885,-0.37861,2.3274,-0.46418,0.080391,2.3974,-0.45246,-0.13789,2.3449,-0.49453,-0.33516,2.2323,-0.50712,-0.38538,2.2056,-0.66448,-0.24281,2.3363,-0.6807,-0.57296,2.2703,-0.69826,-0.82479,2.2382,-0.7116,-0.87179,2.1832,-0.53763,-0.24374,2.3224,-0.54283,-0.58593,2.3672,-0.49584,-0.92242,2.4912,-0.5772,-0.88236,2.3271
-0.61019,-0.18034,2.3365,-0.60392,-0.1275,2.39,-0.60697,0.1975,2.4139,-0.62326,0.3669,2.3747,-0.74323,0.062958,2.4242,-0.76969,-0.13832,2.3903,-0.77985,-0.32201,2.284,-0.82752,-0.41099,2.3031,-0.47038,0.081543,2.3885,-0.46914,-0.1425,2.282,-0.51427,-0.33389,2.2108,-0.53838,-0.37685,2.1888,-0.67386,-0.24339,2.3309,-0.68222,-0.57267,2.2627,-0.70048,-0.82459,2.234,-0.71306,-0.87303,2.1814,-0.54928,-0.24436,2.3117,-0.55085,-0.58176,2.3532,-0.50134,-0.91379,2.478,-0.58142,-0.8785,2.3195
-0.61714,-0.18059,2.3288,-0.60991,-0.12774,2.3822,-0.61558,0.1968,2.4064,-0.62696,0.36622,2.371,-0.75171,0.06199,2.4202,-0.77192,-0.13597,2.3905,-0.76654,-0.29512,2.2684,-0.79786,-0.35586,2.2779,-0.47968,0.082292,2.377,-0.47922,-0.14106,2.2692,-0.52159,-0.32956,2.1991,-0.53388,-0.36514,2.1314,-0.68055,-0.24497,2.3254,-0.68612,-0.57356,2.2568,-0.7032,-0.8257,2.2295,-0.71563,-0.85676,2.1525,-0.55568,-0.24304,2.3019,-0.56877,-0.59165,2.3282,-0.50272,-0.91685,2.4754,-0.59669,-0.88395,2.3032
-0.62718,-0.18456,2.3189,-0.61778,-0.13154,2.3733,-0.61933,0.19697,2.4031,-0.63393,0.36566,2.3656,-0.75563,0.062422,2.417,-0.77771,-0.1324,2.3896,-0.77523,-0.32077,2.2318,-0.7822,-0.38637,2.2044,-0.48684,0.081851,2.3674,-0.46287,-0.1219,2.3139,-0.52396,-0.31276,2.1986,-0.53601,-0.36546,2.1285,-0.68947,-0.24814,2.3168,-0.68821,-0.57399,2.2526,-0.7065,-0.82608,2.2254,-0.69612,-0.87276,2.1836,-0.56836,-0.24561,2.29,-0.5738,-0.59154,2.3154,-0.51975,-0.86723,2.4093,-0.55838,-0.88911,2.338
-0.63782,-0.18696,2.3101,-0.62638,-0.13375,2.3647,-0.62394,0.19832,2.3989,-0.63968,0.36575,2.3617,-0.75955,0.063468,2.4129,-0.78064,-0.14307,2.3843,-0.78633,-0.3083,2.2357,-0.78578,-0.38028,2.2006,-0.49487,0.080615,2.3567,-0.46551,-0.12253,2.3094,-0.53469,-0.30363,2.1769,-0.55405,-0.36762,2.11,-0.70051,-0.25027,2.3091,-0.68099,-0.58981,2.2831,-0.69413,-0.84838,2.2614,-0.70511,-0.88038,2.1798,-0.58068,-0.24733,2.2789,-0.58467,-0.59592,2.2919,-0.50063,-0.9303,2.4714,-0.55346,-0.90175,2.3335
-0.64708,-0.18738,2.2999,-0.63403,-0.13478,2.3553,-0.62842,0.19915,2.3953,-0.64816,0.36768,2.3586,-0.76454,0.062976,2.4084,-0.78735,-0.13845,2.3854,-0.7909,-0.3185,2.2808,-0.79529,-0.35429,2.2068,-0.502,0.078018,2.3459,-0.47909,-0.13034,2.2882,-0.5556,-0.31291,2.1555,-0.55912,-0.37611,2.0944,-0.71106,-0.25023,2.2986,-0.68156,-0.60639,2.2742,-0.71762,-0.84067,2.2215,-0.69426,-0.88777,2.1825,-0.59026,-0.24717,2.2673,-0.5983,-0.60183,2.2712,-0.52417,-0.8951,2.4011,-0.56542,-0.90752,2.3303
-0.65603,-0.18615,2.2884,-0.64144,-0.13456,2.3444,-0.63282,0.1996,2.3901,-0.6522,0.36749,2.3566,-0.77116,0.066646,2.4079,-0.79409,-0.1416,2.3844,-0.79226,-0.31959,2.2768,-0.79968,-0.35384,2.2015,-0.50718,0.078356,2.3383,-0.48002,-0.13071,2.2842,-0.55492,-0.31231,2.1538,-0.56498,-0.37125,2.0871,-0.72028,-0.25012,2.2884,-0.69231,-0.59523,2.2246,-0.74072,-0.81255,2.1825,-0.69578,-0.86188,2.1686,-0.60101,-0.24514,2.2516,-0.58131,-0.67184,2.3139,-0.52665,-0.8975,2.3845,-0.51931,-0.96648,2.3601
-0.65938,-0.18571,2.2794,-0.6433,-0.13463,2.3356,-0.63821,0.19955,2.3859,-0.65636,0.36811,2.355,-0.77742,0.069502,2.4077,-0.80325,-0.14178,2.3785,-0.79616,-0.32236,2.2741,-0.82535,-0.38948,2.2718,-0.5199,0.076238,2.3249,-0.49023,-0.13726,2.2691,-0.55998,-0.32044,2.1405,-0.56965,-0.36931,2.0728,-0.72379,-0.24925,2.2766,-0.67507,-0.64431,2.2499,-0.73429,-0.85483,2.2144,-0.69807,-0.85423,2.191,-0.60314,-0.24486,2.2439,-0.61215,-0.65837,2.2143,-0.52581,-0.90831,2.3673,-0.52982,-0.95306,2.3305
-0.67043,-0.19127,2.2668,-0.65275,-0.1428,2.3228,-0.65015,0.17786,2.3759,-0.65814,0.36479,2.3543,-0.78227,0.06973,2.4048,-0.81113,-0.15715,2.3639,-0.79972,-0.32538,2.2651,-0.81377,-0.36387,2.1732,-0.53836,0.070647,2.312,-0.49782,-0.14035,2.2593,-0.56224,-0.3231,2.1325,-0.57196,-0.36901,2.0635,-0.73113,-0.25299,2.2656,-0.67754,-0.65815,2.2217,-0.74083,-0.8578,2.2095,-0.70444,-0.85959,2.1966,-0.61824,-0.24679,2.2294,-0.6245,-0.64303,2.1431,-0.53694,-0.90277,2.3289,-0.54731,-0.93907,2.2852
-0.6814,-0.19093,2.2573,-0.66209,-0.14187,2.3148,-0.65526,0.19609,2.377,-0.66509,0.36614,2.3505,-0.78596,0.069313,2.4009,-0.82311,-0.1403,2.3934,-0.86144,-0.30136,2.3161,-0.82673,-0.39385,2.2505,-0.54518,0.06635,2.3068,-0.50942,-0.14144,2.2454,-0.5634,-0.32609,2.124,-0.56568,-0.36599,2.0553,-0.74184,-0.25159,2.2573,-0.68867,-0.67737,2.1909,-0.74268,-0.85354,2.2127,-0.74198,-0.84175,2.1579,-0.63207,-0.24554,2.2162,-0.65991,-0.64461,2.1158,-0.54931,-0.84827,2.2588,-0.60461,-0.86254,2.2057
-0.68653,-0.19138,2.2525,-0.66605,-0.14285,2.3105,-0.65737,0.19464,2.3775,-0.66713,0.36382,2.3489,-0.79178,0.065034,2.4006,-0.82674,-0.14,2.3928,-0.87359,-0.32415,2.2969,-0.8767,-0.39547,2.2607,-0.55352,0.058592,2.3004,-0.52293,-0.14843,2.2359,-0.54855,-0.33144,2.12,-0.61978,-0.38658,2.1288,-0.74745,-0.25183,2.252,-0.74965,-0.62815,2.1744,-0.75003,-0.80955,2.1596,-0.78136,-0.84032,2.0925,-0.63754,-0.2456,2.2104,-0.63154,-0.63876,2.0553,-0.59649,-0.83808,2.2062,-0.61716,-0.84338,2.1343
-0.69677,-0.19305,2.243,-0.67806,-0.1456,2.3031,-0.66492,0.18974,2.3774,-0.67257,0.35889,2.3478,-0.78888,0.056631,2.3808,-0.83814,-0.14207,2.3932,-0.87841,-0.33459,2.2907,-0.88356,-0.40426,2.2515,-0.56163,0.054867,2.2968,-0.52527,-0.14728,2.2346,-0.49434,-0.32593,2.1279,-0.48574,-0.37977,2.1048,-0.7575,-0.2519,2.2413,-0.75508,-0.6337,2.1727,-0.71972,-0.94491,2.2244,-0.74246,-0.97033,2.1288,-0.64704,-0.24365,2.2026,-0.67825,-0.56184,2.0362,-0.62804,-0.79178,2.1091,-0.65146,-0.82358,2.0354
-0.70067,-0.19322,2.2391,-0.68125,-0.14678,2.2996,-0.66698,0.18729,2.3784,-0.6791,0.35307,2.3453,-0.79234,0.051568,2.3807,-0.84759,-0.14497,2.3911,-0.8832,-0.33511,2.2897,-0.88571,-0.40431,2.2494,-0.56911,0.049321,2.2935,-0.52828,-0.14482,2.233,-0.49516,-0.32504,2.1277,-0.62766,-0.37415,2.1221,-0.76056,-0.25405,2.2387,-0.76095,-0.6344,2.1627,-0.72191,-0.94095,2.2285,-0.74603,-0.96757,2.1335,-0.65302,-0.23811,2.1939,-0.71094,-0.50049,2.0025,-0.66251,-0.78655,2.0273,-0.64638,-0.82123,1.995
-0.70155,-0.1914,2.2366,-0.68041,-0.14693,2.2968,-0.67052,0.1822,2.3795,-0.68468,0.34702,2.3415,-0.80333,0.076072,2.4063,-0.84991,-0.17918,2.3665,-0.89565,-0.34117,2.2811,-0.89736,-0.4107,2.2415,-0.57609,0.044934,2.2928,-0.53553,-0.15268,2.226,-0.55397,-0.3172,2.1514,-0.5942,-0.35833,2.1469,-0.76083,-0.25648,2.2341,-0.75118,-0.58896,2.159,-0.69325,-0.84174,2.2641,-0.68577,-0.8174,2.1658,-0.65361,-0.23499,2.1928,-0.71407,-0.50443,1.9596,-0.65612,-0.77148,2.0185,-0.59495,-0.81253,2.0042
-0.71354,-0.19871,2.2284,-0.69263,-0.1547,2.2903,-0.67348,0.17627,2.3795,-0.69148,0.34069,2.3389,-0.79929,0.035322,2.3762,-0.85343,-0.18818,2.3656,-0.91553,-0.36331,2.2672,-0.91193,-0.42382,2.2332,-0.58109,0.041697,2.2931,-0.54561,-0.15599,2.2242,-0.54449,-0.3675,2.1067,-0.56985,-0.40422,2.0976,-0.77272,-0.26138,2.2262,-0.75523,-0.6028,2.1459,-0.71874,-0.9327,2.2274,-0.73421,-0.9663,2.1473,-0.66831,-0.23816,2.1854,-0.71991,-0.48154,1.9487,-0.69552,-0.80274,1.9002,-0.711,-0.83634,1.82
-0.7158,-0.20372,2.2241,-0.69586,-0.16046,2.2862,-0.67717,0.16856,2.3799,-0.69334,0.33328,2.3382,-0.80221,0.030386,2.3746,-0.85936,-0.19774,2.3644,-0.92592,-0.39765,2.2521,-0.92484,-0.44911,2.2229,-0.58505,0.036839,2.2926,-0.54361,-0.15312,2.2272,-0.59879,-0.33684,2.0848,-0.57502,-0.39714,2.0998,-0.77438,-0.2656,2.2213,-0.75749,-0.65084,2.136,-0.73024,-0.95129,2.2043,-0.74503,-0.97731,2.1168,-0.67013,-0.2423,2.1816,-0.72082,-0.4784,1.942,-0.70973,-0.78705,1.8318,-0.7245,-0.82372,1.7505
-0.71352,-0.20758,2.22,-0.69578,-0.16513,2.2823,-0.68322,0.1575,2.378,-0.7004,0.32036,2.3353,-0.80572,0.024123,2.3732,-0.86427,-0.20304,2.3596,-0.93304,-0.39217,2.2606,-0.94045,-0.4448,2.2346,-0.58713,0.030406,2.2922,-0.53678,-0.15772,2.2347,-0.5941,-0.33791,2.0897,-0.5727,-0.4036,2.1072,-0.77052,-0.27279,2.2156,-0.76768,-0.65429,2.1167,-0.73279,-0.95239,2.197,-0.74741,-0.98261,2.1158,-0.66482,-0.24557,2.1761,-0.72371,-0.47587,1.9374,-0.72775,-0.75682,1.7724,-0.74186,-0.79507,1.6895
-0.71353,-0.20844,2.2167,-0.69436,-0.16679,2.2789,-0.6883,0.14759,2.3748,-0.70305,0.31612,2.3342,-0.82229,0.030275,2.393,-0.87113,-0.21185,2.3512,-0.94013,-0.39821,2.2607,-0.9519,-0.45034,2.2352,-0.59465,0.020298,2.2915,-0.53247,-0.16396,2.2356,-0.59098,-0.34241,2.0878,-0.56678,-0.41869,2.1102,-0.77011,-0.27315,2.21,-0.77031,-0.65275,2.1131,-0.73565,-0.95178,2.1876,-0.75826,-0.98304,2.1086,-0.66458,-0.24678,2.173,-0.73326,-0.47663,1.9258,-0.76011,-0.62588,1.6562,-0.8072,-0.67426,1.6469
-0.71091,-0.21308,2.2102,-0.69368,-0.17249,2.2728,-0.69373,0.14147,2.3724,-0.70541,0.31221,2.3337,-0.82366,0.014835,2.3842,-0.87451,-0.21372,2.3437,-0.93315,-0.38382,2.2527,-0.95994,-0.45512,2.2366,-0.59658,0.017356,2.2908,-0.53279,-0.16422,2.2347,-0.59104,-0.34107,2.0886,-0.56468,-0.42397,2.1177,-0.76715,-0.27815,2.2011,-0.76771,-0.66261,2.0833,-0.74509,-0.95425,2.1754,-0.76611,-0.98817,2.0966,-0.66095,-0.25053,2.1677,-0.74697,-0.48602,1.8904,-0.76338,-0.58935,1.6129,-0.80102,-0.63314,1.5766
-0.73645,-0.22344,2.2223,-0.71234,-0.1808,2.2809,-0.69448,0.13893,2.371,-0.71095,0.30064,2.3304,-0.82569,0.018947,2.3862,-0.87856,-0.21578,2.3389,-0.94653,-0.4037,2.2595,-0.96177,-0.43968,2.2576,-0.59775,0.015007,2.2895,-0.53377,-0.16321,2.2328,-0.6156,-0.33987,2.1142,-0.56049,-0.43273,2.1308,-0.80153,-0.28757,2.2221,-0.77201,-0.66253,2.0837,-0.73743,-0.9557,2.1808,-0.75954,-0.98873,2.102,-0.69162,-0.26943,2.1774,-0.74853,-0.45581,1.8857,-0.76759,-0.55334,1.6348,-0.79901,-0.58804,1.5697
-0.73701,-0.22131,2.223,-0.71399,-0.18008,2.2814,-0.696,0.13586,2.3684,-0.71113,0.29898,2.3287,-0.82851,0.016178,2.3851,-0.88145,-0.22014,2.3339,-0.94792,-0.39873,2.2597,-0.96459,-0.44967,2.2343,-0.59562,0.013821,2.2896,-0.53703,-0.18489,2.2254,-0.61528,-0.35154,2.1124,-0.55453,-0.45824,2.1269,-0.80234,-0.28555,2.2222,-0.77467,-0.63258,2.0867,-0.73937,-0.94982,2.1777,-0.76083,-0.98278,2.0986,-0.69076,-0.26815,2.1777,-0.7375,-0.41677,1.9011,-0.77678,-0.55948,1.6799,-0.81901,-0.58884,1.6422
-0.73056,-0.22587,2.2143,-0.71181,-0.18408,2.2753,-0.69739,0.13198,2.3631,-0.7121,0.29881,2.3272,-0.82958,0.0081103,2.3728,-0.88248,-0.21988,2.3309,-0.95004,-0.39944,2.2561,-0.96733,-0.44862,2.2281,-0.59763,0.010975,2.2878,-0.54206,-0.19876,2.2284,-0.54616,-0.41411,2.1477,-0.55132,-0.46856,2.1293,-0.79118,-0.28884,2.2053,-0.76581,-0.63616,2.0789,-0.73756,-0.95701,2.182,-0.75666,-0.98994,2.1023,-0.68238,-0.26934,2.1739,-0.74183,-0.41389,1.8974,-0.77851,-0.55725,1.6721,-0.82751,-0.59042,1.6437
-0.728,-0.22562,2.2102,-0.71101,-0.18383,2.272,-0.70109,0.13274,2.3597,-0.71329,0.30063,2.3248,-0.82965,0.0096481,2.3672,-0.88273,-0.21759,2.3292,-0.95091,-0.39473,2.2519,-0.96971,-0.44563,2.22,-0.59821,0.0098567,2.2871,-0.54254,-0.19748,2.2284,-0.54594,-0.41689,2.1483,-0.55084,-0.47161,2.1306,-0.78831,-0.28627,2.1998,-0.77077,-0.64816,2.1015,-0.71362,-0.87226,2.2204,-0.74543,-0.81221,2.1449,-0.67851,-0.26863,2.1718,-0.72862,-0.40723,1.8631,-0.77521,-0.52678,1.633,-0.82882,-0.58626,1.6404
-0.72487,-0.22339,2.2076,-0.7115,-0.18235,2.2702,-0.7023,0.13408,2.3585,-0.71383,0.3037,2.3213,-0.82563,0.01117,2.3526,-0.88272,-0.21543,2.327,-0.95315,-0.39414,2.2453,-0.96959,-0.44414,2.2148,-0.59571,0.01069,2.2875,-0.54325,-0.1944,2.2295,-0.54672,-0.41843,2.1477,-0.55082,-0.47312,2.1298,-0.7854,-0.28353,2.1965,-0.76757,-0.61871,2.0764,-0.72694,-0.93499,2.1717,-0.73239,-0.95976,2.1011,-0.67228,-0.26566,2.1698,-0.72916,-0.40635,1.8632,-0.77626,-0.52651,1.6335,-0.82984,-0.58506,1.6405
-0.72708,-0.21967,2.2059,-0.71402,-0.17878,2.2684,-0.70412,0.138,2.3562,-0.71503,0.306,2.3196,-0.82681,0.013261,2.3491,-0.88391,-0.21243,2.324,-0.95266,-0.38884,2.2393,-0.9683,-0.44094,2.2092,-0.5946,0.010309,2.2871,-0.57153,-0.23034,2.2437,-0.5952,-0.34685,2.092,-0.55114,-0.47286,2.1281,-0.78719,-0.28073,2.1948,-0.76469,-0.62842,2.0852,-0.70045,-0.87448,2.2042,-0.74368,-0.80944,2.1394,-0.67555,-0.26233,2.167,-0.75054,-0.40044,1.8913,-0.78381,-0.55729,1.6667,-0.81801,-0.58152,1.603
-0.72775,-0.21695,2.2046,-0.71639,-0.17592,2.2675,-0.70496,0.1423,2.356,-0.71481,0.30812,2.3184,-0.82732,0.018818,2.3414,-0.88553,-0.20678,2.3164,-0.95474,-0.37077,2.2553,-0.96359,-0.42936,2.2044,-0.59322,0.013707,2.2881,-0.57223,-0.22776,2.2559,-0.59058,-0.34985,2.0919,-0.55107,-0.47155,2.1272,-0.78736,-0.27776,2.1932,-0.75256,-0.67543,2.0985,-0.68048,-0.93508,2.2309,-0.68822,-0.97128,2.1448,-0.6768,-0.26013,2.1657,-0.75149,-0.41292,1.8964,-0.77808,-0.56479,1.6758,-0.81316,-0.59953,1.6317
-0.72923,-0.21304,2.2054,-0.71876,-0.17156,2.2681,-0.70847,0.14804,2.3537,-0.71433,0.31188,2.3176,-0.83522,0.026734,2.3417,-0.91004,-0.20848,2.3233,-0.95705,-0.38195,2.2495,-0.96034,-0.42674,2.2022,-0.59212,0.015321,2.2896,-0.57217,-0.22699,2.259,-0.5924,-0.34778,2.0963,-0.55192,-0.46851,2.1219,-0.79117,-0.27228,2.1942,-0.75948,-0.63487,2.0885,-0.7201,-0.91735,2.2097,-0.72564,-0.9506,2.1282,-0.67605,-0.25968,2.1664,-0.75269,-0.417,1.8972,-0.81253,-0.64406,1.6885,-0.83692,-0.57462,1.6738
-0.72962,-0.21162,2.2054,-0.72004,-0.1692,2.2681,-0.71073,0.15324,2.3517,-0.71544,0.31783,2.3136,-0.83849,0.030825,2.3399,-0.90957,-0.20573,2.3189,-0.95769,-0.38128,2.2487,-0.95616,-0.42446,2.1986,-0.59173,0.019162,2.2916,-0.57261,-0.22342,2.26,-0.598,-0.34741,2.1026,-0.55678,-0.46406,2.1191,-0.79177,-0.27147,2.1939,-0.75928,-0.65301,2.1106,-0.69708,-0.92902,2.2219,-0.70198,-0.96205,2.1402,-0.67504,-0.25916,2.1681,-0.76362,-0.44367,1.8921,-0.80551,-0.65067,1.7068,-0.85751,-0.5966,1.7085
-0.72941,-0.20993,2.2055,-0.72092,-0.16647,2.2681,-0.7154,0.16061,2.3493,-0.71604,0.32577,2.3101,-0.84102,0.035003,2.3376,-0.91186,-0.19931,2.3163,-0.95172,-0.37358,2.2411,-0.94733,-0.41901,2.1945,-0.59088,0.025565,2.2935,-0.57251,-0.22176,2.2605,-0.59939,-0.34505,2.1056,-0.55946,-0.46146,2.1185,-0.79318,-0.27033,2.1914,-0.75834,-0.61553,2.1131,-0.71515,-0.92718,2.2155,-0.71892,-0.96002,2.1337,-0.67267,-0.25746,2.1718,-0.75589,-0.43842,1.9252,-0.78527,-0.72227,1.7279,-0.78904,-0.75511,1.646
-0.72617,-0.20307,2.2065,-0.71858,-0.15912,2.2683,-0.71534,0.16602,2.3459,-0.71807,0.33206,2.3087,-0.84424,0.040833,2.3368,-0.9121,-0.19491,2.3155,-0.94981,-0.37178,2.2397,-0.94111,-0.41659,2.1903,-0.59142,0.033729,2.2929,-0.57319,-0.21675,2.2622,-0.60046,-0.34299,2.113,-0.56128,-0.45341,2.1257,-0.79101,-0.26723,2.1916,-0.74723,-0.67231,2.1334,-0.6979,-1.0276,2.2486,-0.70186,-1.0606,2.1668,-0.668,-0.25232,2.1746,-0.75478,-0.47126,1.9416,-0.74695,-0.7625,1.7721,-0.75094,-0.79523,1.6902
-0.72219,-0.19757,2.2077,-0.71579,-0.15292,2.2688,-0.7185,0.17282,2.342,-0.72456,0.34434,2.308,-0.84746,0.046642,2.3362,-0.89901,-0.18427,2.2913,-0.94652,-0.37072,2.2346,-0.95192,-0.42649,2.2116,-0.59378,0.042599,2.2923,-0.57366,-0.21233,2.2638,-0.5964,-0.34673,2.1266,-0.5624,-0.45333,2.1289,-0.7861,-0.26219,2.1925,-0.74828,-0.6711,2.137,-0.69886,-1.028,2.2509,-0.70323,-1.0605,2.1689,-0.65963,-0.24487,2.1789,-0.74457,-0.49268,1.951,-0.73777,-0.77711,1.8324,-0.73914,-0.81042,1.7535
-0.7344,-0.19819,2.2182,-0.7237,-0.14966,2.2756,-0.72154,0.18056,2.3363,-0.7264,0.35167,2.3061,-0.84876,0.053368,2.3348,-0.90741,-0.18587,2.2987,-0.94303,-0.36445,2.2319,-0.93225,-0.40552,2.1863,-0.59531,0.051134,2.2899,-0.54781,-0.14262,2.249,-0.59973,-0.34657,2.1275,-0.56293,-0.45223,2.1327,-0.79588,-0.26135,2.206,-0.74117,-0.67774,2.1544,-0.69879,-1.028,2.252,-0.70426,-1.0597,2.1698,-0.68205,-0.25063,2.1945,-0.7414,-0.51156,1.9669,-0.7154,-0.79749,1.9052,-0.72087,-0.82918,1.823
-0.73383,-0.19739,2.2187,-0.72367,-0.14808,2.276,-0.72142,0.18482,2.3343,-0.72664,0.35463,2.3057,-0.84837,0.056267,2.3308,-0.90367,-0.18361,2.2934,-0.93702,-0.36337,2.2266,-0.94408,-0.41884,2.2074,-0.59498,0.05562,2.2871,-0.56041,-0.17733,2.2725,-0.59906,-0.34871,2.1305,-0.56139,-0.45811,2.1435,-0.79504,-0.2604,2.2069,-0.74908,-0.63587,2.128,-0.69844,-0.9454,2.2396,-0.7041,-0.97033,2.1544,-0.67921,-0.24952,2.195,-0.7318,-0.53337,2.0236,-0.69761,-0.82833,1.9603,-0.70281,-0.85999,1.878
-0.72994,-0.19435,2.2185,-0.72027,-0.14435,2.2758,-0.72145,0.19078,2.3288,-0.72729,0.35975,2.3053,-0.84894,0.058025,2.3297,-0.90679,-0.18152,2.2978,-0.93396,-0.36002,2.2252,-0.93362,-0.41494,2.2017,-0.59672,0.065673,2.2816,-0.55086,-0.13395,2.2424,-0.59597,-0.34459,2.1375,-0.56085,-0.45034,2.1481,-0.79033,-0.25763,2.2077,-0.73769,-0.61167,2.1656,-0.6811,-0.93813,2.2136,-0.68837,-0.96982,2.1315,-0.67165,-0.24518,2.1942,-0.72137,-0.56749,2.0407,-0.67046,-0.8418,2.0314,-0.67773,-0.87349,1.9493
-0.73102,-0.19185,2.2217,-0.7212,-0.14074,2.2783,-0.72247,0.19473,2.3253,-0.72925,0.36406,2.3031,-0.84921,0.060475,2.3277,-0.90614,-0.17932,2.2978,-0.92645,-0.35072,2.2249,-0.92929,-0.41471,2.2004,-0.59806,0.07108,2.2771,-0.55001,-0.13352,2.2392,-0.59108,-0.3466,2.1459,-0.56007,-0.44534,2.1538,-0.7911,-0.25683,2.215,-0.7364,-0.64008,2.1868,-0.6737,-0.93604,2.2268,-0.68335,-0.96781,2.145,-0.67438,-0.24184,2.1964,-0.71447,-0.57351,2.082,-0.67364,-0.8147,2.1083,-0.70874,-0.82432,2.0281
-0.71839,-0.18944,2.2189,-0.71277,-0.13803,2.2764,-0.72282,0.19829,2.3238,-0.73004,0.36649,2.3035,-0.85008,0.064277,2.3252,-0.90104,-0.17666,2.2925,-0.91758,-0.34992,2.2174,-0.92222,-0.41357,2.1963,-0.59793,0.072362,2.2742,-0.54963,-0.13206,2.2349,-0.58903,-0.34665,2.1485,-0.55955,-0.44165,2.1564,-0.77519,-0.25379,2.2091,-0.65857,-0.67525,2.1547,-0.7183,-0.90634,2.2303,-0.71155,-0.94594,2.1371,-0.65597,-0.23918,2.1943,-0.71367,-0.57727,2.1173,-0.63193,-0.84891,2.1994,-0.69114,-0.90394,2.1144
-0.72177,-0.18972,2.2215,-0.71373,-0.13705,2.2779,-0.72296,0.20242,2.3232,-0.73233,0.37273,2.3037,-0.85332,0.075438,2.3267,-0.88035,-0.1549,2.2807,-0.90601,-0.36903,2.2067,-0.91498,-0.41909,2.1776,-0.59842,0.076106,2.2712,-0.55199,-0.10747,2.2304,-0.55743,-0.37463,2.1979,-0.55885,-0.42338,2.1671,-0.78005,-0.25413,2.2137,-0.65894,-0.67393,2.1723,-0.71655,-0.89997,2.2599,-0.67244,-0.87425,2.1848,-0.6656,-0.24109,2.1983,-0.69241,-0.61999,2.1349,-0.6231,-0.84266,2.2182,-0.68831,-0.92238,2.1166
-0.72395,-0.19055,2.2246,-0.71508,-0.13737,2.2802,-0.72251,0.19696,2.3196,-0.73331,0.37459,2.3038,-0.85363,0.078031,2.3255,-0.87832,-0.15361,2.2793,-0.90518,-0.36142,2.2096,-0.91044,-0.40429,2.1793,-0.59845,0.07851,2.269,-0.55272,-0.10653,2.2298,-0.58689,-0.33646,2.152,-0.55779,-0.42271,2.1664,-0.78161,-0.25484,2.2178,-0.6652,-0.6785,2.189,-0.78375,-0.88869,2.2579,-0.71524,-0.87291,2.2271,-0.6687,-0.24229,2.2015,-0.67988,-0.59491,2.1244,-0.59861,-0.85439,2.2663,-0.66952,-0.87804,2.2079
-0.72208,-0.18909,2.2256,-0.71423,-0.13447,2.2811,-0.7212,0.21103,2.318,-0.73347,0.37638,2.304,-0.85305,0.074952,2.3183,-0.87691,-0.11492,2.2867,-0.89955,-0.36806,2.2057,-0.87061,-0.39018,2.1724,-0.59814,0.081012,2.2685,-0.55287,-0.10515,2.2307,-0.54999,-0.33828,2.1786,-0.55615,-0.4232,2.1666,-0.77888,-0.2486,2.2189,-0.67449,-0.65596,2.2091,-0.74259,-0.89996,2.2373,-0.69449,-0.84745,2.2137,-0.66524,-0.24246,2.2031,-0.66821,-0.56603,2.1477,-0.59174,-0.84593,2.2849,-0.66571,-0.87398,2.2169
-0.7198,-0.18708,2.2267,-0.71305,-0.13196,2.282,-0.72099,0.2131,2.3176,-0.73383,0.37815,2.3042,-0.85095,0.07667,2.3149,-0.89539,-0.14773,2.2881,-0.89139,-0.35116,2.2178,-0.85801,-0.38593,2.1725,-0.59554,0.084639,2.2694,-0.55037,-0.10376,2.2337,-0.5475,-0.34067,2.1692,-0.55385,-0.42108,2.1607,-0.77634,-0.24467,2.2197,-0.68579,-0.64702,2.2155,-0.73716,-0.89573,2.2404,-0.68854,-0.84177,2.2217,-0.66271,-0.24214,2.2052,-0.65823,-0.5915,2.161,-0.5988,-0.79548,2.2914,-0.64507,-0.83902,2.2368
-0.71719,-0.1835,2.2294,-0.71154,-0.12826,2.2841,-0.72137,0.21481,2.3174,-0.73448,0.37977,2.3045,-0.85056,0.077444,2.3136,-0.89308,-0.14284,2.2882,-0.88302,-0.33335,2.206,-0.85607,-0.38843,2.1719,-0.59347,0.088631,2.2713,-0.55032,-0.13477,2.2453,-0.54754,-0.34137,2.1676,-0.54452,-0.39589,2.1333,-0.77494,-0.24219,2.2215,-0.68668,-0.64466,2.2271,-0.73966,-0.8949,2.2413,-0.68946,-0.84299,2.221,-0.65807,-0.23894,2.2097,-0.63849,-0.55581,2.1888,-0.59111,-0.78688,2.301,-0.65933,-0.84383,2.2695
-0.71483,-0.18168,2.2319,-0.71035,-0.1264,2.2862,-0.72177,0.21523,2.3174,-0.73409,0.38064,2.3051,-0.85024,0.077792,2.3129,-0.89304,-0.12354,2.2925,-0.87332,-0.28283,2.223,-0.86241,-0.35479,2.1898,-0.59119,0.091703,2.2744,-0.54911,-0.13258,2.2503,-0.5479,-0.33874,2.1644,-0.54418,-0.38589,2.1258,-0.77263,-0.24086,2.2241,-0.68431,-0.63346,2.243,-0.73827,-0.88572,2.2378,-0.67252,-0.85184,2.2252,-0.65499,-0.23739,2.2125,-0.63349,-0.55911,2.1959,-0.59634,-0.78202,2.2952,-0.591,-0.81943,2.2313
-0.71268,-0.17922,2.2351,-0.70932,-0.12385,2.2892,-0.72187,0.21614,2.318,-0.73291,0.38197,2.3068,-0.85001,0.077959,2.3127,-0.89159,-0.12912,2.2909,-0.88048,-0.33227,2.2263,-0.86251,-0.35462,2.1909,-0.58827,0.094442,2.2792,-0.54888,-0.1315,2.252,-0.54764,-0.3363,2.1617,-0.55879,-0.39955,2.1396,-0.7711,-0.23869,2.2267,-0.69237,-0.60015,2.2261,-0.74892,-0.84748,2.21,-0.68052,-0.86263,2.1985,-0.65192,-0.23597,2.2164,-0.62207,-0.56241,2.2101,-0.59563,-0.77969,2.2999,-0.58414,-0.82187,2.2399
-0.70905,-0.17791,2.2385,-0.70677,-0.12228,2.2926,-0.72073,0.21727,2.32,-0.73078,0.38324,2.3091,-0.84895,0.077863,2.3123,-0.89059,-0.12305,2.2954,-0.88312,-0.3101,2.2243,-0.85691,-0.38377,2.1782,-0.58509,0.096067,2.2839,-0.5455,-0.13686,2.2575,-0.54002,-0.31464,2.173,-0.53329,-0.36484,2.1362,-0.76757,-0.23686,2.2292,-0.69958,-0.57837,2.2304,-0.74367,-0.82787,2.2127,-0.70731,-0.88745,2.1978,-0.64736,-0.2359,2.2213,-0.61202,-0.61097,2.2685,-0.55939,-0.86038,2.3767,-0.5305,-0.97079,2.3651
-0.70518,-0.17775,2.243,-0.70323,-0.1218,2.2974,-0.71555,0.21959,2.3251,-0.73081,0.38376,2.3109,-0.84653,0.076814,2.3117,-0.88479,-0.14313,2.2928,-0.86914,-0.34102,2.2137,-0.85447,-0.38629,2.1765,-0.58356,0.098295,2.2883,-0.53962,-0.13983,2.267,-0.53781,-0.31866,2.1791,-0.5391,-0.36797,2.1444,-0.76381,-0.23603,2.2334,-0.70218,-0.57559,2.2314,-0.74225,-0.82559,2.2155,-0.71157,-0.88796,2.1984,-0.64405,-0.23605,2.2259,-0.60798,-0.61536,2.276,-0.54945,-0.86648,2.3919,-0.55662,-0.89741,2.314
-0.69925,-0.17698,2.2504,-0.69919,-0.12051,2.3042,-0.71283,0.22018,2.328,-0.72834,0.38329,2.3151,-0.84327,0.07595,2.3137,-0.88179,-0.14221,2.2953,-0.86531,-0.34036,2.2133,-0.86367,-0.4053,2.1913,-0.57629,0.10079,2.2989,-0.53324,-0.13913,2.2802,-0.53691,-0.33035,2.186,-0.55803,-0.37592,2.1622,-0.75912,-0.23628,2.2389,-0.70964,-0.57584,2.2318,-0.74031,-0.82675,2.2184,-0.71222,-0.88922,2.1981,-0.63589,-0.23613,2.2362,-0.60207,-0.61681,2.2827,-0.55026,-0.85843,2.3926,-0.52724,-0.95545,2.3675
-0.69435,-0.17692,2.2577,-0.69506,-0.12038,2.3113,-0.7095,0.21917,2.3326,-0.72591,0.38383,2.3192,-0.83873,0.07563,2.3166,-0.87761,-0.14268,2.2977,-0.86091,-0.33996,2.2151,-0.85932,-0.40484,2.1927,-0.57094,0.10192,2.3057,-0.54079,-0.1409,2.3224,-0.52734,-0.33424,2.2177,-0.5433,-0.37384,2.1983,-0.75367,-0.23579,2.247,-0.71403,-0.57291,2.2341,-0.73846,-0.82427,2.2215,-0.71584,-0.88747,2.1975,-0.63138,-0.2367,2.2432,-0.59761,-0.60677,2.2898,-0.54565,-0.87147,2.408,-0.52468,-0.97091,2.3789
-0.68865,-0.17606,2.2647,-0.68983,-0.11981,2.3184,-0.70387,0.21882,2.34,-0.72333,0.38328,2.3249,-0.83516,0.07477,2.3224,-0.87124,-0.14697,2.302,-0.8537,-0.3363,2.2194,-0.85439,-0.40099,2.1947,-0.56438,0.10054,2.3146,-0.53308,-0.14593,2.3328,-0.51536,-0.32611,2.241,-0.54193,-0.39139,2.2008,-0.74896,-0.23604,2.2524,-0.71607,-0.57086,2.2363,-0.73648,-0.8224,2.224,-0.71224,-0.88545,2.2005,-0.62498,-0.23633,2.2505,-0.59232,-0.60448,2.2957,-0.54423,-0.84353,2.4,-0.52232,-0.9183,2.3617
-0.68425,-0.17687,2.271,-0.68578,-0.12043,2.3245,-0.70056,0.21834,2.3449,-0.71915,0.38344,2.3314,-0.82988,0.076152,2.3299,-0.86411,-0.14736,2.3035,-0.83971,-0.3387,2.2258,-0.85934,-0.44089,2.2036,-0.55997,0.099307,2.3221,-0.52606,-0.15103,2.3416,-0.50799,-0.34343,2.2519,-0.50724,-0.40037,2.2394,-0.74327,-0.23608,2.2594,-0.70809,-0.56386,2.2464,-0.73424,-0.8152,2.2277,-0.72575,-0.86302,2.1769,-0.62087,-0.23765,2.257,-0.58259,-0.61191,2.3097,-0.53716,-0.83045,2.3996,-0.51398,-0.87681,2.352
-0.67748,-0.17754,2.2798,-0.67895,-0.12158,2.3339,-0.68859,0.21709,2.3574,-0.71416,0.38243,2.3389,-0.82484,0.075994,2.3377,-0.85516,-0.14755,2.3107,-0.83121,-0.35084,2.2192,-0.83868,-0.40458,2.1987,-0.55259,0.10054,2.3352,-0.52256,-0.15172,2.3496,-0.49855,-0.33484,2.273,-0.5236,-0.41586,2.2476,-0.73735,-0.23654,2.2669,-0.71274,-0.56529,2.2474,-0.73312,-0.81701,2.2319,-0.72608,-0.86553,2.1807,-0.61489,-0.23867,2.2662,-0.57257,-0.60986,2.3183,-0.53282,-0.85364,2.4152,-0.51095,-0.92541,2.375
-0.66939,-0.17799,2.2883,-0.67233,-0.12169,2.342,-0.68429,0.21656,2.3625,-0.70612,0.38283,2.3476,-0.81472,0.075172,2.3442,-0.84787,-0.14934,2.3158,-0.82687,-0.33255,2.2323,-0.83161,-0.39512,2.2055,-0.54615,0.099765,2.3471,-0.51697,-0.15067,2.362,-0.48137,-0.31939,2.2954,-0.4938,-0.38238,2.2845,-0.7287,-0.23672,2.2734,-0.71345,-0.56482,2.2491,-0.73152,-0.81653,2.2372,-0.72566,-0.86621,2.1875,-0.60619,-0.23971,2.2783,-0.56666,-0.6099,2.3284,-0.52988,-0.85785,2.4223,-0.50064,-0.85433,2.3831
-0.66343,-0.17792,2.2962,-0.66754,-0.12162,2.3497,-0.67945,0.21562,2.3689,-0.69869,0.38311,2.3555,-0.80786,0.074604,2.3506,-0.83826,-0.15339,2.3251,-0.81533,-0.33784,2.2322,-0.82681,-0.39783,2.2059,-0.53938,0.097376,2.3588,-0.5101,-0.1496,2.3836,-0.47304,-0.3338,2.3192,-0.48152,-0.38378,2.3301,-0.72223,-0.23656,2.2807,-0.7174,-0.56056,2.2507,-0.72948,-0.81239,2.2389,-0.72771,-0.84337,2.1606,-0.60051,-0.23935,2.2867,-0.56004,-0.61202,2.3434,-0.52654,-0.86259,2.4289,-0.51549,-0.85087,2.3704
-0.65868,-0.17771,2.304,-0.66345,-0.12175,2.3576,-0.67471,0.21455,2.3774,-0.69258,0.3836,2.3615,-0.80239,0.075428,2.3595,-0.8344,-0.15277,2.3312,-0.81273,-0.33603,2.2377,-0.83848,-0.41695,2.2198,-0.53269,0.095101,2.3717,-0.50413,-0.15164,2.3948,-0.47137,-0.33235,2.3227,-0.4815,-0.38508,2.329,-0.71749,-0.23631,2.2878,-0.71507,-0.55418,2.2541,-0.7267,-0.80921,2.2418,-0.71011,-0.85585,2.1953,-0.59607,-0.23939,2.2946,-0.5581,-0.60705,2.352,-0.50878,-0.91429,2.4752,-0.49359,-0.86552,2.4031
-0.64894,-0.1799,2.3147,-0.65439,-0.12393,2.3685,-0.66444,0.21375,2.3899,-0.67536,0.38104,2.3727,-0.77946,0.075327,2.3669,-0.82968,-0.15197,2.3378,-0.81156,-0.33292,2.2576,-0.81325,-0.3845,2.2301,-0.52606,0.095351,2.3832,-0.49301,-0.14837,2.4199,-0.46969,-0.33004,2.3281,-0.48116,-0.37807,2.3328,-0.70598,-0.23635,2.2974,-0.7083,-0.55222,2.259,-0.72577,-0.80951,2.2431,-0.7212,-0.84036,2.1649,-0.5881,-0.24097,2.3069,-0.55494,-0.58497,2.3552,-0.52789,-0.8428,2.4305,-0.50043,-0.94655,2.3964
-0.64283,-0.17965,2.3245,-0.64973,-0.12429,2.3781,-0.65639,0.21104,2.4001,-0.66867,0.38031,2.38,-0.77598,0.073728,2.3724,-0.82243,-0.15425,2.3447,-0.8087,-0.33351,2.2724,-0.81184,-0.38807,2.2327,-0.51633,0.092442,2.3994,-0.48815,-0.15431,2.4303,-0.46039,-0.35509,2.3347,-0.46859,-0.42514,2.3387,-0.70171,-0.23628,2.3038,-0.70703,-0.55153,2.2641,-0.724,-0.80815,2.2456,-0.71634,-0.83892,2.1677,-0.58074,-0.24195,2.3199,-0.55181,-0.58471,2.3681,-0.50971,-0.93101,2.4952,-0.55432,-0.87676,2.3705
-0.63793,-0.18172,2.3337,-0.64485,-0.12639,2.3875,-0.65026,0.20941,2.4104,-0.65849,0.37759,2.391,-0.77056,0.072825,2.3839,-0.81615,-0.142,2.3683,-0.80489,-0.33572,2.2768,-0.8098,-0.39832,2.2552,-0.50721,0.083497,2.4111,-0.48383,-0.15777,2.4374,-0.45267,-0.3381,2.3536,-0.45915,-0.3727,2.374,-0.6972,-0.23856,2.3125,-0.70248,-0.55584,2.274,-0.72141,-0.81081,2.2498,-0.71335,-0.84156,2.1719,-0.57602,-0.24453,2.3286,-0.54395,-0.58583,2.3868,-0.51035,-0.93104,2.4951,-0.56535,-0.88146,2.363
-0.62068,-0.18483,2.3482,-0.62908,-0.12901,2.4016,-0.64386,0.20729,2.4226,-0.65206,0.37588,2.4003,-0.76558,0.068179,2.3984,-0.80645,-0.15533,2.3715,-0.80193,-0.33302,2.2829,-0.80253,-0.39239,2.2634,-0.50175,0.080058,2.4214,-0.47492,-0.16211,2.4529,-0.44715,-0.36154,2.3568,-0.4691,-0.39347,2.3323,-0.67773,-0.24411,2.3289,-0.69775,-0.55524,2.2812,-0.71912,-0.80934,2.2529,-0.71252,-0.84016,2.175,-0.5564,-0.24631,2.3416,-0.53837,-0.5895,2.3984,-0.51195,-0.93035,2.4954,-0.56527,-0.88343,2.3638
-0.61668,-0.18544,2.3571,-0.62487,-0.13015,2.4107,-0.63596,0.20455,2.4327,-0.64564,0.37329,2.4082,-0.76066,0.065712,2.4096,-0.79813,-0.17606,2.3756,-0.79775,-0.34156,2.292,-0.80941,-0.41039,2.2784,-0.49029,0.075696,2.4364,-0.46835,-0.16617,2.4634,-0.44221,-0.36377,2.3622,-0.45196,-0.4356,2.3786,-0.67545,-0.24466,2.336,-0.69262,-0.56282,2.2935,-0.71781,-0.81358,2.2549,-0.71009,-0.84435,2.1771,-0.55207,-0.24869,2.3515,-0.53398,-0.59487,2.4105,-0.51244,-0.93076,2.4976,-0.54751,-0.88074,2.3834
-0.61139,-0.18742,2.3687,-0.61785,-0.13183,2.4222,-0.62682,0.20333,2.443,-0.63973,0.37157,2.4131,-0.75584,0.065303,2.4229,-0.7901,-0.17467,2.388,-0.79041,-0.34159,2.3032,-0.79419,-0.39385,2.2813,-0.48519,0.073948,2.443,-0.46155,-0.1667,2.4734,-0.4373,-0.36666,2.367,-0.44677,-0.43725,2.3834,-0.67065,-0.24614,2.349,-0.68688,-0.56792,2.3005,-0.71465,-0.81813,2.2589,-0.70869,-0.84898,2.1809,-0.54776,-0.25239,2.3618,-0.52697,-0.59737,2.4189,-0.5121,-0.93282,2.4999,-0.54362,-0.88366,2.3887
-0.59869,-0.18679,2.3843,-0.60546,-0.13109,2.4366,-0.62018,0.2012,2.4513,-0.6306,0.36912,2.421,-0.75089,0.065529,2.4375,-0.78033,-0.17628,2.4063,-0.78549,-0.34467,2.3153,-0.78766,-0.39142,2.2944,-0.48004,0.073484,2.4528,-0.45428,-0.16665,2.4825,-0.42717,-0.34813,2.3818,-0.42741,-0.39462,2.3958,-0.65917,-0.24801,2.3643,-0.68092,-0.57246,2.31,-0.71223,-0.82188,2.2631,-0.70753,-0.85296,2.1852,-0.53216,-0.251,2.3794,-0.52296,-0.5966,2.4242,-0.5006,-0.87016,2.4844,-0.5265,-0.88933,2.4099
-0.59407,-0.18972,2.3946,-0.60033,-0.13402,2.4471,-0.61302,0.19935,2.4634,-0.62069,0.36654,2.4269,-0.74267,0.064559,2.4504,-0.77536,-0.17703,2.4168,-0.77299,-0.34667,2.3349,-0.776,-0.3953,2.3119,-0.47052,0.068774,2.465,-0.44463,-0.17511,2.4882,-0.42628,-0.36462,2.3774,-0.4244,-0.42661,2.3871,-0.6545,-0.25017,2.3753,-0.67795,-0.57492,2.3182,-0.71069,-0.82358,2.2661,-0.70608,-0.8546,2.1883,-0.52829,-0.25538,2.3891,-0.50981,-0.61887,2.4476,-0.50749,-0.88384,2.4683,-0.53407,-0.89935,2.3952
-0.58866,-0.19336,2.4077,-0.59209,-0.13695,2.46,-0.60526,0.19675,2.4738,-0.60755,0.36296,2.4363,-0.73584,0.066321,2.4719,-0.76751,-0.1743,2.4323,-0.7645,-0.3456,2.3557,-0.77192,-0.39485,2.3327,-0.46538,0.06669,2.4711,-0.43642,-0.17551,2.4967,-0.4108,-0.35304,2.4396,-0.40973,-0.40443,2.4135,-0.64814,-0.25312,2.393,-0.67504,-0.57618,2.3259,-0.70745,-0.82438,2.2708,-0.70694,-0.85558,2.1928,-0.52494,-0.25872,2.3979,-0.50698,-0.6187,2.4499,-0.50206,-0.88487,2.4769,-0.53184,-0.90026,2.4036
-0.58382,-0.19279,2.4183,-0.58714,-0.13749,2.4705,-0.5994,0.19131,2.4844,-0.60043,0.36062,2.4427,-0.73291,0.066467,2.4858,-0.7607,-0.17448,2.4573,-0.75572,-0.34764,2.3787,-0.7597,-0.3953,2.3459,-0.45403,0.062157,2.4845,-0.4316,-0.17948,2.4997,-0.40379,-0.35626,2.4411,-0.40233,-0.40771,2.4151,-0.64431,-0.25396,2.404,-0.67082,-0.57385,2.3368,-0.70411,-0.82111,2.2771,-0.7035,-0.85226,2.1992,-0.51935,-0.25931,2.407,-0.49937,-0.6064,2.4575,-0.50369,-0.93472,2.5108,-0.5281,-0.89215,2.408
-0.57861,-0.19503,2.4292,-0.58134,-0.13919,2.4806,-0.59465,0.18908,2.4901,-0.59262,0.35571,2.4488,-0.72619,0.064754,2.501,-0.75622,-0.17125,2.4776,-0.74755,-0.36511,2.3851,-0.73807,-0.39629,2.3464,-0.44477,0.060575,2.4966,-0.42449,-0.18306,2.5042,-0.40473,-0.35953,2.4027,-0.40003,-0.41087,2.4155,-0.63806,-0.25643,2.4193,-0.66633,-0.58134,2.3456,-0.70194,-0.82726,2.2803,-0.7023,-0.85863,2.2026,-0.51474,-0.26149,2.4164,-0.4962,-0.60801,2.4609,-0.5017,-0.93732,2.5138,-0.52725,-0.8932,2.4097
-0.56546,-0.19624,2.4418,-0.56901,-0.14086,2.4936,-0.58425,0.18607,2.5048,-0.58284,0.35392,2.4573,-0.72015,0.063626,2.5093,-0.75393,-0.17214,2.4871,-0.741,-0.3899,2.3855,-0.76007,-0.41556,2.3508,-0.4371,0.06103,2.5055,-0.41913,-0.18302,2.5072,-0.40221,-0.35886,2.4037,-0.39913,-0.41063,2.4163,-0.62477,-0.25822,2.4299,-0.66198,-0.58624,2.3537,-0.69851,-0.83201,2.2868,-0.69877,-0.86332,2.2089,-0.50065,-0.26224,2.4292,-0.49339,-0.60781,2.4639,-0.49819,-0.87179,2.4829,-0.52769,-0.89233,2.4101
-0.5602,-0.19347,2.452,-0.56297,-0.1385,2.5027,-0.58038,0.18472,2.51,-0.57823,0.35241,2.4607,-0.71289,0.063475,2.5245,-0.74776,-0.17745,2.5021,-0.73758,-0.3624,2.4178,-0.72647,-0.41008,2.3731,-0.43057,0.063022,2.5143,-0.39979,-0.16337,2.4833,-0.38723,-0.34125,2.4195,-0.39682,-0.41152,2.4195,-0.62114,-0.25764,2.4399,-0.65423,-0.57967,2.3639,-0.69329,-0.8243,2.2934,-0.69526,-0.85581,2.2155,-0.49369,-0.25962,2.44,-0.49219,-0.60684,2.468,-0.4989,-0.87038,2.4822,-0.53057,-0.89183,2.4095
-0.55713,-0.1949,2.4592,-0.55839,-0.13996,2.5101,-0.57229,0.18354,2.5188,-0.57298,0.35026,2.4674,-0.70749,0.063102,2.5324,-0.74211,-0.1801,2.5201,-0.74809,-0.38056,2.4229,-0.72417,-0.41033,2.3774,-0.42759,0.063851,2.5179,-0.39325,-0.17743,2.484,-0.38706,-0.35656,2.4143,-0.3962,-0.41118,2.396,-0.61763,-0.25807,2.4497,-0.65063,-0.58013,2.3683,-0.69172,-0.82428,2.2963,-0.69494,-0.85575,2.2184,-0.49216,-0.26041,2.4454,-0.48872,-0.63227,2.4795,-0.49958,-0.93434,2.5178,-0.53415,-0.90988,2.4079
-0.55443,-0.19552,2.4643,-0.55407,-0.14069,2.5154,-0.56697,0.18307,2.5253,-0.5688,0.34963,2.4746,-0.70386,0.060207,2.5443,-0.74592,-0.15955,2.5479,-0.73509,-0.3413,2.4554,-0.74425,-0.40982,2.4209,-0.42387,0.063174,2.5227,-0.38813,-0.17775,2.4865,-0.3754,-0.34997,2.4219,-0.37962,-0.41434,2.437,-0.61596,-0.25822,2.4543,-0.64779,-0.58498,2.373,-0.69001,-0.82822,2.2982,-0.69528,-0.85967,2.2204,-0.48935,-0.26167,2.4502,-0.48682,-0.63108,2.4816,-0.50225,-0.89192,2.4838,-0.53569,-0.90672,2.4105
-0.55169,-0.19885,2.4708,-0.55053,-0.14403,2.5222,-0.55926,0.1812,2.5343,-0.56693,0.34736,2.4794,-0.69546,0.056138,2.5491,-0.74155,-0.15041,2.56,-0.72317,-0.32597,2.491,-0.73065,-0.41361,2.4287,-0.41955,0.061354,2.5279,-0.38409,-0.17937,2.4882,-0.38248,-0.35526,2.4175,-0.38294,-0.39286,2.4388,-0.61346,-0.26019,2.4611,-0.6446,-0.58382,2.3798,-0.68874,-0.82595,2.3007,-0.69405,-0.8573,2.2229,-0.488,-0.26469,2.4558,-0.4814,-0.61098,2.4852,-0.49605,-0.92799,2.523,-0.53179,-0.89249,2.4155
