0.23366,-0.19294,2.7343,0.26463,-0.13462,2.7738,0.26356,0.19873,2.7787,0.24072,0.38448,2.7724,0.14431,0.070138,2.8443,0.11712,-0.15997,2.868,0.10352,-0.35441,2.8137,0.11974,-0.42858,2.7943,0.35279,0.072218,2.6793,0.40215,-0.16949,2.6147,0.37884,-0.33505,2.5205,0.36505,-0.38142,2.5074,0.18036,-0.25551,2.765,0.22541,-0.62192,2.7689,0.15373,-0.92822,2.815,0.15525,-0.97759,2.7733,0.27757,-0.25187,2.6859,0.34739,-0.60705,2.6766,0.36151,-0.91262,2.6904,0.31663,-0.944,2.6318
0.23494,-0.19156,2.7297,0.26567,-0.13417,2.7706,0.26386,0.19869,2.7795,0.24169,0.38406,2.7746,0.14416,0.069346,2.8447,0.11682,-0.16314,2.865,0.10319,-0.35387,2.8137,0.088173,-0.41634,2.8059,0.35266,0.07193,2.6791,0.39948,-0.17024,2.6156,0.37968,-0.34268,2.5351,0.36383,-0.39764,2.5033,0.18199,-0.25598,2.76,0.17921,-0.64928,2.8017,0.15408,-0.92614,2.8132,0.15454,-0.97658,2.7724,0.27867,-0.2496,2.6776,0.34695,-0.6028,2.6757,0.36111,-0.91317,2.6902,0.31609,-0.94442,2.6316
0.23921,-0.19251,2.7283,0.26936,-0.13657,2.7696,0.26562,0.17157,2.7783,0.24501,0.37455,2.7817,0.14375,0.06912,2.8462,0.11601,-0.15898,2.8761,0.10147,-0.35309,2.813,0.11898,-0.43812,2.795,0.35268,0.071572,2.6793,0.39784,-0.17029,2.6176,0.37805,-0.34863,2.5542,0.36928,-0.40254,2.5316,0.18704,-0.25755,2.757,0.17915,-0.65217,2.8009,0.15433,-0.92903,2.8128,0.15554,-0.97901,2.7732,0.28265,-0.2509,2.678,0.34017,-0.60918,2.684,0.3611,-0.9119,2.6907,0.31588,-0.94302,2.6322
0.23747,-0.19298,2.7281,0.26813,-0.13701,2.7694,0.26683,0.19594,2.7839,0.24345,0.38538,2.7827,0.14337,0.068344,2.846,0.11398,-0.16137,2.8734,0.099388,-0.35743,2.8113,0.12056,-0.44035,2.7921,0.35284,0.071595,2.6798,0.39652,-0.1723,2.621,0.3775,-0.35128,2.5595,0.36076,-0.41434,2.5367,0.18445,-0.25768,2.7566,0.17536,-0.63168,2.7877,0.1539,-0.93297,2.8138,0.10885,-0.96403,2.7551,0.28013,-0.25176,2.6783,0.33997,-0.60783,2.6833,0.36145,-0.91113,2.6915,0.31639,-0.94219,2.6328
0.23583,-0.19275,2.7277,0.26686,-0.13684,2.769,0.26646,0.19604,2.7839,0.24298,0.38601,2.7844,0.14278,0.068533,2.8469,0.11105,-0.15879,2.8665,0.096082,-0.35631,2.8073,0.12373,-0.44457,2.793,0.35283,0.071484,2.6799,0.39967,-0.17225,2.624,0.37798,-0.35139,2.5645,0.3627,-0.41107,2.5499,0.18186,-0.25732,2.7554,0.17325,-0.65364,2.7889,0.15443,-0.92987,2.811,0.10933,-0.9609,2.7523,0.27854,-0.252,2.6782,0.33773,-0.60942,2.6815,0.36146,-0.91089,2.6915,0.31636,-0.94191,2.6328
0.23382,-0.19232,2.7283,0.26434,-0.13604,2.7695,0.26146,0.19643,2.7837,0.24175,0.3876,2.7865,0.14139,0.069272,2.846,0.10825,-0.15927,2.8579,0.081574,-0.34404,2.7949,0.044613,-0.40711,2.7841,0.35365,0.071185,2.6805,0.39979,-0.17334,2.6297,0.37724,-0.3515,2.5676,0.36308,-0.41183,2.5528,0.18003,-0.25607,2.7558,0.17775,-0.62541,2.783,0.15392,-0.9298,2.8071,0.15932,-0.97773,2.7729,0.27681,-0.2521,2.6799,0.3358,-0.60679,2.6814,0.36072,-0.89945,2.6934,0.31621,-0.93053,2.6343
0.23256,-0.19359,2.7285,0.26234,-0.13683,2.7704,0.26077,0.19648,2.7841,0.24043,0.38755,2.7866,0.13925,0.068215,2.8389,0.10547,-0.16692,2.8482,0.075241,-0.34604,2.7922,0.0023267,-0.37149,2.7899,0.35396,0.071423,2.6811,0.40144,-0.17328,2.635,0.37171,-0.35152,2.5776,0.36119,-0.4025,2.5612,0.17886,-0.25658,2.7551,0.16289,-0.6475,2.7839,0.15393,-0.92367,2.8059,0.15154,-0.97336,2.7551,0.27569,-0.2532,2.6812,0.3284,-0.60774,2.6889,0.36864,-0.88211,2.6958,0.32581,-0.91309,2.6354
0.23009,-0.19432,2.7286,0.25949,-0.1374,2.771,0.25888,0.19673,2.7846,0.23917,0.38696,2.7878,0.13647,0.067847,2.8373,0.10238,-0.16901,2.8456,0.072581,-0.35293,2.7892,0.10425,-0.43166,2.7777,0.35146,0.071602,2.6848,0.40159,-0.17281,2.6386,0.37109,-0.35165,2.5832,0.39135,-0.4003,2.5468,0.17623,-0.25657,2.7542,0.16594,-0.64829,2.7844,0.15297,-0.92478,2.8041,0.151,-0.975,2.7543,0.27321,-0.25328,2.6827,0.32657,-0.61243,2.6874,0.36202,-0.9154,2.6978,0.32016,-0.94633,2.6367
0.22707,-0.19382,2.7289,0.2556,-0.13688,2.7718,0.25523,0.1972,2.7853,0.23869,0.38673,2.7882,0.13369,0.069902,2.8391,0.09933,-0.16659,2.8426,0.06896,-0.34641,2.7917,0.10309,-0.40566,2.7904,0.35258,0.073091,2.6902,0.4012,-0.17174,2.6429,0.37255,-0.35051,2.5853,0.39104,-0.40041,2.5488,0.17266,-0.25563,2.7535,0.16773,-0.62445,2.7814,0.1515,-0.93136,2.8047,0.11757,-0.98497,2.7566,0.27078,-0.25262,2.6839,0.32598,-0.61343,2.687,0.35993,-0.91668,2.6968,0.31926,-0.94758,2.6349
0.22231,-0.19199,2.7301,0.25076,-0.13551,2.7736,0.25357,0.19804,2.7874,0.23771,0.38739,2.7894,0.12835,0.071435,2.8407,0.092401,-0.16691,2.8408,0.062226,-0.34695,2.7903,0.095641,-0.40055,2.793,0.35321,0.071872,2.6932,0.4047,-0.17304,2.6535,0.37578,-0.34992,2.5891,0.36429,-0.39274,2.5758,0.16569,-0.25339,2.7542,0.16267,-0.63139,2.7868,0.15212,-0.93008,2.8061,0.11258,-0.96086,2.7435,0.26711,-0.25223,2.6847,0.32489,-0.61383,2.6868,0.35506,-0.91698,2.6924,0.31552,-0.94776,2.6298
0.21975,-0.19216,2.7299,0.2478,-0.13564,2.7738,0.2512,0.19833,2.7879,0.23717,0.38765,2.7905,0.1266,0.071823,2.8405,0.088976,-0.16596,2.8404,0.057031,-0.35281,2.7791,0.075093,-0.42721,2.7458,0.3514,0.071228,2.6965,0.4005,-0.17413,2.6559,0.37605,-0.35164,2.5912,0.36302,-0.4133,2.5675,0.16279,-0.2524,2.7535,0.15678,-0.63109,2.7826,0.1532,-0.92165,2.8075,0.15813,-0.96965,2.7612,0.2651,-0.25288,2.6849,0.32259,-0.61276,2.6847,0.35258,-0.91811,2.6907,0.31377,-0.94884,2.6276
0.21744,-0.19327,2.7304,0.24468,-0.1366,2.7746,0.24696,0.19734,2.7883,0.23548,0.38759,2.7911,0.12345,0.071817,2.8397,0.081618,-0.165,2.8377,0.046212,-0.35361,2.7696,0.061893,-0.40543,2.7392,0.35003,0.071831,2.6992,0.39846,-0.17363,2.6588,0.37588,-0.351,2.5928,0.36468,-0.39561,2.5739,0.16033,-0.25288,2.7532,0.15732,-0.62842,2.782,0.1533,-0.92296,2.8079,0.15274,-0.97489,2.7604,0.26343,-0.254,2.6866,0.31626,-0.61212,2.6835,0.34764,-0.91583,2.6847,0.30971,-0.94657,2.6211
0.21574,-0.19308,2.7309,0.24269,-0.13641,2.7752,0.24535,0.19728,2.7881,0.23539,0.38748,2.7903,0.1211,0.07279,2.8392,0.078401,-0.16379,2.8349,0.040162,-0.33804,2.7673,0.00013404,-0.40058,2.7587,0.34814,0.071973,2.7005,0.3978,-0.17342,2.6622,0.37716,-0.35054,2.5947,0.36985,-0.39001,2.5751,0.15847,-0.25241,2.7534,0.15442,-0.6235,2.7822,0.15283,-0.92251,2.8077,0.14943,-0.97618,2.7601,0.26185,-0.25379,2.6877,0.30846,-0.61546,2.679,0.34695,-0.91723,2.6846,0.30949,-0.94797,2.6206
0.21399,-0.19322,2.7316,0.241,-0.13673,2.7757,0.2444,0.1961,2.788,0.23531,0.38768,2.7881,0.11888,0.072684,2.8398,0.074436,-0.16305,2.8322,0.046742,-0.35648,2.7655,0.043123,-0.41859,2.757,0.34714,0.070486,2.7008,0.40177,-0.17404,2.667,0.37864,-0.34986,2.5963,0.36938,-0.38887,2.5759,0.1565,-0.25283,2.7538,0.15247,-0.62636,2.7833,0.15286,-0.92545,2.8082,0.14931,-0.97884,2.7593,0.26009,-0.25368,2.6889,0.3013,-0.61954,2.6715,0.34264,-0.92032,2.6809,0.30535,-0.95105,2.6168
0.21447,-0.19256,2.7315,0.24112,-0.1361,2.7754,0.24331,0.19585,2.7861,0.23518,0.38763,2.7841,0.11785,0.07341,2.8414,0.073627,-0.16338,2.8315,0.046345,-0.35634,2.7655,0.034186,-0.41941,2.7417,0.34789,0.070454,2.7015,0.4064,-0.17164,2.6685,0.381,-0.347,2.5973,0.38963,-0.39209,2.5552,0.15649,-0.25271,2.753,0.15297,-0.64596,2.7924,0.15322,-0.92308,2.8055,0.15225,-0.97321,2.7526,0.26124,-0.25275,2.6895,0.29173,-0.62376,2.6574,0.3376,-0.92325,2.672,0.30039,-0.95405,2.6079
0.21378,-0.19386,2.7317,0.24071,-0.13694,2.7753,0.24392,0.19377,2.7816,0.23136,0.38506,2.7747,0.11693,0.072934,2.8402,0.070488,-0.16638,2.8262,0.040705,-0.34564,2.7704,0.031752,-0.41259,2.7425,0.34962,0.068546,2.6978,0.4081,-0.16394,2.6656,0.38287,-0.33907,2.5937,0.3755,-0.39961,2.5665,0.15511,-0.25487,2.7532,0.15557,-0.62981,2.7939,0.15067,-0.92802,2.808,0.11773,-0.98257,2.7577,0.26091,-0.2541,2.6908,0.27973,-0.61991,2.6477,0.33082,-0.92194,2.6642,0.30606,-0.97573,2.6101
0.21448,-0.19396,2.7313,0.24183,-0.13681,2.7743,0.24745,0.19358,2.7774,0.2306,0.38383,2.7724,0.11725,0.072222,2.8383,0.069363,-0.16731,2.8245,0.039259,-0.34674,2.769,0.029159,-0.4192,2.7399,0.35113,0.067953,2.6943,0.41226,-0.16472,2.6626,0.3987,-0.33509,2.5781,0.38028,-0.38983,2.562,0.15557,-0.25539,2.7532,0.15905,-0.6328,2.7914,0.14998,-0.92899,2.8074,0.13214,-0.98016,2.7481,0.26148,-0.25405,2.6905,0.27788,-0.6204,2.6417,0.32243,-0.91963,2.6479,0.29752,-0.97321,2.6003
0.21648,-0.1931,2.7303,0.2455,-0.13592,2.7717,0.25134,0.19082,2.7689,0.23057,0.38124,2.7557,0.12049,0.073869,2.8362,0.071022,-0.1644,2.8218,0.036276,-0.3429,2.7658,0.027093,-0.416,2.7379,0.34865,0.065584,2.6802,0.42196,-0.15259,2.6537,0.40315,-0.32825,2.5739,0.38953,-0.38156,2.54,0.15911,-0.25488,2.7546,0.16473,-0.63495,2.7923,0.15119,-0.93204,2.8087,0.11096,-0.96327,2.7467,0.26304,-0.25311,2.689,0.27379,-0.61521,2.6399,0.30531,-0.91119,2.6271,0.28484,-0.96985,2.5802
0.21903,-0.19374,2.7285,0.24859,-0.13576,2.768,0.25383,0.18787,2.753,0.23315,0.38118,2.744,0.12622,0.07157,2.8249,0.067333,-0.16068,2.8097,0.03045,-0.34087,2.7638,0.01916,-0.41365,2.736,0.35129,0.064465,2.6689,0.43458,-0.14695,2.6453,0.42534,-0.32617,2.5724,0.41129,-0.38997,2.5403,0.16138,-0.25555,2.7545,0.16813,-0.64271,2.7946,0.15066,-0.93347,2.8103,0.10999,-0.96525,2.7488,0.26588,-0.25287,2.6874,0.27337,-0.61645,2.6386,0.3052,-0.91271,2.6248,0.28639,-0.97006,2.5761
0.22836,-0.19749,2.7244,0.25404,-0.13806,2.7628,0.25564,0.18424,2.7408,0.23049,0.37387,2.7139,0.13077,0.063129,2.7889,0.059332,-0.162,2.7777,0.019215,-0.34475,2.7564,0.014888,-0.40853,2.7418,0.35872,0.062161,2.6522,0.44581,-0.14387,2.6433,0.44599,-0.32135,2.5762,0.44093,-0.38223,2.5466,0.17066,-0.26047,2.7522,0.1763,-0.6235,2.8005,0.14975,-0.91791,2.8239,0.11295,-0.95026,2.7605,0.27796,-0.25633,2.686,0.26569,-0.61284,2.6388,0.30413,-0.91029,2.6243,0.26733,-0.94263,2.5609
0.23727,-0.19752,2.7156,0.25953,-0.13784,2.7523,0.25622,0.17859,2.7263,0.22879,0.36881,2.6988,0.12905,0.062408,2.7733,0.052863,-0.15952,2.7531,-0.0091686,-0.33026,2.7293,-0.021844,-0.38704,2.7186,0.36932,0.06,2.6427,0.46515,-0.16268,2.6539,0.47263,-0.33921,2.5845,0.45466,-0.39023,2.5497,0.17913,-0.2593,2.7425,0.17907,-0.64172,2.8277,0.14685,-0.9303,2.8377,0.11051,-0.9856,2.7993,0.28941,-0.25717,2.6799,0.26335,-0.61147,2.6363,0.30265,-0.91073,2.6232,0.26855,-0.9436,2.5588
0.24428,-0.20188,2.7088,0.26205,-0.1406,2.7436,0.25799,0.17585,2.7118,0.22686,0.36481,2.6853,0.12999,0.058043,2.7479,0.04088,-0.1449,2.7189,-0.045319,-0.30622,2.6733,-0.068694,-0.36874,2.6792,0.37538,0.057657,2.6369,0.46509,-0.16875,2.6613,0.4935,-0.35141,2.6369,0.5029,-0.39516,2.6179,0.18551,-0.26457,2.7344,0.18268,-0.66103,2.8461,0.13856,-0.93264,2.8794,0.099683,-0.98749,2.8493,0.2981,-0.26079,2.6768,0.26441,-0.6136,2.6051,0.3029,-0.91282,2.6206,0.2737,-0.94627,2.5542
0.24775,-0.20239,2.7056,0.26315,-0.14096,2.7373,0.26003,0.16929,2.7005,0.22426,0.36158,2.6775,0.12949,0.054457,2.7378,0.016844,-0.12995,2.6756,-0.077358,-0.28986,2.6326,-0.11701,-0.35284,2.6109,0.38599,0.056841,2.6331,0.48348,-0.16163,2.6496,0.55418,-0.334,2.6626,0.55587,-0.37245,2.648,0.18833,-0.26601,2.7329,0.18356,-0.6367,2.8478,0.14726,-0.92205,2.9346,0.12037,-0.95607,2.8676,0.30243,-0.26153,2.6741,0.26501,-0.61251,2.594,0.30114,-0.91101,2.6152,0.27425,-0.94504,2.5481
0.25443,-0.20341,2.6978,0.26707,-0.14317,2.7275,0.26383,0.15973,2.6928,0.22013,0.34898,2.6657,0.12992,0.049625,2.7262,0.013113,-0.11974,2.6636,-0.096174,-0.25872,2.5865,-0.13886,-0.31888,2.5623,0.39131,0.05508,2.6306,0.5138,-0.14178,2.6804,0.56794,-0.32124,2.7176,0.57502,-0.37807,2.7181,0.19376,-0.26826,2.7259,0.16288,-0.65076,2.8772,0.14767,-0.91755,2.9918,0.10493,-0.96674,2.9712,0.31188,-0.263,2.6659,0.26184,-0.60862,2.5807,0.29899,-0.90638,2.6085,0.2746,-0.94044,2.5402
0.25485,-0.22221,2.6867,0.26524,-0.16177,2.7164,0.26469,0.14861,2.6885,0.21699,0.33633,2.6604,0.13821,0.036217,2.7084,0.014837,-0.1065,2.6428,-0.10112,-0.23942,2.563,-0.15552,-0.29252,2.5276,0.39721,0.053382,2.6302,0.51918,-0.13993,2.6955,0.58386,-0.29588,2.766,0.59566,-0.35382,2.7798,0.1971,-0.28472,2.7143,0.16123,-0.64928,2.8752,0.14857,-0.90455,3.0545,0.11062,-0.96992,3.0827,0.30964,-0.27575,2.6562,0.25969,-0.60824,2.5705,0.29763,-0.90451,2.6055,0.27711,-0.9381,2.5358
0.25499,-0.22262,2.6846,0.26475,-0.16291,2.7134,0.26757,0.13988,2.6869,0.21371,0.32642,2.6558,0.13919,0.033455,2.7063,0.013348,-0.10615,2.636,-0.11871,-0.24372,2.5468,-0.16641,-0.28539,2.5211,0.40089,0.051479,2.6313,0.53171,-0.12974,2.7116,0.5908,-0.2884,2.7903,0.59805,-0.34611,2.8014,0.19662,-0.28363,2.7099,0.15754,-0.63501,2.8581,0.15367,-0.8592,3.0718,0.12269,-0.9154,3.0463,0.30946,-0.27938,2.6537,0.26115,-0.6236,2.5473,0.2985,-0.91431,2.6043,0.27892,-0.94773,2.5341
0.25683,-0.229,2.6752,0.26549,-0.17091,2.7059,0.26956,0.12936,2.6876,0.21479,0.31535,2.65,0.14211,0.024442,2.7017,0.0063834,-0.12873,2.6204,-0.12411,-0.25188,2.545,-0.17227,-0.29005,2.5201,0.40354,0.044619,2.6362,0.54238,-0.12238,2.7309,0.59524,-0.28804,2.8026,0.60897,-0.33983,2.822,0.19751,-0.29176,2.693,0.18857,-0.62495,2.8189,0.1623,-0.82234,3.0708,0.13006,-0.87577,3.0476,0.31182,-0.285,2.646,0.25163,-0.65968,2.5257,0.29714,-0.91861,2.5974,0.27985,-0.95129,2.5263
0.26673,-0.23462,2.6585,0.27269,-0.17854,2.6941,0.27211,0.12312,2.6886,0.21677,0.30885,2.6499,0.1436,0.01789,2.6969,-0.0064526,-0.15693,2.6276,-0.13154,-0.28533,2.5566,-0.18489,-0.33346,2.5259,0.41108,0.041445,2.6404,0.54474,-0.12383,2.7357,0.59914,-0.287,2.8066,0.6111,-0.34339,2.824,0.2076,-0.29874,2.6728,0.19387,-0.65267,2.803,0.10744,-0.81414,3.0721,0.13736,-0.87782,3.0306,0.32493,-0.29218,2.6247,0.25523,-0.6193,2.5373,0.29377,-0.90775,2.59,0.27862,-0.93936,2.5179
0.2681,-0.23571,2.6567,0.27404,-0.18115,2.6933,0.27859,0.11596,2.6938,0.21839,0.29884,2.6503,0.14472,0.0073968,2.6979,0.011188,-0.17396,2.6539,-0.10868,-0.32128,2.6011,-0.15355,-0.36556,2.5756,0.42093,0.034978,2.6497,0.5509,-0.13004,2.7419,0.60367,-0.29225,2.8088,0.61713,-0.34266,2.8253,0.20752,-0.3004,2.6701,0.20558,-0.60571,2.6941,0.14384,-0.79703,2.9848,0.11719,-0.8405,2.9481,0.32675,-0.29413,2.6226,0.26346,-0.62984,2.5306,0.29353,-0.9083,2.5888,0.28056,-0.93942,2.516
0.26937,-0.23791,2.6534,0.27681,-0.184,2.6915,0.27926,0.11379,2.6953,0.21903,0.29597,2.6526,0.14586,0.0010331,2.7091,0.031799,-0.20272,2.6873,-0.064742,-0.36296,2.6555,-0.10379,-0.39832,2.6312,0.42106,0.02972,2.6515,0.55781,-0.13442,2.7419,0.61729,-0.30167,2.7996,0.63653,-0.36822,2.813,0.20788,-0.30241,2.6673,0.15853,-0.68587,2.6349,0.12968,-0.82635,2.9056,0.11433,-0.85721,2.8331,0.32851,-0.29707,2.6174,0.24542,-0.62458,2.546,0.29502,-0.91329,2.5879,0.27967,-0.94416,2.5154
0.26973,-0.23995,2.6518,0.2797,-0.18748,2.691,0.28295,0.10718,2.7028,0.22622,0.29015,2.6596,0.15268,-0.008189,2.7255,0.075158,-0.21791,2.7389,-0.0070163,-0.38884,2.7116,-0.032826,-0.44914,2.7078,0.42423,0.025386,2.6538,0.56752,-0.14823,2.724,0.62727,-0.31418,2.7827,0.6409,-0.38068,2.8025,0.20754,-0.30473,2.6662,0.15109,-0.66251,2.6167,0.10777,-0.88307,2.8248,0.09706,-0.9235,2.766,0.32813,-0.30008,2.6126,0.24338,-0.62748,2.5416,0.29564,-0.89844,2.5776,0.27615,-0.9289,2.5059
0.2716,-0.23902,2.6507,0.28511,-0.18804,2.6903,0.28772,0.1046,2.7079,0.22738,0.28647,2.6662,0.15934,-0.015171,2.7492,0.10877,-0.23623,2.7781,0.05768,-0.41787,2.7671,0.037801,-0.4877,2.7697,0.42703,0.023686,2.6544,0.55441,-0.1794,2.6962,0.59643,-0.36491,2.7061,0.60814,-0.40993,2.6922,0.20778,-0.30578,2.6661,0.1471,-0.67747,2.5513,0.11139,-0.9009,2.7055,0.088834,-0.96726,2.704,0.33041,-0.29856,2.6071,0.26186,-0.62784,2.5202,0.29794,-0.92597,2.5906,0.27235,-0.95629,2.5207
0.26854,-0.22938,2.6539,0.28621,-0.18234,2.6931,0.29221,0.10447,2.7115,0.22659,0.28474,2.6659,0.16564,-0.013971,2.7651,0.13983,-0.24726,2.8101,0.109,-0.42946,2.8237,0.10843,-0.47679,2.8247,0.43477,0.024616,2.653,0.56745,-0.18152,2.6541,0.60653,-0.36106,2.6349,0.61081,-0.40558,2.6415,0.19959,-0.3011,2.6767,0.16435,-0.64596,2.5252,0.10451,-0.929,2.5764,0.082538,-0.99502,2.5402,0.32562,-0.29359,2.6042,0.22901,-0.64009,2.5079,0.28817,-0.94295,2.5839,0.28772,-0.98708,2.5457
0.26026,-0.21633,2.6701,0.28307,-0.17121,2.7058,0.29618,0.10532,2.7145,0.22695,0.28433,2.6674,0.17489,-0.010976,2.7836,0.17596,-0.21554,2.8561,0.18994,-0.39151,2.9028,0.18717,-0.45904,2.928,0.4353,0.024918,2.6526,0.55432,-0.15523,2.6033,0.61097,-0.33696,2.5727,0.61316,-0.40323,2.5527,0.18847,-0.28666,2.7005,0.15489,-0.62197,2.4753,0.081943,-0.88273,2.4016,0.047979,-0.91322,2.3356,0.31117,-0.28016,2.6131,0.21172,-0.63384,2.4827,0.3436,-0.93441,2.5959,0.30404,-0.96626,2.5286
0.26698,-0.21167,2.6552,0.28943,-0.16835,2.696,0.29716,0.10894,2.7168,0.22766,0.28426,2.669,0.18521,0.0021929,2.8075,0.20384,-0.21043,2.8968,0.25652,-0.37019,2.9612,0.1323,-0.4688,2.8539,0.43475,0.025931,2.6514,0.5541,-0.14209,2.5681,0.5992,-0.32182,2.4979,0.60398,-0.37145,2.4731,0.20119,-0.2864,2.6767,0.15474,-0.60226,2.4528,0.10913,-0.8247,2.3406,0.050242,-0.84189,2.2057,0.32172,-0.27025,2.592,0.20328,-0.60927,2.466,0.27759,-0.89136,2.5713,0.29857,-0.96881,2.5367
0.26576,-0.20882,2.6521,0.29056,-0.16525,2.6929,0.29895,0.1136,2.7189,0.22806,0.28557,2.6705,0.19174,0.015666,2.8113,0.21947,-0.20362,2.9071,0.29849,-0.37359,2.9924,0.14646,-0.44105,2.8631,0.43482,0.028515,2.6494,0.53752,-0.11458,2.5372,0.5759,-0.28269,2.4221,0.58523,-0.3404,2.3841,0.20045,-0.28348,2.6739,0.14618,-0.56914,2.4061,0.077118,-0.75661,2.1684,0.01093,-0.77474,2.1062,0.31678,-0.26694,2.5903,0.20559,-0.57605,2.4783,0.27131,-0.86778,2.5704,0.23053,-0.8982,2.5086
0.26512,-0.20349,2.6468,0.29193,-0.16006,2.6881,0.30031,0.11916,2.7181,0.22844,0.28855,2.6686,0.1935,0.026848,2.8091,0.24748,-0.15863,2.9392,0.15772,-0.38357,2.8602,0.14967,-0.42939,2.86,0.43171,0.031515,2.6443,0.51773,-0.087273,2.5055,0.54295,-0.24014,2.3609,0.54702,-0.29805,2.3104,0.1986,-0.27833,2.6674,0.17737,-0.58929,2.4435,0.066324,-0.64948,2.123,0.10404,-0.6832,2.0859,0.31577,-0.2577,2.589,0.20477,-0.53341,2.5028,0.26665,-0.83411,2.5732,0.2252,-0.86451,2.5119
0.26669,-0.19994,2.6442,0.29393,-0.15674,2.6854,0.2996,0.12258,2.7181,0.22984,0.29661,2.6681,0.1947,0.032129,2.8091,0.24295,-0.16979,2.9304,0.15782,-0.37831,2.8574,0.14977,-0.42412,2.8572,0.42367,0.038369,2.6387,0.51099,-0.068261,2.4982,0.51503,-0.18926,2.3183,0.5081,-0.22569,2.2751,0.20356,-0.272,2.6635,0.18127,-0.54359,2.4387,0.076568,-0.56806,2.1199,0.064821,-0.55269,2.0248,0.31672,-0.25388,2.588,0.31993,-0.64299,2.5334,0.26629,-0.84385,2.5768,0.22275,-0.8743,2.5168
0.26733,-0.1924,2.6377,0.29395,-0.15112,2.6815,0.2994,0.12658,2.7202,0.23056,0.30223,2.668,0.19315,0.042395,2.7965,0.22101,-0.10884,2.9023,0.1534,-0.3632,2.8312,0.14534,-0.40902,2.831,0.41685,0.043957,2.6354,0.51292,-0.046262,2.4906,0.48144,-0.13883,2.2988,0.49602,-0.19335,2.206,0.20638,-0.26452,2.6551,0.16726,-0.50605,2.399,0.24702,-0.90229,2.6043,0.13024,-0.72459,2.248,0.31629,-0.24272,2.5799,0.30674,-0.63801,2.5376,0.2663,-0.8387,2.5769,0.22411,-0.86911,2.5157
0.26079,-0.18355,2.6393,0.28963,-0.14441,2.6823,0.29865,0.1285,2.7211,0.23098,0.30759,2.6699,0.192,0.046306,2.7945,0.19179,-0.17549,2.834,0.15221,-0.35928,2.8279,0.14415,-0.40511,2.8277,0.40832,0.04603,2.633,0.49912,-0.037296,2.4788,0.46385,-0.10512,2.2922,0.44687,-0.13654,2.1584,0.19581,-0.24759,2.6609,0.16501,-0.47186,2.3984,0.21863,-0.94123,2.605,0.15222,-0.69265,2.2661,0.30727,-0.23376,2.5805,0.17153,-0.45309,2.4777,0.22463,-0.75981,2.5441,0.18164,-0.79032,2.4835
0.25921,-0.17656,2.6406,0.28848,-0.13771,2.6829,0.29651,0.1319,2.7206,0.23126,0.31391,2.6736,0.18994,0.048677,2.7957,0.19023,-0.17455,2.8359,0.15065,-0.35833,2.8298,0.14259,-0.40416,2.8296,0.40164,0.047353,2.6321,0.4932,-0.029466,2.4757,0.41886,-0.066783,2.2787,0.3828,-0.079662,2.1701,0.19495,-0.24352,2.6638,0.1672,-0.44909,2.4106,0.21047,-0.92881,2.6012,0.15851,-0.67108,2.2786,0.3064,-0.2281,2.5803,0.28815,-0.59489,2.5428,0.21459,-0.75791,2.5436,0.1706,-0.78845,2.4838
0.25637,-0.17238,2.6401,0.28644,-0.13407,2.6824,0.29529,0.13419,2.7204,0.23055,0.31767,2.6748,0.18906,0.04903,2.7954,0.18962,-0.17481,2.8357,0.15004,-0.35859,2.8296,0.14198,-0.40443,2.8294,0.39642,0.048774,2.6333,0.48358,-0.0084462,2.468,0.3995,-0.049139,2.258,0.34515,-0.048073,2.1631,0.18978,-0.23875,2.663,0.16473,-0.43972,2.4121,0.20663,-0.92953,2.6,0.11736,-0.63377,2.2595,0.30495,-0.2232,2.5799,0.16812,-0.44033,2.4781,0.20582,-0.75035,2.5417,0.16134,-0.78095,2.4824
0.25433,-0.1699,2.6419,0.28506,-0.13133,2.684,0.2953,0.13874,2.7206,0.23173,0.32165,2.6767,0.18647,0.048199,2.7932,0.20689,-0.16148,2.9329,0.27746,-0.30498,3.0125,0.13946,-0.40542,2.8281,0.39147,0.052388,2.6341,0.47882,-0.011255,2.4703,0.3928,-0.054357,2.2755,0.32625,-0.029148,2.1889,0.1864,-0.23568,2.6659,0.16211,-0.42311,2.4369,0.2049,-0.92895,2.6012,0.11787,-0.62576,2.2787,0.30303,-0.22013,2.5838,0.27982,-0.5749,2.5486,0.20308,-0.75603,2.5342,0.15837,-0.78665,2.4751
0.25417,-0.16969,2.6415,0.28464,-0.13062,2.6841,0.29418,0.14265,2.7206,0.23159,0.32338,2.6755,0.18413,0.048723,2.7911,0.19724,-0.16521,2.926,0.22869,-0.32747,2.9988,0.23024,-0.40488,3.0209,0.39114,0.054877,2.6337,0.46077,-0.016987,2.4607,0.34771,-0.04286,2.2614,0.30072,-0.021839,2.2086,0.18704,-0.23633,2.6627,0.15057,-0.42496,2.4125,0.20558,-0.93029,2.6027,0.1074,-0.62262,2.2562,0.30342,-0.21976,2.5845,0.27727,-0.57649,2.5565,0.20431,-0.75887,2.5389,0.16005,-0.78945,2.4794
0.2537,-0.16906,2.6416,0.28411,-0.12995,2.6846,0.29429,0.1438,2.7208,0.23275,0.32559,2.6757,0.18282,0.047123,2.7895,0.16174,-0.17425,2.9176,0.18412,-0.34894,2.9644,0.17666,-0.42715,2.982,0.39276,0.057188,2.6341,0.45277,-0.024945,2.4611,0.32444,-0.018896,2.218,0.28572,-0.023492,2.2209,0.18635,-0.23621,2.6632,0.1479,-0.43147,2.4158,0.2065,-0.92733,2.6075,0.098475,-0.62282,2.2571,0.30352,-0.21888,2.5843,0.16317,-0.4532,2.5015,0.20825,-0.76248,2.562,0.16448,-0.79305,2.5022
0.25546,-0.17015,2.6396,0.28506,-0.13029,2.6837,0.29388,0.147,2.7225,0.23459,0.32833,2.6758,0.18148,0.0463,2.7889,0.1438,-0.18107,2.9054,0.1146,-0.36215,2.9316,0.09627,-0.41057,2.9271,0.39291,0.057725,2.6346,0.46662,-0.033636,2.4754,0.32664,-0.027316,2.2452,0.30635,-0.025883,2.2388,0.19092,-0.23855,2.66,0.14087,-0.44329,2.4205,0.20985,-0.9211,2.6119,0.084142,-0.63818,2.2583,0.30481,-0.21912,2.583,0.27233,-0.58027,2.5659,0.20516,-0.76161,2.5697,0.16167,-0.79219,2.5097
0.25611,-0.17314,2.6367,0.28558,-0.13192,2.6822,0.29389,0.15017,2.7244,0.24054,0.33342,2.6789,0.17908,0.044666,2.7896,0.10314,-0.19147,2.862,0.058143,-0.37091,2.8828,0.042833,-0.42084,2.8862,0.39137,0.058061,2.6358,0.46852,-0.03546,2.4796,0.32386,-0.036116,2.2567,0.27973,-0.057076,2.2787,0.19171,-0.24245,2.6557,0.13381,-0.46504,2.4274,0.20988,-0.91985,2.6121,0.076841,-0.66529,2.2677,0.30531,-0.22,2.5819,0.15287,-0.45606,2.4939,0.20308,-0.75858,2.5663,0.15975,-0.7892,2.5062
0.25527,-0.17435,2.6389,0.28491,-0.13247,2.684,0.29323,0.15167,2.7253,0.24326,0.33624,2.6811,0.17392,0.041973,2.7923,0.093989,-0.17618,2.8538,0.0042831,-0.342,2.8301,-0.016672,-0.39327,2.8221,0.39126,0.057723,2.6358,0.4655,-0.041737,2.4822,0.33087,-0.077324,2.2878,0.26702,-0.090419,2.2844,0.19022,-0.24357,2.6561,0.13518,-0.49252,2.4535,0.20954,-0.91904,2.6123,0.068694,-0.71811,2.2963,0.30559,-0.22247,2.587,0.27092,-0.58539,2.5701,0.28564,-0.88308,2.6222,0.16105,-0.79049,2.5074
0.24929,-0.17567,2.6423,0.28101,-0.13279,2.6865,0.29243,0.15524,2.7262,0.24486,0.34072,2.6818,0.16388,0.043127,2.8024,0.072304,-0.17468,2.8319,-0.035947,-0.3285,2.7854,-0.068818,-0.38296,2.7679,0.38788,0.056918,2.6343,0.47115,-0.05366,2.4956,0.3771,-0.11559,2.3279,0.28968,-0.13306,2.3114,0.17974,-0.24536,2.6584,0.12814,-0.54659,2.4678,0.075911,-0.75732,2.3425,0.031946,-0.78798,2.283,0.2999,-0.22575,2.5923,0.13464,-0.5129,2.4733,0.19957,-0.80214,2.5641,0.1556,-0.8328,2.5046
0.23009,-0.17776,2.6479,0.26751,-0.13421,2.6905,0.29314,0.15834,2.7271,0.24636,0.34524,2.6838,0.15859,0.04433,2.7999,0.072912,-0.15402,2.8142,-0.019574,-0.3242,2.7641,-0.058034,-0.37973,2.7516,0.38744,0.057156,2.6338,0.46898,-0.068863,2.5091,0.37095,-0.16041,2.3658,0.29136,-0.17579,2.3262,0.15232,-0.24843,2.6652,0.040986,-0.44671,2.3666,0.073314,-0.81955,2.391,-0.10232,-0.68485,2.0925,0.27593,-0.23077,2.5992,0.13212,-0.53555,2.4886,0.20152,-0.82635,2.5742,0.23551,-0.91706,2.5641
0.22764,-0.17784,2.6482,0.26375,-0.13397,2.692,0.29217,0.16209,2.727,0.24626,0.34951,2.6843,0.15101,0.045137,2.7915,0.062049,-0.15338,2.7935,-0.037736,-0.3025,2.7274,-0.081804,-0.364,2.7187,0.38868,0.057372,2.6344,0.4672,-0.080199,2.5217,0.36907,-0.18408,2.3881,0.30077,-0.22367,2.3428,0.14972,-0.24744,2.6643,0.043678,-0.48899,2.4049,-0.039093,-0.75248,2.2974,-0.071136,-0.79052,2.2271,0.27529,-0.23256,2.6016,0.13205,-0.55584,2.5009,0.10284,-0.83606,2.4587,0.061698,-0.877,2.3961
0.21296,-0.17886,2.6497,0.24376,-0.13362,2.6956,0.28397,0.16754,2.7249,0.24672,0.35259,2.6839,0.13769,0.047991,2.7695,0.044674,-0.15096,2.7679,-0.069847,-0.28023,2.6839,-0.13254,-0.34399,2.6416,0.38958,0.058325,2.6367,0.47769,-0.1034,2.5355,0.36952,-0.22478,2.4158,0.31866,-0.27156,2.3771,0.13459,-0.24719,2.6634,0.041031,-0.54264,2.4347,-0.030955,-0.83489,2.3713,-0.062343,-0.87466,2.3068,0.26157,-0.23705,2.606,0.13247,-0.58605,2.5227,0.10666,-0.89258,2.5093,0.072663,-0.92278,2.4434
0.20898,-0.18428,2.6483,0.23808,-0.13719,2.6955,0.27981,0.16867,2.723,0.24716,0.35831,2.6853,0.12679,0.048216,2.7584,0.029882,-0.1565,2.743,-0.089831,-0.28096,2.6449,-0.13361,-0.31996,2.614,0.38723,0.056898,2.6364,0.45395,-0.13133,2.5382,0.3736,-0.26806,2.4292,0.31659,-0.32206,2.3852,0.13314,-0.25122,2.6607,0.048247,-0.57991,2.4707,0.0088176,-0.85711,2.4782,-0.026356,-0.92401,2.4408,0.25867,-0.24742,2.6061,0.13316,-0.59919,2.5396,0.14759,-0.92412,2.5751,0.096371,-0.96073,2.5194
0.20724,-0.18793,2.6442,0.23414,-0.13916,2.6927,0.27104,0.17362,2.7186,0.2427,0.36223,2.6852,0.1185,0.050103,2.7489,0.02142,-0.15046,2.7254,-0.10051,-0.26222,2.6126,-0.14288,-0.30981,2.5623,0.38463,0.056691,2.6358,0.45201,-0.11599,2.5731,0.38199,-0.28576,2.4664,0.34817,-0.34911,2.4381,0.13321,-0.25385,2.6556,0.047393,-0.62674,2.5326,0.022738,-0.90253,2.5576,-0.0056083,-0.93241,2.489,0.25687,-0.2515,2.6028,0.13699,-0.6029,2.5495,0.22353,-0.89635,2.6117,0.19519,-0.92624,2.5431
0.20138,-0.19381,2.6383,0.226,-0.14327,2.6885,0.26425,0.17669,2.7153,0.24123,0.36439,2.6848,0.10852,0.053624,2.7345,0.012409,-0.14615,2.7061,-0.096561,-0.25528,2.5871,-0.13603,-0.30342,2.5358,0.38158,0.055768,2.6353,0.42982,-0.14874,2.5865,0.37923,-0.32253,2.4831,0.34966,-0.38586,2.4478,0.12791,-0.25681,2.6457,0.055911,-0.64399,2.5675,0.055119,-0.9216,2.6399,0.030757,-0.95137,2.5696,0.25059,-0.26013,2.5995,0.20717,-0.63575,2.5698,0.24055,-0.93323,2.6223,0.21618,-0.963,2.552
0.20059,-0.19464,2.6353,0.21991,-0.14116,2.6863,0.24056,0.1867,2.7016,0.23701,0.36871,2.6766,0.096231,0.058118,2.7111,0.004654,-0.14077,2.6887,-0.094263,-0.24722,2.5586,-0.12885,-0.29579,2.4842,0.37914,0.054646,2.6364,0.41467,-0.17842,2.5991,0.3826,-0.34705,2.5137,0.36031,-0.39227,2.4875,0.12826,-0.25744,2.6374,0.06679,-0.64091,2.6014,0.075387,-0.90637,2.6814,0.088315,-0.95759,2.6507,0.25152,-0.26125,2.6,0.21219,-0.62248,2.5691,0.24335,-0.93448,2.6293,0.22549,-0.96434,2.557
0.19711,-0.19524,2.634,0.21095,-0.14016,2.6848,0.23108,0.18956,2.6962,0.23666,0.37234,2.6744,0.083725,0.064576,2.6921,-0.0050463,-0.13792,2.6683,-0.095552,-0.25262,2.5173,-0.12257,-0.2985,2.4692,0.37281,0.058323,2.6398,0.40852,-0.18398,2.6134,0.37847,-0.36241,2.5552,0.3762,-0.4127,2.5306,0.12561,-0.258,2.631,0.053979,-0.62721,2.636,0.073903,-0.93176,2.7055,0.061785,-0.96173,2.6322,0.25035,-0.26322,2.6045,0.2115,-0.62111,2.5688,0.24379,-0.92697,2.6306,0.23167,-0.95694,2.5573
0.19243,-0.19431,2.6335,0.20358,-0.13719,2.6834,0.21904,0.19638,2.6869,0.23663,0.37921,2.6687,0.074264,0.070347,2.6814,-0.014343,-0.13142,2.6545,-0.085011,-0.25479,2.5159,-0.1029,-0.3094,2.4628,0.35525,0.060374,2.6372,0.40971,-0.18483,2.6115,0.38027,-0.36838,2.5757,0.37317,-0.42389,2.5632,0.12138,-0.25738,2.6289,0.054703,-0.62515,2.653,0.07852,-0.9338,2.7131,0.068347,-0.96415,2.6395,0.24726,-0.26158,2.6096,0.21233,-0.62024,2.5708,0.24278,-0.92602,2.6301,0.23261,-0.95637,2.5565
0.18434,-0.1914,2.6314,0.19272,-0.13472,2.6805,0.20551,0.18348,2.6766,0.23037,0.38166,2.6629,0.065624,0.077351,2.6681,-0.022388,-0.12418,2.6405,-0.070863,-0.25348,2.4982,-0.076155,-0.31303,2.4473,0.34831,0.062747,2.6372,0.40383,-0.18345,2.6212,0.40118,-0.36428,2.6228,0.40151,-0.44241,2.5537,0.11342,-0.25239,2.6243,0.063568,-0.6241,2.6566,0.084054,-0.93571,2.7156,0.098139,-0.98142,2.6667,0.24107,-0.25942,2.6129,0.21384,-0.62394,2.5843,0.24278,-0.9275,2.6306,0.23612,-0.95812,2.5566
0.17296,-0.18888,2.6285,0.18144,-0.12911,2.6765,0.19731,0.20578,2.6645,0.22905,0.38739,2.6597,0.05901,0.080736,2.6617,-0.028551,-0.12333,2.6295,-0.060104,-0.2655,2.4895,-0.043435,-0.33049,2.4506,0.33822,0.069136,2.6343,0.38615,-0.17128,2.642,0.39703,-0.35714,2.6032,0.40088,-0.41294,2.5943,0.1029,-0.24824,2.6234,0.066777,-0.62063,2.6661,0.088429,-0.93533,2.7149,0.073859,-0.9819,2.6753,0.22805,-0.25612,2.613,0.20987,-0.61954,2.5932,0.24062,-0.92395,2.6283,0.23456,-0.95515,2.5545
0.16958,-0.18435,2.6268,0.17761,-0.12455,2.6742,0.19325,0.2079,2.6614,0.2205,0.3934,2.6551,0.050701,0.085304,2.6592,-0.028942,-0.12354,2.6278,-0.049635,-0.27032,2.4909,-0.031295,-0.33623,2.4528,0.32987,0.074427,2.6307,0.37478,-0.15195,2.6495,0.38894,-0.3431,2.6224,0.40143,-0.41757,2.6197,0.10108,-0.24478,2.6226,0.074512,-0.61728,2.6661,0.088931,-0.93372,2.7153,0.082573,-0.96498,2.6416,0.22528,-0.25101,2.6121,0.20751,-0.61203,2.5989,0.24329,-0.92048,2.6298,0.23693,-0.95174,2.5561
0.16754,-0.1841,2.6262,0.17597,-0.1235,2.6732,0.1898,0.21013,2.6588,0.21431,0.39559,2.6503,0.046114,0.0868,2.6552,-0.0298,-0.12367,2.6255,-0.034317,-0.2808,2.5,-0.020248,-0.34198,2.4613,0.31774,0.082648,2.6258,0.3692,-0.16067,2.6576,0.38202,-0.35702,2.6518,0.38752,-0.42101,2.6608,0.10034,-0.24331,2.6222,0.068436,-0.62019,2.6737,0.088223,-0.93427,2.7164,0.081192,-0.96567,2.6428,0.22333,-0.25003,2.6126,0.20738,-0.61125,2.6053,0.25004,-0.92345,2.6311,0.24301,-0.95485,2.5576
0.16464,-0.18325,2.6252,0.17269,-0.12229,2.6712,0.18442,0.20977,2.655,0.20348,0.39719,2.6516,0.040874,0.087265,2.6526,-0.03012,-0.12851,2.6215,-0.019353,-0.29647,2.509,-0.0085849,-0.34891,2.4727,0.31163,0.08442,2.6232,0.36267,-0.16606,2.6646,0.37113,-0.3507,2.6871,0.37947,-0.42632,2.6742,0.098038,-0.24171,2.6215,0.066242,-0.61805,2.6776,0.084444,-0.92981,2.7163,0.077271,-0.9614,2.6428,0.22024,-0.24897,2.6124,0.20907,-0.60985,2.6102,0.25753,-0.92622,2.6332,0.25035,-0.9578,2.5597
0.16075,-0.18149,2.6228,0.1687,-0.12058,2.6684,0.18024,0.21223,2.6545,0.1984,0.39843,2.6479,0.039674,0.087794,2.6507,-0.030428,-0.12971,2.6212,-0.01596,-0.29528,2.5157,-0.0009507,-0.3534,2.4833,0.30271,0.086581,2.6209,0.35856,-0.16329,2.6659,0.3687,-0.34829,2.686,0.37199,-0.42443,2.6739,0.094542,-0.23906,2.6179,0.065581,-0.61741,2.6775,0.084597,-0.92922,2.7165,0.076971,-0.96071,2.643,0.21661,-0.24621,2.6115,0.20909,-0.61213,2.611,0.25945,-0.92569,2.6331,0.25183,-0.95719,2.5596
0.15857,-0.18071,2.6208,0.16605,-0.12019,2.6664,0.17731,0.2123,2.6545,0.19481,0.3984,2.6479,0.037909,0.08779,2.6506,-0.030456,-0.1341,2.6218,-0.017555,-0.32768,2.5193,0.0034579,-0.38203,2.4865,0.30142,0.083201,2.6202,0.35521,-0.16195,2.6664,0.36551,-0.34758,2.6826,0.36773,-0.42389,2.6713,0.092654,-0.23851,2.6151,0.080788,-0.61945,2.6738,0.085424,-0.92862,2.7164,0.07788,-0.96001,2.6429,0.21532,-0.24536,2.6106,0.20883,-0.60523,2.6093,0.25883,-0.9222,2.6322,0.25128,-0.95359,2.5586
0.15435,-0.17987,2.6195,0.16171,-0.11976,2.6652,0.17463,0.21204,2.6547,0.19147,0.3992,2.6497,0.034087,0.088517,2.6499,-0.031356,-0.13554,2.6246,-0.022146,-0.31929,2.5316,-0.0023585,-0.38473,2.5087,0.30136,0.083186,2.6207,0.35083,-0.16115,2.6665,0.35886,-0.34723,2.6806,0.36011,-0.42363,2.6697,0.087833,-0.23884,2.6135,0.062013,-0.60977,2.679,0.087052,-0.92727,2.7175,0.079994,-0.95855,2.6439,0.21203,-0.24436,2.6095,0.20823,-0.60844,2.6075,0.25988,-0.91772,2.6331,0.25282,-0.949,2.5594
0.14756,-0.18027,2.6163,0.15494,-0.12176,2.662,0.1637,0.1947,2.65,0.18978,0.39696,2.6505,0.031915,0.089123,2.6496,-0.032275,-0.13767,2.6274,-0.024451,-0.33291,2.5479,-0.0093553,-0.39524,2.5257,0.29702,0.084725,2.6182,0.34769,-0.15989,2.6646,0.35316,-0.34659,2.6748,0.35417,-0.42306,2.6644,0.083639,-0.23849,2.6117,0.061703,-0.6097,2.6791,0.08666,-0.92711,2.718,0.078921,-0.95834,2.6444,0.20223,-0.24338,2.6042,0.20656,-0.60689,2.6065,0.25875,-0.9155,2.6326,0.25101,-0.94673,2.559
0.14423,-0.17836,2.6137,0.15222,-0.11966,2.6597,0.16394,0.21588,2.6541,0.18871,0.40112,2.65,0.030469,0.090822,2.6505,-0.034468,-0.13609,2.6352,-0.044578,-0.33266,2.5661,0.0081079,-0.39814,2.5264,0.29406,0.085198,2.616,0.34502,-0.15893,2.6602,0.35092,-0.3461,2.6659,0.35176,-0.42262,2.6559,0.080862,-0.23683,2.61,0.059647,-0.61344,2.6768,0.08745,-0.93014,2.7191,0.078902,-0.96119,2.6455,0.19869,-0.24054,2.6007,0.20644,-0.60633,2.6054,0.25781,-0.91345,2.6314,0.24926,-0.9445,2.5578
0.14155,-0.17741,2.6124,0.1505,-0.11864,2.6588,0.16215,0.21719,2.6547,0.18532,0.40561,2.6527,0.029041,0.092302,2.6521,-0.038069,-0.14116,2.6394,-0.039474,-0.35599,2.5842,-0.025416,-0.40752,2.548,0.29138,0.085447,2.6127,0.34035,-0.16131,2.6425,0.36057,-0.35669,2.6314,0.35886,-0.41266,2.6423,0.078776,-0.23524,2.6101,0.058737,-0.61307,2.6765,0.087377,-0.92972,2.7188,0.077564,-0.96066,2.6454,0.19498,-0.23946,2.5973,0.20756,-0.60602,2.6037,0.2577,-0.91407,2.6303,0.24788,-0.94501,2.5568
0.14143,-0.17684,2.6119,0.15071,-0.11859,2.6586,0.15761,0.19871,2.6522,0.18174,0.40182,2.6557,0.027096,0.092726,2.6551,-0.04067,-0.14148,2.652,-0.043084,-0.35547,2.593,-0.069418,-0.42799,2.6171,0.29224,0.087706,2.6119,0.33846,-0.16166,2.6295,0.35837,-0.34869,2.6219,0.3648,-0.40537,2.6225,0.078893,-0.23512,2.6101,0.058401,-0.613,2.6763,0.087224,-0.92956,2.7191,0.07646,-0.96048,2.6457,0.19582,-0.23854,2.5955,0.21302,-0.60359,2.5989,0.25857,-0.91219,2.6303,0.24781,-0.94311,2.557
0.14189,-0.1761,2.6112,0.15211,-0.11782,2.658,0.15808,0.21565,2.6551,0.1815,0.40777,2.6557,0.025722,0.093641,2.6576,-0.041357,-0.1425,2.6561,-0.063758,-0.32802,2.6391,-0.055948,-0.40244,2.6149,0.28729,0.091885,2.6078,0.34125,-0.16026,2.6189,0.35746,-0.34811,2.5945,0.36943,-0.40384,2.5969,0.079741,-0.23476,2.6105,0.062567,-0.62059,2.668,0.087929,-0.93325,2.7196,0.075112,-0.96415,2.6466,0.19688,-0.23666,2.5928,0.2162,-0.59946,2.594,0.2594,-0.90841,2.6301,0.28506,-0.99194,2.6064
0.14183,-0.17557,2.6106,0.15295,-0.11733,2.6575,0.15791,0.21604,2.6557,0.17959,0.40835,2.6573,0.023869,0.093417,2.6627,-0.041817,-0.14681,2.6639,-0.064513,-0.33207,2.6409,-0.065344,-0.40447,2.6238,0.28592,0.093384,2.6062,0.33554,-0.15191,2.609,0.3424,-0.33994,2.5789,0.3297,-0.41072,2.558,0.080155,-0.23462,2.6111,0.062966,-0.6205,2.6666,0.087864,-0.93292,2.7192,0.073252,-0.96379,2.6465,0.19664,-0.23619,2.5903,0.21464,-0.59665,2.5941,0.26126,-0.90822,2.6305,0.28476,-0.9918,2.6063
0.14133,-0.17556,2.6089,0.15286,-0.11741,2.6562,0.1584,0.21587,2.6557,0.17835,0.40818,2.6584,0.02298,0.092509,2.6632,-0.042762,-0.1489,2.6723,-0.066358,-0.3333,2.64,-0.069444,-0.40613,2.6301,0.28502,0.0945,2.6053,0.33882,-0.14815,2.5964,0.34639,-0.33037,2.5469,0.33422,-0.38812,2.524,0.079424,-0.23499,2.6112,0.063245,-0.61946,2.6639,0.087706,-0.93128,2.7181,0.072646,-0.96206,2.6455,0.19602,-0.23594,2.5869,0.21696,-0.59617,2.5925,0.26191,-0.90355,2.6292,0.2647,-0.9641,2.5836
0.14015,-0.17583,2.6087,0.15317,-0.11754,2.6558,0.15895,0.21608,2.6561,0.1783,0.4079,2.6604,0.02155,0.091418,2.6682,-0.044524,-0.14743,2.6834,-0.071496,-0.33108,2.6513,-0.072096,-0.38876,2.647,0.28348,0.094888,2.6036,0.33767,-0.14626,2.589,0.3505,-0.32184,2.5179,0.34129,-0.38918,2.5062,0.077983,-0.23569,2.6127,0.065794,-0.61879,2.661,0.087619,-0.92929,2.7171,0.070725,-0.96005,2.6449,0.19408,-0.23604,2.5858,0.21963,-0.59781,2.5916,0.2646,-0.90345,2.6303,0.26659,-0.96389,2.5843
0.13943,-0.17702,2.6089,0.15279,-0.12071,2.6562,0.15782,0.19184,2.6558,0.17547,0.39491,2.6631,0.021526,0.09062,2.6701,-0.044746,-0.14709,2.6866,-0.072348,-0.33051,2.6553,-0.074586,-0.38504,2.645,0.28356,0.095208,2.6021,0.3348,-0.14464,2.5819,0.35831,-0.31537,2.5018,0.35776,-0.37635,2.473,0.07766,-0.23758,2.6144,0.065769,-0.61676,2.663,0.087514,-0.92958,2.7169,0.069708,-0.96022,2.6448,0.19301,-0.23693,2.5851,0.2214,-0.59916,2.5916,0.26663,-0.90532,2.6311,0.26711,-0.96576,2.5847
0.13926,-0.17672,2.6087,0.15344,-0.12021,2.656,0.16128,0.21462,2.659,0.17577,0.40671,2.6623,0.022438,0.089962,2.6729,-0.045026,-0.14804,2.6931,-0.07156,-0.33165,2.6586,-0.07684,-0.3832,2.6459,0.28497,0.095531,2.6005,0.34868,-0.13695,2.5802,0.36099,-0.30169,2.4828,0.35542,-0.37044,2.4446,0.07719,-0.23739,2.6148,0.065899,-0.6163,2.6631,0.087599,-0.92909,2.717,0.068704,-0.95975,2.6452,0.19295,-0.23665,2.5843,0.22795,-0.60473,2.5899,0.26759,-0.90564,2.6312,0.2675,-0.96613,2.5849
0.13972,-0.17678,2.6088,0.15447,-0.12006,2.6558,0.16306,0.21461,2.6589,0.17776,0.40556,2.6635,0.024407,0.088063,2.6748,-0.043551,-0.14941,2.6958,-0.072971,-0.33264,2.6612,-0.078242,-0.40267,2.65,0.28879,0.094107,2.5994,0.36188,-0.12977,2.5675,0.36177,-0.30058,2.4744,0.35549,-0.36791,2.4339,0.077241,-0.2375,2.6153,0.072009,-0.62131,2.6611,0.088448,-0.92909,2.7175,0.068903,-0.95974,2.6459,0.19373,-0.23695,2.584,0.22894,-0.60523,2.5902,0.26814,-0.90728,2.6314,0.26778,-0.96763,2.5843
0.14208,-0.17835,2.6095,0.15787,-0.12291,2.6564,0.17308,0.18891,2.6535,0.18007,0.39101,2.6657,0.027504,0.085285,2.676,-0.038858,-0.1496,2.7031,-0.070889,-0.33258,2.6696,-0.070275,-0.39183,2.6604,0.29492,0.093279,2.5984,0.35708,-0.14002,2.5746,0.36253,-0.29263,2.4567,0.35472,-0.36128,2.4187,0.079312,-0.23934,2.6167,0.07269,-0.62031,2.6623,0.088369,-0.92912,2.7176,0.068413,-0.95974,2.646,0.19575,-0.239,2.5843,0.23383,-0.60659,2.5901,0.26873,-0.90955,2.6313,0.29125,-0.99313,2.6116
0.1461,-0.17918,2.6104,0.16301,-0.12308,2.6571,0.18261,0.21014,2.6579,0.18564,0.40471,2.6665,0.034017,0.084475,2.6787,-0.031555,-0.15138,2.7098,-0.06636,-0.33364,2.6729,-0.066317,-0.40389,2.6673,0.29913,0.091743,2.5977,0.36274,-0.14239,2.57,0.36342,-0.29154,2.4469,0.35314,-0.35623,2.4031,0.083434,-0.24009,2.6192,0.076722,-0.62273,2.6635,0.087635,-0.9301,2.7173,0.066693,-0.96072,2.646,0.19918,-0.23978,2.5838,0.23484,-0.60536,2.5945,0.27135,-0.90707,2.6325,0.28503,-0.98331,2.6092
0.15044,-0.182,2.6122,0.16812,-0.12485,2.6589,0.1859,0.21,2.6599,0.18631,0.4027,2.6658,0.03899,0.082844,2.6805,-0.022685,-0.15564,2.7127,-0.048935,-0.34079,2.6892,-0.057354,-0.40743,2.6806,0.30094,0.09091,2.5966,0.36997,-0.13405,2.5663,0.36928,-0.28232,2.4419,0.35441,-0.34805,2.401,0.088185,-0.2422,2.6227,0.07853,-0.62288,2.6653,0.087612,-0.93083,2.7174,0.065676,-0.96147,2.6464,0.20226,-0.24191,2.5841,0.23649,-0.60653,2.6024,0.27203,-0.90727,2.6319,0.2501,-0.93791,2.5609
0.15863,-0.18192,2.6144,0.17663,-0.12407,2.6612,0.19279,0.2109,2.6613,0.18924,0.40147,2.6662,0.048834,0.083676,2.6822,-0.010152,-0.15502,2.7159,-0.038924,-0.34259,2.6936,-0.04257,-0.40262,2.6913,0.31532,0.084937,2.596,0.3843,-0.12526,2.5594,0.36838,-0.278,2.4419,0.35138,-0.34272,2.4005,0.095389,-0.24212,2.6249,0.0821,-0.64357,2.6722,0.087863,-0.9292,2.7175,0.11165,-0.95061,2.6533,0.21122,-0.24357,2.5864,0.24226,-0.60413,2.6071,0.27643,-0.90725,2.6338,0.25459,-0.93796,2.5628
