0.0034609,-0.18158,2.7989,0.014462,-0.11963,2.8301,0.023031,0.20917,2.8245,-0.011397,0.3781,2.8046,-0.1414,0.072881,2.8454,-0.17232,-0.17816,2.8682,-0.2157,-0.36771,2.8148,-0.22164,-0.42012,2.7964,0.15006,0.087678,2.7663,0.18497,-0.16971,2.7515,0.17736,-0.35965,2.6892,0.16352,-0.42546,2.6788,-0.065698,-0.24845,2.8096,-0.083679,-0.62275,2.7822,-0.088485,-0.93805,2.8201,-0.10867,-0.98867,2.7742,0.063487,-0.24844,2.7769,0.069882,-0.63126,2.817,0.078381,-0.9564,2.8763,0.059748,-0.98793,2.8052
7.7917e-05,-0.18321,2.7984,0.010695,-0.12112,2.8308,0.016896,0.20947,2.8256,-0.014291,0.37838,2.8056,-0.14868,0.073179,2.8445,-0.1822,-0.17995,2.8636,-0.22525,-0.37181,2.8054,-0.2452,-0.4379,2.7872,0.14216,0.086009,2.7669,0.18144,-0.17078,2.7513,0.17112,-0.36005,2.6888,0.16085,-0.42825,2.6819,-0.068962,-0.25029,2.8069,-0.086968,-0.62545,2.785,-0.09553,-0.94463,2.8199,-0.08627,-1.0156,2.8239,0.060834,-0.25008,2.7773,0.067504,-0.63132,2.8162,0.080172,-0.96319,2.88,0.061882,-0.99468,2.8088
-0.0077673,-0.18481,2.7962,0.0033564,-0.12283,2.8299,0.0085961,0.20876,2.8248,-0.021397,0.37901,2.8065,-0.16158,0.07353,2.8442,-0.19488,-0.18422,2.8573,-0.23002,-0.37376,2.8022,-0.24732,-0.42806,2.7863,0.12805,0.085439,2.7626,0.16963,-0.1713,2.7505,0.16826,-0.35912,2.6909,0.15909,-0.42886,2.6828,-0.076416,-0.25169,2.804,-0.090345,-0.6276,2.787,-0.075955,-0.94527,2.8242,-0.1088,-1.0127,2.8079,0.053268,-0.2512,2.7751,0.059842,-0.63218,2.8149,0.07677,-0.97011,2.8794,0.057514,-1.0016,2.8084
-0.021541,-0.18814,2.7928,-0.0091388,-0.12573,2.8271,-0.0061353,0.20874,2.8222,-0.028995,0.37979,2.8059,-0.168,0.074103,2.8438,-0.20282,-0.18339,2.8572,-0.24088,-0.37328,2.795,-0.25661,-0.42501,2.777,0.11316,0.082424,2.7531,0.15715,-0.1738,2.7422,0.14879,-0.36127,2.6852,0.15071,-0.43376,2.6818,-0.087626,-0.25415,2.8024,-0.092124,-0.62707,2.7879,-0.086246,-0.9344,2.8217,-0.1067,-0.98753,2.7762,0.03741,-0.25436,2.7698,0.051007,-0.63667,2.8133,0.073099,-0.96671,2.8774,0.05132,-0.99817,2.8072
-0.029044,-0.18888,2.7894,-0.016494,-0.1264,2.8244,-0.016575,0.20923,2.8199,-0.042227,0.38018,2.8047,-0.17606,0.074866,2.8414,-0.20724,-0.1823,2.8561,-0.25769,-0.37175,2.7989,-0.2679,-0.43927,2.7751,0.10067,0.083246,2.7494,0.13528,-0.17483,2.7371,0.14017,-0.36238,2.6811,0.13747,-0.43576,2.6771,-0.094838,-0.25456,2.7983,-0.095019,-0.62626,2.7884,-0.082742,-0.93835,2.8248,-0.10363,-0.99259,2.7791,0.030749,-0.25443,2.7668,0.045782,-0.63347,2.8091,0.06974,-0.96442,2.8731,0.047341,-0.9959,2.8031
-0.042114,-0.19011,2.7818,-0.029127,-0.12772,2.8183,-0.026481,0.20899,2.8141,-0.050353,0.38131,2.8061,-0.18781,0.075604,2.8358,-0.22246,-0.17948,2.8586,-0.26929,-0.36747,2.7936,-0.27483,-0.42157,2.7719,0.090344,0.083927,2.745,0.11708,-0.17411,2.7312,0.12405,-0.36052,2.6694,0.1167,-0.43352,2.6651,-0.10842,-0.25559,2.7904,-0.099536,-0.62453,2.7881,-0.08481,-0.93964,2.8247,-0.10681,-0.97097,2.7546,0.017687,-0.25524,2.7593,0.031233,-0.63326,2.8002,0.069637,-0.96427,2.873,0.047633,-0.99559,2.8029
-0.055233,-0.19194,2.774,-0.043203,-0.13001,2.8124,-0.04165,0.20695,2.8111,-0.070476,0.37661,2.7928,-0.19918,0.074172,2.8241,-0.23545,-0.18075,2.8546,-0.28257,-0.36207,2.7926,-0.28644,-0.42013,2.7661,0.079804,0.084538,2.741,0.10815,-0.1746,2.7186,0.10404,-0.3604,2.6566,0.10825,-0.4329,2.6565,-0.12002,-0.25665,2.7824,-0.10536,-0.62815,2.7873,-0.10163,-0.94065,2.8227,-0.12193,-0.97173,2.7519,0.0036207,-0.25607,2.75,0.018455,-0.63825,2.787,0.066958,-0.94937,2.863,0.046655,-0.98045,2.7922
-0.064684,-0.19431,2.7688,-0.053046,-0.13227,2.8081,-0.054015,0.20597,2.8069,-0.086232,0.37439,2.782,-0.21456,0.068961,2.8143,-0.25175,-0.18288,2.8498,-0.29999,-0.36206,2.7815,-0.30799,-0.42396,2.7584,0.061735,0.081916,2.7332,0.10164,-0.17517,2.7125,0.095787,-0.36181,2.6481,0.095332,-0.43282,2.6438,-0.13034,-0.25958,2.7759,-0.12599,-0.62828,2.784,-0.1148,-0.93387,2.8203,-0.1349,-0.96495,2.7495,-0.0038038,-0.25731,2.746,-0.0003441,-0.63671,2.7581,0.060935,-0.9537,2.8582,0.04083,-0.98478,2.7874
-0.071384,-0.19567,2.7619,-0.061347,-0.13376,2.8021,-0.064833,0.20316,2.7996,-0.092026,0.37409,2.7783,-0.22686,0.064342,2.8053,-0.27304,-0.18934,2.8323,-0.32829,-0.36919,2.7725,-0.33495,-0.43192,2.7488,0.059238,0.081796,2.7316,0.097211,-0.17556,2.7087,0.087466,-0.3609,2.6343,0.081807,-0.43078,2.628,-0.13796,-0.26408,2.7669,-0.14238,-0.62694,2.7767,-0.11524,-0.93789,2.8214,-0.13309,-0.96899,2.75,-0.00889,-0.2575,2.7406,-0.01705,-0.63223,2.7264,0.040457,-0.95146,2.8346,0.022608,-0.98257,2.7632
-0.082647,-0.2006,2.7534,-0.072832,-0.13879,2.7938,-0.077303,0.19793,2.7909,-0.095369,0.37181,2.7743,-0.23909,0.059142,2.795,-0.29264,-0.1933,2.8181,-0.36303,-0.37375,2.7468,-0.36621,-0.44973,2.7288,0.044402,0.077866,2.7224,0.087236,-0.17837,2.6983,0.085004,-0.36614,2.6277,0.077705,-0.4293,2.6114,-0.1477,-0.26941,2.7587,-0.15872,-0.62763,2.7664,-0.099183,-0.95533,2.8253,-0.12346,-1.0026,2.7896,-0.020623,-0.26113,2.7323,-0.041203,-0.63046,2.6946,0.0058468,-0.94926,2.8214,0.020027,-0.99608,2.7867
-0.091272,-0.20695,2.7434,-0.085698,-0.14421,2.783,-0.10005,0.19102,2.7732,-0.10322,0.36553,2.7658,-0.2554,0.051842,2.7756,-0.32778,-0.19742,2.7744,-0.39429,-0.38343,2.7144,-0.40188,-0.45896,2.7105,0.039383,0.075027,2.7197,0.083481,-0.18116,2.6916,0.08197,-0.36905,2.6172,0.078823,-0.43156,2.5941,-0.15511,-0.27503,2.7479,-0.18022,-0.63231,2.7416,-0.10762,-0.95425,2.8187,-0.12084,-0.98587,2.7465,-0.027067,-0.26737,2.7246,-0.058635,-0.63417,2.6745,-0.063776,-0.9225,2.7695,0.025474,-1.0126,2.8189
-0.095765,-0.21323,2.733,-0.092542,-0.15074,2.7731,-0.10691,0.18529,2.7663,-0.13427,0.34881,2.7439,-0.26567,0.040776,2.7541,-0.35848,-0.2025,2.7359,-0.43138,-0.38686,2.6773,-0.44606,-0.46454,2.6558,0.027671,0.069006,2.7122,0.079897,-0.18571,2.6868,0.082433,-0.3688,2.5986,0.081413,-0.44195,2.5722,-0.15936,-0.28155,2.7343,-0.18889,-0.63531,2.7276,-0.11143,-0.95604,2.8087,-0.11853,-1.0026,2.7644,-0.030122,-0.27221,2.7168,-0.089389,-0.63117,2.6414,-0.075944,-0.91691,2.747,-0.06257,-0.99772,2.7428
-0.10229,-0.22702,2.7199,-0.10214,-0.16461,2.7567,-0.12877,0.16184,2.7399,-0.14799,0.33218,2.7322,-0.27206,0.031934,2.7338,-0.37909,-0.19405,2.6929,-0.47084,-0.40074,2.609,-0.49798,-0.46811,2.5855,0.012246,0.054549,2.6954,0.076122,-0.19692,2.6769,0.090788,-0.3698,2.5817,0.094647,-0.43824,2.5443,-0.16363,-0.2939,2.722,-0.20762,-0.6511,2.7053,-0.11432,-0.96254,2.7895,-0.095957,-1.0227,2.767,-0.035387,-0.28429,2.7064,-0.12271,-0.65479,2.614,-0.07476,-0.946,2.7398,-0.058084,-1.0537,2.7703
-0.11133,-0.23683,2.7083,-0.1127,-0.17464,2.743,-0.1372,0.15201,2.7264,-0.16527,0.32174,2.7178,-0.28317,0.017801,2.712,-0.40279,-0.19909,2.6441,-0.49669,-0.38105,2.5372,-0.52768,-0.45187,2.5067,-0.0066377,0.041474,2.6807,0.077489,-0.20252,2.6762,0.11049,-0.3697,2.5758,0.13779,-0.43142,2.5392,-0.17123,-0.3039,2.7112,-0.21972,-0.66333,2.692,-0.1326,-0.95457,2.7481,-0.12191,-1.0258,2.7065,-0.044233,-0.29095,2.6966,-0.1379,-0.64715,2.575,-0.090182,-0.96014,2.6913,-0.1061,-1.0243,2.6712
-0.12152,-0.25258,2.6925,-0.12402,-0.1901,2.7247,-0.15577,0.13218,2.7004,-0.17844,0.30523,2.6953,-0.29145,0.0090179,2.6941,-0.40839,-0.1833,2.6185,-0.50989,-0.33678,2.469,-0.55858,-0.41794,2.4068,-0.022843,0.029992,2.664,0.083849,-0.20352,2.6724,0.16511,-0.35805,2.5827,0.19384,-0.40446,2.5592,-0.17782,-0.31657,2.696,-0.23032,-0.67072,2.6899,-0.17594,-0.9267,2.7381,-0.16162,-0.99877,2.6896,-0.056321,-0.30512,2.6831,-0.15831,-0.63944,2.5155,-0.1162,-0.95172,2.6111,-0.14679,-1.0211,2.593
-0.13536,-0.26546,2.6671,-0.13677,-0.20222,2.6987,-0.16891,0.12525,2.6813,-0.19525,0.29278,2.6738,-0.29956,0.00024346,2.6647,-0.42777,-0.15748,2.5704,-0.52451,-0.29331,2.4028,-0.56039,-0.34914,2.3423,-0.049971,0.016005,2.6252,0.087015,-0.19346,2.6632,0.20245,-0.3372,2.6025,0.2366,-0.38716,2.5833,-0.1903,-0.32679,2.6719,-0.24544,-0.64942,2.6924,-0.14764,-0.94292,2.7576,-0.15842,-0.97573,2.6855,-0.071014,-0.31428,2.6561,-0.17678,-0.6258,2.4596,-0.1569,-0.93806,2.5164,-0.17096,-1.0096,2.4929
-0.14922,-0.2538,2.6355,-0.15248,-0.1919,2.6652,-0.18646,0.12654,2.6462,-0.20072,0.29587,2.6491,-0.31758,0.010286,2.6372,-0.43814,-0.13146,2.5268,-0.52302,-0.22187,2.356,-0.556,-0.26351,2.2916,-0.061094,0.023784,2.6037,0.097975,-0.16583,2.6495,0.23772,-0.29487,2.6277,0.27605,-0.34855,2.6143,-0.20461,-0.31538,2.6372,-0.23322,-0.67244,2.6659,-0.14904,-0.93125,2.7767,-0.15779,-0.96422,2.7044,-0.084185,-0.30442,2.6264,-0.18942,-0.60937,2.4034,-0.1854,-0.92437,2.4283,-0.20981,-0.98646,2.39
-0.16153,-0.24004,2.5921,-0.1643,-0.17787,2.6218,-0.20014,0.14557,2.6112,-0.20765,0.31402,2.6109,-0.33105,0.027096,2.6016,-0.46315,-0.11177,2.486,-0.53409,-0.18195,2.294,-0.5688,-0.21308,2.1939,-0.065272,0.041863,2.5603,0.10318,-0.13036,2.6274,0.25186,-0.25614,2.6387,0.3075,-0.30847,2.6505,-0.21714,-0.30447,2.5998,-0.23655,-0.65256,2.6616,-0.15766,-0.91416,2.7707,-0.16834,-0.94664,2.6984,-0.094886,-0.29233,2.5762,-0.18916,-0.57311,2.3494,-0.19805,-0.89631,2.3379,-0.2156,-0.94514,2.2727
-0.17818,-0.20527,2.5445,-0.17965,-0.14532,2.5756,-0.20565,0.1722,2.5761,-0.20196,0.33095,2.5926,-0.33807,0.053679,2.5619,-0.46553,-0.079101,2.4779,-0.53796,-0.13276,2.26,-0.56484,-0.14789,2.1344,-0.065245,0.063589,2.5268,0.10388,-0.088903,2.6126,0.25472,-0.20584,2.6522,0.29317,-0.25143,2.6603,-0.23648,-0.26284,2.5455,-0.23587,-0.61225,2.6353,-0.16844,-0.89869,2.7365,-0.17732,-0.93015,2.6635,-0.11274,-0.26514,2.5308,-0.1895,-0.56608,2.3071,-0.20033,-0.87333,2.2465,-0.22353,-0.93203,2.1527
-0.18811,-0.18894,2.4923,-0.18664,-0.1294,2.5286,-0.20531,0.1981,2.5517,-0.19328,0.36725,2.5661,-0.33777,0.073773,2.5316,-0.48392,-0.041758,2.4389,-0.54116,-0.10064,2.238,-0.56649,-0.10169,2.1119,-0.069865,0.093415,2.4881,0.090948,-0.07053,2.5814,0.23866,-0.19064,2.6511,0.27365,-0.22344,2.6622,-0.24527,-0.24847,2.4934,-0.26794,-0.56497,2.6122,-0.16738,-0.87118,2.7411,-0.17921,-0.9013,2.668,-0.12669,-0.24409,2.4721,-0.18059,-0.55417,2.2827,-0.18844,-0.84475,2.1735,-0.20027,-0.87487,2.1004
-0.19996,-0.17216,2.4403,-0.19659,-0.11338,2.4801,-0.20367,0.21888,2.5113,-0.19049,0.37877,2.5452,-0.34385,0.092316,2.4993,-0.48589,-0.037529,2.4397,-0.54592,-0.070998,2.2369,-0.58796,-0.085339,2.1085,-0.074848,0.1138,2.4611,0.086663,-0.049868,2.5543,0.22752,-0.18499,2.6392,0.25916,-0.22409,2.665,-0.2581,-0.23433,2.4418,-0.27403,-0.58193,2.5689,-0.17167,-0.87646,2.7174,-0.19253,-0.93096,2.6915,-0.14185,-0.22494,2.4154,-0.17395,-0.54606,2.2598,-0.18022,-0.82622,2.1405,-0.20328,-0.88841,2.0418
-0.20852,-0.17113,2.3864,-0.20328,-0.11478,2.4327,-0.20504,0.2223,2.494,-0.18908,0.38305,2.5202,-0.34859,0.096437,2.475,-0.49158,-0.036524,2.4214,-0.55475,-0.067153,2.2218,-0.62821,-0.085752,2.1193,-0.085982,0.11126,2.4313,0.052191,-0.04296,2.537,0.17583,-0.18096,2.6059,0.20949,-0.23219,2.6447,-0.26913,-0.23433,2.3814,-0.30232,-0.5831,2.5023,-0.18828,-0.86557,2.6635,-0.20916,-0.91761,2.643,-0.14968,-0.22325,2.361,-0.17496,-0.54151,2.2202,-0.17838,-0.82637,2.1335,-0.19065,-0.85555,2.0601
-0.2128,-0.17472,2.3389,-0.20497,-0.12364,2.386,-0.20495,0.19948,2.4546,-0.19413,0.381,2.4979,-0.34536,0.093427,2.4345,-0.50442,-0.049578,2.3672,-0.64681,-0.10535,2.212,-0.69521,-0.12699,2.1311,-0.11004,0.1061,2.3828,0.041427,-0.047993,2.5128,0.14253,-0.21673,2.5615,0.17642,-0.28055,2.6061,-0.27074,-0.23622,2.3293,-0.32488,-0.59982,2.437,-0.21769,-0.88046,2.6019,-0.26927,-0.95612,2.6086,-0.15804,-0.2206,2.3117,-0.17848,-0.55469,2.1782,-0.19357,-0.8596,2.102,-0.21023,-0.88791,2.0325
-0.22501,-0.18041,2.3078,-0.21433,-0.12992,2.3604,-0.20644,0.19693,2.4378,-0.20781,0.38032,2.4559,-0.3447,0.083743,2.409,-0.51185,-0.075984,2.3597,-0.69563,-0.15568,2.2048,-0.74032,-0.17704,2.1716,-0.11494,0.10324,2.3628,0.018899,-0.088785,2.4535,0.11172,-0.25031,2.4996,0.13948,-0.31687,2.5373,-0.28532,-0.23601,2.3,-0.34284,-0.61083,2.3595,-0.29617,-0.9273,2.4745,-0.32109,-0.98154,2.4474,-0.17294,-0.22621,2.2783,-0.18066,-0.56171,2.1492,-0.19518,-0.86167,2.0938,-0.21286,-0.89009,2.0247
-0.2266,-0.18073,2.2829,-0.21395,-0.13039,2.3332,-0.20997,0.19539,2.4069,-0.22154,0.37798,2.4205,-0.35071,0.081808,2.3899,-0.50895,-0.082415,2.3628,-0.69046,-0.1947,2.2681,-0.75435,-0.22745,2.2379,-0.12923,0.1025,2.3266,-0.0016266,-0.098617,2.3981,0.086949,-0.30697,2.4289,0.096458,-0.36783,2.441,-0.28321,-0.2369,2.2741,-0.35333,-0.62453,2.2676,-0.33302,-0.92033,2.3532,-0.3735,-0.95001,2.2563,-0.17613,-0.22481,2.2544,-0.18354,-0.5856,2.1164,-0.19136,-0.85956,2.0804,-0.21163,-0.888,2.012
-0.22899,-0.17355,2.2649,-0.21779,-0.11949,2.3159,-0.22201,0.21907,2.3721,-0.23636,0.3874,2.3839,-0.35602,0.084487,2.3721,-0.51072,-0.1042,2.371,-0.6958,-0.24714,2.3211,-0.75192,-0.29475,2.3166,-0.10941,0.10987,2.3034,-0.011053,-0.11157,2.3464,0.055439,-0.33453,2.3321,0.065131,-0.3964,2.3278,-0.2849,-0.23345,2.2631,-0.36141,-0.61678,2.1815,-0.3749,-0.87896,2.1978,-0.39386,-0.90275,2.1434,-0.17718,-0.22083,2.23,-0.18482,-0.59305,2.1087,-0.18872,-0.85302,2.0692,-0.20984,-0.88144,2.001
-0.23822,-0.16947,2.2487,-0.2275,-0.11703,2.2982,-0.22754,0.2029,2.3448,-0.2533,0.38751,2.3579,-0.37044,0.080609,2.3518,-0.49757,-0.11517,2.3824,-0.6587,-0.28319,2.3791,-0.70314,-0.33028,2.3808,-0.10952,0.10932,2.2869,0.0041003,-0.12159,2.2811,0.017031,-0.31879,2.2056,0.02685,-0.3785,2.1986,-0.29748,-0.23176,2.2481,-0.35542,-0.60225,2.112,-0.40107,-0.85107,2.0439,-0.41005,-0.93851,2.0316,-0.18523,-0.22167,2.2125,-0.21699,-0.61493,2.0976,-0.20373,-0.91164,2.0619,-0.1799,-0.92476,2.0067
-0.24132,-0.16407,2.234,-0.23014,-0.10983,2.2841,-0.23208,0.2277,2.3267,-0.25746,0.39172,2.3368,-0.37622,0.083298,2.3356,-0.49054,-0.12706,2.3869,-0.60948,-0.29347,2.4065,-0.6431,-0.35456,2.4228,-0.11264,0.11082,2.2669,-0.0065615,-0.11921,2.242,0.0022378,-0.30209,2.1397,0.0026366,-0.36058,2.1049,-0.30178,-0.22903,2.2362,-0.31406,-0.54224,2.0663,-0.4001,-0.78703,1.9617,-0.38816,-0.83889,1.904,-0.18575,-0.2167,2.1984,-0.1747,-0.61356,2.0943,-0.1589,-0.89528,2.0824,-0.1805,-0.92562,2.008
-0.24704,-0.16241,2.2206,-0.23658,-0.10785,2.2712,-0.23058,0.22967,2.3132,-0.26032,0.39404,2.3212,-0.37953,0.085704,2.3071,-0.48424,-0.1294,2.3805,-0.57414,-0.29766,2.4122,-0.5929,-0.36092,2.4318,-0.11417,0.11127,2.2526,-0.0095087,-0.1148,2.2247,-0.0028521,-0.28282,2.0956,-0.012745,-0.33967,2.0474,-0.31014,-0.22606,2.2221,-0.26388,-0.5234,2.0466,-0.36958,-0.76583,1.8717,-0.35961,-0.82229,1.8167,-0.1907,-0.21645,2.1863,-0.27539,-0.55298,2.0593,-0.16464,-0.89861,2.0851,-0.36587,-0.82056,1.8258
-0.24821,-0.15303,2.2054,-0.23872,-0.099833,2.2565,-0.23423,0.23182,2.2993,-0.25968,0.39714,2.2976,-0.38235,0.087103,2.2897,-0.4737,-0.13601,2.3485,-0.55063,-0.32446,2.3942,-0.56621,-0.37555,2.4145,-0.11683,0.11095,2.2392,-0.012836,-0.11154,2.2178,-0.0031569,-0.28254,2.0917,-0.011738,-0.34026,2.0453,-0.31233,-0.21541,2.202,-0.27013,-0.49146,2.0235,-0.21332,-0.82051,2.0552,-0.22727,-0.84878,1.9852,-0.19035,-0.21061,2.1756,-0.26342,-0.53443,2.04,-0.34279,-0.77502,1.8168,-0.35674,-0.80329,1.7468
-0.25031,-0.14836,2.197,-0.24251,-0.09539,2.2484,-0.23784,0.23282,2.2864,-0.2588,0.3996,2.2888,-0.38423,0.089474,2.2747,-0.46971,-0.13907,2.3258,-0.53559,-0.32067,2.3369,-0.55525,-0.37958,2.3443,-0.10515,0.11104,2.2332,-0.011943,-0.11436,2.2172,-0.0016239,-0.28649,2.0924,-0.003973,-0.35167,2.0541,-0.31507,-0.2121,2.1958,-0.35946,-0.48466,1.992,-0.21742,-0.82178,2.0551,-0.22652,-0.84997,1.9842,-0.1913,-0.20752,2.1658,-0.26856,-0.53511,2.0185,-0.34192,-0.76377,1.811,-0.35102,-0.79196,1.7402
-0.25596,-0.14623,2.1834,-0.2492,-0.093638,2.2363,-0.23997,0.23519,2.2774,-0.25632,0.40318,2.2742,-0.38396,0.092338,2.2593,-0.46935,-0.14612,2.2816,-0.54429,-0.33751,2.2707,-0.5619,-0.40227,2.2663,-0.10606,0.11257,2.2309,-0.018853,-0.11944,2.2192,0.0030902,-0.30696,2.1268,0.0069926,-0.35578,2.114,-0.32257,-0.21073,2.1772,-0.36033,-0.47992,1.9849,-0.21985,-0.82403,2.0542,-0.22693,-0.85219,1.983,-0.19652,-0.20411,2.1553,-0.27161,-0.53435,2.0122,-0.34076,-0.76201,1.8066,-0.34784,-0.79016,1.7355
-0.26309,-0.14649,2.1717,-0.25646,-0.094026,2.2259,-0.2407,0.23674,2.271,-0.25475,0.40659,2.2622,-0.38476,0.094622,2.2469,-0.47235,-0.14668,2.2587,-0.54316,-0.31822,2.1882,-0.56281,-0.39008,2.1771,-0.10714,0.11331,2.2291,-0.042101,-0.11185,2.2485,0.0055903,-0.31271,2.1679,0.0019642,-0.37887,2.1578,-0.32883,-0.20932,2.1684,-0.36085,-0.47833,1.9801,-0.22163,-0.82678,2.0528,-0.22615,-0.85485,1.9814,-0.20625,-0.20193,2.1408,-0.27128,-0.50313,2.0198,-0.35167,-0.76505,1.8025,-0.32477,-0.80879,1.7622
-0.26935,-0.14648,2.1612,-0.26439,-0.093799,2.2156,-0.24675,0.23879,2.2594,-0.25444,0.40864,2.255,-0.38659,0.09796,2.2351,-0.4794,-0.13721,2.2104,-0.53804,-0.30228,2.1079,-0.55783,-0.36389,2.0869,-0.10877,0.1179,2.2277,-0.047793,-0.1124,2.2714,-0.084524,-0.29783,2.1378,-0.0035378,-0.38772,2.2145,-0.33487,-0.20691,2.1568,-0.34099,-0.48449,1.9416,-0.37905,-0.82284,1.8132,-0.25208,-0.82241,1.9523,-0.21247,-0.20237,2.1324,-0.28411,-0.54001,1.9971,-0.34099,-0.76277,1.8081,-0.34402,-0.79086,1.7366
-0.27011,-0.14635,2.15,-0.2671,-0.094158,2.2064,-0.24746,0.23959,2.2566,-0.25549,0.40932,2.2516,-0.38758,0.10002,2.2216,-0.4774,-0.12374,2.169,-0.53102,-0.27588,2.0495,-0.55093,-0.33942,2.0143,-0.13712,0.11962,2.2493,-0.053573,-0.11441,2.2919,-0.0085818,-0.31539,2.2741,-0.0086369,-0.39419,2.265,-0.33459,-0.20514,2.141,-0.32798,-0.48635,1.9694,-0.24795,-0.81416,2.0245,-0.24772,-0.84216,1.953,-0.21387,-0.20182,2.1228,-0.22349,-0.55534,2.0638,-0.34952,-0.78096,1.8268,-0.34929,-0.80896,1.7553
-0.26733,-0.14956,2.1415,-0.26745,-0.096745,2.1991,-0.24877,0.24022,2.2534,-0.2565,0.40928,2.248,-0.3859,0.099516,2.2074,-0.47071,-0.11254,2.1389,-0.52733,-0.25809,1.9784,-0.54071,-0.31537,1.9454,-0.13741,0.12322,2.2531,-0.060553,-0.11131,2.3106,-0.08879,-0.29695,2.1824,-0.010684,-0.39135,2.3242,-0.32556,-0.20582,2.125,-0.35834,-0.55592,1.9716,-0.26153,-0.8183,2.0285,-0.25846,-0.84628,1.9571,-0.21378,-0.20334,2.1173,-0.29034,-0.55143,2.0083,-0.3576,-0.78673,1.8511,-0.35453,-0.81472,1.7797
-0.26579,-0.15636,2.1355,-0.26832,-0.10222,2.1933,-0.25034,0.24016,2.2503,-0.25901,0.40827,2.2448,-0.38088,0.098657,2.1928,-0.46989,-0.097865,2.1074,-0.50902,-0.21758,1.9434,-0.52041,-0.2732,1.8859,-0.14024,0.121,2.2492,-0.063999,-0.11017,2.3191,-0.02234,-0.31108,2.3513,-0.023404,-0.38385,2.3752,-0.32112,-0.21031,2.1225,-0.36366,-0.61154,1.9761,-0.27452,-0.82421,2.0343,-0.26723,-0.85213,1.9631,-0.21476,-0.20512,2.1146,-0.29607,-0.55335,2.0128,-0.36981,-0.79479,1.8833,-0.36252,-0.82271,1.8121
-0.26708,-0.15878,2.1339,-0.27083,-0.10433,2.1913,-0.25197,0.23957,2.2478,-0.26124,0.40692,2.242,-0.37866,0.098676,2.1837,-0.46863,-0.086296,2.1003,-0.49882,-0.19153,1.9196,-0.5056,-0.24639,1.837,-0.1461,0.12898,2.2518,-0.070789,-0.10444,2.3262,-0.030783,-0.30552,2.3747,-0.029431,-0.38017,2.3911,-0.32167,-0.21109,2.1195,-0.36456,-0.61409,1.9806,-0.41564,-0.88178,1.9239,-0.40392,-0.90814,1.8474,-0.21665,-0.20562,2.1154,-0.30029,-0.558,2.02,-0.38025,-0.80713,1.9168,-0.37103,-0.83502,1.8458
-0.28867,-0.17136,2.1415,-0.288,-0.11295,2.1957,-0.2537,0.23704,2.2435,-0.26433,0.40322,2.2378,-0.37723,0.09479,2.1741,-0.47045,-0.083451,2.0866,-0.48712,-0.1697,1.8974,-0.49053,-0.21735,1.8019,-0.14624,0.12847,2.2528,-0.078883,-0.10454,2.3338,-0.040168,-0.29995,2.3825,-0.043302,-0.37611,2.4099,-0.33553,-0.21783,2.1268,-0.36704,-0.61666,1.9925,-0.41517,-0.88678,1.9598,-0.40099,-0.91602,1.8833,-0.2476,-0.22007,2.1241,-0.30465,-0.58859,2.0183,-0.24094,-0.89079,2.0861,-0.22682,-0.92031,2.0096
-0.28018,-0.17638,2.1372,-0.28614,-0.11915,2.1921,-0.25822,0.23276,2.2385,-0.26749,0.39928,2.2357,-0.377,0.090561,2.1683,-0.4669,-0.082043,2.0767,-0.48022,-0.16504,1.8718,-0.475,-0.20265,1.7715,-0.12267,0.12126,2.2195,-0.088641,-0.10248,2.3365,-0.056223,-0.29553,2.3909,-0.052865,-0.37247,2.4194,-0.32816,-0.222,2.1238,-0.36352,-0.61752,2.0087,-0.4172,-0.90032,1.9934,-0.40329,-0.92984,1.917,-0.23575,-0.22297,2.1232,-0.24155,-0.57234,2.0672,-0.43654,-0.82455,2.0132,-0.22644,-0.936,2.015
-0.27961,-0.17877,2.138,-0.28617,-0.12131,2.1923,-0.26219,0.22872,2.2343,-0.27066,0.39569,2.2331,-0.3783,0.08822,2.1654,-0.46456,-0.09524,2.047,-0.45232,-0.16551,1.8492,-0.46292,-0.18244,1.766,-0.12581,0.12209,2.2192,-0.095802,-0.10574,2.3366,-0.06741,-0.28796,2.3887,-0.25043,-0.26999,2.1622,-0.32772,-0.22596,2.1243,-0.35868,-0.6144,2.0202,-0.41794,-0.90694,2.0435,-0.40332,-0.9365,1.9671,-0.23505,-0.22617,2.1257,-0.21558,-0.55811,2.0512,-0.23933,-0.91339,2.0949,-0.22471,-0.94295,2.0185
-0.2791,-0.17515,2.1417,-0.28594,-0.11875,2.1946,-0.26647,0.22688,2.2309,-0.27537,0.39481,2.2314,-0.38179,0.086355,2.1636,-0.46019,-0.091495,2.0479,-0.45254,-0.14109,1.8496,-0.44918,-0.17316,1.7615,-0.1618,0.11195,2.2355,-0.10711,-0.097052,2.3301,-0.07458,-0.29239,2.3851,-0.29671,-0.30677,2.1713,-0.32845,-0.22572,2.1251,-0.34317,-0.61894,2.04,-0.35831,-0.88028,2.081,-0.35343,-0.93735,2.0348,-0.23255,-0.22433,2.1346,-0.21788,-0.5582,2.0551,-0.23922,-0.91637,2.1014,-0.22505,-0.94597,2.025
-0.28023,-0.17852,2.1443,-0.28666,-0.12028,2.1964,-0.26977,0.22669,2.2291,-0.28095,0.39391,2.2286,-0.38509,0.084536,2.1627,-0.45725,-0.090587,2.0498,-0.44272,-0.14955,1.856,-0.43824,-0.17055,1.7666,-0.13264,0.11697,2.2131,-0.11184,-0.096313,2.3258,-0.086166,-0.30572,2.3702,-0.25309,-0.26542,2.0768,-0.32989,-0.22984,2.1303,-0.34441,-0.62022,2.0539,-0.35944,-0.88728,2.0953,-0.34788,-0.91582,2.0249,-0.23335,-0.22758,2.1366,-0.23272,-0.54279,2.0661,-0.22585,-0.91005,2.111,-0.21159,-0.93971,2.0347
-0.28042,-0.18106,2.1505,-0.28708,-0.1213,2.2013,-0.27365,0.22823,2.2287,-0.28613,0.39617,2.2293,-0.38948,0.084187,2.1643,-0.45899,-0.095303,2.0575,-0.43161,-0.15953,1.8669,-0.4228,-0.17853,1.78,-0.13518,0.11696,2.2124,-0.11465,-0.09566,2.3226,-0.095555,-0.3155,2.3399,-0.3162,-0.32764,2.1442,-0.32981,-0.23165,2.1385,-0.34591,-0.62364,2.076,-0.36278,-0.87882,2.1622,-0.30553,-0.88638,2.2098,-0.23294,-0.23225,2.1428,-0.23942,-0.55005,2.0746,-0.27162,-0.88663,2.088,-0.31084,-0.93758,2.0994
-0.28714,-0.17896,2.1616,-0.29034,-0.11833,2.2113,-0.27653,0.23125,2.2299,-0.29091,0.39899,2.23,-0.39549,0.084085,2.1688,-0.4579,-0.096002,2.0678,-0.42469,-0.17699,1.8852,-0.40205,-0.20325,1.8065,-0.15374,0.10021,2.1988,-0.12493,-0.12324,2.3061,-0.09713,-0.31639,2.3214,-0.33694,-0.34354,2.1098,-0.33966,-0.22894,2.1503,-0.34991,-0.61953,2.0893,-0.3711,-0.88125,2.1941,-0.3718,-0.92766,2.1199,-0.23823,-0.23184,2.155,-0.26763,-0.5747,2.093,-0.2745,-0.87656,2.0941,-0.22304,-0.93191,2.0623
-0.29119,-0.18089,2.168,-0.29286,-0.1191,2.2183,-0.27925,0.23452,2.2338,-0.29805,0.40233,2.2336,-0.40253,0.085463,2.1759,-0.46055,-0.099824,2.0871,-0.42098,-0.18589,1.9086,-0.39244,-0.2254,1.8286,-0.15721,0.10274,2.1987,-0.12561,-0.1222,2.3001,-0.099643,-0.31535,2.2762,-0.33759,-0.34187,2.0915,-0.34199,-0.23104,2.1588,-0.35674,-0.62375,2.1222,-0.36551,-0.88474,2.2343,-0.36931,-0.92953,2.1526,-0.24385,-0.23358,2.1588,-0.27204,-0.58594,2.1061,-0.27341,-0.87158,2.0971,-0.2726,-0.90082,2.0261
-0.29396,-0.17915,2.1738,-0.2939,-0.11751,2.2246,-0.2802,0.23643,2.239,-0.3019,0.40285,2.237,-0.40805,0.085317,2.184,-0.46075,-0.10347,2.1077,-0.42069,-0.19994,1.9351,-0.39305,-0.25626,1.8682,-0.16936,0.10624,2.1996,-0.12586,-0.1243,2.2894,-0.10226,-0.31642,2.2518,-0.10563,-0.38334,2.2355,-0.34475,-0.22912,2.163,-0.36019,-0.61687,2.1358,-0.36152,-0.88615,2.2592,-0.36511,-0.93405,2.1891,-0.24684,-0.23276,2.166,-0.27085,-0.5881,2.1169,-0.27332,-0.87112,2.0985,-0.27519,-0.90037,2.0275
-0.292,-0.17378,2.1811,-0.2953,-0.11337,2.2322,-0.28346,0.23798,2.249,-0.30582,0.40354,2.2433,-0.41264,0.08432,2.1939,-0.4552,-0.11625,2.1268,-0.42115,-0.22917,1.9637,-0.39403,-0.2801,1.8924,-0.15603,0.1363,2.226,-0.12493,-0.12513,2.2788,-0.10263,-0.30908,2.2053,-0.53853,-0.25668,1.9742,-0.34481,-0.22641,2.1674,-0.37112,-0.6142,2.1538,-0.3573,-0.88352,2.2852,-0.35412,-0.93903,2.2131,-0.24189,-0.23,2.1738,-0.27676,-0.58563,2.1292,-0.27095,-0.86737,2.1016,-0.22042,-0.93725,2.0596
-0.29382,-0.17352,2.1863,-0.29406,-0.1137,2.2382,-0.28789,0.23769,2.2571,-0.31068,0.40376,2.2512,-0.42007,0.081879,2.2076,-0.45836,-0.12436,2.1429,-0.42156,-0.24397,1.9858,-0.40128,-0.30562,1.9333,-0.17401,0.12215,2.219,-0.12575,-0.1267,2.2693,-0.10583,-0.30733,2.1859,-0.33612,-0.3205,2.0529,-0.34755,-0.22627,2.1734,-0.37322,-0.61219,2.1702,-0.35645,-0.88341,2.2981,-0.36071,-0.936,2.2319,-0.24237,-0.22968,2.1771,-0.26532,-0.57486,2.1466,-0.27116,-0.86567,2.1044,-0.28263,-0.94408,2.1375
-0.29555,-0.17381,2.192,-0.29641,-0.11406,2.2442,-0.29074,0.23692,2.2632,-0.31671,0.40333,2.2609,-0.42522,0.079838,2.2183,-0.46069,-0.1373,2.1636,-0.42715,-0.27198,2.0192,-0.40516,-0.33135,1.9653,-0.16374,0.13214,2.2336,-0.12565,-0.12757,2.2642,-0.1275,-0.28074,2.1474,-0.12645,-0.34705,2.1185,-0.35285,-0.22623,2.1842,-0.37294,-0.61367,2.1957,-0.35692,-0.89112,2.3119,-0.34614,-0.98013,2.3138,-0.24123,-0.23046,2.1799,-0.27219,-0.60397,2.1322,-0.27035,-0.86513,2.1057,-0.26783,-0.8942,2.0346
-0.29741,-0.17266,2.2003,-0.29689,-0.11345,2.2529,-0.29438,0.23608,2.2731,-0.31874,0.40358,2.2675,-0.43253,0.078648,2.2332,-0.46499,-0.14558,2.1829,-0.43337,-0.28594,2.0439,-0.41984,-0.34993,2.0112,-0.16308,0.13096,2.239,-0.12531,-0.12914,2.2611,-0.12263,-0.27745,2.1456,-0.10371,-0.36375,2.1047,-0.35567,-0.22634,2.1943,-0.37234,-0.58421,2.2121,-0.35908,-0.87877,2.3135,-0.34646,-0.9813,2.3171,-0.24099,-0.23058,2.1841,-0.28986,-0.5943,2.1647,-0.27046,-0.86069,2.1091,-0.27076,-0.8896,2.0379
-0.29943,-0.17073,2.2113,-0.2983,-0.11189,2.2635,-0.29854,0.23542,2.2818,-0.32481,0.40312,2.2784,-0.43717,0.079075,2.2471,-0.47445,-0.14685,2.2151,-0.4413,-0.30775,2.0779,-0.42883,-0.35934,2.0485,-0.16339,0.12757,2.2459,-0.12564,-0.12872,2.2598,-0.11874,-0.27646,2.1455,-0.10257,-0.35796,2.1016,-0.35918,-0.22897,2.2086,-0.37139,-0.59188,2.2395,-0.35659,-0.87869,2.3245,-0.35878,-0.90824,2.2502,-0.23979,-0.22769,2.1925,-0.28845,-0.59427,2.1685,-0.27052,-0.86467,2.1105,-0.2729,-0.89355,2.0393
-0.30452,-0.17145,2.2248,-0.3008,-0.11198,2.2764,-0.30043,0.23492,2.2901,-0.33129,0.40336,2.2869,-0.44298,0.079579,2.2671,-0.47935,-0.15033,2.2326,-0.45026,-0.31659,2.1151,-0.43849,-0.3789,2.089,-0.16517,0.12292,2.2517,-0.12611,-0.12952,2.2603,-0.11539,-0.27686,2.1473,-0.1036,-0.34235,2.1096,-0.36646,-0.23316,2.2253,-0.37098,-0.59497,2.2534,-0.35457,-0.87495,2.3324,-0.36,-0.90471,2.2583,-0.24557,-0.22712,2.204,-0.28688,-0.59206,2.1712,-0.27122,-0.86451,2.111,-0.27539,-0.8935,2.04
-0.31515,-0.16732,2.2476,-0.30941,-0.10778,2.2973,-0.30454,0.23415,2.3004,-0.33484,0.40179,2.2958,-0.4496,0.075838,2.2816,-0.48446,-0.14994,2.2558,-0.46108,-0.32757,2.1508,-0.44839,-0.38789,2.1151,-0.16709,0.12166,2.259,-0.12605,-0.13078,2.2644,-0.11176,-0.27273,2.156,-0.11632,-0.32735,2.1171,-0.38097,-0.23115,2.2491,-0.37241,-0.59528,2.2747,-0.3514,-0.87391,2.3415,-0.35838,-0.90412,2.2677,-0.25385,-0.22632,2.2251,-0.28312,-0.58067,2.1763,-0.27196,-0.86442,2.1122,-0.27756,-0.89379,2.0414
-0.31925,-0.16843,2.2596,-0.31239,-0.10815,2.3091,-0.30734,0.23436,2.3096,-0.33905,0.40047,2.3032,-0.45402,0.074007,2.2958,-0.4886,-0.15371,2.2829,-0.47143,-0.33263,2.1851,-0.46028,-0.40068,2.1555,-0.17083,0.11898,2.2664,-0.10146,-0.129,2.2786,-0.10134,-0.28522,2.1544,-0.10636,-0.33748,2.1287,-0.38462,-0.23338,2.262,-0.37221,-0.59336,2.2931,-0.35334,-0.87075,2.3547,-0.35084,-0.95098,2.2788,-0.25911,-0.22784,2.2386,-0.28048,-0.57921,2.1798,-0.27263,-0.86323,2.114,-0.28005,-0.89271,2.0434
-0.32066,-0.17286,2.2746,-0.31332,-0.11134,2.3224,-0.30979,0.23159,2.3165,-0.34312,0.39774,2.308,-0.4574,0.071097,2.3093,-0.49231,-0.1552,2.306,-0.48362,-0.33503,2.2257,-0.47381,-0.40441,2.1976,-0.17504,0.11604,2.2738,-0.099976,-0.12461,2.2827,-0.10516,-0.28942,2.1713,-0.10797,-0.35487,2.1372,-0.38626,-0.24041,2.2797,-0.37669,-0.59073,2.3131,-0.35029,-0.8724,2.3557,-0.34846,-0.95414,2.2849,-0.25945,-0.23156,2.2538,-0.27771,-0.57843,2.1848,-0.27373,-0.86355,2.1166,-0.28273,-0.89323,2.0463
-0.32143,-0.17604,2.2889,-0.31437,-0.11425,2.3355,-0.31514,0.22652,2.3268,-0.34987,0.3936,2.3156,-0.4602,0.068131,2.3215,-0.4917,-0.16496,2.3224,-0.48792,-0.36237,2.2546,-0.48117,-0.42398,2.2218,-0.17922,0.11404,2.2821,-0.10276,-0.12867,2.2888,-0.10443,-0.29825,2.1851,-0.11048,-0.36409,2.1516,-0.38602,-0.24472,2.2951,-0.37279,-0.59209,2.3232,-0.34882,-0.87351,2.3634,-0.34811,-0.95346,2.2872,-0.25999,-0.23433,2.2683,-0.27015,-0.58228,2.1905,-0.27424,-0.86431,2.1191,-0.2842,-0.89404,2.0489
-0.31535,-0.17838,2.3015,-0.30948,-0.11582,2.3461,-0.31671,0.22393,2.3342,-0.35111,0.39093,2.3229,-0.46366,0.063865,2.3356,-0.49347,-0.17286,2.3389,-0.49459,-0.36836,2.2734,-0.49198,-0.42646,2.249,-0.18025,0.10988,2.2912,-0.10642,-0.13746,2.2955,-0.10429,-0.3119,2.2012,-0.11056,-0.371,2.1875,-0.37661,-0.2486,2.3087,-0.37133,-0.59514,2.3348,-0.34446,-0.87762,2.3664,-0.3443,-0.95257,2.2909,-0.25331,-0.23703,2.2814,-0.26562,-0.59069,2.2003,-0.27386,-0.86811,2.12,-0.28317,-0.89833,2.05
-0.31279,-0.1828,2.3156,-0.30656,-0.11922,2.3582,-0.319,0.22135,2.3436,-0.35514,0.38979,2.3298,-0.46665,0.062202,2.3488,-0.49328,-0.17353,2.3588,-0.50463,-0.37007,2.3008,-0.50315,-0.43384,2.2815,-0.18299,0.10737,2.2949,-0.10889,-0.13966,2.3013,-0.10777,-0.31914,2.2193,-0.11162,-0.37628,2.1958,-0.37379,-0.25265,2.3262,-0.36922,-0.59794,2.3458,-0.34111,-0.87977,2.3732,-0.35506,-0.91152,2.3011,-0.25026,-0.24049,2.2941,-0.26944,-0.58315,2.2237,-0.2718,-0.86599,2.1297,-0.2833,-0.89668,2.0602
-0.31226,-0.18302,2.3273,-0.30597,-0.11898,2.3667,-0.32011,0.21996,2.3483,-0.35617,0.38942,2.3357,-0.46649,0.062835,2.3588,-0.49124,-0.17761,2.3789,-0.50688,-0.37098,2.3208,-0.5052,-0.43458,2.3043,-0.18498,0.10556,2.2999,-0.11258,-0.14217,2.3051,-0.10311,-0.32567,2.2348,-0.10774,-0.38252,2.2219,-0.37201,-0.25295,2.3393,-0.36579,-0.59703,2.36,-0.33893,-0.88013,2.3818,-0.35395,-0.91235,2.3102,-0.25017,-0.24135,2.3064,-0.26668,-0.58723,2.2285,-0.26428,-0.8769,2.1511,-0.27681,-0.90827,2.0821
-0.31068,-0.18499,2.3391,-0.30367,-0.11989,2.376,-0.31991,0.22011,2.3559,-0.35458,0.38971,2.3428,-0.4666,0.066433,2.375,-0.48948,-0.17937,2.3925,-0.51146,-0.37382,2.3421,-0.51516,-0.43634,2.3372,-0.18666,0.10395,2.3051,-0.11314,-0.14323,2.3128,-0.10621,-0.32759,2.2455,-0.10358,-0.38807,2.2404,-0.37035,-0.25438,2.353,-0.36452,-0.59823,2.3648,-0.33865,-0.87997,2.3826,-0.34774,-0.94932,2.2986,-0.24885,-0.24301,2.3171,-0.26597,-0.5926,2.242,-0.26384,-0.88353,2.1641,-0.27928,-0.91526,2.0958
-0.30853,-0.18456,2.3511,-0.30124,-0.11914,2.3862,-0.31657,0.22122,2.3671,-0.35241,0.38983,2.3475,-0.46463,0.072787,2.3873,-0.48873,-0.17333,2.4096,-0.51402,-0.36932,2.3627,-0.51925,-0.4463,2.3455,-0.18506,0.10264,2.3131,-0.11444,-0.14552,2.3188,-0.10616,-0.33123,2.2562,-0.10115,-0.39295,2.251,-0.36828,-0.25372,2.3641,-0.36182,-0.6022,2.3726,-0.33589,-0.88313,2.3841,-0.35428,-0.91579,2.3135,-0.24702,-0.24321,2.3298,-0.2662,-0.59175,2.2553,-0.25729,-0.87253,2.2378,-0.24774,-0.89703,2.174
-0.30435,-0.18382,2.3599,-0.29806,-0.11824,2.3925,-0.31634,0.22108,2.3732,-0.34726,0.3924,2.3604,-0.46201,0.073893,2.3958,-0.48902,-0.16874,2.4296,-0.51276,-0.3604,2.3776,-0.51893,-0.43559,2.3679,-0.18488,0.10222,2.3201,-0.11483,-0.14623,2.3246,-0.10639,-0.33297,2.2663,-0.10073,-0.39104,2.2594,-0.36294,-0.25264,2.3734,-0.35689,-0.62702,2.3868,-0.32581,-0.90688,2.3805,-0.29317,-0.98526,2.3337,-0.24241,-0.24174,2.3394,-0.263,-0.59486,2.261,-0.24961,-0.88214,2.2608,-0.24055,-0.91502,2.2006
-0.29935,-0.18248,2.3686,-0.29297,-0.11691,2.3996,-0.31174,0.22104,2.3814,-0.34085,0.39373,2.3716,-0.45741,0.077643,2.4083,-0.48798,-0.1664,2.4458,-0.51166,-0.35848,2.3927,-0.51695,-0.42183,2.3863,-0.18249,0.10202,2.3287,-0.1141,-0.14732,2.3289,-0.10553,-0.33519,2.2745,-0.099942,-0.38959,2.2673,-0.35821,-0.25085,2.3826,-0.35363,-0.62714,2.3865,-0.32112,-0.90754,2.3817,-0.28849,-0.98705,2.3347,-0.23751,-0.24077,2.3473,-0.26205,-0.59555,2.2726,-0.24037,-0.89808,2.2988,-0.22473,-0.92263,2.2404
-0.2962,-0.18207,2.3785,-0.28956,-0.11652,2.4076,-0.30737,0.22086,2.3904,-0.33542,0.39293,2.3793,-0.45485,0.077824,2.4207,-0.48,-0.16782,2.465,-0.51081,-0.35742,2.4102,-0.51745,-0.41921,2.394,-0.17892,0.099959,2.3352,-0.11319,-0.15007,2.3355,-0.10568,-0.33775,2.2802,-0.10077,-0.39592,2.2692,-0.35542,-0.25053,2.3941,-0.34792,-0.62629,2.3851,-0.32083,-0.90893,2.3841,-0.28901,-0.9871,2.3369,-0.23449,-0.24143,2.3559,-0.25755,-0.59851,2.293,-0.22468,-0.90763,2.3321,-0.21023,-0.99451,2.2859
-0.29255,-0.18128,2.3865,-0.28556,-0.11598,2.4146,-0.30244,0.22102,2.4014,-0.32538,0.39392,2.3891,-0.45018,0.080197,2.4346,-0.4778,-0.16692,2.4759,-0.50989,-0.35462,2.4205,-0.51632,-0.4173,2.4023,-0.17436,0.099567,2.3431,-0.11327,-0.15179,2.3413,-0.10596,-0.33892,2.2827,-0.10343,-0.40264,2.2902,-0.35177,-0.24989,2.4033,-0.33605,-0.62653,2.3812,-0.3213,-0.90913,2.3863,-0.32165,-0.96421,2.3355,-0.23123,-0.24152,2.3618,-0.24639,-0.60769,2.3043,-0.20287,-0.91586,2.3687,-0.17423,-0.97124,2.3613
-0.28648,-0.17997,2.3933,-0.27769,-0.11518,2.4221,-0.29089,0.22348,2.4172,-0.3205,0.39303,2.3946,-0.44547,0.082115,2.4505,-0.4714,-0.16637,2.4913,-0.50311,-0.35291,2.4376,-0.51445,-0.41524,2.4187,-0.17219,0.098114,2.3477,-0.1126,-0.15369,2.3458,-0.10661,-0.34119,2.2884,-0.10106,-0.40156,2.2771,-0.34681,-0.24932,2.4103,-0.324,-0.62009,2.3797,-0.32255,-0.9079,2.3866,-0.32854,-0.96248,2.3374,-0.22545,-0.24038,2.366,-0.21779,-0.62001,2.3402,-0.1661,-0.91297,2.4047,-0.16495,-0.96754,2.3657
-0.27865,-0.17534,2.3998,-0.26901,-0.11142,2.429,-0.28066,0.22423,2.4255,-0.31059,0.39234,2.4054,-0.43785,0.08538,2.461,-0.46453,-0.16347,2.5013,-0.49963,-0.34886,2.4451,-0.51025,-0.41326,2.4291,-0.16454,0.097448,2.3552,-0.10751,-0.15525,2.352,-0.10599,-0.34182,2.2903,-0.10659,-0.40415,2.2927,-0.34096,-0.24617,2.4161,-0.31413,-0.60569,2.3809,-0.32279,-0.90783,2.3868,-0.33024,-0.96237,2.3384,-0.2172,-0.23735,2.3722,-0.21867,-0.61303,2.3613,-0.14554,-0.91963,2.4397,-0.15328,-0.97294,2.3883
-0.27426,-0.17362,2.4051,-0.26344,-0.1102,2.4347,-0.27223,0.22375,2.4319,-0.30551,0.39117,2.4139,-0.43235,0.084608,2.4717,-0.45585,-0.16537,2.5158,-0.49124,-0.35004,2.457,-0.50294,-0.41447,2.4367,-0.15813,0.097175,2.3614,-0.10222,-0.15571,2.3566,-0.10523,-0.34193,2.2932,-0.10829,-0.40392,2.2937,-0.33669,-0.24566,2.4223,-0.29783,-0.59636,2.3827,-0.32218,-0.90749,2.3883,-0.33106,-0.9623,2.3402,-0.21373,-0.23571,2.3756,-0.19168,-0.6183,2.364,-0.12863,-0.93211,2.4717,-0.14465,-0.98258,2.4394
-0.26734,-0.17007,2.4108,-0.25552,-0.10757,2.441,-0.26314,0.22304,2.4387,-0.29584,0.39049,2.4222,-0.42222,0.090152,2.4877,-0.44884,-0.16067,2.5222,-0.48217,-0.34771,2.4718,-0.48868,-0.4127,2.4578,-0.14702,0.096954,2.3706,-0.097604,-0.15783,2.3593,-0.10513,-0.34347,2.2939,-0.10463,-0.39898,2.2803,-0.33025,-0.24356,2.4293,-0.29125,-0.59694,2.3867,-0.32236,-0.90313,2.3901,-0.33093,-0.96134,2.3428,-0.20765,-0.23309,2.379,-0.17217,-0.64407,2.3867,-0.11943,-0.93674,2.489,-0.1185,-0.99364,2.4543
-0.261,-0.1703,2.4177,-0.24735,-0.10826,2.4489,-0.25022,0.22226,2.4476,-0.28502,0.39025,2.4325,-0.41361,0.090465,2.4972,-0.44143,-0.16062,2.5293,-0.47383,-0.34855,2.4826,-0.48242,-0.41275,2.4671,-0.141,0.095522,2.3755,-0.093912,-0.15958,2.3612,-0.10429,-0.345,2.2949,-0.11648,-0.40842,2.2763,-0.32427,-0.24309,2.4375,-0.29001,-0.59694,2.3926,-0.32033,-0.90284,2.391,-0.33027,-0.96052,2.3432,-0.2023,-0.23358,2.3842,-0.16135,-0.64311,2.4041,-0.10994,-0.93711,2.5026,-0.11193,-0.99072,2.462
