2012.09.11 18:06 B c:\Users\Jon\Documents\Visual Studio 2010\Projects\Rules\Rules\App.xaml --> ftp.hpeu.com.au /htdocs/kinect/Rules/Rules App.xaml
2012.09.11 18:06 B c:\Users\Jon\Documents\Visual Studio 2010\Projects\Rules\Rules\App.xaml.cs --> ftp.hpeu.com.au /htdocs/kinect/Rules/Rules App.xaml.cs
2012.09.11 18:06 B c:\Users\Jon\Documents\Visual Studio 2010\Projects\Rules\Rules\MainWindow.xaml --> ftp.hpeu.com.au /htdocs/kinect/Rules/Rules MainWindow.xaml
2012.09.11 18:06 B c:\Users\Jon\Documents\Visual Studio 2010\Projects\Rules\Rules\MainWindow.xaml.cs --> ftp.hpeu.com.au /htdocs/kinect/Rules/Rules MainWindow.xaml.cs
2012.09.11 18:06 B c:\Users\Jon\Documents\Visual Studio 2010\Projects\Rules\Rules\Rules.csproj --> ftp.hpeu.com.au /htdocs/kinect/Rules/Rules Rules.csproj
2012.09.11 18:06 B c:\Users\Jon\Documents\Visual Studio 2010\Projects\Rules\Rules\Rules.csproj.user --> ftp.hpeu.com.au /htdocs/kinect/Rules/Rules Rules.csproj.user
2012.09.11 18:06 B c:\Users\Jon\Documents\Visual Studio 2010\Projects\Rules\Rules\Rules_TemporaryKey.pfx --> ftp.hpeu.com.au /htdocs/kinect/Rules/Rules Rules_TemporaryKey.pfx
