-0.048746,-0.23095,2.7479,-0.043776,-0.16969,2.776,-0.028552,0.15524,2.7865,-0.010027,0.34494,2.7673,-0.18878,0.037001,2.7918,-0.32925,-0.16472,2.8592,-0.41866,-0.33789,2.8099,-0.43436,-0.39392,2.7731,0.13528,0.035641,2.7636,0.19603,-0.17734,2.7365,0.20099,-0.32776,2.5928,0.19768,-0.38283,2.5299,-0.12549,-0.30028,2.7416,-0.1801,-0.6348,2.6576,-0.16049,-0.9375,2.6548,-0.18257,-0.99611,2.6098,0.019012,-0.30973,2.7357,0.053896,-0.64379,2.6166,0.030055,-0.95069,2.6427,0.047101,-1.0152,2.6249
-0.057911,-0.23404,2.7366,-0.052073,-0.173,2.7662,-0.031883,0.15185,2.7727,-0.015273,0.34204,2.7493,-0.19153,0.036488,2.7797,-0.33393,-0.17227,2.8369,-0.40654,-0.34756,2.7713,-0.43047,-0.40108,2.7517,0.13029,0.036384,2.7555,0.18775,-0.18819,2.7364,0.18558,-0.34456,2.6015,0.1814,-0.41678,2.5489,-0.13675,-0.30256,2.7292,-0.1862,-0.63944,2.6514,-0.15648,-0.9374,2.6486,-0.14089,-0.99309,2.5929,0.0090188,-0.31336,2.7258,0.019316,-0.65225,2.5896,-0.045056,-0.93434,2.5459,-0.032484,-0.98398,2.4957
-0.067249,-0.23806,2.7242,-0.060257,-0.17721,2.7569,-0.032562,0.15013,2.7662,-0.018574,0.34188,2.7417,-0.19375,0.035008,2.766,-0.33493,-0.17524,2.8071,-0.40253,-0.35503,2.7496,-0.42622,-0.40814,2.731,0.1278,0.036673,2.7507,0.18372,-0.19377,2.7358,0.17761,-0.37477,2.6228,0.17072,-0.43523,2.5686,-0.1476,-0.30607,2.716,-0.18308,-0.65049,2.638,-0.15345,-0.94101,2.6195,-0.15128,-0.99043,2.5614,-0.0026266,-0.31657,2.7121,-0.039732,-0.65916,2.5718,-0.10911,-0.92331,2.4757,-0.14002,-0.97696,2.4439
-0.077309,-0.23987,2.7082,-0.070615,-0.17999,2.7419,-0.041205,0.14433,2.7493,-0.02511,0.33862,2.7284,-0.19841,0.032907,2.7583,-0.33566,-0.17519,2.7825,-0.39632,-0.35312,2.7058,-0.41352,-0.41443,2.6797,0.12481,0.035238,2.7445,0.1778,-0.21016,2.7393,0.16605,-0.38895,2.6311,0.1491,-0.46136,2.5981,-0.15722,-0.30677,2.702,-0.15868,-0.66561,2.6011,-0.18967,-0.92934,2.6202,-0.16543,-0.97127,2.4953,-0.012769,-0.31815,2.6949,-0.069075,-0.64101,2.562,-0.14803,-0.90448,2.4484,-0.15067,-0.9358,2.3734
-0.080068,-0.2412,2.6969,-0.072893,-0.1829,2.7337,-0.042372,0.13815,2.7443,-0.036724,0.32668,2.7102,-0.20377,0.02758,2.7513,-0.33829,-0.18352,2.7648,-0.38941,-0.35743,2.6657,-0.40423,-0.4049,2.6324,0.12108,0.034612,2.7382,0.17502,-0.21347,2.7401,0.15466,-0.39912,2.6408,0.13562,-0.48048,2.6187,-0.16192,-0.30974,2.6868,-0.11347,-0.67005,2.5847,-0.1354,-0.94573,2.4879,-0.18917,-0.96742,2.4786,-0.015118,-0.3183,2.6824,-0.097695,-0.651,2.5511,-0.17137,-0.91426,2.4476,-0.1847,-0.94341,2.3772
-0.084457,-0.24563,2.6805,-0.077836,-0.18836,2.7197,-0.046109,0.13299,2.7356,-0.041098,0.32152,2.7024,-0.2071,0.021806,2.7429,-0.33942,-0.18383,2.749,-0.38096,-0.34998,2.635,-0.39557,-0.40358,2.5986,0.11997,0.030088,2.7353,0.17493,-0.21826,2.7441,0.14543,-0.41073,2.6594,0.13281,-0.48339,2.6247,-0.16563,-0.31155,2.673,-0.12498,-0.6661,2.5641,-0.18939,-0.95259,2.606,-0.1918,-0.97449,2.4789,-0.019771,-0.32405,2.6624,-0.15606,-0.69325,2.5129,-0.18632,-0.92228,2.4532,-0.19593,-0.95427,2.3731
-0.085719,-0.25052,2.6725,-0.079507,-0.19369,2.7136,-0.049691,0.12787,2.7308,-0.046092,0.31683,2.6979,-0.21059,0.0138,2.7388,-0.33901,-0.18459,2.7349,-0.37822,-0.3392,2.6076,-0.38261,-0.38108,2.5528,0.11929,0.024182,2.7318,0.17291,-0.22384,2.7458,0.14441,-0.41211,2.6834,0.13378,-0.48039,2.6789,-0.16635,-0.31675,2.6659,-0.16983,-0.67236,2.5597,-0.18828,-0.95414,2.6047,-0.19092,-0.99792,2.4965,-0.020618,-0.32872,2.6518,-0.15315,-0.69521,2.5024,-0.19416,-0.91595,2.4118,-0.19537,-0.96531,2.3774
-0.086228,-0.25069,2.6659,-0.079423,-0.19497,2.7083,-0.052765,0.1242,2.7257,-0.049357,0.31211,2.6908,-0.21153,0.011115,2.734,-0.33449,-0.18546,2.7202,-0.37067,-0.33517,2.5856,-0.37885,-0.38408,2.5272,0.11083,0.019202,2.7176,0.17039,-0.22593,2.7476,0.14876,-0.41686,2.6922,0.13434,-0.48805,2.6856,-0.1667,-0.31697,2.6555,-0.173,-0.67107,2.556,-0.15366,-0.98591,2.6424,-0.17118,-0.98705,2.5525,-0.020284,-0.32956,2.6472,-0.14319,-0.67989,2.4903,-0.19208,-0.90747,2.4133,-0.19564,-0.93786,2.338
-0.086231,-0.25087,2.6623,-0.07969,-0.19564,2.7059,-0.053983,0.12242,2.7224,-0.052493,0.30983,2.6851,-0.21332,0.0080923,2.7304,-0.32642,-0.17982,2.7145,-0.36639,-0.32761,2.5789,-0.36871,-0.37151,2.5152,0.1105,0.020888,2.7159,0.16914,-0.22514,2.7492,0.14342,-0.41474,2.6897,0.13552,-0.49213,2.6957,-0.16691,-0.3181,2.6514,-0.13065,-0.66329,2.5468,-0.181,-0.96688,2.6094,-0.16947,-0.98789,2.5548,-0.019867,-0.32967,2.6443,-0.10625,-0.64208,2.509,-0.1888,-0.9095,2.4188,-0.17117,-0.95528,2.381
-0.086184,-0.25068,2.6615,-0.079478,-0.19562,2.7058,-0.054425,0.12209,2.7203,-0.057838,0.31157,2.6784,-0.21403,0.0080744,2.7291,-0.32204,-0.17851,2.7122,-0.3574,-0.31702,2.5645,-0.36089,-0.37556,2.4963,0.10991,0.023845,2.7133,0.18112,-0.21528,2.7534,0.14789,-0.40394,2.6964,0.13652,-0.49358,2.7006,-0.1669,-0.31814,2.6514,-0.12639,-0.66228,2.5436,-0.18155,-0.9698,2.6077,-0.17009,-0.98933,2.554,-0.019681,-0.32871,2.6425,-0.10758,-0.64262,2.5118,-0.18218,-0.91241,2.4445,-0.18839,-0.95323,2.3843
-0.08577,-0.24938,2.661,-0.079273,-0.19427,2.706,-0.056412,0.12309,2.7161,-0.058573,0.31335,2.6741,-0.21511,0.0095128,2.7269,-0.31788,-0.17557,2.7119,-0.35434,-0.31592,2.5664,-0.35462,-0.36581,2.5075,0.10947,0.026823,2.711,0.1776,-0.21887,2.7491,0.15744,-0.41111,2.6981,0.1415,-0.4947,2.7046,-0.16666,-0.31757,2.6518,-0.12278,-0.66032,2.5435,-0.1827,-0.96876,2.6059,-0.16478,-0.98372,2.5541,-0.017808,-0.32595,2.642,-0.14972,-0.6817,2.5105,-0.18035,-0.90882,2.4466,-0.18802,-0.95076,2.388
-0.085181,-0.24886,2.6615,-0.07865,-0.19399,2.7069,-0.057157,0.12318,2.7156,-0.060283,0.31445,2.6723,-0.21557,0.010195,2.7267,-0.31603,-0.17195,2.7144,-0.34614,-0.31549,2.5712,-0.34252,-0.36798,2.5115,0.10752,0.029154,2.7085,0.17809,-0.21567,2.7459,0.15546,-0.41962,2.683,0.13946,-0.48891,2.6622,-0.16485,-0.31689,2.6551,-0.15573,-0.63955,2.5501,-0.18812,-0.95658,2.5971,-0.16534,-0.98442,2.5538,-0.016846,-0.32424,2.6423,-0.10393,-0.64243,2.5299,-0.17887,-0.91025,2.4554,-0.1796,-0.95093,2.3941
-0.079362,-0.24765,2.6642,-0.07372,-0.19282,2.7094,-0.055647,0.12325,2.7152,-0.059937,0.31502,2.671,-0.21528,0.010727,2.7278,-0.31298,-0.17438,2.7247,-0.33441,-0.32079,2.5834,-0.32908,-0.3744,2.522,0.1084,0.03016,2.7075,0.18498,-0.20864,2.7411,0.16753,-0.40838,2.6803,0.15586,-0.46851,2.6528,-0.15729,-0.3171,2.6611,-0.11578,-0.66166,2.5528,-0.10213,-0.99575,2.6956,-0.16008,-0.98258,2.5602,-0.010337,-0.32175,2.6443,-0.099091,-0.64247,2.5392,-0.17678,-0.91415,2.4607,-0.17968,-0.95628,2.401
-0.074396,-0.24738,2.6678,-0.068804,-0.19224,2.7128,-0.053456,0.12324,2.715,-0.059993,0.31581,2.6692,-0.21436,0.011638,2.7299,-0.30979,-0.17198,2.7281,-0.32912,-0.32872,2.6016,-0.32151,-0.39276,2.5389,0.10905,0.031941,2.7058,0.18861,-0.20711,2.738,0.17752,-0.40117,2.6664,0.16961,-0.46286,2.6465,-0.15067,-0.31777,2.6681,-0.15052,-0.66253,2.5823,-0.18306,-0.96011,2.6027,-0.15649,-0.98421,2.5601,-0.0056379,-0.32014,2.6476,-0.11289,-0.67585,2.5285,-0.19002,-0.91965,2.4658,-0.17403,-0.95507,2.4069
-0.066153,-0.24788,2.6751,-0.061233,-0.19179,2.7195,-0.05144,0.12361,2.7164,-0.059787,0.31678,2.6692,-0.21124,0.011261,2.7327,-0.30295,-0.17836,2.7348,-0.32395,-0.34251,2.6177,-0.32038,-0.41325,2.5689,0.11009,0.033294,2.7068,0.19698,-0.20404,2.7344,0.19324,-0.38941,2.6433,0.17824,-0.45323,2.6245,-0.14126,-0.31964,2.6766,-0.14693,-0.66357,2.5869,-0.08767,-0.99805,2.713,-0.14904,-0.98364,2.5625,0.0029189,-0.31886,2.6555,-0.066824,-0.63432,2.5471,-0.15704,-0.9038,2.4643,-0.16316,-0.93508,2.3893
-0.053914,-0.24733,2.6874,-0.049867,-0.19051,2.7305,-0.045677,0.12305,2.7203,-0.059264,0.31738,2.6695,-0.20771,0.011812,2.7369,-0.29388,-0.18597,2.7413,-0.31764,-0.36856,2.6363,-0.31946,-0.42659,2.5993,0.11812,0.033973,2.71,0.21013,-0.20371,2.7284,0.20612,-0.38268,2.6296,0.19573,-0.44246,2.5919,-0.12944,-0.32127,2.6888,-0.13799,-0.66049,2.5958,-0.17445,-0.93442,2.6158,-0.13415,-0.9855,2.588,0.017043,-0.31755,2.6701,-0.032799,-0.63223,2.5483,-0.13814,-0.89512,2.4814,-0.14424,-0.92688,2.4066
-0.045062,-0.24641,2.6972,-0.041249,-0.18848,2.739,-0.040863,0.12625,2.7252,-0.053991,0.32076,2.6736,-0.20162,0.012649,2.7429,-0.28257,-0.19242,2.7484,-0.31689,-0.38217,2.6522,-0.32253,-0.44583,2.6246,0.12436,0.036288,2.7122,0.21732,-0.19103,2.719,0.22099,-0.3722,2.6106,0.20482,-0.43511,2.5717,-0.11963,-0.32193,2.7,-0.13469,-0.66224,2.609,-0.14818,-0.95338,2.5727,-0.14183,-0.99275,2.4914,0.026673,-0.31673,2.6803,-0.0071518,-0.62117,2.5603,-0.11317,-0.89505,2.4996,-0.12009,-0.92718,2.425
-0.03539,-0.24349,2.7081,-0.03091,-0.18445,2.748,-0.031091,0.1322,2.7305,-0.047544,0.32596,2.6788,-0.19041,0.017483,2.7522,-0.26499,-0.20513,2.7633,-0.31045,-0.38787,2.6901,-0.32487,-0.45403,2.6478,0.13483,0.039178,2.7145,0.22336,-0.18982,2.7149,0.22552,-0.36322,2.5997,0.21932,-0.41938,2.545,-0.10853,-0.31841,2.7137,-0.12506,-0.66351,2.627,-0.15801,-0.9398,2.6244,-0.11261,-0.99483,2.5386,0.03546,-0.31418,2.6911,0.029297,-0.62314,2.5698,-0.083746,-0.92686,2.5328,-0.082437,-0.98196,2.5022
-0.016653,-0.23661,2.7194,-0.014308,-0.17704,2.7567,-0.021157,0.13808,2.7364,-0.037522,0.33016,2.6844,-0.17762,0.022254,2.7582,-0.24906,-0.20146,2.7768,-0.31056,-0.38443,2.71,-0.32162,-0.45016,2.6936,0.15148,0.047327,2.7219,0.23304,-0.1796,2.7067,0.23598,-0.34153,2.5836,0.22786,-0.41198,2.5386,-0.089739,-0.31282,2.7232,-0.14223,-0.66003,2.6603,-0.15703,-0.93715,2.6274,-0.12453,-0.97741,2.5528,0.057241,-0.30698,2.7056,0.045621,-0.62505,2.5786,-0.040391,-0.95927,2.5665,-0.020887,-0.99816,2.5183
-0.0048283,-0.23143,2.7275,-0.00035589,-0.17134,2.7643,-0.0045263,0.14744,2.7477,-0.021818,0.33938,2.6924,-0.16113,0.02749,2.7715,-0.2321,-0.19244,2.7934,-0.30073,-0.38656,2.7421,-0.31463,-0.46188,2.7289,0.16186,0.054052,2.7263,0.24136,-0.17014,2.7018,0.24494,-0.32922,2.5731,0.23842,-0.3952,2.5278,-0.074283,-0.30587,2.7356,-0.12846,-0.64892,2.6787,-0.11889,-0.95407,2.6429,-0.12902,-0.9868,2.5688,0.065076,-0.30268,2.7095,0.090095,-0.62509,2.6017,0.024327,-0.95064,2.62,0.057434,-1.0168,2.6066
0.021013,-0.22219,2.7383,0.02497,-0.16208,2.7724,0.01973,0.15479,2.7531,-0.003642,0.34419,2.7035,-0.14587,0.030043,2.7807,-0.22047,-0.19003,2.8089,-0.28821,-0.37881,2.76,-0.29071,-0.45739,2.7614,0.18967,0.064888,2.7316,0.24949,-0.16118,2.6951,0.24996,-0.32482,2.5656,0.24381,-0.38887,2.5238,-0.052131,-0.30023,2.746,-0.11767,-0.64594,2.6904,-0.14203,-0.93434,2.6613,-0.17061,-0.99218,2.6212,0.091398,-0.29364,2.7199,0.11671,-0.62475,2.616,0.085145,-0.94913,2.6902,0.13106,-1.0136,2.685
0.044445,-0.22086,2.7482,0.049203,-0.16091,2.782,0.043513,0.15685,2.7661,0.0093847,0.34574,2.7101,-0.12955,0.03217,2.7905,-0.20652,-0.18406,2.8243,-0.27279,-0.37954,2.7887,-0.28057,-0.45666,2.7815,0.19742,0.066826,2.7337,0.26049,-0.15673,2.6907,0.25283,-0.313,2.5581,0.24451,-0.37853,2.513,-0.026683,-0.29915,2.7551,-0.097022,-0.63959,2.7039,-0.14179,-0.93402,2.6624,-0.15439,-0.96699,2.5887,0.11719,-0.29169,2.7307,0.16192,-0.6301,2.6461,0.15416,-0.94245,2.7474,0.21217,-1.012,2.7483
0.060198,-0.21986,2.7528,0.065364,-0.15945,2.7855,0.055127,0.15788,2.7699,0.036772,0.34789,2.728,-0.10845,0.035668,2.8021,-0.18909,-0.18312,2.8368,-0.26179,-0.3773,2.805,-0.26216,-0.46002,2.8135,0.21694,0.063511,2.7365,0.2807,-0.15506,2.6827,0.25662,-0.30819,2.5482,0.24469,-0.37667,2.5084,-0.0089114,-0.29742,2.762,-0.075864,-0.63451,2.7132,-0.13556,-0.92394,2.6714,-0.14996,-0.95706,2.598,0.12991,-0.29133,2.7329,0.1845,-0.63311,2.6704,0.22217,-0.93807,2.8011,0.24497,-0.9909,2.7625
0.08223,-0.22196,2.7618,0.089815,-0.16118,2.7924,0.080311,0.15626,2.7775,0.057354,0.34739,2.744,-0.076796,0.030942,2.8314,-0.16581,-0.18173,2.8556,-0.22646,-0.37793,2.8339,-0.23964,-0.46076,2.8285,0.23893,0.063909,2.741,0.31163,-0.13636,2.6858,0.27044,-0.29252,2.5597,0.24404,-0.36197,2.5084,0.014915,-0.29937,2.7764,-0.059323,-0.63223,2.7204,-0.13045,-0.92425,2.6743,-0.15068,-0.95752,2.6024,0.14961,-0.29353,2.7381,0.20772,-0.6339,2.6992,0.2868,-0.93651,2.8402,0.26658,-0.96978,2.7683
0.1075,-0.22739,2.7733,0.11478,-0.16577,2.8006,0.10137,0.15001,2.7806,0.073298,0.34042,2.7463,-0.056516,0.027854,2.8443,-0.13857,-0.18464,2.8754,-0.20882,-0.38143,2.8465,-0.22487,-0.4599,2.8351,0.2625,0.058965,2.7428,0.33203,-0.12871,2.6816,0.28145,-0.28553,2.5598,0.24734,-0.35431,2.5125,0.037229,-0.30443,2.7898,-0.039639,-0.64153,2.73,-0.12763,-0.92602,2.6765,-0.14965,-0.95999,2.6054,0.17937,-0.30103,2.7498,0.22953,-0.64542,2.7389,0.31274,-0.92497,2.8545,0.29072,-0.95894,2.7834
0.12713,-0.23454,2.7816,0.13565,-0.1732,2.8082,0.1255,0.14337,2.793,0.095325,0.3384,2.7546,-0.032777,0.024596,2.8531,-0.096732,-0.19578,2.904,-0.17963,-0.3866,2.8638,-0.19364,-0.46651,2.8494,0.27682,0.055256,2.7446,0.35179,-0.13007,2.6857,0.29272,-0.28972,2.5628,0.25347,-0.35669,2.5165,0.060142,-0.30968,2.8004,-0.015173,-0.65936,2.7407,-0.12027,-0.9252,2.6797,-0.14444,-0.95885,2.6091,0.19342,-0.30624,2.7547,0.23504,-0.64856,2.7484,0.31431,-0.92433,2.8547,0.29014,-0.95798,2.7841
0.14315,-0.23679,2.789,0.15181,-0.1754,2.8144,0.14251,0.14058,2.7991,0.11034,0.33755,2.7644,-0.0080271,0.021176,2.8657,-0.073474,-0.19713,2.9145,-0.13738,-0.38679,2.8738,-0.16946,-0.46596,2.8554,0.29746,0.051914,2.7518,0.3581,-0.13371,2.6855,0.2999,-0.29468,2.5649,0.25635,-0.35972,2.5197,0.076195,-0.31029,2.8081,-0.0018896,-0.66285,2.7512,-0.10816,-0.9348,2.6844,-0.13367,-0.96854,2.6142,0.21007,-0.30872,2.7625,0.23962,-0.64897,2.7534,0.31529,-0.92563,2.8555,0.28978,-0.95937,2.7854
0.16496,-0.23408,2.7979,0.17317,-0.17333,2.8234,0.16828,0.14146,2.8103,0.1276,0.3355,2.7734,0.013667,0.021036,2.8691,-0.045121,-0.20281,2.9179,-0.10192,-0.39845,2.884,-0.12585,-0.48017,2.8581,0.32826,0.058145,2.7667,0.37272,-0.13602,2.6914,0.31456,-0.301,2.575,0.27454,-0.37494,2.5422,0.094165,-0.30843,2.8164,0.015904,-0.66287,2.7617,-0.09141,-0.92636,2.6918,-0.11421,-0.95978,2.6207,0.2327,-0.30508,2.7704,0.24797,-0.6475,2.7574,0.31755,-0.93344,2.8607,0.29475,-0.96686,2.7895
0.17623,-0.23122,2.8033,0.18633,-0.17034,2.8294,0.18892,0.14862,2.8191,0.14801,0.34346,2.7879,0.034549,0.028143,2.8753,-0.020933,-0.20497,2.9224,-0.068101,-0.40324,2.8878,-0.082045,-0.4861,2.8674,0.33498,0.060918,2.7714,0.38589,-0.13926,2.6997,0.32895,-0.30804,2.5869,0.28915,-0.38076,2.5563,0.10723,-0.30361,2.8222,0.039766,-0.65294,2.7746,-0.072083,-0.92497,2.7097,-0.096241,-0.95801,2.6387,0.24124,-0.30194,2.7751,0.26032,-0.64771,2.7635,0.32135,-0.93539,2.8639,0.29719,-0.96843,2.7929
0.18451,-0.22873,2.809,0.19537,-0.16755,2.835,0.19729,0.15221,2.8246,0.15428,0.34638,2.7912,0.047677,0.032456,2.8834,0.011299,-0.21403,2.9259,-0.020615,-0.41225,2.8843,-0.066813,-0.49757,2.9448,0.3432,0.062239,2.7733,0.39532,-0.14546,2.7079,0.35182,-0.321,2.6131,0.31421,-0.39314,2.5801,0.11709,-0.30006,2.83,0.042128,-0.65179,2.7768,-0.062748,-0.92201,2.7216,-0.088515,-0.95509,2.6513,0.24699,-0.30009,2.7785,0.27408,-0.64784,2.7692,0.32645,-0.93991,2.8714,0.30068,-0.97299,2.8011
0.19571,-0.22028,2.8169,0.2063,-0.15897,2.8433,0.20735,0.16136,2.8338,0.16822,0.35783,2.8,0.057918,0.042345,2.8949,0.024722,-0.217,2.9252,-0.0037673,-0.4099,2.8807,-0.016357,-0.47088,2.8605,0.36051,0.075527,2.7855,0.40888,-0.14652,2.7189,0.36699,-0.32535,2.6298,0.33236,-0.38755,2.6016,0.12843,-0.29212,2.8381,0.054179,-0.64345,2.7849,-0.052109,-0.91829,2.7386,-0.077308,-0.95134,2.668,0.25726,-0.29256,2.7854,0.28284,-0.64226,2.7756,0.33005,-0.93354,2.8743,0.30485,-0.96658,2.8037
0.20656,-0.21508,2.8214,0.21735,-0.15345,2.8482,0.21829,0.16904,2.8392,0.17969,0.36636,2.8115,0.066988,0.047934,2.8961,0.040034,-0.20283,2.9262,0.016488,-0.39694,2.8881,-0.0038575,-0.44628,2.8704,0.36595,0.077543,2.7869,0.42012,-0.1384,2.7257,0.38294,-0.32952,2.6477,0.34962,-0.38697,2.6274,0.13846,-0.28727,2.8416,0.059611,-0.6388,2.789,-0.048163,-0.92048,2.7481,-0.07351,-0.95348,2.6775,0.26966,-0.28596,2.791,0.29356,-0.63352,2.7788,0.33519,-0.93753,2.8826,0.30985,-0.97053,2.812
0.21517,-0.20987,2.8262,0.2264,-0.14811,2.8533,0.22683,0.17556,2.8446,0.18892,0.37077,2.8197,0.076109,0.053045,2.9025,0.047454,-0.20014,2.928,0.022847,-0.39213,2.8777,-0.0035608,-0.44273,2.8691,0.37367,0.080147,2.7892,0.45269,-0.12603,2.7455,0.40088,-0.32449,2.6698,0.36722,-0.39221,2.6437,0.14673,-0.28263,2.8472,0.066858,-0.63173,2.7929,-0.040496,-0.91252,2.7674,-0.076229,-0.96638,2.7148,0.27833,-0.28052,2.7946,0.29654,-0.63084,2.7797,0.33498,-0.93309,2.8832,0.30873,-0.96609,2.8129
0.22059,-0.20758,2.8287,0.23144,-0.14594,2.8564,0.23029,0.1776,2.8483,0.19857,0.3728,2.8253,0.08312,0.055193,2.9073,0.055767,-0.19489,2.9357,0.024732,-0.38693,2.8845,-0.0029203,-0.43675,2.8717,0.38495,0.081697,2.7934,0.46405,-0.12975,2.7549,0.42423,-0.33069,2.6939,0.40442,-0.39221,2.6768,0.15269,-0.2805,2.849,0.070889,-0.62966,2.7973,-0.040755,-0.91178,2.77,-0.06677,-0.94478,2.6997,0.28381,-0.27865,2.7973,0.30135,-0.62875,2.784,0.33697,-0.93366,2.8862,0.31096,-0.96666,2.8159
0.22592,-0.20556,2.8318,0.23694,-0.14375,2.8601,0.23541,0.18169,2.8532,0.20059,0.37529,2.8276,0.088557,0.058351,2.9098,0.063093,-0.1783,2.945,0.026605,-0.38241,2.8902,0.011317,-0.44499,2.8731,0.38951,0.083592,2.796,0.47369,-0.13051,2.762,0.4407,-0.33228,2.7103,0.41877,-0.39561,2.6937,0.15817,-0.27883,2.8513,0.07491,-0.62823,2.8028,-0.033804,-0.91364,2.7803,-0.059861,-0.94652,2.7099,0.28927,-0.27665,2.8013,0.30689,-0.62643,2.7872,0.33602,-0.93622,2.8868,0.30997,-0.9691,2.8164
0.23272,-0.20172,2.8369,0.24418,-0.13984,2.865,0.24092,0.18472,2.8563,0.2083,0.37776,2.8347,0.096667,0.061669,2.9196,0.063182,-0.17566,2.9478,0.02668,-0.37906,2.9007,0.0011667,-0.4326,2.8779,0.39518,0.082406,2.7992,0.48962,-0.1302,2.771,0.45448,-0.33353,2.7234,0.43875,-0.39595,2.7063,0.16383,-0.27598,2.8568,0.077799,-0.6282,2.8064,-0.030334,-0.91414,2.7845,-0.05775,-0.94719,2.7148,0.29688,-0.27376,2.806,0.31074,-0.6258,2.7908,0.33508,-0.94003,2.8877,0.30767,-0.97308,2.818
0.23834,-0.20197,2.839,0.24971,-0.14023,2.8682,0.24632,0.18582,2.8623,0.21149,0.37848,2.8369,0.10116,0.061366,2.9249,0.057965,-0.17361,2.9437,0.025901,-0.37855,2.9018,0.001334,-0.43516,2.8848,0.40258,0.086092,2.8065,0.49507,-0.13036,2.7738,0.47484,-0.33832,2.7386,0.47387,-0.4019,2.7333,0.16994,-0.27657,2.858,0.083137,-0.62822,2.8116,-0.027811,-0.91933,2.7903,-0.054691,-0.95217,2.7203,0.30277,-0.2731,2.808,0.31423,-0.62485,2.7919,0.33523,-0.94119,2.8883,0.30836,-0.97403,2.8183
0.2425,-0.20135,2.8414,0.25366,-0.1397,2.8709,0.24917,0.18568,2.8639,0.21462,0.37741,2.8428,0.10259,0.059925,2.9261,0.054114,-0.17641,2.9418,0.02378,-0.3786,2.9017,-0.0021349,-0.428,2.8886,0.40666,0.087285,2.8089,0.50266,-0.13143,2.7804,0.48708,-0.34081,2.7485,0.49883,-0.40916,2.7547,0.17388,-0.27653,2.8612,0.087185,-0.63019,2.8179,-0.023552,-0.91932,2.7947,-0.050023,-0.95221,2.7245,0.30815,-0.27187,2.8105,0.31774,-0.62456,2.7942,0.33501,-0.94124,2.8883,0.30854,-0.97413,2.8182
0.24427,-0.20174,2.8424,0.25515,-0.14016,2.8728,0.25137,0.18545,2.8661,0.21886,0.37764,2.8477,0.10414,0.06037,2.9256,0.053973,-0.17695,2.9425,0.022438,-0.37781,2.9027,0.0044849,-0.43595,2.8808,0.41202,0.086174,2.8131,0.50586,-0.13251,2.7829,0.4936,-0.34281,2.7504,0.50244,-0.41023,2.7576,0.17621,-0.27698,2.8618,0.089642,-0.633,2.8225,-0.015667,-0.91869,2.8012,-0.040935,-0.95148,2.7306,0.3093,-0.27205,2.8113,0.32005,-0.62517,2.7969,0.3322,-0.93842,2.8865,0.30693,-0.9712,2.8158
0.24688,-0.20179,2.8445,0.25776,-0.14016,2.8753,0.25365,0.18563,2.868,0.22131,0.37855,2.8494,0.10471,0.061136,2.926,0.053074,-0.17644,2.9408,0.017643,-0.37953,2.8957,0.0055912,-0.43344,2.88,0.41342,0.086633,2.8147,0.50545,-0.13146,2.7875,0.50366,-0.3389,2.7553,0.51258,-0.40669,2.762,0.17825,-0.27711,2.8623,0.091487,-0.63319,2.8263,-0.0055797,-0.92517,2.8094,-0.030529,-0.95798,2.7386,0.31259,-0.27223,2.8155,0.32218,-0.62262,2.7997,0.33219,-0.93535,2.8866,0.30724,-0.96816,2.8158
0.2485,-0.20124,2.8477,0.25898,-0.13935,2.8784,0.25403,0.18644,2.8689,0.22302,0.38107,2.8522,0.10437,0.063153,2.926,0.053216,-0.17383,2.9391,0.01497,-0.37759,2.8918,-0.0063821,-0.44638,2.8608,0.41404,0.087859,2.8171,0.50781,-0.13286,2.7911,0.50648,-0.33984,2.755,0.51266,-0.4098,2.7581,0.17943,-0.27677,2.864,0.092257,-0.63355,2.8289,-0.0016827,-0.92484,2.8117,-0.026028,-0.9578,2.7408,0.31499,-0.27126,2.8214,0.32436,-0.62077,2.8033,0.3361,-0.93856,2.8898,0.31176,-0.97152,2.8188
0.24834,-0.20163,2.851,0.25856,-0.13938,2.8818,0.25458,0.18855,2.8716,0.22287,0.38136,2.8524,0.10396,0.064047,2.9239,0.048395,-0.17091,2.9346,0.0068781,-0.37174,2.8741,-0.0064165,-0.43705,2.8551,0.41376,0.087749,2.8201,0.50848,-0.13198,2.7953,0.50892,-0.33404,2.7544,0.50715,-0.40591,2.7421,0.17916,-0.27681,2.866,0.09358,-0.63475,2.8336,0.0011865,-0.92645,2.8146,-0.022096,-0.95943,2.7432,0.3145,-0.27157,2.8261,0.32583,-0.62041,2.8059,0.33613,-0.9348,2.8895,0.34125,-0.98593,2.8708
0.24802,-0.2021,2.8535,0.258,-0.13962,2.8847,0.25501,0.19035,2.8746,0.2229,0.3819,2.8548,0.10365,0.06483,2.9232,0.038954,-0.16944,2.9266,0.005393,-0.36503,2.8588,-0.0052816,-0.43551,2.8533,0.41226,0.087493,2.824,0.50581,-0.13069,2.7992,0.5083,-0.32793,2.7415,0.50606,-0.40011,2.7365,0.17886,-0.2768,2.8674,0.092811,-0.63448,2.835,0.0038684,-0.93232,2.8234,-0.018582,-0.96524,2.7518,0.31391,-0.27192,2.8294,0.32559,-0.61605,2.8094,0.3382,-0.93533,2.8921,0.31575,-0.96825,2.8205
0.24786,-0.19943,2.8572,0.25649,-0.137,2.8886,0.2517,0.19228,2.8782,0.22225,0.38308,2.8551,0.099395,0.067622,2.9228,0.036943,-0.16682,2.9269,0.0036705,-0.36086,2.852,-0.013731,-0.42794,2.8395,0.41234,0.093855,2.8324,0.49957,-0.13121,2.8004,0.50794,-0.32692,2.7376,0.50185,-0.39827,2.7279,0.17861,-0.27507,2.8698,0.089074,-0.6338,2.8376,0.0038292,-0.93861,2.8333,-0.016566,-0.97156,2.7611,0.3147,-0.2695,2.8336,0.32436,-0.61815,2.8169,0.33833,-0.93422,2.8933,0.31794,-0.96717,2.8211
0.24561,-0.19975,2.8596,0.25375,-0.13762,2.892,0.24658,0.19125,2.8844,0.21917,0.38225,2.8582,0.091194,0.067933,2.9226,0.032936,-0.16749,2.925,6.948e-05,-0.35808,2.8375,-0.004852,-0.42276,2.8065,0.40586,0.091655,2.8348,0.49663,-0.13195,2.8008,0.49851,-0.32669,2.7288,0.49023,-0.39321,2.7173,0.17645,-0.27519,2.8713,0.084837,-0.63205,2.8399,0.0036365,-0.94291,2.8454,-0.016152,-0.97566,2.7729,0.313,-0.26985,2.8358,0.31971,-0.61703,2.8212,0.34002,-0.93254,2.8961,0.32024,-0.96529,2.8236
0.2426,-0.19825,2.862,0.25009,-0.13616,2.8949,0.24275,0.19365,2.8881,0.21708,0.38368,2.8613,0.083879,0.070442,2.922,0.024935,-0.1663,2.9211,-0.0043396,-0.35229,2.8295,-0.0086602,-0.41644,2.7944,0.40402,0.092637,2.8396,0.48828,-0.13135,2.801,0.48546,-0.32126,2.7213,0.47301,-0.39426,2.7045,0.17243,-0.27402,2.8727,0.07928,-0.63029,2.8419,0.0031555,-0.94563,2.8674,-0.015177,-0.97829,2.7944,0.31107,-0.26887,2.8388,0.31439,-0.61372,2.8247,0.33807,-0.93348,2.8977,0.31974,-0.96614,2.8248
0.23422,-0.19791,2.8643,0.24091,-0.13592,2.8981,0.23129,0.1939,2.8931,0.19859,0.3842,2.8724,0.077024,0.071282,2.922,0.016692,-0.1642,2.9214,-0.015042,-0.33627,2.817,-0.013965,-0.41188,2.781,0.39368,0.093459,2.8447,0.47335,-0.12592,2.8002,0.45998,-0.31183,2.7097,0.45582,-0.38946,2.6905,0.16457,-0.27334,2.8735,0.072281,-0.62336,2.8439,0.0063477,-0.94177,2.8848,-0.023735,-0.99263,2.8436,0.30308,-0.26837,2.8417,0.3064,-0.61275,2.8287,0.335,-0.94068,2.9007,0.34933,-0.99294,2.8763
0.22296,-0.19571,2.8669,0.2292,-0.13419,2.9022,0.2189,0.19554,2.9003,0.19238,0.38465,2.8756,0.062528,0.071922,2.9252,0.009481,-0.16257,2.919,-0.018379,-0.334,2.8123,-0.017115,-0.39761,2.7693,0.38519,0.097289,2.8512,0.46408,-0.1201,2.8067,0.44818,-0.31012,2.708,0.42663,-0.37969,2.6764,0.15211,-0.27161,2.8745,0.067911,-0.62318,2.8455,0.0078247,-0.94766,2.8966,-0.008801,-0.97992,2.8232,0.29367,-0.26653,2.8436,0.3003,-0.61239,2.8318,0.33113,-0.93658,2.8977,0.34318,-0.98817,2.8736
0.20965,-0.19677,2.8697,0.21676,-0.13519,2.9056,0.20536,0.19522,2.9039,0.18484,0.38503,2.8824,0.045495,0.069705,2.9308,-0.0027858,-0.16071,2.9175,-0.024078,-0.32894,2.8044,-0.020244,-0.39234,2.7624,0.35941,0.094735,2.851,0.449,-0.11617,2.8083,0.43631,-0.3084,2.7015,0.42181,-0.38025,2.6729,0.13994,-0.273,2.8776,0.062087,-0.62524,2.8515,0.0081081,-0.94728,2.8973,-0.010229,-0.97952,2.8243,0.27911,-0.26721,2.8452,0.29189,-0.6138,2.8338,0.33187,-0.93401,2.8985,0.31353,-0.96625,2.8255
0.19312,-0.19735,2.8718,0.20157,-0.13565,2.9092,0.19414,0.19671,2.9079,0.1663,0.38459,2.8934,0.033851,0.069563,2.932,-0.028996,-0.16224,2.9119,-0.032494,-0.3289,2.7989,-0.021385,-0.38936,2.7596,0.3489,0.0971,2.8553,0.43281,-0.12064,2.8087,0.41336,-0.29893,2.6978,0.39147,-0.37004,2.6601,0.12343,-0.27325,2.8801,0.053619,-0.62999,2.8589,0.0073207,-0.94765,2.8992,-0.010412,-0.97971,2.826,0.25974,-0.26644,2.8461,0.28475,-0.61311,2.8347,0.3287,-0.93023,2.8973,0.31096,-0.96229,2.8241
0.17636,-0.19791,2.8722,0.1835,-0.13714,2.9114,0.17155,0.19387,2.9138,0.15046,0.38266,2.8981,0.01332,0.064619,2.9369,-0.037549,-0.16303,2.9126,-0.038451,-0.32697,2.7943,-0.026927,-0.38782,2.7565,0.33597,0.095106,2.8603,0.40994,-0.12514,2.8049,0.38869,-0.30038,2.6999,0.37881,-0.37424,2.6553,0.10543,-0.27449,2.8789,0.046039,-0.63427,2.8671,0.0075086,-0.95261,2.904,-0.017081,-1.0031,2.8606,0.24642,-0.26713,2.8461,0.26997,-0.61482,2.834,0.3287,-0.93735,2.9018,0.31126,-0.96918,2.8283
