-0.008985,-0.18434,2.6102,-0.010745,-0.11873,2.6273,-0.017244,0.21652,2.6239,0.0012391,0.40208,2.579,-0.15202,0.10434,2.6375,-0.20999,-0.1419,2.6613,-0.22172,-0.33488,2.6013,-0.22193,-0.37531,2.5865,0.14666,0.099808,2.6243,0.19052,-0.13576,2.6307,0.19617,-0.31676,2.5369,0.18985,-0.37669,2.5026,-0.075422,-0.25031,2.6066,-0.10543,-0.59942,2.6253,-0.090443,-0.92456,2.6552,-0.1035,-0.98266,2.5967,0.059302,-0.25284,2.6055,0.089055,-0.6065,2.6245,0.077293,-0.91142,2.7346,0.087795,-0.9665,2.6939
-0.0087319,-0.18421,2.6098,-0.010391,-0.11854,2.6272,-0.017095,0.21714,2.6232,0.0012509,0.40236,2.5788,-0.1518,0.10401,2.6362,-0.20979,-0.14203,2.6619,-0.22169,-0.33536,2.6034,-0.22244,-0.37583,2.5882,0.14511,0.10092,2.6224,0.18764,-0.15799,2.6263,0.1934,-0.33988,2.5343,0.18896,-0.38034,2.5078,-0.0748,-0.24999,2.6061,-0.10241,-0.59918,2.6239,-0.090931,-0.92562,2.6554,-0.10357,-0.98347,2.5961,0.059347,-0.25249,2.6051,0.087002,-0.60561,2.6234,0.076832,-0.91127,2.7346,0.090469,-0.96711,2.6947
-0.0090816,-0.18477,2.609,-0.010902,-0.11886,2.6264,-0.019581,0.21724,2.6212,0.00087639,0.40249,2.5786,-0.15243,0.10365,2.6344,-0.21021,-0.14174,2.6615,-0.22272,-0.33514,2.6032,-0.22354,-0.37568,2.588,0.14162,0.10204,2.6213,0.18726,-0.15669,2.6284,0.18804,-0.34117,2.5423,0.18667,-0.38285,2.5168,-0.074824,-0.25016,2.6056,-0.10206,-0.59908,2.6236,-0.09068,-0.92488,2.6559,-0.10359,-0.98495,2.6015,0.059076,-0.25263,2.6046,0.084512,-0.60452,2.6213,0.07652,-0.91267,2.7351,0.089721,-0.9674,2.6947
-0.0095813,-0.18591,2.6076,-0.010967,-0.11972,2.625,-0.02092,0.21714,2.6194,5.1002e-05,0.40269,2.578,-0.15345,0.10416,2.6325,-0.21065,-0.14179,2.6609,-0.22408,-0.33445,2.5994,-0.22331,-0.37624,2.5864,0.12883,0.10991,2.6145,0.1829,-0.14769,2.6294,0.18905,-0.33537,2.5542,0.18444,-0.38419,2.5222,-0.074809,-0.25062,2.6044,-0.10607,-0.60024,2.6235,-0.089212,-0.92488,2.659,-0.10512,-1.0009,2.6308,0.058117,-0.25294,2.6034,0.082783,-0.6063,2.6213,0.076196,-0.92289,2.7359,0.091009,-0.9709,2.6968
-0.0098213,-0.1857,2.6071,-0.011451,-0.11947,2.6244,-0.022784,0.21762,2.618,-0.00065038,0.40269,2.5763,-0.1559,0.10444,2.6305,-0.21296,-0.1416,2.6571,-0.22288,-0.33676,2.5814,-0.2196,-0.37964,2.5717,0.12786,0.11034,2.6152,0.19154,-0.14043,2.6395,0.18568,-0.3329,2.5574,0.18047,-0.37881,2.5275,-0.075188,-0.25047,2.6029,-0.10445,-0.59836,2.6222,-0.090017,-0.92355,2.6587,-0.10427,-0.99716,2.6289,0.058074,-0.25283,2.6034,0.082274,-0.60674,2.6213,0.076343,-0.92312,2.7363,0.091646,-0.97104,2.697
-0.01045,-0.18618,2.6059,-0.012372,-0.11982,2.6224,-0.025103,0.21747,2.6146,-0.0015264,0.40285,2.574,-0.15747,0.10422,2.627,-0.21726,-0.13993,2.6492,-0.22672,-0.3269,2.569,-0.21988,-0.36492,2.5533,0.12341,0.11121,2.6129,0.19003,-0.14671,2.6401,0.18153,-0.33514,2.5607,0.17818,-0.37947,2.5303,-0.075723,-0.25132,2.601,-0.10447,-0.59796,2.6218,-0.090296,-0.92533,2.6582,-0.10496,-0.99933,2.6277,0.057799,-0.25292,2.6031,0.081675,-0.60626,2.6205,0.075569,-0.9234,2.7355,0.091927,-0.97123,2.6962
-0.011469,-0.18668,2.6045,-0.013649,-0.12021,2.6205,-0.025937,0.21739,2.6125,-0.0036905,0.40271,2.5704,-0.1594,0.10354,2.6224,-0.22165,-0.13911,2.6351,-0.22686,-0.32659,2.5561,-0.21895,-0.36261,2.5306,0.12004,0.11178,2.6121,0.18795,-0.14785,2.6426,0.17869,-0.33706,2.568,0.17739,-0.38062,2.5347,-0.076509,-0.25163,2.5988,-0.11341,-0.59618,2.6214,-0.090391,-0.92457,2.6584,-0.1051,-0.99961,2.6326,0.056667,-0.25313,2.6028,0.079149,-0.60701,2.6213,0.073612,-0.92443,2.7338,0.085756,-0.97346,2.6881
-0.013119,-0.18721,2.6028,-0.015639,-0.12095,2.618,-0.028462,0.21467,2.6094,-0.0066883,0.40147,2.566,-0.16264,0.10155,2.618,-0.22946,-0.13122,2.6193,-0.23199,-0.31001,2.5196,-0.22092,-0.35836,2.4973,0.11751,0.1135,2.6112,0.18425,-0.15136,2.6449,0.17745,-0.33757,2.5699,0.1762,-0.37983,2.5388,-0.077952,-0.25229,2.5965,-0.11844,-0.59564,2.6201,-0.091286,-0.92668,2.6562,-0.10517,-0.99994,2.6315,0.055088,-0.25355,2.6019,0.076464,-0.6082,2.6222,0.069189,-0.92238,2.7322,0.083976,-0.97123,2.689
-0.016326,-0.1885,2.6012,-0.018791,-0.12245,2.6161,-0.029891,0.21178,2.6076,-0.013852,0.39734,2.5591,-0.1662,0.099394,2.6145,-0.23412,-0.12995,2.608,-0.24325,-0.30203,2.4968,-0.23308,-0.35564,2.4537,0.11569,0.11429,2.6115,0.18249,-0.14961,2.6472,0.17752,-0.33626,2.5694,0.17576,-0.37825,2.537,-0.080609,-0.25347,2.5952,-0.12114,-0.59518,2.6184,-0.091575,-0.92654,2.6559,-0.10675,-0.99864,2.6292,0.050303,-0.25404,2.6001,0.072726,-0.61555,2.6259,0.063478,-0.92517,2.7308,0.096973,-1.0004,2.7333
-0.020879,-0.19426,2.599,-0.023294,-0.12817,2.6135,-0.032297,0.20669,2.6055,-0.02481,0.39109,2.5509,-0.16837,0.092684,2.6127,-0.24518,-0.12369,2.5877,-0.25536,-0.28387,2.458,-0.25003,-0.33862,2.4218,0.1174,0.10588,2.6135,0.16765,-0.15439,2.6323,0.17979,-0.3422,2.5585,0.1778,-0.37663,2.5271,-0.08429,-0.25739,2.5946,-0.12707,-0.59779,2.6145,-0.093656,-0.9267,2.6517,-0.11119,-0.9966,2.6251,0.044926,-0.25992,2.5968,0.067443,-0.61841,2.6275,0.049593,-0.92328,2.7182,0.075854,-0.97648,2.689
-0.028093,-0.19818,2.5962,-0.029567,-0.13225,2.6105,-0.035229,0.20062,2.6018,-0.031396,0.38621,2.5492,-0.16959,0.088027,2.6119,-0.25112,-0.11102,2.5826,-0.27971,-0.26094,2.4245,-0.27608,-0.31514,2.3708,0.11984,0.10478,2.6111,0.17918,-0.15131,2.6396,0.18896,-0.33098,2.5432,0.18445,-0.39457,2.495,-0.091894,-0.26138,2.5941,-0.12998,-0.60066,2.6092,-0.10122,-0.92784,2.6415,-0.11298,-0.98306,2.5881,0.035215,-0.26496,2.5917,0.059645,-0.62493,2.6276,0.046677,-0.93569,2.7183,0.07489,-0.98277,2.6895
-0.032159,-0.20046,2.5952,-0.033198,-0.13464,2.609,-0.036038,0.19689,2.5995,-0.035684,0.38278,2.5471,-0.16974,0.08508,2.6112,-0.25839,-0.10038,2.5694,-0.29905,-0.23703,2.4048,-0.30157,-0.28686,2.3404,0.12939,0.098889,2.6094,0.19532,-0.14631,2.6356,0.19711,-0.31696,2.5216,0.19206,-0.38221,2.4758,-0.097779,-0.26412,2.5945,-0.12608,-0.6073,2.5924,-0.1065,-0.93021,2.6314,-0.11663,-0.9829,2.58,0.031271,-0.26801,2.5901,0.059083,-0.62859,2.6265,0.022741,-0.93879,2.7009,0.061436,-0.97609,2.6816
-0.035077,-0.20217,2.5947,-0.035254,-0.13656,2.6076,-0.035362,0.19045,2.5944,-0.042027,0.37648,2.5438,-0.16975,0.083321,2.611,-0.26554,-0.092999,2.5661,-0.32773,-0.20462,2.3906,-0.33741,-0.25288,2.3189,0.13139,0.094758,2.6028,0.19947,-0.13999,2.6157,0.20716,-0.30199,2.4788,0.20468,-0.36772,2.434,-0.10192,-0.26544,2.5954,-0.14055,-0.61109,2.5606,-0.1091,-0.92898,2.6212,-0.11921,-0.98358,2.5755,0.028297,-0.27059,2.5893,0.053676,-0.62764,2.6162,0.0248,-0.93877,2.7009,0.062224,-0.97735,2.6804
-0.03567,-0.20339,2.5943,-0.03555,-0.13845,2.6055,-0.034777,0.17885,2.5864,-0.04736,0.36651,2.5352,-0.1708,0.079938,2.6113,-0.27548,-0.08982,2.5655,-0.34308,-0.18692,2.3909,-0.36486,-0.20944,2.3248,0.13323,0.088265,2.5956,0.20883,-0.13526,2.5895,0.21237,-0.30944,2.4615,0.21371,-0.36858,2.408,-0.10269,-0.26667,2.5966,-0.14344,-0.60852,2.5396,-0.12794,-0.92554,2.5958,-0.14011,-0.98753,2.5556,0.028152,-0.27289,2.5877,0.065295,-0.63508,2.6164,0.056044,-0.95086,2.7171,0.079528,-0.99308,2.6811
-0.034358,-0.20781,2.5923,-0.033935,-0.14425,2.6007,-0.034041,0.16868,2.5766,-0.050472,0.35745,2.5269,-0.17054,0.074325,2.6083,-0.28606,-0.088078,2.5653,-0.3797,-0.16629,2.3845,-0.3979,-0.17736,2.3262,0.13559,0.079024,2.5859,0.19878,-0.13867,2.5533,0.20832,-0.30724,2.3978,0.20772,-0.36847,2.3513,-0.10086,-0.27076,2.5981,-0.16141,-0.5847,2.4928,-0.13799,-0.91801,2.5686,-0.14272,-0.95391,2.4943,0.030404,-0.2787,2.5839,0.066054,-0.64932,2.6132,0.036165,-0.92587,2.6889,0.062628,-0.97532,2.6708
-0.035355,-0.21368,2.5881,-0.034527,-0.15081,2.5942,-0.032956,0.16081,2.5691,-0.050761,0.3494,2.5185,-0.17487,0.065133,2.6031,-0.30431,-0.086947,2.5729,-0.38516,-0.15188,2.3726,-0.4302,-0.15165,2.3271,0.1293,0.066895,2.5706,0.19488,-0.15129,2.5182,0.19211,-0.31106,2.3612,0.18799,-0.36457,2.2989,-0.10237,-0.27556,2.5976,-0.17995,-0.58146,2.4659,-0.15869,-0.92043,2.5211,-0.16315,-0.9788,2.4703,0.029296,-0.28551,2.5783,0.062075,-0.63965,2.5969,0.099393,-0.9434,2.7296,0.064457,-0.97915,2.6684
-0.039465,-0.2207,2.5778,-0.038931,-0.1581,2.5821,-0.040765,0.15307,2.5563,-0.057825,0.33817,2.5014,-0.17749,0.062656,2.6019,-0.3248,-0.084419,2.59,-0.4065,-0.13339,2.4082,-0.47086,-0.12968,2.3417,0.12248,0.059056,2.5565,0.17071,-0.16593,2.4617,0.15712,-0.3186,2.3058,0.14761,-0.36457,2.2479,-0.10591,-0.28197,2.5919,-0.18355,-0.58165,2.4601,-0.18074,-0.91802,2.476,-0.18906,-0.97828,2.4177,0.025968,-0.29344,2.5654,0.056849,-0.63395,2.5765,0.09923,-0.93499,2.7193,0.090714,-0.97258,2.6443
-0.049116,-0.2273,2.5616,-0.047682,-0.16496,2.5662,-0.049308,0.1467,2.546,-0.067011,0.33305,2.4892,-0.18252,0.057883,2.5954,-0.33268,-0.079648,2.6034,-0.43375,-0.13006,2.418,-0.50977,-0.11652,2.3759,0.11073,0.046584,2.5259,0.14151,-0.16223,2.4378,0.11194,-0.31027,2.267,0.1048,-0.3606,2.2015,-0.11624,-0.28952,2.5778,-0.20209,-0.59845,2.4289,-0.21802,-0.90872,2.4041,-0.23796,-0.96638,2.3474,0.016878,-0.29976,2.5461,0.048877,-0.64078,2.5584,0.097553,-0.93347,2.7114,0.083327,-0.97108,2.6372
-0.060515,-0.22954,2.5391,-0.057955,-0.16737,2.5457,-0.058481,0.14495,2.5361,-0.08183,0.33043,2.476,-0.19176,0.056248,2.5906,-0.33998,-0.078327,2.6185,-0.47895,-0.12076,2.4645,-0.53512,-0.10233,2.4145,0.093182,0.043557,2.4972,0.11014,-0.15764,2.4104,0.078615,-0.28811,2.2511,0.050674,-0.34385,2.1605,-0.12695,-0.29285,2.5589,-0.21169,-0.58836,2.4113,-0.24908,-0.88734,2.3519,-0.27492,-0.93663,2.2863,0.0038748,-0.30188,2.5143,0.04391,-0.634,2.5449,0.096915,-0.92986,2.7026,0.076171,-0.96613,2.6293
-0.078843,-0.23138,2.5056,-0.07625,-0.16862,2.5124,-0.080137,0.14656,2.5092,-0.1032,0.33164,2.4616,-0.20495,0.054637,2.5858,-0.34511,-0.078664,2.6433,-0.52925,-0.098746,2.5052,-0.57959,-0.10033,2.4582,0.068013,0.043115,2.471,0.063132,-0.14917,2.3742,0.027484,-0.27969,2.2162,0.0057951,-0.31995,2.1548,-0.14263,-0.29512,2.5284,-0.23433,-0.56026,2.3783,-0.27038,-0.87365,2.3223,-0.29525,-0.92549,2.2608,-0.015396,-0.30173,2.4783,0.035785,-0.63386,2.5267,0.097631,-0.92687,2.7011,0.0718,-0.96207,2.6289
-0.10203,-0.2371,2.4787,-0.096268,-0.17446,2.4895,-0.09691,0.14374,2.4972,-0.12705,0.32818,2.4456,-0.21902,0.049937,2.581,-0.33987,-0.078147,2.6646,-0.52217,-0.097598,2.5667,-0.55389,-0.08933,2.538,0.031563,0.037138,2.4354,0.021666,-0.16171,2.3445,-0.021678,-0.27719,2.1761,-0.021961,-0.31531,2.1245,-0.16639,-0.29782,2.4984,-0.25927,-0.55454,2.3411,-0.29387,-0.86013,2.2877,-0.33037,-0.89398,2.2218,-0.041655,-0.30784,2.4458,0.023335,-0.65318,2.492,0.093759,-0.90695,2.6849,0.059304,-0.9419,2.6163
-0.13298,-0.23385,2.4401,-0.12534,-0.17373,2.4545,-0.11993,0.13926,2.4753,-0.15951,0.32008,2.4298,-0.23446,0.048283,2.5711,-0.33917,-0.088125,2.685,-0.52754,-0.097553,2.605,-0.56179,-0.087142,2.5828,0.011857,0.031322,2.4164,-0.016465,-0.16408,2.3059,-0.066059,-0.28182,2.1411,-0.090542,-0.32266,2.06,-0.19057,-0.29927,2.4717,-0.28121,-0.56962,2.3055,-0.3054,-0.86113,2.2743,-0.31682,-0.91456,2.2496,-0.076456,-0.30421,2.3967,0.013989,-0.65087,2.46,0.087271,-0.90682,2.657,0.047198,-0.9409,2.591
-0.15593,-0.24647,2.4074,-0.14485,-0.18584,2.4262,-0.14311,0.13,2.4515,-0.17338,0.31631,2.4205,-0.25005,0.035205,2.5307,-0.33327,-0.094491,2.6862,-0.5313,-0.10584,2.6347,-0.59909,-0.095003,2.6171,-0.029216,0.018997,2.3805,-0.04247,-0.17272,2.2767,-0.091331,-0.29282,2.1142,-0.10709,-0.3231,2.0391,-0.21597,-0.30651,2.4268,-0.30649,-0.56814,2.2689,-0.31973,-0.86276,2.2505,-0.32876,-0.91308,2.235,-0.10141,-0.31319,2.3675,0.0010534,-0.65367,2.4025,0.085596,-0.89674,2.5891,0.040914,-0.92995,2.5257
-0.17979,-0.25827,2.3776,-0.16602,-0.19849,2.4014,-0.15819,0.12418,2.4405,-0.18963,0.30972,2.4084,-0.26382,0.026279,2.5187,-0.33994,-0.10126,2.6903,-0.53832,-0.12803,2.6497,-0.60553,-0.11238,2.6339,-0.048302,0.0088794,2.3651,-0.049188,-0.18351,2.2676,-0.10157,-0.29912,2.0866,-0.10959,-0.33198,2.0112,-0.23667,-0.3147,2.3953,-0.32119,-0.5871,2.2369,-0.34206,-0.90385,2.2349,-0.38414,-0.93502,2.1732,-0.13131,-0.32198,2.3349,-0.017495,-0.65468,2.3424,0.021078,-0.9201,2.4839,0.022215,-0.93746,2.4663
-0.21358,-0.26533,2.3466,-0.19632,-0.20751,2.3746,-0.18154,0.11376,2.4224,-0.20794,0.29744,2.3965,-0.27384,0.023446,2.5124,-0.32067,-0.11447,2.6493,-0.5542,-0.15579,2.6613,-0.57035,-0.15564,2.6373,-0.067029,0.0034325,2.3543,-0.065961,-0.18109,2.244,-0.095257,-0.31252,2.0748,-0.096361,-0.33924,2.0017,-0.2716,-0.31982,2.3619,-0.3441,-0.58354,2.2046,-0.32694,-0.86802,2.2149,-0.37043,-0.89941,2.152,-0.1652,-0.3275,2.3047,-0.037885,-0.67093,2.2763,-0.025119,-0.93657,2.4052,-0.068607,-0.96796,2.3423
-0.24264,-0.28815,2.316,-0.22101,-0.2293,2.3488,-0.18803,0.10817,2.4092,-0.21687,0.29026,2.3864,-0.29137,0.00084168,2.4617,-0.32186,-0.15705,2.627,-0.54903,-0.20912,2.6378,-0.57569,-0.20073,2.5925,-0.080471,-0.0071856,2.3422,-0.076947,-0.20451,2.2191,-0.076136,-0.33178,2.0583,-0.06507,-0.35542,2.0053,-0.30616,-0.33207,2.3233,-0.35525,-0.60555,2.1801,-0.34133,-0.90125,2.2176,-0.37652,-0.93221,2.1516,-0.19345,-0.34725,2.2846,-0.078612,-0.65078,2.2056,-0.075779,-0.89445,2.2508,-0.11539,-0.9257,2.1854
-0.24695,-0.2897,2.3086,-0.2252,-0.23212,2.343,-0.19509,0.10145,2.3985,-0.22345,0.28131,2.373,-0.29726,-0.005421,2.4486,-0.32442,-0.16491,2.5949,-0.54356,-0.23214,2.5742,-0.61393,-0.23461,2.5555,-0.086849,-0.014956,2.3337,-0.05848,-0.22212,2.2081,-0.057191,-0.35298,2.0515,-0.02496,-0.37852,2.0112,-0.31011,-0.3349,2.3142,-0.36745,-0.60541,2.1587,-0.31985,-0.87639,2.2027,-0.37812,-0.92863,2.1415,-0.20029,-0.34962,2.2747,-0.11364,-0.64777,2.1416,-0.19627,-0.89107,2.085,-0.22877,-0.92191,2.0176
-0.26004,-0.28116,2.2924,-0.24111,-0.22842,2.333,-0.19913,0.09556,2.3907,-0.22708,0.27186,2.3557,-0.30835,-0.0098126,2.4071,-0.39308,-0.16977,2.5556,-0.56774,-0.255,2.5308,-0.5915,-0.24186,2.4964,-0.084148,-0.02121,2.3299,-0.055719,-0.22003,2.212,-0.021355,-0.36744,2.0728,0.015769,-0.40081,2.0228,-0.32391,-0.33176,2.2977,-0.38129,-0.59681,2.1467,-0.32282,-0.88045,2.2017,-0.37557,-0.94686,2.1436,-0.21759,-0.34077,2.2486,-0.14286,-0.61447,2.0797,-0.24088,-0.82968,1.9759,-0.26797,-0.86062,1.9061
-0.27586,-0.27572,2.2713,-0.25515,-0.22646,2.3141,-0.20602,0.089514,2.3804,-0.23187,0.26621,2.3439,-0.32833,-0.005852,2.4235,-0.41382,-0.18368,2.5444,-0.59569,-0.25151,2.4543,-0.6,-0.24445,2.4369,-0.083386,-0.025277,2.3278,-0.048993,-0.22003,2.2197,0.029487,-0.3774,2.0944,0.062996,-0.4143,2.0501,-0.34788,-0.326,2.2667,-0.38788,-0.60106,2.1313,-0.32811,-0.88205,2.1989,-0.35246,-0.91341,2.1264,-0.22962,-0.34081,2.2325,-0.1774,-0.61478,2.0249,-0.28793,-0.80522,1.8885,-0.31186,-0.83692,1.818
-0.28665,-0.2673,2.2601,-0.26474,-0.22358,2.303,-0.22167,0.055949,2.3559,-0.23484,0.25538,2.3394,-0.3396,-0.0074244,2.434,-0.44012,-0.19493,2.518,-0.61661,-0.26193,2.3924,-0.63208,-0.22951,2.3758,-0.082872,-0.028123,2.327,-0.038464,-0.22179,2.2272,0.059901,-0.384,2.119,0.11065,-0.42556,2.0884,-0.3571,-0.32142,2.2501,-0.42317,-0.58533,2.1211,-0.35242,-0.91854,2.2113,-0.37367,-0.94979,2.1397,-0.2455,-0.33663,2.2201,-0.2117,-0.55048,2.0038,-0.31726,-0.7709,1.8333,-0.36022,-0.82217,1.8171
-0.29897,-0.25521,2.2506,-0.27589,-0.21384,2.2958,-0.22041,0.082706,2.363,-0.23582,0.26445,2.3357,-0.34539,-0.0082238,2.4307,-0.45933,-0.1753,2.4962,-0.63004,-0.209,2.3397,-0.64684,-0.19747,2.3335,-0.084001,-0.029036,2.3254,-0.011979,-0.22446,2.2422,0.080449,-0.38545,2.1435,0.13467,-0.42572,2.1138,-0.37521,-0.31147,2.237,-0.40526,-0.63546,2.1019,-0.36186,-0.88778,2.1812,-0.38075,-0.92008,2.1094,-0.25528,-0.32291,2.2146,-0.2423,-0.54582,1.9834,-0.34244,-0.77272,1.8086,-0.38897,-0.82329,1.8122
-0.31164,-0.25218,2.2386,-0.28737,-0.21232,2.2866,-0.22376,0.082021,2.3603,-0.23791,0.26266,2.3298,-0.35043,-0.010809,2.4221,-0.45777,-0.17277,2.4924,-0.63458,-0.17428,2.3244,-0.65652,-0.15206,2.3039,-0.087799,-0.031712,2.3225,-0.0062721,-0.22108,2.2555,0.10489,-0.3857,2.1804,0.16367,-0.42449,2.1614,-0.38428,-0.30937,2.227,-0.45824,-0.60212,2.1069,-0.35753,-0.88924,2.18,-0.37454,-0.92245,2.1082,-0.27602,-0.31991,2.1969,-0.2688,-0.54147,1.9636,-0.361,-0.77941,1.8032,-0.4264,-0.79995,1.7973
-0.31297,-0.24157,2.2274,-0.28999,-0.20586,2.278,-0.22749,0.081422,2.358,-0.24077,0.26312,2.3303,-0.35318,-0.012321,2.4116,-0.47018,-0.15913,2.4797,-0.62858,-0.15616,2.3258,-0.65596,-0.10676,2.2898,-0.095291,-0.030144,2.3169,-0.0068716,-0.22085,2.261,0.11672,-0.38911,2.1974,0.18002,-0.42564,2.1846,-0.39034,-0.29338,2.2203,-0.46472,-0.59848,2.1031,-0.33811,-0.87091,2.1718,-0.35984,-0.90541,2.1002,-0.26579,-0.30641,2.1764,-0.29922,-0.53786,1.9507,-0.36665,-0.80869,1.7773,-0.40915,-0.84887,1.7111
-0.31567,-0.2384,2.2163,-0.29161,-0.20344,2.2681,-0.23058,0.081896,2.3555,-0.24286,0.26292,2.3311,-0.35586,-0.01465,2.4079,-0.47103,-0.15501,2.4734,-0.63015,-0.10581,2.3076,-0.65125,-0.08745,2.2874,-0.10409,-0.025643,2.3085,0.0022646,-0.22733,2.2666,0.11939,-0.38905,2.2094,0.1811,-0.42609,2.1983,-0.3917,-0.2848,2.2068,-0.46875,-0.59573,2.0976,-0.33977,-0.86621,2.1676,-0.36504,-0.94476,2.1104,-0.27092,-0.30288,2.1679,-0.32121,-0.53169,1.9439,-0.37025,-0.81041,1.7792,-0.40672,-0.8574,1.7195
-0.32683,-0.24491,2.2027,-0.30034,-0.20895,2.2572,-0.23346,0.081896,2.3527,-0.24546,0.26306,2.3348,-0.35112,-0.021296,2.3883,-0.46935,-0.15403,2.4734,-0.61473,-0.095862,2.3348,-0.64126,-0.057107,2.294,-0.11217,-0.028021,2.2963,0.0077919,-0.22988,2.2674,0.12439,-0.39219,2.2171,0.18184,-0.4287,2.2069,-0.39309,-0.28928,2.2004,-0.47369,-0.58695,2.0911,-0.34151,-0.86677,2.1646,-0.36464,-0.94735,2.1106,-0.29407,-0.30232,2.1521,-0.32921,-0.5371,1.9318,-0.37893,-0.82135,1.7855,-0.41653,-0.8663,1.734
-0.32758,-0.22717,2.2055,-0.29888,-0.19774,2.2568,-0.23454,0.082213,2.3506,-0.24696,0.26319,2.3377,-0.36816,-0.024341,2.4134,-0.47843,-0.18129,2.4895,-0.61324,-0.06742,2.3306,-0.63118,-0.030074,2.3075,-0.1159,-0.026815,2.2886,0.012,-0.23029,2.2639,0.1233,-0.39024,2.226,0.17486,-0.42906,2.2139,-0.39865,-0.28286,2.2085,-0.47658,-0.58928,2.0877,-0.33724,-0.87561,2.1673,-0.36574,-0.94809,2.1107,-0.29375,-0.28986,2.1431,-0.34218,-0.53416,1.9353,-0.38466,-0.81477,1.7846,-0.42362,-0.86418,1.7249
-0.3291,-0.23514,2.1981,-0.29636,-0.20225,2.2508,-0.23472,0.082738,2.349,-0.24798,0.2642,2.3408,-0.33027,-0.023896,2.368,-0.45716,-0.17106,2.4885,-0.60356,-0.053408,2.3366,-0.62374,-0.029091,2.3144,-0.15012,-0.0277,2.2728,0.006531,-0.22156,2.2523,0.12291,-0.38406,2.2112,0.18383,-0.42988,2.2011,-0.39724,-0.28993,2.1953,-0.47729,-0.58787,2.084,-0.36179,-0.85381,2.1449,-0.39293,-0.92074,2.097,-0.29489,-0.29174,2.1431,-0.34636,-0.53501,1.9353,-0.38532,-0.81402,1.7805,-0.42426,-0.86395,1.7216
-0.32904,-0.23742,2.1946,-0.29824,-0.20424,2.2485,-0.23802,0.067876,2.3368,-0.24721,0.26707,2.3453,-0.32717,-0.023148,2.3659,-0.45385,-0.17173,2.4893,-0.59181,-0.063812,2.3511,-0.61238,-0.025424,2.3243,-0.12395,-0.026144,2.2743,0.015625,-0.22758,2.241,0.12598,-0.38915,2.1855,0.18525,-0.43899,2.1649,-0.39731,-0.28382,2.189,-0.47766,-0.58947,2.0808,-0.34705,-0.86481,2.1588,-0.35871,-0.94455,2.1166,-0.2937,-0.29614,2.1443,-0.34741,-0.53798,1.9344,-0.39343,-0.81892,1.7787,-0.43373,-0.8695,1.7228
-0.32502,-0.23949,2.1945,-0.29539,-0.20442,2.2492,-0.23001,0.090542,2.3447,-0.23725,0.27213,2.351,-0.34151,0.00070028,2.3964,-0.44997,-0.1693,2.4921,-0.59628,-0.063851,2.3509,-0.60739,-0.021779,2.3297,-0.1201,-0.024746,2.2729,0.014473,-0.22371,2.2302,0.11795,-0.38489,2.1589,0.16305,-0.41844,2.1327,-0.39164,-0.2821,2.1905,-0.47646,-0.58669,2.0815,-0.34265,-0.86662,2.1659,-0.37247,-0.90435,2.0988,-0.29028,-0.29771,2.1479,-0.3458,-0.54159,1.9377,-0.39389,-0.82735,1.7805,-0.42986,-0.8772,1.7251
-0.32142,-0.22897,2.2065,-0.29071,-0.19663,2.2579,-0.22753,0.093996,2.3463,-0.22879,0.27936,2.3582,-0.33815,0.0072263,2.4054,-0.44464,-0.16477,2.4945,-0.59629,-0.059065,2.3527,-0.60125,-0.018047,2.3367,-0.11857,-0.021636,2.273,0.013192,-0.21861,2.2143,0.11044,-0.37785,2.125,0.15629,-0.40772,2.0956,-0.38754,-0.27339,2.2178,-0.47047,-0.58567,2.0884,-0.33801,-0.86981,2.1715,-0.36996,-0.90693,2.1051,-0.28791,-0.29622,2.1488,-0.34226,-0.55203,1.9525,-0.39742,-0.83101,1.7768,-0.43472,-0.86949,1.7104
-0.31987,-0.23453,2.2096,-0.2887,-0.19863,2.2615,-0.22523,0.1002,2.3495,-0.22328,0.28606,2.3632,-0.33616,0.012135,2.4058,-0.44278,-0.1596,2.4944,-0.59617,-0.058462,2.35,-0.59691,-0.016678,2.3366,-0.11812,-0.016957,2.2748,0.006382,-0.21196,2.1984,0.095703,-0.36407,2.0934,0.13345,-0.39165,2.0575,-0.38415,-0.27707,2.2207,-0.46261,-0.58859,2.1021,-0.33072,-0.87568,2.1793,-0.366,-0.93525,2.1136,-0.28615,-0.30092,2.1574,-0.3475,-0.56869,1.9538,-0.35078,-0.84485,1.8034,-0.38696,-0.88165,1.7366
-0.31178,-0.23064,2.2257,-0.28024,-0.19242,2.2782,-0.22024,0.11078,2.3575,-0.21426,0.29634,2.3715,-0.31259,0.0065529,2.3948,-0.44177,-0.10701,2.4912,-0.59201,-0.056829,2.3515,-0.59306,-0.016919,2.3361,-0.11277,-0.012013,2.2762,-0.00014395,-0.20475,2.1872,0.073322,-0.3533,2.0658,0.11716,-0.38862,2.0185,-0.37732,-0.2742,2.2381,-0.44335,-0.58872,2.1362,-0.31713,-0.87616,2.1892,-0.3481,-0.93391,2.1267,-0.27723,-0.29864,2.1694,-0.29731,-0.54795,1.9967,-0.37817,-0.84861,1.8638,-0.43636,-0.88566,1.8132
-0.297,-0.22931,2.2379,-0.26738,-0.18771,2.2914,-0.20891,0.12914,2.3679,-0.20329,0.31059,2.3806,-0.31465,0.016816,2.3888,-0.44222,-0.10957,2.5032,-0.58084,-0.055979,2.3553,-0.58808,-0.01441,2.3317,-0.10581,-0.00069283,2.281,-0.0080013,-0.19981,2.1718,0.048772,-0.34043,2.0333,0.080331,-0.35629,1.9926,-0.3588,-0.28193,2.2599,-0.43107,-0.59601,2.16,-0.30937,-0.87539,2.1923,-0.33978,-0.90886,2.1231,-0.25927,-0.29329,2.1762,-0.2943,-0.54214,2.0016,-0.36929,-0.8437,1.8539,-0.41274,-0.88462,1.7911
-0.28442,-0.2234,2.2555,-0.25357,-0.17954,2.3067,-0.20474,0.13852,2.3726,-0.19625,0.32212,2.3859,-0.31371,0.030125,2.4102,-0.43209,-0.096863,2.5173,-0.56776,-0.057252,2.3605,-0.58155,-0.014275,2.3285,-0.10491,0.011403,2.2871,-0.01927,-0.18542,2.1688,0.029071,-0.32358,2.0104,0.049247,-0.3348,1.9793,-0.34915,-0.27772,2.2761,-0.40901,-0.6145,2.191,-0.29397,-0.87839,2.2038,-0.3287,-0.91095,2.1362,-0.24462,-0.28387,2.1969,-0.28395,-0.53954,2.012,-0.30925,-0.81574,1.9423,-0.34303,-0.87554,1.9384
-0.26852,-0.20683,2.2763,-0.23591,-0.16119,2.3256,-0.19031,0.16019,2.381,-0.17699,0.34485,2.3978,-0.31046,0.057024,2.4418,-0.43962,-0.11105,2.5296,-0.55663,-0.050148,2.3647,-0.57597,-0.017558,2.3307,-0.090587,0.031472,2.297,-0.028063,-0.17336,2.1653,-0.0059647,-0.29613,1.9997,0.012893,-0.3105,1.9562,-0.33626,-0.25979,2.2937,-0.38262,-0.59087,2.2121,-0.28839,-0.87888,2.2101,-0.3396,-0.93028,2.1386,-0.22728,-0.27133,2.2235,-0.26077,-0.53289,2.0369,-0.29042,-0.83183,2.0071,-0.32145,-0.86334,1.9393
-0.25845,-0.19693,2.2889,-0.22544,-0.14991,2.3381,-0.18075,0.17678,2.3902,-0.17105,0.35377,2.4007,-0.30324,0.068454,2.4454,-0.43485,-0.10377,2.5416,-0.54784,-0.056552,2.3676,-0.56894,-0.022201,2.3358,-0.08449,0.048206,2.3029,-0.038929,-0.14877,2.1699,-0.035782,-0.27946,2.0096,-0.019078,-0.28809,1.9622,-0.32341,-0.2533,2.3084,-0.36987,-0.58678,2.2341,-0.29426,-0.8988,2.1847,-0.32641,-0.93023,2.1174,-0.22015,-0.26302,2.2333,-0.22869,-0.53106,2.0579,-0.25871,-0.86582,2.085,-0.29086,-0.89725,2.0177
-0.24635,-0.18895,2.3015,-0.21354,-0.1408,2.35,-0.17079,0.18985,2.3973,-0.15705,0.37027,2.4036,-0.29468,0.087951,2.4603,-0.4064,-0.04271,2.5526,-0.53813,-0.053334,2.3654,-0.5532,-0.031756,2.3373,-0.068184,0.062315,2.3089,-0.049118,-0.12347,2.1849,-0.051245,-0.25816,2.0271,-0.048182,-0.26307,1.9685,-0.31607,-0.24948,2.316,-0.33304,-0.62611,2.2469,-0.2594,-0.90245,2.2155,-0.25084,-0.90467,2.1584,-0.20195,-0.25144,2.2562,-0.20502,-0.55966,2.0839,-0.2163,-0.83853,2.1252,-0.1746,-0.95927,2.1389
-0.23164,-0.18334,2.3109,-0.20015,-0.13308,2.3605,-0.15528,0.20371,2.4028,-0.13785,0.39057,2.4152,-0.27246,0.11032,2.445,-0.40363,-0.035016,2.5549,-0.52884,-0.060097,2.3674,-0.54132,-0.04352,2.3455,-0.057996,0.071402,2.3142,-0.048012,-0.1219,2.1874,-0.070601,-0.24275,2.0191,-0.070909,-0.24445,1.9719,-0.29321,-0.23955,2.3288,-0.31823,-0.58842,2.2679,-0.25227,-0.86109,2.2277,-0.25853,-0.95516,2.2142,-0.19001,-0.24457,2.266,-0.17915,-0.54624,2.123,-0.16372,-0.88583,2.2602,-0.15542,-0.89188,2.1505
-0.21863,-0.18265,2.3231,-0.18615,-0.13015,2.3715,-0.14558,0.21248,2.4116,-0.13146,0.39392,2.4184,-0.26973,0.11221,2.4668,-0.36839,-0.018141,2.5697,-0.49646,-0.083126,2.4204,-0.51467,-0.064921,2.3653,-0.04569,0.081003,2.322,-0.048034,-0.1234,2.1806,-0.10176,-0.23029,2.0315,-0.091864,-0.22983,1.9927,-0.28142,-0.23909,2.3383,-0.31129,-0.59251,2.283,-0.2371,-0.86709,2.2565,-0.30179,-0.95744,2.2299,-0.17672,-0.24209,2.2819,-0.15762,-0.56233,2.1612,-0.1277,-0.85565,2.2823,-0.12162,-0.90997,2.2487
-0.19262,-0.18343,2.3368,-0.16118,-0.12799,2.3835,-0.13479,0.21742,2.4167,-0.12015,0.39668,2.4209,-0.26809,0.10793,2.4851,-0.3584,-0.031904,2.5712,-0.48861,-0.10346,2.4355,-0.49673,-0.082823,2.375,-0.036567,0.082765,2.3259,-0.048863,-0.10529,2.1999,-0.10049,-0.22094,2.0432,-0.1214,-0.22334,1.992,-0.25707,-0.24147,2.3495,-0.28604,-0.58889,2.2952,-0.2616,-0.85948,2.2588,-0.30171,-0.89063,2.1937,-0.14625,-0.24324,2.2982,-0.12773,-0.58853,2.1917,-0.063081,-0.87313,2.3563,-0.10319,-0.90429,2.2912
-0.17147,-0.18401,2.3511,-0.14045,-0.12762,2.3978,-0.1207,0.21907,2.4267,-0.10534,0.39751,2.4275,-0.25666,0.10783,2.4992,-0.34455,-0.036943,2.5877,-0.46121,-0.11135,2.4359,-0.46854,-0.10632,2.3897,-0.018486,0.088415,2.3387,-0.041125,-0.10231,2.216,-0.1178,-0.21161,2.069,-0.15576,-0.22544,1.9929,-0.23176,-0.24563,2.3668,-0.26283,-0.591,2.3036,-0.26273,-0.85923,2.2603,-0.30277,-0.89044,2.1951,-0.12662,-0.24219,2.3103,-0.098376,-0.59434,2.2349,-0.019626,-0.86966,2.4087,-0.016909,-0.92503,2.3774
-0.1551,-0.18895,2.3611,-0.1232,-0.13191,2.4072,-0.10183,0.21776,2.4351,-0.091676,0.39888,2.4356,-0.19581,0.10675,2.4913,-0.29839,-0.057187,2.6005,-0.42194,-0.14127,2.4555,-0.43928,-0.12666,2.4047,-0.0077471,0.08765,2.3453,-0.031391,-0.11029,2.2275,-0.12989,-0.21922,2.081,-0.16713,-0.22553,2.0229,-0.21726,-0.24852,2.3749,-0.25416,-0.58824,2.3165,-0.26219,-0.85844,2.2639,-0.30325,-0.88973,2.1994,-0.10923,-0.24764,2.3229,-0.067788,-0.62016,2.29,0.023618,-0.89432,2.4598,-0.017443,-0.92561,2.3953
-0.1214,-0.19517,2.3722,-0.093588,-0.13652,2.4195,-0.081296,0.2156,2.4437,-0.073589,0.39785,2.4423,-0.19306,0.112,2.4893,-0.25451,-0.045509,2.6238,-0.39439,-0.16974,2.4665,-0.38781,-0.15397,2.4334,0.015726,0.085463,2.3573,-0.025875,-0.11553,2.2387,-0.12973,-0.21592,2.0893,-0.17091,-0.22641,2.0481,-0.17749,-0.25105,2.3901,-0.24719,-0.58953,2.3295,-0.26089,-0.85678,2.2688,-0.29864,-0.88811,2.2023,-0.080224,-0.24842,2.332,-0.040233,-0.62496,2.349,0.048238,-0.8963,2.4954,0.010483,-0.92763,2.429
-0.11054,-0.19695,2.3867,-0.080568,-0.13836,2.4312,-0.063155,0.21232,2.4499,-0.062088,0.39471,2.4487,-0.15141,0.098671,2.5407,-0.22146,-0.048156,2.6444,-0.34796,-0.16682,2.4595,-0.38683,-0.18107,2.4035,0.028447,0.081677,2.3658,-0.010198,-0.12106,2.2711,-0.1137,-0.222,2.12,-0.17522,-0.23886,2.0809,-0.16842,-0.2517,2.4048,-0.22494,-0.58911,2.3468,-0.25626,-0.85221,2.2776,-0.29603,-0.88357,2.2126,-0.067846,-0.25259,2.35,-0.016166,-0.62704,2.3973,0.065956,-0.87592,2.5209,0.026188,-0.90728,2.4558
-0.090659,-0.1985,2.4087,-0.058528,-0.13932,2.4503,-0.047937,0.20716,2.4578,-0.051408,0.39069,2.4563,-0.1631,0.11092,2.5484,-0.20037,-0.10869,2.6049,-0.3352,-0.196,2.4744,-0.33684,-0.182,2.441,0.0563,0.077113,2.3836,0.0041304,-0.13085,2.2828,-0.10884,-0.23914,2.145,-0.17332,-0.25038,2.1013,-0.14868,-0.25253,2.4295,-0.21094,-0.59328,2.3635,-0.25235,-0.85144,2.283,-0.29551,-0.88341,2.2204,-0.045795,-0.25693,2.3726,-0.00015639,-0.61737,2.4146,0.083728,-0.91168,2.5517,0.067269,-0.96151,2.5182
-0.069891,-0.20366,2.436,-0.040423,-0.14224,2.4757,-0.02925,0.20388,2.4673,-0.033329,0.38966,2.4652,-0.14187,0.10723,2.5371,-0.13668,-0.082489,2.6556,-0.37116,-0.23508,2.4374,-0.31356,-0.22139,2.4766,0.076145,0.076401,2.3941,0.018744,-0.13511,2.2915,-0.095075,-0.26231,2.1758,-0.16323,-0.27085,2.1347,-0.12647,-0.25545,2.4579,-0.16935,-0.59156,2.3912,-0.23882,-0.85372,2.3002,-0.27834,-0.88612,2.2352,-0.025434,-0.26223,2.4037,0.014985,-0.61178,2.4349,0.11739,-0.90186,2.5518,0.032669,-0.92921,2.4981
-0.056625,-0.20713,2.4529,-0.030488,-0.1446,2.4934,-0.015838,0.20175,2.4772,-0.011058,0.38819,2.4728,-0.11582,0.097144,2.525,-0.11413,-0.08438,2.6631,-0.23709,-0.18081,2.5174,-0.27883,-0.19853,2.477,0.098668,0.075077,2.4113,0.055667,-0.13526,2.3135,-0.068477,-0.26554,2.2118,-0.141,-0.28742,2.167,-0.11275,-0.25701,2.4752,-0.15049,-0.58776,2.4134,-0.22491,-0.86101,2.3232,-0.25844,-0.89364,2.2551,-0.012573,-0.26565,2.4213,0.041997,-0.61154,2.46,0.1258,-0.92088,2.5738,0.040455,-0.93393,2.507
-0.034107,-0.20184,2.4698,-0.011003,-0.13857,2.5104,0.0091102,0.20813,2.4911,0.0039395,0.3915,2.4818,-0.10564,0.098144,2.5301,-0.10547,-0.082084,2.6665,-0.23321,-0.18466,2.5189,-0.39647,-0.27684,2.5915,0.1281,0.079971,2.4282,0.083994,-0.13454,2.3411,-0.038914,-0.26836,2.2446,-0.098598,-0.3021,2.1992,-0.096604,-0.25229,2.4869,-0.13521,-0.59259,2.4279,-0.20779,-0.87471,2.3455,-0.23617,-0.90742,2.2753,0.01663,-0.26234,2.4447,0.053557,-0.61342,2.4705,0.095526,-0.93215,2.5814,0.04852,-0.95231,2.5138
-0.022355,-0.19603,2.484,0.00040966,-0.1322,2.522,0.015755,0.21218,2.4984,0.013562,0.39953,2.4936,-0.096934,0.10741,2.5445,-0.093389,-0.076841,2.6746,-0.22592,-0.18792,2.5171,-0.36806,-0.29789,2.484,0.13491,0.084364,2.4368,0.099132,-0.14866,2.377,-0.0078912,-0.28015,2.2573,-0.059389,-0.32795,2.2188,-0.083099,-0.24559,2.5052,-0.13646,-0.5894,2.4421,-0.18126,-0.88099,2.3942,-0.21124,-0.91415,2.3248,0.026672,-0.25951,2.4557,0.067919,-0.60992,2.4868,0.092406,-0.9305,2.5888,0.042042,-0.95409,2.5251
-0.0079303,-0.18894,2.5004,0.013314,-0.12406,2.5364,0.026527,0.22077,2.5096,0.021263,0.40541,2.504,-0.087823,0.11444,2.5635,-0.092191,-0.073614,2.6764,-0.21538,-0.18099,2.5217,-0.32571,-0.29789,2.4528,0.1538,0.092704,2.4538,0.12681,-0.12497,2.4005,0.04168,-0.28581,2.3042,-0.0069828,-0.33589,2.2647,-0.071115,-0.23969,2.5187,-0.12873,-0.5852,2.46,-0.15461,-0.89664,2.434,-0.18457,-0.95027,2.3738,0.044694,-0.25456,2.4764,0.078984,-0.60741,2.5003,0.094692,-0.92931,2.5919,0.076811,-0.97807,2.5432
0.0036872,-0.18224,2.5136,0.025899,-0.11749,2.5473,0.036441,0.22616,2.5217,0.027512,0.40974,2.512,-0.077287,0.13226,2.5886,-0.09759,-0.069116,2.6806,-0.21299,-0.19291,2.4665,-0.25454,-0.20067,2.3735,0.15911,0.098368,2.4641,0.15432,-0.12347,2.4286,0.07401,-0.28528,2.3311,0.031344,-0.34046,2.2927,-0.057688,-0.23298,2.533,-0.11107,-0.57724,2.4815,-0.12928,-0.91275,2.4841,-0.15283,-0.96125,2.4367,0.054461,-0.24947,2.4882,0.08565,-0.60196,2.506,0.094915,-0.92303,2.5933,0.074939,-0.97073,2.5434
0.014624,-0.17675,2.5229,0.033864,-0.1122,2.5558,0.043992,0.22833,2.5298,0.033767,0.41194,2.5192,-0.074059,0.13301,2.5961,-0.11246,-0.09596,2.6132,-0.19772,-0.15835,2.5206,-0.22751,-0.16877,2.4687,0.17489,0.1051,2.4811,0.18394,-0.11464,2.4497,0.12692,-0.2922,2.3668,0.089112,-0.35478,2.3342,-0.046994,-0.22923,2.5424,-0.10024,-0.57802,2.4978,-0.094451,-0.91327,2.543,-0.10429,-0.99182,2.5242,0.065899,-0.24442,2.4974,0.09618,-0.60096,2.5203,0.09488,-0.92418,2.596,0.076332,-0.97286,2.5473
0.021049,-0.17402,2.533,0.038773,-0.10897,2.5636,0.047284,0.23064,2.5363,0.04043,0.41537,2.5308,-0.070069,0.13486,2.6066,-0.11902,-0.05861,2.688,-0.19906,-0.13975,2.5064,-0.23512,-0.16188,2.4628,0.18162,0.10607,2.4903,0.20053,-0.11184,2.4688,0.17138,-0.29684,2.3909,0.13718,-0.36118,2.3575,-0.039841,-0.22738,2.5534,-0.086879,-0.58051,2.5238,-0.078456,-0.91668,2.5926,-0.10867,-0.95069,2.5237,0.072712,-0.2422,2.5081,0.10119,-0.59552,2.5287,0.0964,-0.92076,2.5983,0.072096,-0.97087,2.5561
0.029348,-0.17283,2.548,0.045678,-0.10766,2.5771,0.05328,0.23083,2.5502,0.045609,0.41565,2.5386,-0.067612,0.1356,2.6171,-0.13336,-0.050402,2.6871,-0.21504,-0.1451,2.5206,-0.20717,-0.13655,2.4925,0.18718,0.10311,2.5033,0.23938,-0.12544,2.5055,0.2072,-0.30961,2.4179,0.18572,-0.37145,2.3923,-0.031367,-0.22812,2.5698,-0.075982,-0.59269,2.5488,-0.059502,-0.92098,2.6388,-0.08884,-0.95512,2.5695,0.081744,-0.24145,2.5222,0.10936,-0.59377,2.5432,0.098989,-0.92197,2.6035,0.082761,-0.9726,2.5597
0.036341,-0.17323,2.5602,0.050005,-0.10779,2.5872,0.057401,0.2296,2.5578,0.051903,0.4156,2.5473,-0.06655,0.12807,2.6324,-0.12286,-0.074827,2.6605,-0.21466,-0.13337,2.4854,-0.20127,-0.12008,2.4921,0.20187,0.10711,2.528,0.24815,-0.12608,2.5118,0.2347,-0.31806,2.4327,0.22644,-0.38864,2.4107,-0.026359,-0.22958,2.5796,-0.072239,-0.59521,2.5704,-0.03489,-0.91015,2.692,-0.060945,-0.94472,2.6216,0.092689,-0.24253,2.5399,0.11119,-0.59874,2.5556,0.10211,-0.92797,2.607,0.10261,-1.003,2.5867
0.042306,-0.1769,2.5722,0.054922,-0.11074,2.5982,0.064105,0.22944,2.57,0.055343,0.41673,2.5586,-0.065081,0.12473,2.639,-0.13355,-0.044735,2.7004,-0.18073,-0.11881,2.5097,-0.18657,-0.10811,2.479,0.20442,0.10487,2.5393,0.26649,-0.12317,2.5357,0.28708,-0.31561,2.466,0.28119,-0.38916,2.4472,-0.020303,-0.23318,2.588,-0.06176,-0.59673,2.6039,-0.023363,-0.91477,2.7169,-0.04827,-0.94933,2.6462,0.096985,-0.24518,2.5544,0.11692,-0.60158,2.5672,0.10482,-0.9289,2.6102,0.10402,-1.0013,2.5879
0.044889,-0.17794,2.5848,0.056196,-0.11198,2.6112,0.064094,0.22976,2.5894,0.058411,0.41715,2.569,-0.066678,0.12375,2.6463,-0.13902,-0.045453,2.7014,-0.18834,-0.10007,2.4756,-0.17919,-0.079854,2.4666,0.20762,0.10754,2.5531,0.27561,-0.11682,2.5471,0.317,-0.31157,2.4934,0.32022,-0.3852,2.4704,-0.018815,-0.23636,2.5991,-0.047752,-0.60182,2.6299,-0.008128,-0.91778,2.7453,-0.031151,-0.95197,2.6737,0.10157,-0.24597,2.5665,0.12023,-0.60029,2.5778,0.10589,-0.92875,2.6121,0.095276,-0.98465,2.563
0.046702,-0.17558,2.5976,0.0562,-0.11001,2.6233,0.06072,0.22866,2.603,0.05752,0.41736,2.5792,-0.069917,0.12119,2.6607,-0.14704,-0.052209,2.7039,-0.17696,-0.071641,2.4986,-0.17159,-0.03828,2.4556,0.21043,0.11142,2.5711,0.30316,-0.11484,2.585,0.34597,-0.3084,2.5225,0.36314,-0.37894,2.5044,-0.017038,-0.23702,2.6112,-0.040246,-0.60092,2.6517,0.0020806,-0.91202,2.7704,-0.011705,-0.96715,2.7294,0.10483,-0.24368,2.5793,0.1226,-0.59925,2.5851,0.10788,-0.92686,2.6137,0.10459,-0.99603,2.5865
0.046953,-0.17542,2.6107,0.05507,-0.10975,2.6355,0.055921,0.22823,2.6162,0.054185,0.41738,2.5934,-0.076482,0.11924,2.6792,-0.15024,-0.053632,2.717,-0.1695,-0.030031,2.4819,-0.16299,-0.032118,2.4324,0.21389,0.10991,2.5913,0.30937,-0.11155,2.6009,0.37275,-0.30104,2.5514,0.38809,-0.36576,2.5336,-0.018152,-0.23965,2.6238,-0.035114,-0.60647,2.6798,0.011122,-0.91956,2.7939,-0.0076482,-0.9834,2.7617,0.10779,-0.2441,2.5931,0.12337,-0.60054,2.5941,0.10881,-0.92716,2.6149,0.10521,-0.99454,2.5864
0.04791,-0.17809,2.6238,0.055028,-0.11257,2.6495,0.050844,0.22688,2.6369,0.054589,0.41792,2.6073,-0.079311,0.11942,2.6879,-0.15133,-0.054141,2.7213,-0.17162,-0.0099639,2.5241,-0.15859,0.011015,2.4594,0.2114,0.11185,2.6017,0.31356,-0.10603,2.6186,0.39634,-0.28903,2.5983,0.42107,-0.35825,2.5741,-0.015653,-0.24282,2.6416,-0.031464,-0.61029,2.6943,0.02205,-0.92125,2.8073,0.0092365,-0.98597,2.771,0.10927,-0.24519,2.6006,0.12515,-0.6011,2.6001,0.11002,-0.9263,2.616,0.10439,-0.99506,2.5888
0.051426,-0.17843,2.6381,0.05663,-0.11238,2.6634,0.048048,0.22815,2.6507,0.052697,0.41977,2.6266,-0.084564,0.11508,2.698,-0.19078,-0.071746,2.6879,-0.1605,0.044344,2.5204,-0.14869,0.066669,2.4565,0.20981,0.11353,2.6187,0.31797,-0.099814,2.6379,0.39933,-0.28019,2.6048,0.4268,-0.34981,2.59,-0.012654,-0.24482,2.6522,-0.029484,-0.60944,2.7058,0.024577,-0.91914,2.8114,0.01074,-0.98015,2.7569,0.11566,-0.24469,2.6178,0.12534,-0.60093,2.6032,0.11241,-0.92591,2.6179,0.10742,-0.99641,2.5877
