-0.34869,-0.14729,2.8421,-0.35195,-0.081298,2.8605,-0.37097,0.25487,2.8543,-0.3595,0.4373,2.8019,-0.50637,0.1387,2.8738,-0.55078,-0.089793,2.8803,-0.53482,-0.29494,2.8124,-0.52297,-0.36936,2.7873,-0.20848,0.13665,2.8538,-0.18251,-0.093292,2.8719,-0.16642,-0.31408,2.8169,-0.19019,-0.38008,2.7896,-0.41265,-0.21762,2.8433,-0.40889,-0.61755,2.9045,-0.36845,-0.96297,2.9433,-0.35779,-1.0065,2.8561,-0.27868,-0.21257,2.8335,-0.27727,-0.6049,2.771,-0.24848,-0.9396,2.7333,-0.23913,-1.0133,2.6926
-0.35017,-0.14731,2.8446,-0.35363,-0.081066,2.862,-0.37393,0.25576,2.8553,-0.36278,0.43817,2.8067,-0.50991,0.13906,2.8762,-0.55186,-0.089467,2.8799,-0.53478,-0.29488,2.8134,-0.52253,-0.3689,2.7872,-0.21233,0.13788,2.8567,-0.16384,-0.11067,2.8828,-0.16783,-0.31344,2.8173,-0.17038,-0.38449,2.7879,-0.41381,-0.21729,2.8461,-0.40881,-0.61729,2.9044,-0.36729,-0.96223,2.9393,-0.38268,-1.0154,2.8852,-0.28025,-0.21246,2.8363,-0.27821,-0.60695,2.7694,-0.26066,-0.94744,2.7355,-0.24108,-1.0178,2.6958
-0.35164,-0.14706,2.8454,-0.35527,-0.080788,2.8622,-0.37587,0.25633,2.8565,-0.36503,0.43879,2.8088,-0.51207,0.13918,2.8759,-0.5536,-0.090979,2.8791,-0.53402,-0.29593,2.8119,-0.52172,-0.37063,2.7878,-0.21384,0.13887,2.8578,-0.18685,-0.090162,2.8754,-0.17183,-0.3096,2.8149,-0.17444,-0.38183,2.785,-0.41544,-0.21729,2.8464,-0.4092,-0.61759,2.9044,-0.36861,-0.96791,2.9362,-0.38705,-1.0205,2.8851,-0.28148,-0.21225,2.8375,-0.28234,-0.60635,2.7697,-0.27086,-0.94311,2.7437,-0.26416,-0.99542,2.6709
-0.35321,-0.14792,2.8454,-0.35684,-0.081438,2.8617,-0.37754,0.25636,2.8565,-0.36633,0.43859,2.8094,-0.51413,0.13829,2.8745,-0.55697,-0.092115,2.8762,-0.53507,-0.29698,2.81,-0.52178,-0.37093,2.7842,-0.21759,0.13879,2.8564,-0.18888,-0.089473,2.8745,-0.17301,-0.3073,2.8147,-0.17455,-0.3753,2.7885,-0.41662,-0.21808,2.8464,-0.41076,-0.61896,2.9041,-0.37028,-0.96813,2.934,-0.38782,-1.0209,2.8816,-0.28339,-0.21258,2.8373,-0.28937,-0.60669,2.7708,-0.2776,-0.94679,2.7436,-0.26573,-1.024,2.7026
-0.35585,-0.14812,2.8442,-0.35942,-0.081492,2.8601,-0.38076,0.25607,2.855,-0.36962,0.4401,2.8087,-0.5164,0.13834,2.8714,-0.55852,-0.093077,2.8757,-0.5364,-0.29622,2.8036,-0.52297,-0.37033,2.7787,-0.22372,0.1379,2.8506,-0.19029,-0.089053,2.8732,-0.17454,-0.30635,2.8131,-0.17286,-0.38128,2.7884,-0.41947,-0.21844,2.8447,-0.41281,-0.61926,2.9036,-0.37598,-0.96354,2.9325,-0.43076,-0.97052,2.8372,-0.28582,-0.21249,2.8364,-0.29432,-0.60445,2.7661,-0.28598,-0.94485,2.7441,-0.28643,-1.0155,2.6973
-0.35908,-0.14833,2.8394,-0.36286,-0.081908,2.8556,-0.38293,0.25544,2.8526,-0.37068,0.44039,2.8069,-0.51759,0.13902,2.8652,-0.56233,-0.0911,2.8694,-0.54139,-0.29354,2.7944,-0.52813,-0.36456,2.7618,-0.22448,0.13766,2.8494,-0.19436,-0.096279,2.8663,-0.1742,-0.30721,2.808,-0.17957,-0.38811,2.7657,-0.42315,-0.21865,2.838,-0.41589,-0.61862,2.9022,-0.37709,-0.9621,2.9314,-0.39307,-1.0164,2.881,-0.28882,-0.21235,2.8325,-0.29839,-0.60409,2.7636,-0.29425,-0.94645,2.7444,-0.28879,-1.0163,2.7043
-0.36044,-0.14931,2.833,-0.36453,-0.082757,2.8483,-0.38524,0.25431,2.8429,-0.3725,0.43613,2.7936,-0.51885,0.13927,2.8568,-0.56488,-0.092772,2.8601,-0.55013,-0.29229,2.7747,-0.52991,-0.35545,2.7524,-0.22713,0.13772,2.8429,-0.19695,-0.095968,2.8597,-0.1777,-0.30493,2.7984,-0.18122,-0.38803,2.76,-0.42374,-0.21953,2.8323,-0.41742,-0.61973,2.8986,-0.42618,-0.93275,2.9193,-0.39191,-1.0159,2.8745,-0.29055,-0.21235,2.8266,-0.30466,-0.60022,2.7535,-0.30181,-0.94396,2.7461,-0.29597,-0.99887,2.6846
-0.36402,-0.14911,2.8219,-0.36776,-0.082458,2.8366,-0.38757,0.2553,2.8315,-0.37379,0.43548,2.7897,-0.522,0.13872,2.8487,-0.56991,-0.091832,2.8519,-0.5535,-0.28967,2.7632,-0.53652,-0.3542,2.7249,-0.22842,0.13413,2.8317,-0.19783,-0.095532,2.8532,-0.18405,-0.30686,2.782,-0.18319,-0.38016,2.753,-0.42844,-0.22038,2.8203,-0.42962,-0.59694,2.8831,-0.37646,-0.95738,2.8944,-0.37831,-1.0211,2.8287,-0.29361,-0.21281,2.8161,-0.30572,-0.59679,2.7433,-0.31069,-0.94303,2.7484,-0.30682,-0.99938,2.6854
-0.36565,-0.14847,2.808,-0.36956,-0.082376,2.823,-0.38738,0.25336,2.8203,-0.37393,0.43485,2.7815,-0.52371,0.13641,2.8304,-0.57138,-0.093711,2.8406,-0.56213,-0.28871,2.7439,-0.54823,-0.35372,2.7025,-0.22686,0.1346,2.8205,-0.19994,-0.099435,2.8253,-0.18846,-0.31151,2.7605,-0.18315,-0.38847,2.7341,-0.43114,-0.22025,2.805,-0.42915,-0.60195,2.871,-0.37526,-0.94835,2.8789,-0.37718,-0.98585,2.7952,-0.29455,-0.21346,2.8026,-0.30911,-0.6042,2.7289,-0.32515,-0.93901,2.7681,-0.32706,-0.97651,2.6844
-0.36518,-0.15004,2.7933,-0.3692,-0.084012,2.8087,-0.38772,0.25208,2.8075,-0.3712,0.43485,2.7715,-0.52405,0.13502,2.8184,-0.57123,-0.099473,2.8192,-0.57067,-0.29503,2.7222,-0.55998,-0.35538,2.6854,-0.22573,0.13303,2.8075,-0.19879,-0.09725,2.8201,-0.18782,-0.31168,2.75,-0.18665,-0.38787,2.7239,-0.43074,-0.22154,2.7889,-0.43199,-0.59644,2.8558,-0.41279,-0.93909,2.8591,-0.37691,-1.0058,2.8208,-0.29351,-0.2158,2.7886,-0.31441,-0.57186,2.7122,-0.32306,-0.93809,2.7634,-0.32519,-0.97542,2.6797
-0.36227,-0.15212,2.7719,-0.36743,-0.086247,2.7893,-0.38916,0.25074,2.7937,-0.37122,0.43616,2.7633,-0.52391,0.13268,2.7997,-0.57276,-0.10251,2.8068,-0.58356,-0.2948,2.7033,-0.58162,-0.35503,2.6586,-0.22618,0.13125,2.7941,-0.2012,-0.099694,2.8025,-0.17796,-0.31401,2.7346,-0.18309,-0.38368,2.7029,-0.42681,-0.22355,2.7661,-0.4336,-0.60329,2.8365,-0.37436,-0.94829,2.8627,-0.35404,-1.0078,2.7949,-0.28971,-0.21793,2.7661,-0.31646,-0.57084,2.7057,-0.32738,-0.94117,2.7684,-0.32805,-0.97791,2.6843
-0.36391,-0.1541,2.7544,-0.36814,-0.088494,2.7733,-0.3883,0.24864,2.7801,-0.37065,0.43464,2.7467,-0.52452,0.12943,2.7857,-0.57451,-0.10948,2.7943,-0.61155,-0.29455,2.682,-0.61271,-0.35308,2.6376,-0.22651,0.13075,2.7757,-0.20149,-0.090098,2.7798,-0.18498,-0.32649,2.6928,-0.18387,-0.40707,2.6593,-0.42934,-0.22485,2.7466,-0.43958,-0.58136,2.7984,-0.41211,-0.9288,2.8489,-0.39177,-0.98273,2.7858,-0.29159,-0.22068,2.7495,-0.31924,-0.58854,2.6936,-0.32482,-0.94674,2.7639,-0.32669,-0.98323,2.6798
-0.36662,-0.15678,2.7348,-0.36962,-0.09127,2.7554,-0.38702,0.24644,2.7633,-0.37496,0.42985,2.7272,-0.52567,0.1271,2.7731,-0.58061,-0.11203,2.7831,-0.62755,-0.29073,2.6636,-0.64907,-0.35152,2.604,-0.22646,0.12999,2.7553,-0.19697,-0.12246,2.7446,-0.18471,-0.32524,2.6704,-0.18314,-0.41126,2.6384,-0.43275,-0.22715,2.7281,-0.44521,-0.61141,2.777,-0.41515,-0.93567,2.8422,-0.41774,-0.97171,2.7595,-0.29508,-0.22452,2.7276,-0.3183,-0.59355,2.6806,-0.32335,-0.94423,2.7615,-0.32741,-0.98059,2.6774
-0.36913,-0.16092,2.7111,-0.37213,-0.095094,2.7332,-0.38951,0.24492,2.7397,-0.37359,0.42723,2.7106,-0.52753,0.12372,2.7541,-0.59206,-0.11926,2.7559,-0.66225,-0.29804,2.6316,-0.6803,-0.34734,2.5809,-0.22682,0.1267,2.7359,-0.19565,-0.12401,2.7276,-0.17991,-0.32241,2.6259,-0.18502,-0.40713,2.5933,-0.43446,-0.23,2.7048,-0.44505,-0.6358,2.7356,-0.39194,-0.96445,2.8677,-0.34878,-1.0527,2.8928,-0.29809,-0.22928,2.7036,-0.3296,-0.59805,2.6628,-0.3248,-0.94833,2.7625,-0.329,-0.98468,2.6784
-0.36901,-0.16078,2.6909,-0.37127,-0.095989,2.7161,-0.38742,0.24286,2.7266,-0.37568,0.42476,2.6937,-0.5273,0.12116,2.7357,-0.59399,-0.11668,2.7459,-0.67706,-0.28398,2.614,-0.69954,-0.34573,2.5706,-0.22567,0.12258,2.7131,-0.19334,-0.14992,2.6843,-0.17272,-0.34638,2.593,-0.17956,-0.40596,2.5723,-0.43622,-0.22996,2.6818,-0.43081,-0.63237,2.6863,-0.39396,-0.96205,2.8428,-0.37149,-1.0503,2.9052,-0.29734,-0.23127,2.6832,-0.335,-0.60399,2.6502,-0.3355,-0.95322,2.7729,-0.34084,-0.98911,2.6887
-0.37219,-0.16236,2.6697,-0.37303,-0.097657,2.6964,-0.38693,0.24166,2.706,-0.38045,0.42467,2.6779,-0.52709,0.11873,2.7162,-0.59715,-0.11583,2.7286,-0.69376,-0.27677,2.6047,-0.7294,-0.32474,2.5576,-0.22842,0.12335,2.6855,-0.19217,-0.14755,2.6697,-0.17903,-0.33235,2.5531,-0.18327,-0.40763,2.5154,-0.43935,-0.22976,2.6661,-0.45482,-0.601,2.6301,-0.36562,-0.93859,2.842,-0.40959,-0.98946,2.7404,-0.30155,-0.23281,2.6567,-0.32831,-0.62107,2.6372,-0.34019,-0.95613,2.7733,-0.34275,-1.0077,2.7121
-0.37879,-0.16105,2.6501,-0.37787,-0.096232,2.6767,-0.38758,0.24148,2.6781,-0.38429,0.42166,2.6553,-0.53277,0.11755,2.6978,-0.60667,-0.10608,2.7105,-0.72625,-0.25673,2.5883,-0.76316,-0.31309,2.5465,-0.23014,0.12413,2.6575,-0.18817,-0.14054,2.6367,-0.17859,-0.32031,2.5104,-0.18652,-0.39433,2.4663,-0.44719,-0.22767,2.649,-0.4789,-0.58283,2.5828,-0.42478,-0.92819,2.7347,-0.43399,-0.9852,2.6726,-0.30856,-0.23258,2.6367,-0.31831,-0.62108,2.6237,-0.34498,-0.96001,2.7615,-0.34575,-1.0146,2.7075
-0.37993,-0.15692,2.6278,-0.37916,-0.091739,2.6538,-0.38985,0.24578,2.6506,-0.39145,0.42615,2.6342,-0.53686,0.1193,2.6695,-0.61505,-0.099359,2.6994,-0.73994,-0.2485,2.5825,-0.78305,-0.29725,2.5376,-0.2311,0.12758,2.6276,-0.18925,-0.12104,2.5999,-0.1784,-0.30452,2.4805,-0.18818,-0.37663,2.4336,-0.44914,-0.22497,2.6301,-0.48218,-0.57947,2.5542,-0.4401,-0.91904,2.6622,-0.45013,-0.97189,2.6014,-0.30835,-0.22795,2.6137,-0.31286,-0.61888,2.6153,-0.37045,-0.95765,2.7174,-0.36651,-1.0341,2.7067
-0.38585,-0.14088,2.5995,-0.38355,-0.076942,2.6266,-0.39405,0.25688,2.6256,-0.403,0.43686,2.6066,-0.54342,0.1266,2.6501,-0.62611,-0.08558,2.6806,-0.75729,-0.23169,2.5757,-0.81315,-0.27783,2.5335,-0.23578,0.1503,2.5956,-0.19041,-0.10735,2.5779,-0.17744,-0.27537,2.4367,-0.19331,-0.33106,2.3948,-0.45529,-0.21094,2.604,-0.48618,-0.55521,2.5111,-0.45302,-0.92953,2.5801,-0.46713,-0.96614,2.4973,-0.31476,-0.21204,2.5824,-0.31715,-0.59408,2.5914,-0.35315,-0.93457,2.7356,-0.36726,-0.97118,2.6529
-0.39478,-0.13056,2.5754,-0.3929,-0.064399,2.6002,-0.40886,0.27593,2.5916,-0.41334,0.45204,2.5812,-0.55522,0.14244,2.6248,-0.63484,-0.071585,2.6652,-0.77699,-0.20598,2.5593,-0.82669,-0.24661,2.5172,-0.24923,0.15869,2.5632,-0.19429,-0.087281,2.5365,-0.1834,-0.26063,2.4012,-0.196,-0.31231,2.3657,-0.46242,-0.19987,2.5826,-0.4867,-0.53921,2.4898,-0.46822,-0.91259,2.4878,-0.47981,-0.96365,2.4254,-0.32459,-0.20073,2.5565,-0.35669,-0.56957,2.5644,-0.33767,-0.90045,2.7247,-0.35336,-0.93796,2.6426
-0.4022,-0.1139,2.5478,-0.40029,-0.048585,2.5744,-0.41622,0.28972,2.5729,-0.42154,0.46601,2.5578,-0.5621,0.15951,2.5978,-0.64218,-0.060278,2.6478,-0.79366,-0.19117,2.5456,-0.83775,-0.22224,2.5062,-0.25774,0.17475,2.5356,-0.19817,-0.067945,2.515,-0.18455,-0.23796,2.3768,-0.19821,-0.29574,2.3408,-0.46889,-0.18166,2.5541,-0.49068,-0.5248,2.4629,-0.48464,-0.88151,2.4137,-0.50066,-0.91842,2.3314,-0.3321,-0.18281,2.5289,-0.30779,-0.55659,2.5706,-0.31779,-0.90019,2.7165,-0.33382,-0.9371,2.6342
-0.41482,-0.098959,2.5108,-0.41254,-0.034326,2.5391,-0.43145,0.3036,2.5425,-0.43544,0.47966,2.5276,-0.57051,0.17239,2.5745,-0.65753,-0.042489,2.6222,-0.81559,-0.18134,2.5243,-0.85838,-0.22473,2.4951,-0.2685,0.18795,2.505,-0.20636,-0.045758,2.4935,-0.18634,-0.21608,2.3559,-0.20284,-0.28525,2.3202,-0.48163,-0.16704,2.5147,-0.48738,-0.52062,2.4495,-0.50025,-0.84945,2.3531,-0.5183,-0.88598,2.271,-0.34376,-0.16772,2.4921,-0.29255,-0.59882,2.5996,-0.31491,-0.89129,2.7037,-0.32007,-0.94872,2.6625
-0.42294,-0.092496,2.4837,-0.42082,-0.027871,2.5127,-0.44324,0.30944,2.5156,-0.44355,0.48449,2.5113,-0.58586,0.18066,2.5488,-0.66277,-0.037083,2.6059,-0.82534,-0.17569,2.5083,-0.86344,-0.20283,2.4828,-0.28558,0.19801,2.4759,-0.21287,-0.042108,2.4666,-0.19474,-0.21197,2.328,-0.20914,-0.28319,2.304,-0.48919,-0.1626,2.4892,-0.49455,-0.50973,2.4027,-0.50857,-0.83232,2.3213,-0.52781,-0.86906,2.2397,-0.35134,-0.16051,2.463,-0.30774,-0.5691,2.5503,-0.31253,-0.86737,2.6676,-0.33177,-0.9041,2.586
-0.43465,-0.099263,2.4448,-0.43188,-0.035747,2.4792,-0.4512,0.3053,2.496,-0.45619,0.48284,2.4856,-0.59431,0.17357,2.5196,-0.68205,-0.040924,2.5826,-0.83342,-0.17508,2.4955,-0.877,-0.20385,2.4668,-0.29714,0.19523,2.4545,-0.22033,-0.044942,2.4417,-0.20156,-0.21829,2.3076,-0.21818,-0.28245,2.2835,-0.50177,-0.16806,2.4425,-0.50578,-0.52503,2.3594,-0.48126,-0.84741,2.3303,-0.53076,-0.86149,2.2056,-0.36349,-0.16592,2.425,-0.39052,-0.5766,2.4401,-0.32594,-0.87876,2.6466,-0.34369,-0.91419,2.5641
-0.44783,-0.1133,2.4096,-0.44426,-0.050477,2.4455,-0.45996,0.29096,2.4634,-0.46583,0.4699,2.4659,-0.6067,0.16053,2.4896,-0.68613,-0.050434,2.5643,-0.85758,-0.19666,2.4666,-0.90588,-0.23106,2.4451,-0.31245,0.17369,2.427,-0.23259,-0.06509,2.4208,-0.20705,-0.23696,2.2865,-0.22749,-0.30091,2.2559,-0.51372,-0.17823,2.4106,-0.51608,-0.53142,2.3139,-0.51689,-0.82844,2.2582,-0.53376,-0.86367,2.1753,-0.37887,-0.18156,2.3889,-0.38999,-0.56818,2.397,-0.3263,-0.87625,2.6029,-0.34317,-0.91148,2.5201
-0.45982,-0.12955,2.3816,-0.45613,-0.067518,2.4207,-0.46866,0.27338,2.4409,-0.47456,0.44851,2.436,-0.61673,0.13787,2.4652,-0.70657,-0.078363,2.5272,-0.8746,-0.22403,2.44,-0.92893,-0.26322,2.4146,-0.31694,0.15978,2.4127,-0.24047,-0.079085,2.398,-0.21415,-0.25126,2.2642,-0.231,-0.32054,2.2378,-0.52699,-0.19718,2.3783,-0.52177,-0.55104,2.27,-0.51966,-0.84035,2.2387,-0.534,-0.87523,2.1552,-0.39185,-0.19728,2.3596,-0.353,-0.60619,2.3671,-0.30443,-0.90847,2.5864,-0.31877,-0.94335,2.5029
-0.46738,-0.14192,2.3531,-0.4636,-0.081294,2.3955,-0.47274,0.2622,2.4249,-0.47829,0.43718,2.4205,-0.62419,0.12386,2.4424,-0.72456,-0.096461,2.4994,-0.87219,-0.24161,2.4249,-0.9291,-0.29103,2.402,-0.32069,0.13996,2.3951,-0.24931,-0.092962,2.3854,-0.22257,-0.27109,2.254,-0.23949,-0.3524,2.2247,-0.53526,-0.20997,2.3448,-0.49548,-0.564,2.2409,-0.54683,-0.85422,2.2039,-0.50516,-0.97379,2.1583,-0.39912,-0.20972,2.3328,-0.318,-0.62109,2.3692,-0.32059,-0.91817,2.5335,-0.21506,-1.0342,2.5904
-0.47118,-0.14454,2.3349,-0.46835,-0.08501,2.3786,-0.4792,0.25363,2.4062,-0.48843,0.43147,2.3931,-0.63,0.11792,2.4273,-0.73512,-0.10451,2.4625,-0.87144,-0.26355,2.3986,-0.90869,-0.31185,2.3812,-0.32518,0.13723,2.386,-0.26667,-0.11821,2.3638,-0.23127,-0.29977,2.2476,-0.24094,-0.3594,2.225,-0.53776,-0.21254,2.3266,-0.51678,-0.56432,2.2192,-0.54226,-0.85754,2.202,-0.55193,-0.89136,2.1189,-0.4032,-0.21238,2.3139,-0.33824,-0.58732,2.2705,-0.28248,-0.94348,2.5002,-0.31403,-0.96558,2.4061
-0.47692,-0.14294,2.3146,-0.47517,-0.084745,2.3607,-0.48357,0.25344,2.3931,-0.49235,0.433,2.3792,-0.63363,0.11828,2.4047,-0.73349,-0.10244,2.4241,-0.85969,-0.28119,2.3716,-0.89453,-0.32778,2.3636,-0.32944,0.13876,2.3772,-0.26941,-0.085745,2.3697,-0.23588,-0.29338,2.2565,-0.24149,-0.36493,2.2279,-0.54333,-0.21108,2.3042,-0.52455,-0.57116,2.2034,-0.54364,-0.86763,2.1995,-0.4936,-0.92246,2.2187,-0.40927,-0.20971,2.2946,-0.34601,-0.56206,2.2243,-0.33812,-0.89212,2.3425,-0.31474,-0.95241,2.3047
-0.48196,-0.14092,2.2937,-0.48185,-0.083253,2.3418,-0.48786,0.25665,2.3783,-0.49132,0.43674,2.3646,-0.6363,0.1237,2.3779,-0.72945,-0.09753,2.4023,-0.83689,-0.28948,2.3339,-0.86427,-0.34971,2.3207,-0.33704,0.1404,2.3657,-0.27757,-0.11311,2.3657,-0.24195,-0.28174,2.269,-0.24273,-0.34527,2.2428,-0.54716,-0.20593,2.2791,-0.51538,-0.57734,2.1886,-0.5454,-0.87468,2.2032,-0.49177,-0.92898,2.2107,-0.41582,-0.2067,2.2764,-0.36222,-0.57734,2.1854,-0.36933,-0.89239,2.2637,-0.34029,-0.90398,2.2204
-0.48569,-0.13937,2.2782,-0.48673,-0.082267,2.3282,-0.49049,0.25946,2.3682,-0.48886,0.43878,2.3437,-0.63528,0.12796,2.3599,-0.72401,-0.1043,2.3716,-0.82482,-0.29084,2.3149,-0.84691,-0.35158,2.2952,-0.34059,0.14211,2.3585,-0.28305,-0.11271,2.3644,-0.24842,-0.28339,2.2686,-0.25603,-0.33917,2.2362,-0.55055,-0.20191,2.2593,-0.5416,-0.57045,2.184,-0.54044,-0.86233,2.1977,-0.53881,-0.89571,2.1139,-0.42016,-0.20501,2.2638,-0.3719,-0.56692,2.1458,-0.38784,-0.8522,2.1662,-0.40768,-0.8719,2.0277
-0.49001,-0.13849,2.2625,-0.49169,-0.081234,2.3132,-0.49469,0.26191,2.3526,-0.48965,0.44052,2.33,-0.63727,0.13238,2.3441,-0.71925,-0.10413,2.3491,-0.79587,-0.2935,2.2646,-0.81407,-0.35052,2.254,-0.34763,0.14465,2.3475,-0.29004,-0.10937,2.3623,-0.23954,-0.31227,2.2617,-0.24139,-0.38411,2.2523,-0.55408,-0.20064,2.2434,-0.54421,-0.5631,2.1786,-0.51795,-0.84693,2.2027,-0.53907,-0.89607,2.1115,-0.4252,-0.20332,2.2502,-0.40543,-0.56766,2.1094,-0.42183,-0.82614,2.03,-0.42046,-0.85951,1.9462
-0.49469,-0.13823,2.2464,-0.4968,-0.080843,2.2981,-0.49882,0.26435,2.3377,-0.49023,0.44151,2.3139,-0.63681,0.13597,2.3275,-0.71398,-0.099909,2.3173,-0.7801,-0.29805,2.2404,-0.78875,-0.36249,2.214,-0.35634,0.15212,2.3367,-0.29646,-0.10399,2.3603,-0.31369,-0.2855,2.2086,-0.24409,-0.38411,2.2566,-0.55687,-0.19868,2.2285,-0.54602,-0.56845,2.1785,-0.52008,-0.85245,2.2011,-0.54167,-0.89691,2.1114,-0.43209,-0.20117,2.2339,-0.39831,-0.5394,2.0664,-0.43834,-0.80149,1.9495,-0.43944,-0.83489,1.8657
-0.49662,-0.13591,2.2344,-0.49975,-0.078946,2.2867,-0.5015,0.26557,2.326,-0.48939,0.4434,2.3027,-0.63828,0.13889,2.3157,-0.7114,-0.096726,2.2961,-0.75169,-0.29856,2.2018,-0.76245,-0.36414,2.1757,-0.35244,0.15443,2.3305,-0.29913,-0.10399,2.3585,-0.24952,-0.30913,2.2676,-0.24704,-0.38253,2.263,-0.55889,-0.19676,2.2156,-0.5486,-0.56699,2.1756,-0.53966,-0.86303,2.1928,-0.53639,-0.89632,2.109,-0.43377,-0.19884,2.2215,-0.4307,-0.5238,2.0576,-0.45279,-0.77992,1.8802,-0.44953,-0.81321,1.7965
-0.49655,-0.13342,2.2212,-0.50068,-0.076938,2.2735,-0.50298,0.26516,2.3112,-0.4929,0.44339,2.2855,-0.63942,0.13863,2.3053,-0.70606,-0.091005,2.2788,-0.7283,-0.28259,2.1761,-0.72563,-0.35048,2.1374,-0.35111,0.15607,2.3259,-0.304,-0.10141,2.3564,-0.24974,-0.30846,2.2686,-0.24768,-0.38124,2.2637,-0.55881,-0.19413,2.202,-0.55354,-0.54552,2.1593,-0.54236,-0.82966,2.1865,-0.53501,-0.88732,2.1067,-0.43344,-0.19684,2.2087,-0.43443,-0.50817,2.0261,-0.46592,-0.75119,1.827,-0.45889,-0.79546,1.7648
-0.49651,-0.13336,2.2121,-0.50101,-0.076969,2.265,-0.50367,0.26547,2.3024,-0.49284,0.44316,2.2716,-0.63845,0.1382,2.2904,-0.69892,-0.088074,2.2591,-0.70645,-0.27473,2.1448,-0.69584,-0.33963,2.1034,-0.35448,0.15897,2.3134,-0.30631,-0.10086,2.354,-0.25026,-0.30821,2.2688,-0.24816,-0.38083,2.2635,-0.55854,-0.1931,2.1944,-0.57164,-0.54889,2.1633,-0.52749,-0.82948,2.1816,-0.53834,-0.8742,2.104,-0.43349,-0.19611,2.1994,-0.44118,-0.49679,1.996,-0.48,-0.73306,1.7774,-0.4689,-0.7731,1.7129
-0.49689,-0.13074,2.2072,-0.50136,-0.074508,2.26,-0.50281,0.26333,2.2897,-0.49415,0.44094,2.2561,-0.6379,0.13638,2.2784,-0.69474,-0.090579,2.242,-0.6915,-0.27165,2.1187,-0.67341,-0.33067,2.0731,-0.35092,0.15257,2.3003,-0.30792,-0.10061,2.3518,-0.25063,-0.3077,2.2691,-0.24827,-0.37997,2.2637,-0.56114,-0.19087,2.1875,-0.57407,-0.5432,2.1567,-0.5137,-0.84191,2.1962,-0.54187,-0.86014,2.0973,-0.43258,-0.19581,2.1956,-0.44325,-0.4879,1.9651,-0.48189,-0.72504,1.7577,-0.48426,-0.755,1.6872
-0.49767,-0.12926,2.199,-0.50199,-0.073025,2.2511,-0.50274,0.26156,2.2749,-0.49249,0.44046,2.2468,-0.63748,0.13498,2.2709,-0.68987,-0.090232,2.2266,-0.66746,-0.25965,2.089,-0.65202,-0.3211,2.0474,-0.34805,0.1522,2.2926,-0.30946,-0.10014,2.3458,-0.31878,-0.27079,2.1846,-0.24652,-0.37792,2.2624,-0.56313,-0.19,2.1812,-0.56082,-0.54271,2.136,-0.51394,-0.84062,2.1955,-0.47456,-0.89086,2.1253,-0.432,-0.19574,2.1872,-0.45015,-0.49283,1.9347,-0.49142,-0.75391,1.7152,-0.48367,-0.68048,1.6946
-0.50066,-0.12691,2.1899,-0.50444,-0.071396,2.2423,-0.50109,0.26067,2.265,-0.4905,0.43936,2.2341,-0.63573,0.13526,2.2604,-0.68574,-0.089822,2.2163,-0.6578,-0.25495,2.0741,-0.63192,-0.31988,2.0149,-0.34156,0.15135,2.2843,-0.30818,-0.10175,2.3352,-0.24808,-0.30958,2.2666,-0.24512,-0.37919,2.2607,-0.56926,-0.18701,2.1708,-0.57871,-0.52404,2.1223,-0.519,-0.84829,2.1822,-0.48339,-0.91108,2.1037,-0.43428,-0.19617,2.1789,-0.45909,-0.48684,1.9204,-0.49881,-0.73943,1.6951,-0.48092,-0.66747,1.7146
-0.50199,-0.12565,2.1818,-0.50428,-0.070707,2.2346,-0.49958,0.26013,2.2577,-0.49178,0.43879,2.2187,-0.63416,0.13478,2.2517,-0.68106,-0.08973,2.2038,-0.64058,-0.24917,2.0394,-0.62316,-0.31371,2.0005,-0.34447,0.1502,2.2678,-0.30694,-0.10398,2.3166,-0.24181,-0.31291,2.2589,-0.24057,-0.37467,2.2562,-0.57116,-0.18585,2.1632,-0.56113,-0.53751,2.1251,-0.51888,-0.84803,2.1801,-0.54368,-0.85312,2.0902,-0.43564,-0.19539,2.1704,-0.45987,-0.492,1.8942,-0.52057,-0.769,1.6966,-0.48965,-0.69896,1.7008
-0.49956,-0.12409,2.1741,-0.50263,-0.069573,2.2272,-0.5004,0.26031,2.2501,-0.49175,0.43904,2.211,-0.63372,0.13615,2.2431,-0.67846,-0.087308,2.1976,-0.63422,-0.24143,2.0325,-0.61124,-0.29586,1.9787,-0.34384,0.15092,2.2601,-0.30491,-0.10435,2.3028,-0.36565,-0.22863,2.1892,-0.23339,-0.36694,2.2236,-0.569,-0.18508,2.1565,-0.56097,-0.53544,2.1196,-0.51466,-0.84705,2.1746,-0.47782,-0.91109,2.0931,-0.43116,-0.19351,2.1613,-0.46687,-0.44601,1.9187,-0.49811,-0.71249,1.7123,-0.49756,-0.73313,1.6385
-0.49959,-0.12404,2.1628,-0.50234,-0.069379,2.2162,-0.50014,0.26199,2.2397,-0.48804,0.44218,2.2009,-0.63296,0.13708,2.2357,-0.67486,-0.092319,2.18,-0.62303,-0.24322,2.0223,-0.60977,-0.27701,1.985,-0.34205,0.14978,2.2505,-0.30407,-0.10102,2.2897,-0.30986,-0.26349,2.1515,-0.23082,-0.3657,2.2143,-0.56936,-0.18463,2.1456,-0.56107,-0.53351,2.114,-0.51314,-0.84454,2.174,-0.48075,-0.90567,2.0923,-0.43105,-0.194,2.15,-0.46173,-0.46108,1.9108,-0.48251,-0.7727,1.721,-0.47693,-0.80662,1.6348
-0.49957,-0.12162,2.1552,-0.50103,-0.066878,2.2088,-0.49799,0.26481,2.2313,-0.48598,0.44319,2.193,-0.63176,0.13892,2.2294,-0.67358,-0.094409,2.1734,-0.62878,-0.24325,2.0176,-0.60778,-0.2842,1.9814,-0.33904,0.15129,2.2377,-0.30467,-0.091692,2.2735,-0.24213,-0.2734,2.1869,-0.22681,-0.36524,2.1838,-0.56965,-0.18195,2.1388,-0.57072,-0.51727,2.0948,-0.51446,-0.84284,2.1709,-0.53674,-0.85117,2.0848,-0.43141,-0.19266,2.1418,-0.46208,-0.46312,1.9106,-0.47292,-0.78507,1.7331,-0.46922,-0.81915,1.6469
-0.4991,-0.11779,2.1458,-0.49883,-0.06318,2.1996,-0.49495,0.26792,2.2208,-0.4846,0.44637,2.1848,-0.62975,0.14235,2.2208,-0.67392,-0.091207,2.1704,-0.63085,-0.24399,2.0183,-0.6089,-0.28744,1.9793,-0.33941,0.15554,2.2206,-0.27804,-0.091553,2.2349,-0.22421,-0.29051,2.1745,-0.2166,-0.36217,2.1406,-0.56946,-0.179,2.1307,-0.57181,-0.51632,2.0922,-0.51453,-0.84213,2.1708,-0.54021,-0.85141,2.0834,-0.43174,-0.18867,2.131,-0.46143,-0.46587,1.9165,-0.47003,-0.79194,1.7324,-0.46753,-0.82606,1.6461
-0.49544,-0.11662,2.136,-0.49496,-0.062103,2.1904,-0.49251,0.27009,2.2135,-0.48385,0.44779,2.1761,-0.62932,0.14313,2.2133,-0.67324,-0.089645,2.1646,-0.6363,-0.25116,2.0206,-0.61814,-0.29252,1.9769,-0.33683,0.15507,2.2099,-0.27723,-0.098467,2.2141,-0.23368,-0.30437,2.1219,-0.22757,-0.36442,2.0979,-0.5657,-0.17936,2.12,-0.57122,-0.51918,2.0876,-0.51333,-0.84312,2.1699,-0.48932,-0.90207,2.0887,-0.42742,-0.18733,2.1209,-0.46279,-0.47098,1.9298,-0.46011,-0.81327,1.7649,-0.45956,-0.84747,1.6784
-0.4968,-0.11335,2.1262,-0.49495,-0.05924,2.1811,-0.48958,0.27233,2.2044,-0.48198,0.44925,2.1684,-0.62758,0.14529,2.2058,-0.67367,-0.089762,2.1642,-0.65146,-0.25908,2.0274,-0.64106,-0.32577,1.9871,-0.33321,0.1546,2.1981,-0.27417,-0.08818,2.1999,-0.23326,-0.29073,2.1154,-0.22745,-0.36349,2.0909,-0.56906,-0.17616,2.11,-0.56986,-0.5173,2.0772,-0.50862,-0.83766,2.1747,-0.48382,-0.88839,2.0999,-0.42905,-0.18603,2.1102,-0.46011,-0.48888,1.9409,-0.45767,-0.83424,1.802,-0.4578,-0.87317,1.7154
-0.49652,-0.11573,2.1156,-0.49392,-0.061128,2.171,-0.48748,0.27324,2.1964,-0.48048,0.45053,2.1608,-0.62414,0.14593,2.1963,-0.67492,-0.089495,2.1646,-0.66228,-0.26546,2.0352,-0.66395,-0.33466,1.9968,-0.32876,0.15377,2.1847,-0.27198,-0.093061,2.1763,-0.2343,-0.29345,2.0867,-0.22638,-0.36881,2.0637,-0.56814,-0.17866,2.102,-0.56916,-0.52019,2.0755,-0.50003,-0.83654,2.1723,-0.47357,-0.87687,2.0956,-0.4299,-0.18636,2.0973,-0.47395,-0.50766,1.9688,-0.4029,-0.82853,1.8093,-0.40535,-0.8629,1.7229
-0.4935,-0.11997,2.1018,-0.48991,-0.064584,2.1567,-0.48428,0.2717,2.179,-0.47681,0.44953,2.1529,-0.62168,0.14641,2.1892,-0.67607,-0.092358,2.1621,-0.69095,-0.28117,2.0527,-0.68894,-0.34032,2.0168,-0.3248,0.15168,2.1701,-0.26915,-0.097799,2.1578,-0.23534,-0.29302,2.0575,-0.22775,-0.36633,2.0284,-0.56348,-0.18585,2.0888,-0.56323,-0.55285,2.0755,-0.52869,-0.83032,2.1619,-0.46353,-0.88986,2.0949,-0.42794,-0.18838,2.0839,-0.45756,-0.51392,1.9698,-0.41665,-0.86784,1.8633,-0.41969,-0.90654,1.7759
-0.49104,-0.12412,2.0929,-0.48613,-0.067899,2.1476,-0.47974,0.27157,2.1686,-0.47096,0.44855,2.1435,-0.61708,0.1459,2.1811,-0.67808,-0.094729,2.1584,-0.70094,-0.29135,2.0649,-0.7078,-0.35026,2.0447,-0.32233,0.14806,2.1552,-0.26742,-0.10407,2.1403,-0.23145,-0.2938,2.0298,-0.22947,-0.36708,1.9975,-0.56127,-0.18929,2.0831,-0.56257,-0.55851,2.0741,-0.5217,-0.82375,2.1611,-0.54461,-0.73967,2.1375,-0.4261,-0.19134,2.0737,-0.45883,-0.52016,1.9745,-0.39564,-0.8782,1.8931,-0.39905,-0.91548,1.8069
-0.48725,-0.12489,2.0853,-0.48226,-0.068495,2.1403,-0.47676,0.27198,2.1616,-0.46694,0.44863,2.1364,-0.61465,0.14632,2.1747,-0.67563,-0.089244,2.1551,-0.70599,-0.28996,2.0777,-0.71846,-0.36114,2.0636,-0.32028,0.14844,2.1474,-0.26375,-0.10453,2.1266,-0.23218,-0.29168,2.0063,-0.22884,-0.36499,1.975,-0.5573,-0.19083,2.0741,-0.56181,-0.5569,2.068,-0.48806,-0.8199,2.1232,-0.5081,-0.71988,2.0812,-0.42211,-0.19329,2.0663,-0.46621,-0.53057,1.981,-0.39379,-0.88306,1.8892,-0.39513,-0.91872,1.8032
-0.48306,-0.12395,2.0798,-0.47888,-0.067681,2.1349,-0.47378,0.27241,2.156,-0.46536,0.44961,2.1312,-0.60854,0.14757,2.1618,-0.67537,-0.089165,2.1534,-0.71538,-0.29285,2.0915,-0.72558,-0.36068,2.0812,-0.31959,0.14955,2.1391,-0.2632,-0.10197,2.1174,-0.23322,-0.2873,1.9882,-0.23305,-0.35818,1.953,-0.55241,-0.189,2.0654,-0.55027,-0.56214,2.0793,-0.5177,-0.82779,2.1553,-0.4906,-0.81872,2.0337,-0.41811,-0.19295,2.0631,-0.46779,-0.53077,1.983,-0.39361,-0.88201,1.8903,-0.39245,-0.91634,1.804
-0.47975,-0.12311,2.0743,-0.47524,-0.06689,2.1295,-0.47113,0.27379,2.1514,-0.46094,0.45241,2.125,-0.60671,0.14775,2.1578,-0.67459,-0.086434,2.1533,-0.72542,-0.29222,2.1129,-0.73534,-0.36241,2.1085,-0.31785,0.15019,2.1327,-0.26522,-0.1014,2.1057,-0.23605,-0.28298,1.9695,-0.23635,-0.35272,1.9322,-0.54962,-0.18701,2.06,-0.56214,-0.54021,2.0543,-0.5102,-0.82802,2.1536,-0.46016,-0.76117,1.9828,-0.41403,-0.19348,2.0575,-0.47677,-0.53005,1.9891,-0.38019,-0.87509,1.8877,-0.38651,-0.90914,1.8015
-0.47521,-0.12237,2.0696,-0.4706,-0.066058,2.1251,-0.4677,0.27572,2.1478,-0.45691,0.45389,2.1215,-0.60304,0.14931,2.1538,-0.67661,-0.090563,2.1543,-0.72981,-0.29636,2.1195,-0.73845,-0.35881,2.1158,-0.31398,0.15268,2.1268,-0.26691,-0.099722,2.0969,-0.23675,-0.2786,1.9604,-0.23814,-0.34686,1.9203,-0.5443,-0.18591,2.0557,-0.52565,-0.53969,2.0351,-0.47621,-0.84333,2.1525,-0.45195,-0.80895,2.0533,-0.40955,-0.19225,2.0522,-0.48066,-0.53071,1.9912,-0.38023,-0.86996,1.8879,-0.38649,-0.90389,1.8016
-0.47244,-0.12306,2.0667,-0.46746,-0.06642,2.1223,-0.46401,0.27712,2.1451,-0.45524,0.45431,2.1203,-0.59886,0.14992,2.1501,-0.67623,-0.090578,2.1583,-0.73427,-0.29597,2.1306,-0.74017,-0.3553,2.1236,-0.31205,0.15315,2.1216,-0.26751,-0.097072,2.0927,-0.23797,-0.27052,1.9573,-0.24024,-0.34068,1.9096,-0.54169,-0.1863,2.0541,-0.5169,-0.59725,2.0948,-0.48553,-0.86331,2.1702,-0.47703,-0.87431,2.1142,-0.40701,-0.1922,2.048,-0.48124,-0.5312,1.9953,-0.38154,-0.87088,1.8919,-0.3876,-0.90479,1.8056
-0.46994,-0.12274,2.0659,-0.46431,-0.06601,2.1216,-0.46153,0.27832,2.1446,-0.45222,0.45476,2.1198,-0.59744,0.15145,2.1519,-0.67482,-0.08714,2.163,-0.73686,-0.29378,2.136,-0.74041,-0.35163,2.1286,-0.30904,0.15388,2.1189,-0.26651,-0.095563,2.0914,-0.23853,-0.26535,1.9554,-0.24258,-0.33573,1.9043,-0.53877,-0.18607,2.054,-0.51577,-0.597,2.0962,-0.47517,-0.86225,2.1687,-0.46853,-0.8525,2.0703,-0.40478,-0.19184,2.047,-0.47706,-0.54227,2.0052,-0.39182,-0.87793,1.9011,-0.39902,-0.91185,1.8149
-0.46792,-0.12336,2.0666,-0.4612,-0.066412,2.1219,-0.4584,0.27822,2.1435,-0.45039,0.45477,2.1209,-0.59691,0.15066,2.1562,-0.67375,-0.086917,2.1716,-0.73796,-0.29286,2.1404,-0.74129,-0.34998,2.1303,-0.30771,0.15375,2.1174,-0.26517,-0.094562,2.0912,-0.23884,-0.2641,1.9547,-0.24352,-0.3348,1.9033,-0.5367,-0.18732,2.0574,-0.5142,-0.59859,2.1023,-0.46772,-0.86405,2.1702,-0.46495,-0.87456,2.1121,-0.4029,-0.19233,2.0467,-0.47331,-0.54292,2.0106,-0.39507,-0.87874,1.9004,-0.40404,-0.91277,1.8144
-0.46609,-0.12399,2.0705,-0.45801,-0.06676,2.1253,-0.45513,0.27815,2.1453,-0.44868,0.4546,2.1228,-0.59514,0.15037,2.1639,-0.67212,-0.083867,2.1827,-0.73617,-0.29222,2.1426,-0.74163,-0.34863,2.1301,-0.30618,0.15317,2.1176,-0.26161,-0.089271,2.0946,-0.2406,-0.25898,1.9574,-0.24614,-0.32942,1.9056,-0.535,-0.18878,2.0646,-0.52679,-0.55504,2.1019,-0.48242,-0.82566,2.154,-0.45099,-0.81062,2.0598,-0.40161,-0.19265,2.049,-0.47276,-0.54243,2.0168,-0.39199,-0.8725,1.899,-0.40293,-0.90662,1.8133
-0.463,-0.12415,2.0808,-0.45384,-0.066277,2.1343,-0.45207,0.27789,2.1491,-0.44585,0.45526,2.1268,-0.59373,0.1513,2.1744,-0.66934,-0.083724,2.199,-0.7328,-0.28861,2.1439,-0.74068,-0.34201,2.1293,-0.30255,0.15398,2.1213,-0.2613,-0.089524,2.0963,-0.24109,-0.26015,1.9602,-0.24383,-0.3301,1.9115,-0.53238,-0.18979,2.0777,-0.52815,-0.55307,2.1071,-0.4536,-0.84683,2.1463,-0.46786,-0.8367,2.0598,-0.39874,-0.19279,2.0581,-0.49541,-0.53008,2.0418,-0.38798,-0.80568,1.903,-0.40098,-0.83999,1.8176
-0.45866,-0.12488,2.0936,-0.44805,-0.06606,2.1461,-0.44888,0.27841,2.1558,-0.44081,0.45739,2.135,-0.59107,0.1537,2.1879,-0.66735,-0.082118,2.2107,-0.72691,-0.28162,2.1493,-0.74344,-0.35708,2.1195,-0.30212,0.15398,2.1243,-0.26239,-0.090844,2.102,-0.24231,-0.26101,1.9651,-0.24095,-0.32818,1.9206,-0.52753,-0.19094,2.0932,-0.49913,-0.53491,2.089,-0.44991,-0.82763,2.1614,-0.46582,-0.82692,2.0708,-0.39445,-0.19269,2.0705,-0.4208,-0.55068,2.0263,-0.49967,-0.87914,1.8918,-0.5165,-0.91382,1.8073
-0.45295,-0.12365,2.1094,-0.44215,-0.063981,2.1609,-0.44626,0.27997,2.165,-0.43858,0.45908,2.1437,-0.59002,0.15628,2.2,-0.66355,-0.079515,2.2239,-0.72315,-0.27538,2.1499,-0.73221,-0.32471,2.1246,-0.30199,0.15412,2.1313,-0.26339,-0.088677,2.1154,-0.24152,-0.26377,1.9861,-0.23747,-0.32345,1.9388,-0.52203,-0.18959,2.1098,-0.53987,-0.52901,2.1207,-0.44932,-0.82746,2.1663,-0.46543,-0.82685,2.0759,-0.38711,-0.19062,2.088,-0.41363,-0.53112,2.0307,-0.48134,-0.8807,1.9111,-0.51606,-0.90992,1.8164
-0.44946,-0.12109,2.127,-0.43972,-0.060848,2.1773,-0.44482,0.28118,2.1746,-0.43774,0.45931,2.1505,-0.58971,0.1576,2.2116,-0.65809,-0.075927,2.234,-0.71643,-0.26961,2.1526,-0.7357,-0.34993,2.113,-0.29839,0.15647,2.1476,-0.26282,-0.088922,2.1351,-0.24172,-0.26038,2.0002,-0.23389,-0.32089,1.9543,-0.52012,-0.18782,2.1268,-0.5394,-0.52499,2.1333,-0.44846,-0.84478,2.2018,-0.46084,-0.84263,2.1115,-0.3814,-0.18867,2.1079,-0.43091,-0.5487,2.0233,-0.4633,-0.88136,1.9169,-0.49486,-0.91554,1.8258
-0.44799,-0.12224,2.1442,-0.43854,-0.061304,2.1945,-0.44401,0.28222,2.1894,-0.43474,0.45923,2.1631,-0.58819,0.16068,2.2227,-0.65304,-0.074209,2.2456,-0.71064,-0.26472,2.1555,-0.72083,-0.33602,2.1146,-0.29718,0.1558,2.1597,-0.26215,-0.088541,2.1532,-0.24058,-0.26256,2.022,-0.23128,-0.31755,1.9813,-0.51783,-0.18935,2.1412,-0.53574,-0.5305,2.154,-0.47944,-0.83137,2.1816,-0.45641,-0.84852,2.1132,-0.38092,-0.18937,2.1292,-0.40003,-0.51928,2.0345,-0.44032,-0.88358,1.9288,-0.46833,-0.92265,1.8454
-0.4489,-0.12243,2.1595,-0.43959,-0.061172,2.2096,-0.44533,0.28356,2.2038,-0.43482,0.45943,2.178,-0.58922,0.16152,2.2378,-0.65359,-0.071501,2.2577,-0.70317,-0.2606,2.16,-0.71106,-0.32788,2.1186,-0.29676,0.15572,2.1748,-0.25859,-0.083263,2.173,-0.24036,-0.2563,2.0399,-0.23208,-0.30139,2.01,-0.51848,-0.19002,2.1587,-0.53155,-0.52793,2.1624,-0.4823,-0.81488,2.191,-0.47451,-0.82517,2.0996,-0.3818,-0.18931,2.1423,-0.40629,-0.52884,2.0424,-0.40999,-0.81256,1.943,-0.48533,-0.81789,1.9299
-0.44878,-0.12205,2.1743,-0.43988,-0.060659,2.2244,-0.44535,0.2834,2.2168,-0.43544,0.45979,2.194,-0.58817,0.16152,2.2488,-0.6532,-0.074465,2.268,-0.69295,-0.26312,2.1649,-0.69767,-0.30156,2.1388,-0.29523,0.1543,2.1884,-0.25992,-0.088251,2.1903,-0.2366,-0.26332,2.0614,-0.23093,-0.30639,2.0337,-0.51891,-0.18922,2.1737,-0.52734,-0.52848,2.1811,-0.47972,-0.81779,2.1939,-0.4679,-0.83182,2.1035,-0.38113,-0.18964,2.1572,-0.39844,-0.52751,2.0441,-0.40138,-0.81504,1.9655,-0.41657,-0.85019,1.8839
-0.44929,-0.1215,2.1872,-0.43986,-0.060286,2.2369,-0.44456,0.28293,2.2295,-0.43797,0.45923,2.2039,-0.58903,0.16225,2.2637,-0.65245,-0.077565,2.2743,-0.68721,-0.26737,2.1717,-0.68993,-0.30113,2.1486,-0.29657,0.15534,2.201,-0.26036,-0.087546,2.2048,-0.23446,-0.27043,2.0891,-0.23029,-0.31075,2.0554,-0.51989,-0.18865,2.1864,-0.52464,-0.52866,2.191,-0.47692,-0.81792,2.1948,-0.49039,-0.87135,2.1117,-0.38159,-0.18929,2.1701,-0.39213,-0.52847,2.0499,-0.38241,-0.82149,2.0048,-0.3978,-0.85646,1.9231
-0.44824,-0.12206,2.1999,-0.43916,-0.060792,2.2495,-0.44404,0.28193,2.2415,-0.43691,0.45823,2.2162,-0.58771,0.16212,2.2727,-0.65102,-0.079355,2.2823,-0.68052,-0.27173,2.1837,-0.68323,-0.31526,2.1598,-0.29702,0.15646,2.2123,-0.25864,-0.088807,2.2193,-0.23358,-0.27081,2.1015,-0.22794,-0.32261,2.0858,-0.51863,-0.18891,2.1987,-0.52173,-0.52767,2.1977,-0.47239,-0.81649,2.1982,-0.49089,-0.87081,2.1144,-0.38058,-0.18937,2.1838,-0.38684,-0.52744,2.0583,-0.37732,-0.8225,2.0292,-0.3932,-0.85752,1.9477
-0.44639,-0.12194,2.2111,-0.43764,-0.060549,2.2606,-0.44306,0.28302,2.2534,-0.43638,0.45945,2.2296,-0.5851,0.16221,2.2832,-0.64815,-0.081808,2.2916,-0.67734,-0.27502,2.1948,-0.6783,-0.32227,2.184,-0.29665,0.15826,2.2244,-0.25478,-0.088438,2.2345,-0.2308,-0.27684,2.1283,-0.22943,-0.32915,2.1028,-0.51587,-0.18841,2.2109,-0.51649,-0.5322,2.2078,-0.46995,-0.82031,2.2038,-0.48544,-0.85593,2.1209,-0.37922,-0.18836,2.1942,-0.38156,-0.5288,2.0725,-0.36601,-0.83751,2.0781,-0.38155,-0.87244,1.9964
-0.44411,-0.1201,2.2248,-0.4348,-0.058968,2.2745,-0.43871,0.28473,2.2687,-0.43633,0.46194,2.2443,-0.58365,0.16401,2.2969,-0.64567,-0.084674,2.3023,-0.67478,-0.28166,2.2158,-0.67029,-0.32255,2.2152,-0.29434,0.15981,2.2362,-0.25453,-0.09046,2.2439,-0.22843,-0.28118,2.1431,-0.22624,-0.33313,2.1208,-0.515,-0.1875,2.2232,-0.50422,-0.55134,2.2191,-0.46481,-0.83773,2.2153,-0.49795,-0.87868,2.1547,-0.37624,-0.18698,2.2082,-0.377,-0.53193,2.091,-0.35523,-0.85624,2.1304,-0.37206,-0.89127,2.049
-0.44083,-0.12043,2.2341,-0.43181,-0.059191,2.2843,-0.4367,0.28656,2.2808,-0.43222,0.4645,2.2616,-0.58128,0.16495,2.3069,-0.64022,-0.084426,2.3148,-0.67074,-0.28372,2.2343,-0.66786,-0.32557,2.2306,-0.29169,0.1617,2.2473,-0.25195,-0.090896,2.2546,-0.22944,-0.28649,2.1636,-0.22623,-0.33849,2.1418,-0.51128,-0.18791,2.2321,-0.49902,-0.56095,2.2285,-0.45923,-0.84587,2.2226,-0.4946,-0.8743,2.1302,-0.3729,-0.18704,2.2176,-0.37985,-0.55649,2.1353,-0.34813,-0.8553,2.1686,-0.33465,-0.91016,2.1271
-0.43776,-0.12085,2.2435,-0.42907,-0.059452,2.2939,-0.43486,0.28708,2.2906,-0.43175,0.46452,2.2688,-0.57989,0.16644,2.3197,-0.63828,-0.085814,2.3276,-0.66806,-0.28624,2.2511,-0.66728,-0.32411,2.2513,-0.28878,0.16208,2.2604,-0.25002,-0.083158,2.27,-0.22867,-0.28298,2.1801,-0.22503,-0.34448,2.1548,-0.50776,-0.18924,2.2409,-0.49561,-0.56112,2.236,-0.45739,-0.84581,2.2261,-0.41202,-0.92034,2.2114,-0.36995,-0.18725,2.2272,-0.3823,-0.57678,2.1621,-0.35315,-0.87135,2.2219,-0.2803,-0.9749,2.2259
-0.43516,-0.12217,2.2539,-0.42585,-0.06095,2.305,-0.4313,0.28797,2.3057,-0.4297,0.46361,2.2826,-0.5792,0.1667,2.3338,-0.63566,-0.088344,2.3416,-0.66362,-0.29221,2.2759,-0.66651,-0.33977,2.2712,-0.28623,0.1614,2.2706,-0.24773,-0.092687,2.2768,-0.22574,-0.29094,2.1929,-0.22109,-0.35505,2.168,-0.50412,-0.19083,2.2524,-0.49079,-0.55318,2.2448,-0.4538,-0.85122,2.2345,-0.40839,-0.922,2.2156,-0.36855,-0.18835,2.2354,-0.37774,-0.57053,2.1802,-0.35023,-0.87176,2.2452,-0.32823,-0.92388,2.1866
-0.43066,-0.12329,2.2649,-0.42141,-0.062005,2.3163,-0.42721,0.28779,2.3182,-0.42338,0.4657,2.2997,-0.57745,0.16595,2.3451,-0.63018,-0.088145,2.3589,-0.66046,-0.29195,2.293,-0.66274,-0.33864,2.2909,-0.28268,0.16147,2.2818,-0.24344,-0.093814,2.2847,-0.22166,-0.29484,2.2097,-0.21535,-0.35922,2.1822,-0.49959,-0.1923,2.2636,-0.47368,-0.5621,2.2503,-0.46254,-0.85712,2.2331,-0.43133,-0.90685,2.2013,-0.36411,-0.18963,2.2453,-0.36965,-0.57401,2.2036,-0.32916,-0.87711,2.3011,-0.27448,-0.95571,2.3091
-0.42819,-0.12292,2.2755,-0.41833,-0.061685,2.3269,-0.42335,0.28857,2.3296,-0.42066,0.46522,2.313,-0.57381,0.16591,2.3593,-0.62831,-0.097458,2.3701,-0.66238,-0.30551,2.3292,-0.66617,-0.36993,2.3117,-0.279,0.16228,2.2935,-0.2416,-0.098214,2.2911,-0.21787,-0.30072,2.2219,-0.20981,-0.37565,2.1978,-0.49714,-0.19232,2.2751,-0.44814,-0.55524,2.2474,-0.4638,-0.84628,2.235,-0.44079,-0.90024,2.2117,-0.36208,-0.18878,2.2548,-0.36023,-0.58348,2.2329,-0.28979,-0.86481,2.3353,-0.30162,-0.92182,2.3128
-0.42388,-0.12378,2.2874,-0.41439,-0.062734,2.3392,-0.42022,0.2875,2.3433,-0.42061,0.46346,2.3257,-0.56807,0.16481,2.3704,-0.62466,-0.092915,2.3901,-0.65414,-0.30103,2.3419,-0.65444,-0.35177,2.3425,-0.27396,0.16389,2.3067,-0.23637,-0.09724,2.3036,-0.21577,-0.29937,2.2319,-0.20369,-0.38736,2.2093,-0.49246,-0.19253,2.286,-0.43391,-0.55075,2.2511,-0.46343,-0.83853,2.236,-0.46345,-0.89123,2.1806,-0.3579,-0.18979,2.2669,-0.34952,-0.57449,2.2471,-0.2869,-0.88944,2.3839,-0.30335,-0.92479,2.2997
-0.4192,-0.12365,2.3014,-0.4099,-0.062722,2.353,-0.41776,0.28622,2.3561,-0.41343,0.46227,2.3413,-0.56314,0.16442,2.385,-0.61966,-0.095272,2.4006,-0.64843,-0.30352,2.353,-0.65013,-0.35871,2.3593,-0.26669,0.16264,2.3193,-0.23248,-0.10148,2.3116,-0.2146,-0.3051,2.2446,-0.20221,-0.39334,2.2232,-0.48706,-0.19312,2.3017,-0.43111,-0.54665,2.2577,-0.46211,-0.83301,2.2371,-0.47909,-0.86803,2.1543,-0.35313,-0.19029,2.2792,-0.3379,-0.5946,2.2933,-0.30027,-0.92404,2.4918,-0.30178,-0.97937,2.4519
-0.4152,-0.12358,2.3131,-0.40563,-0.063158,2.3649,-0.41266,0.28433,2.3693,-0.40888,0.46125,2.3551,-0.55947,0.16259,2.3996,-0.61396,-0.091613,2.4154,-0.64469,-0.30021,2.3719,-0.64499,-0.35065,2.3701,-0.25939,0.15898,2.3318,-0.22872,-0.10578,2.3202,-0.21069,-0.30992,2.2547,-0.20064,-0.3977,2.2301,-0.48427,-0.19267,2.3134,-0.4305,-0.54302,2.2673,-0.46064,-0.83282,2.2385,-0.47786,-0.86777,2.1557,-0.34834,-0.19183,2.2901,-0.3284,-0.59049,2.3088,-0.30314,-0.91824,2.5059,-0.32036,-0.95319,2.4231
-0.40594,-0.12336,2.3304,-0.39686,-0.06315,2.382,-0.40674,0.28215,2.3849,-0.40468,0.46138,2.3662,-0.5521,0.16039,2.4132,-0.60693,-0.090544,2.4306,-0.63441,-0.29965,2.3881,-0.63651,-0.36681,2.3835,-0.25305,0.15808,2.3457,-0.22058,-0.09121,2.3435,-0.20576,-0.31179,2.2711,-0.1997,-0.38454,2.2478,-0.47529,-0.19269,2.3296,-0.42318,-0.55088,2.2836,-0.46133,-0.82831,2.2494,-0.47862,-0.86335,2.1666,-0.33758,-0.19185,2.3089,-0.31822,-0.56319,2.306,-0.30297,-0.92217,2.522,-0.32025,-0.95721,2.4392
-0.40246,-0.12475,2.3468,-0.39153,-0.065241,2.3986,-0.39913,0.27916,2.4046,-0.40247,0.45899,2.3793,-0.54679,0.15914,2.4322,-0.59878,-0.097339,2.4554,-0.62869,-0.30426,2.4011,-0.62278,-0.36318,2.4048,-0.25105,0.15599,2.357,-0.21497,-0.093578,2.3546,-0.2009,-0.31334,2.2811,-0.19108,-0.3848,2.2605,-0.47235,-0.19398,2.3486,-0.42316,-0.53724,2.2992,-0.45833,-0.8225,2.2513,-0.47774,-0.85737,2.1689,-0.33501,-0.19321,2.322,-0.31389,-0.58371,2.3547,-0.30054,-0.9331,2.5446,-0.31995,-0.96797,2.4622
-0.39369,-0.12753,2.3655,-0.38358,-0.067692,2.4173,-0.39339,0.27658,2.4212,-0.39839,0.45548,2.3928,-0.53898,0.15516,2.4479,-0.59033,-0.10178,2.4694,-0.62223,-0.30776,2.4117,-0.62021,-0.38722,2.4058,-0.24341,0.15301,2.3752,-0.20509,-0.11619,2.3697,-0.19829,-0.31609,2.2882,-0.18795,-0.3855,2.268,-0.4631,-0.19613,2.3668,-0.42377,-0.53789,2.3148,-0.45178,-0.82809,2.2577,-0.47058,-0.86307,2.1752,-0.32578,-0.19709,2.3415,-0.30528,-0.59086,2.3798,-0.30032,-0.94065,2.555,-0.31912,-0.97563,2.4726
-0.38662,-0.12813,2.3879,-0.37601,-0.067986,2.4382,-0.38643,0.27337,2.4358,-0.38619,0.45033,2.4177,-0.53163,0.15332,2.4709,-0.58062,-0.10271,2.4859,-0.61058,-0.30852,2.4273,-0.60819,-0.38763,2.4234,-0.23495,0.1513,2.3948,-0.20105,-0.11793,2.378,-0.19092,-0.32063,2.3037,-0.18544,-0.39284,2.2753,-0.45718,-0.19672,2.3887,-0.41569,-0.53392,2.3374,-0.4505,-0.83198,2.2631,-0.4701,-0.86734,2.181,-0.31746,-0.19856,2.3671,-0.29114,-0.59492,2.4139,-0.30008,-0.94693,2.5656,-0.31968,-0.98229,2.4835
-0.37776,-0.13196,2.4075,-0.36718,-0.070205,2.456,-0.38119,0.27211,2.4474,-0.38165,0.44995,2.4296,-0.52322,0.15247,2.4908,-0.57405,-0.098588,2.506,-0.59595,-0.30625,2.452,-0.59515,-0.38206,2.4405,-0.2305,0.14657,2.4096,-0.1941,-0.12057,2.393,-0.18754,-0.32119,2.3117,-0.18284,-0.4054,2.2755,-0.44682,-0.2016,2.4138,-0.41123,-0.53155,2.353,-0.44647,-0.83331,2.2701,-0.46748,-0.8692,2.1886,-0.30827,-0.20192,2.3853,-0.27761,-0.62767,2.4697,-0.3007,-0.9561,2.5749,-0.32172,-0.99199,2.4933
-0.37499,-0.13301,2.4269,-0.3633,-0.071904,2.4758,-0.37071,0.26952,2.4684,-0.37789,0.44974,2.4435,-0.51733,0.15151,2.5077,-0.56022,-0.10993,2.525,-0.5927,-0.31402,2.46,-0.58659,-0.37677,2.4523,-0.22133,0.14466,2.4266,-0.18533,-0.12239,2.4104,-0.17895,-0.32141,2.3242,-0.17659,-0.39376,2.2943,-0.44545,-0.20252,2.4337,-0.40426,-0.53361,2.3703,-0.44465,-0.83306,2.2794,-0.46538,-0.86872,2.1978,-0.30697,-0.20355,2.402,-0.27476,-0.63436,2.4753,-0.30121,-0.95876,2.5787,-0.32194,-0.99442,2.4971
-0.36751,-0.13517,2.4493,-0.35501,-0.073089,2.4955,-0.36477,0.26661,2.4807,-0.37429,0.446,2.4554,-0.51,0.14879,2.5291,-0.55299,-0.10788,2.5407,-0.58383,-0.31156,2.4745,-0.58421,-0.39263,2.4599,-0.21653,0.1438,2.4408,-0.17636,-0.11816,2.433,-0.16852,-0.31536,2.3426,-0.16622,-0.38366,2.3139,-0.43752,-0.20426,2.4575,-0.39347,-0.53938,2.388,-0.44156,-0.8147,2.2989,-0.46428,-0.851,2.2181,-0.29963,-0.20514,2.4272,-0.27095,-0.63986,2.4907,-0.3016,-0.95405,2.5801,-0.32432,-0.99035,2.4993
-0.36404,-0.13641,2.4681,-0.35231,-0.074646,2.514,-0.3601,0.26343,2.4992,-0.36819,0.44282,2.4711,-0.50426,0.14967,2.5475,-0.54288,-0.10998,2.5597,-0.57286,-0.31339,2.4931,-0.58661,-0.3661,2.4747,-0.20856,0.13864,2.4639,-0.16689,-0.12094,2.4576,-0.16088,-0.31432,2.3578,-0.1585,-0.3796,2.3299,-0.43351,-0.20487,2.479,-0.39292,-0.53976,2.3986,-0.43937,-0.82736,2.3053,-0.46055,-0.86362,2.2241,-0.29731,-0.20665,2.4429,-0.26959,-0.62549,2.4958,-0.30136,-0.95729,2.5837,-0.32254,-0.99355,2.5026
-0.35705,-0.13796,2.4877,-0.34487,-0.075536,2.5316,-0.35304,0.26197,2.5139,-0.36072,0.44394,2.4898,-0.49774,0.14696,2.5641,-0.53446,-0.10984,2.5889,-0.55582,-0.31051,2.5097,-0.56412,-0.38529,2.4865,-0.20492,0.13963,2.4768,-0.16504,-0.12061,2.4679,-0.15542,-0.31504,2.3709,-0.15414,-0.37986,2.3391,-0.42667,-0.2069,2.498,-0.41917,-0.54016,2.4088,-0.43546,-0.84338,2.3155,-0.45793,-0.87994,2.2349,-0.29027,-0.20762,2.4646,-0.26726,-0.62053,2.4982,-0.30213,-0.95777,2.5856,-0.3246,-0.99433,2.5049
-0.35364,-0.13871,2.5036,-0.34168,-0.075936,2.5459,-0.34812,0.26135,2.527,-0.35877,0.44379,2.5035,-0.49079,0.151,2.5807,-0.5331,-0.11002,2.5982,-0.55363,-0.31158,2.5214,-0.56553,-0.37328,2.5093,-0.1997,0.14088,2.4945,-0.15818,-0.12399,2.4917,-0.15037,-0.31336,2.384,-0.14386,-0.38213,2.3623,-0.42235,-0.20647,2.5149,-0.41816,-0.54135,2.4157,-0.43167,-0.86316,2.3462,-0.45389,-0.8999,2.2656,-0.28812,-0.209,2.4809,-0.26513,-0.6208,2.5046,-0.30365,-0.9652,2.5916,-0.32587,-1.0019,2.5111
-0.34806,-0.13854,2.5206,-0.33615,-0.076627,2.5636,-0.34347,0.26032,2.5513,-0.35434,0.44157,2.5152,-0.48912,0.14672,2.5999,-0.52829,-0.11164,2.6198,-0.55131,-0.30918,2.5326,-0.5626,-0.37072,2.5334,-0.19482,0.14357,2.5115,-0.15367,-0.1202,2.5134,-0.13948,-0.3135,2.4137,-0.1353,-0.38319,2.3856,-0.41771,-0.20695,2.5302,-0.4197,-0.54286,2.4209,-0.43169,-0.87781,2.3697,-0.45439,-0.91407,2.2891,-0.28167,-0.20948,2.4964,-0.30421,-0.58229,2.481,-0.3077,-0.93781,2.5815,-0.33039,-0.97408,2.5009
-0.34834,-0.13742,2.5342,-0.33602,-0.075428,2.5761,-0.34357,0.26007,2.5623,-0.35296,0.44164,2.5318,-0.48677,0.14703,2.6162,-0.52543,-0.11393,2.6292,-0.54384,-0.3181,2.5628,-0.56074,-0.37223,2.5566,-0.19508,0.14562,2.5243,-0.14579,-0.11526,2.5338,-0.13574,-0.3075,2.43,-0.13042,-0.37385,2.4072,-0.41729,-0.20592,2.5462,-0.4245,-0.54571,2.4299,-0.42839,-0.89535,2.4216,-0.45217,-0.93179,2.3413,-0.28261,-0.20878,2.5087,-0.27253,-0.57672,2.498,-0.26111,-0.96206,2.5981,-0.28778,-0.99914,2.5177
-0.34833,-0.13497,2.547,-0.33599,-0.073434,2.5892,-0.34023,0.26168,2.5776,-0.35082,0.44283,2.5492,-0.48615,0.14884,2.6317,-0.52244,-0.11459,2.6522,-0.54515,-0.31846,2.5835,-0.56419,-0.3744,2.5748,-0.19232,0.14526,2.5423,-0.14212,-0.11323,2.5482,-0.12552,-0.31421,2.4711,-0.12243,-0.39074,2.437,-0.41811,-0.20416,2.5579,-0.42784,-0.55822,2.4432,-0.41941,-0.92255,2.4782,-0.43753,-0.97277,2.4172,-0.28284,-0.20778,2.5211,-0.27233,-0.58101,2.507,-0.26233,-0.9516,2.5982,-0.29673,-0.97689,2.4875
-0.33637,-0.13267,2.5672,-0.32671,-0.070098,2.6069,-0.33872,0.26374,2.5915,-0.35065,0.44272,2.5586,-0.48399,0.15118,2.65,-0.52172,-0.11212,2.6744,-0.54373,-0.31057,2.5895,-0.5594,-0.37296,2.5975,-0.1874,0.14696,2.5596,-0.13992,-0.1146,2.567,-0.11896,-0.31748,2.4973,-0.11731,-0.37833,2.4731,-0.40496,-0.20359,2.5783,-0.4246,-0.57597,2.4667,-0.40941,-0.9413,2.5345,-0.44001,-0.9966,2.4839,-0.26625,-0.20503,2.544,-0.28999,-0.61471,2.5207,-0.262,-0.96091,2.6071,-0.32001,-1.0067,2.535
-0.3401,-0.13414,2.577,-0.32939,-0.071895,2.6171,-0.33814,0.26452,2.6083,-0.34694,0.44216,2.5736,-0.48348,0.15005,2.6638,-0.52089,-0.11403,2.6839,-0.54344,-0.32048,2.6249,-0.56092,-0.37911,2.6203,-0.18904,0.14786,2.5744,-0.14061,-0.11096,2.5861,-0.10402,-0.31673,2.5423,-0.10749,-0.38458,2.5075,-0.40817,-0.20381,2.588,-0.42847,-0.58327,2.4912,-0.41027,-0.94757,2.5742,-0.43912,-1.001,2.5335,-0.27463,-0.20616,2.5523,-0.28242,-0.62415,2.5379,-0.28349,-0.97356,2.6058,-0.32541,-1.0103,2.5475
