-0.22851,-0.12308,3.2138,-0.22912,-0.054659,3.223,-0.24668,0.29031,3.2377,-0.28818,0.46437,3.1916,-0.39213,0.14986,3.2865,-0.42427,-0.11053,3.2884,-0.43404,-0.33136,3.3206,-0.46763,-0.39308,3.2977,-0.11497,0.17707,3.164,-0.068132,-0.079635,3.1233,-0.061447,-0.29234,3.0723,-0.065392,-0.36948,3.0509,-0.28918,-0.19526,3.2334,-0.24507,-0.58658,3.2111,-0.14365,-0.9501,3.2095,-0.21377,-0.9504,3.1362,-0.1637,-0.19077,3.1802,-0.10785,-0.60717,3.2666,0.12408,-0.91667,3.6123,-0.064676,-0.97356,3.3135
-0.2366,-0.13525,3.2032,-0.23634,-0.067202,3.2124,-0.25302,0.27554,3.2178,-0.28946,0.45675,3.1875,-0.40242,0.13467,3.2721,-0.43283,-0.12662,3.259,-0.44953,-0.3398,3.2971,-0.48353,-0.39198,3.2696,-0.1201,0.1647,3.1505,-0.073646,-0.098495,3.1131,-0.065124,-0.31959,3.067,-0.063821,-0.38836,3.0438,-0.29762,-0.20777,3.2229,-0.23401,-0.58022,3.1806,-0.14074,-0.95485,3.2091,-0.2198,-0.9353,3.1488,-0.17108,-0.20012,3.1734,-0.14123,-0.5917,3.2158,0.092414,-0.82232,3.559,-0.084011,-0.92941,3.2868
-0.23795,-0.13693,3.196,-0.23692,-0.069133,3.2057,-0.25225,0.27091,3.2068,-0.28803,0.45763,3.1838,-0.39991,0.1422,3.2642,-0.42979,-0.12689,3.2723,-0.46145,-0.3356,3.2509,-0.49271,-0.392,3.2427,-0.11838,0.16236,3.1474,-0.075178,-0.087782,3.1165,-0.065274,-0.32203,3.0677,-0.067608,-0.38824,3.0439,-0.29969,-0.21005,3.2146,-0.21643,-0.60374,3.1823,-0.13999,-0.95608,3.2124,-0.19773,-0.9932,3.1721,-0.17363,-0.20274,3.1669,-0.134,-0.61941,3.182,0.1007,-0.83108,3.5534,-0.077384,-0.93054,3.3051
-0.24152,-0.14,3.1872,-0.23927,-0.072632,3.1987,-0.25263,0.26747,3.2022,-0.28594,0.45397,3.1755,-0.4033,0.13753,3.2619,-0.43821,-0.12841,3.2528,-0.47002,-0.3405,3.2298,-0.50779,-0.41008,3.2092,-0.12325,0.15178,3.1392,-0.077176,-0.089309,3.1168,-0.066707,-0.32628,3.0741,-0.068554,-0.3896,3.047,-0.3038,-0.21271,3.206,-0.23026,-0.59337,3.1781,-0.1389,-0.95792,3.2117,-0.19111,-0.99181,3.1695,-0.17744,-0.20624,3.1581,-0.14746,-0.60863,3.2255,0.011319,-0.86087,3.3566,-0.0093282,-0.92519,3.2968
-0.24513,-0.13842,3.1809,-0.24235,-0.07162,3.1935,-0.25451,0.26665,3.1958,-0.28514,0.4516,3.1637,-0.40524,0.1432,3.2549,-0.44242,-0.12398,3.2401,-0.48028,-0.3328,3.203,-0.51087,-0.40428,3.1955,-0.12309,0.15171,3.1373,-0.073219,-0.079965,3.114,-0.062354,-0.3121,3.0846,-0.057982,-0.39344,3.0587,-0.30889,-0.21038,3.1977,-0.23948,-0.58305,3.1822,-0.13568,-0.96314,3.213,-0.18689,-0.99203,3.1686,-0.18017,-0.20506,3.1533,-0.17433,-0.6102,3.132,-0.017102,-0.90986,3.2778,-0.047211,-0.94666,3.2027
-0.24567,-0.13742,3.1756,-0.2432,-0.071171,3.1904,-0.2566,0.2661,3.1942,-0.28354,0.44958,3.156,-0.40831,0.14144,3.2493,-0.44537,-0.12732,3.2245,-0.4815,-0.3309,3.1818,-0.50933,-0.40248,3.152,-0.11932,0.15282,3.1366,-0.076436,-0.087505,3.1236,-0.062563,-0.30829,3.0874,-0.054894,-0.39087,3.0654,-0.30994,-0.21052,3.1902,-0.2422,-0.64353,3.2025,-0.11978,-0.98088,3.2111,-0.19603,-0.99227,3.159,-0.17905,-0.20376,3.1481,-0.17269,-0.60575,3.0814,-0.035605,-0.93011,3.2039,-0.031559,-1.005,3.1782
-0.24628,-0.13617,3.1715,-0.24455,-0.070093,3.1876,-0.25932,0.26709,3.1905,-0.2842,0.44785,3.1378,-0.40968,0.14319,3.2277,-0.44987,-0.12738,3.2096,-0.49143,-0.32445,3.1463,-0.50988,-0.40091,3.1305,-0.11994,0.15351,3.1333,-0.07862,-0.087349,3.1236,-0.06179,-0.30287,3.0884,-0.033901,-0.39947,3.1092,-0.31058,-0.20922,3.185,-0.22821,-0.64433,3.1798,-0.12762,-0.98578,3.2199,-0.19837,-1.0025,3.1723,-0.17881,-0.20237,3.1447,-0.18404,-0.60335,3.0545,-0.096279,-0.93753,3.0791,-0.082444,-0.98191,3.0381
-0.24831,-0.13707,3.1661,-0.24588,-0.071099,3.184,-0.25999,0.2672,3.1892,-0.28451,0.44737,3.1378,-0.41083,0.14103,3.2238,-0.455,-0.12122,3.1876,-0.48495,-0.32407,3.1421,-0.49605,-0.38987,3.0989,-0.12216,0.15306,3.1294,-0.076272,-0.080073,3.1246,-0.10754,-0.29151,3.0706,-0.031479,-0.39944,3.1156,-0.31303,-0.21067,3.1794,-0.25076,-0.63521,3.1787,-0.14129,-0.96716,3.1426,-0.18847,-1.0154,3.1014,-0.18064,-0.20251,3.1398,-0.19563,-0.61116,3.0057,-0.22949,-0.91705,2.7959,-0.14618,-1.0098,2.9399
-0.24837,-0.13729,3.1635,-0.24569,-0.07166,3.1828,-0.26025,0.2665,3.188,-0.28594,0.44728,3.1363,-0.41125,0.14106,3.2216,-0.45563,-0.11552,3.1764,-0.47979,-0.32418,3.112,-0.49224,-0.39277,3.0873,-0.12249,0.1536,3.1286,-0.078312,-0.081139,3.125,-0.10542,-0.30239,3.0833,-0.029267,-0.39958,3.1214,-0.31335,-0.21087,3.1764,-0.26003,-0.61572,3.1477,-0.15239,-0.97062,3.1333,-0.16833,-1.0152,3.0512,-0.18041,-0.20256,3.1375,-0.2002,-0.60606,2.9657,-0.27334,-0.88494,2.6895,-0.18767,-0.97617,2.841
-0.24871,-0.1374,3.1609,-0.2459,-0.07205,3.1816,-0.25973,0.26601,3.1864,-0.28671,0.44788,3.1354,-0.41307,0.14076,3.2144,-0.45712,-0.093964,3.1815,-0.47103,-0.31635,3.0825,-0.47954,-0.35914,3.0545,-0.12185,0.15434,3.1292,-0.097306,-0.081207,3.1258,-0.034828,-0.31434,3.1466,-0.028857,-0.3959,3.1314,-0.31421,-0.21163,3.1719,-0.26117,-0.61816,3.1456,-0.16234,-0.97318,3.0492,-0.18396,-1.04,3.0145,-0.18064,-0.20196,3.1359,-0.21468,-0.58701,2.9363,-0.30495,-0.83972,2.6556,-0.21752,-0.94743,2.7717
-0.24746,-0.13741,3.1588,-0.24507,-0.072298,3.1807,-0.25976,0.26583,3.1851,-0.28868,0.44468,3.1327,-0.4128,0.13891,3.2076,-0.44976,-0.094291,3.1755,-0.4597,-0.29699,3.0708,-0.47179,-0.35415,3.0356,-0.12037,0.15577,3.1312,-0.075224,-0.10413,3.1604,-0.037338,-0.35027,3.1509,-0.033249,-0.40759,3.1291,-0.31264,-0.21307,3.1667,-0.26069,-0.61858,3.1437,-0.16769,-0.98613,3.1367,-0.17815,-1.0495,3.1083,-0.17906,-0.20077,3.135,-0.2251,-0.56945,2.9263,-0.26046,-0.87789,2.7124,-0.27909,-0.921,2.6351
-0.24732,-0.13652,3.1549,-0.24493,-0.071727,3.1784,-0.26043,0.26605,3.1836,-0.28791,0.44691,3.133,-0.4128,0.13868,3.2068,-0.45008,-0.094455,3.1682,-0.4552,-0.30167,3.0631,-0.4657,-0.36693,3.0103,-0.11946,0.15602,3.1331,-0.096787,-0.084291,3.1302,-0.12062,-0.29288,3.0662,-0.11526,-0.33495,3.0614,-0.31284,-0.21292,3.1616,-0.21318,-0.64524,3.1828,-0.17247,-0.96695,3.1476,-0.18696,-1.0389,3.1132,-0.17843,-0.19921,3.1327,-0.24139,-0.57176,2.8935,-0.28804,-0.86601,2.6529,-0.30727,-0.90167,2.5738
-0.24721,-0.13423,3.1511,-0.24513,-0.069275,3.1753,-0.26651,0.26772,3.178,-0.29175,0.44963,3.1336,-0.41254,0.13969,3.2065,-0.45042,-0.091974,3.1656,-0.44689,-0.29782,3.0444,-0.46091,-0.36467,3.0046,-0.12156,0.15752,3.1313,-0.09623,-0.080124,3.1237,-0.04432,-0.30665,3.1336,-0.046942,-0.35546,3.1195,-0.31247,-0.21173,3.1572,-0.26567,-0.60795,3.1303,-0.17117,-0.95992,3.1476,-0.18232,-1.0283,3.1139,-0.17774,-0.19409,3.1287,-0.24907,-0.53831,2.8862,-0.30968,-0.81036,2.6344,-0.32937,-0.84617,2.5555
-0.24992,-0.1286,3.1469,-0.24643,-0.064899,3.1727,-0.26693,0.26872,3.1779,-0.29417,0.45159,3.1314,-0.41309,0.1429,3.2072,-0.43982,-0.08496,3.1535,-0.44129,-0.28996,3.0455,-0.44492,-0.34868,2.9952,-0.12688,0.16148,3.1249,-0.092153,-0.074559,3.1182,-0.054502,-0.30583,3.1026,-0.038211,-0.40973,3.1466,-0.31476,-0.20723,3.155,-0.23225,-0.644,3.1661,-0.16672,-0.96185,3.145,-0.18294,-1.0298,3.1123,-0.18122,-0.18597,3.121,-0.25948,-0.51741,2.8766,-0.32011,-0.78448,2.6286,-0.34201,-0.82004,2.5504
-0.25013,-0.12569,3.1434,-0.2464,-0.062069,3.1703,-0.2669,0.27132,3.1767,-0.29556,0.45296,3.1301,-0.41244,0.14508,3.2049,-0.44515,-0.078314,3.1616,-0.43269,-0.28501,3.0422,-0.4351,-0.34774,2.9909,-0.12752,0.16328,3.1239,-0.091041,-0.075174,3.117,-0.057223,-0.30551,3.0992,-0.060669,-0.38207,3.0822,-0.3151,-0.20395,3.1524,-0.22259,-0.63882,3.1722,-0.17457,-0.94747,3.1336,-0.19879,-0.99734,3.0786,-0.18118,-0.18267,3.117,-0.27053,-0.51931,2.8481,-0.33103,-0.77902,2.6179,-0.35272,-0.81442,2.5396
-0.25128,-0.12277,3.1392,-0.24639,-0.060064,3.1684,-0.26436,0.27425,3.1781,-0.2978,0.45659,3.1259,-0.4119,0.14866,3.2051,-0.43443,-0.083964,3.1496,-0.43051,-0.29437,3.0405,-0.42957,-0.38877,2.9913,-0.12824,0.16322,3.122,-0.090928,-0.075416,3.116,-0.064391,-0.30944,3.0764,-0.04278,-0.35579,3.0519,-0.31749,-0.20106,3.1495,-0.22255,-0.63327,3.1673,-0.17078,-0.95379,3.1256,-0.24645,-0.96086,2.993,-0.18206,-0.17875,3.109,-0.27645,-0.51241,2.8414,-0.33389,-0.78188,2.6156,-0.35611,-0.81691,2.5374
-0.25101,-0.1205,3.1363,-0.24622,-0.058607,3.1684,-0.26725,0.27636,3.1807,-0.30106,0.45563,3.1283,-0.41056,0.15358,3.203,-0.43598,-0.080118,3.1545,-0.42579,-0.28432,3.0479,-0.41544,-0.338,3.0114,-0.12859,0.16449,3.1209,-0.089887,-0.073165,3.1036,-0.066748,-0.31186,3.071,-0.048673,-0.39878,3.1123,-0.31639,-0.19854,3.1461,-0.22182,-0.63347,3.1678,-0.17116,-0.95611,3.1183,-0.24711,-0.9649,2.982,-0.18159,-0.17527,3.1038,-0.28139,-0.50061,2.84,-0.33109,-0.79908,2.6249,-0.35714,-0.84126,2.5442
-0.25413,-0.11592,3.1332,-0.2471,-0.054006,3.1661,-0.27187,0.27938,3.1792,-0.31096,0.46387,3.1315,-0.41427,0.16379,3.216,-0.4388,-0.06804,3.1631,-0.42529,-0.28023,3.0547,-0.42794,-0.34179,3.0511,-0.13926,0.17034,3.1111,-0.089139,-0.070511,3.0906,-0.067744,-0.29771,3.0573,-0.050904,-0.3784,3.1038,-0.31731,-0.19564,3.1464,-0.22434,-0.63478,3.16,-0.16853,-0.95231,3.1199,-0.25279,-0.96472,2.9832,-0.18791,-0.16868,3.0953,-0.28599,-0.52755,2.8251,-0.32944,-0.81709,2.6304,-0.35715,-0.85203,2.5543
-0.26103,-0.11071,3.1292,-0.25244,-0.04858,3.1627,-0.27991,0.28428,3.1748,-0.31711,0.4678,3.1329,-0.41698,0.16767,3.222,-0.43602,-0.077442,3.1652,-0.43418,-0.28262,3.0666,-0.4279,-0.34239,3.0509,-0.14532,0.17361,3.1037,-0.089638,-0.067827,3.0848,-0.054691,-0.28991,3.0907,-0.066242,-0.36866,3.0664,-0.32191,-0.19145,3.1462,-0.22541,-0.63269,3.1595,-0.16666,-0.95516,3.1202,-0.19417,-1.0066,3.0695,-0.1966,-0.16443,3.0887,-0.28312,-0.53508,2.8301,-0.31482,-0.83885,2.6548,-0.34142,-0.88726,2.5779
-0.26991,-0.10786,3.1253,-0.25702,-0.045824,3.158,-0.28339,0.28557,3.1684,-0.32741,0.46955,3.1327,-0.42068,0.17319,3.2353,-0.43952,-0.055444,3.1914,-0.44243,-0.27602,3.0912,-0.43769,-0.34569,3.0696,-0.15606,0.17762,3.087,-0.09287,-0.06671,3.0676,-0.08521,-0.26888,3.0179,-0.059118,-0.36543,3.0541,-0.32735,-0.18996,3.1477,-0.22415,-0.63753,3.1542,-0.16473,-0.9546,3.1176,-0.19507,-1.0346,3.1092,-0.21281,-0.1631,3.0785,-0.27918,-0.54673,2.8391,-0.30275,-0.86815,2.6744,-0.34421,-0.91381,2.6051
-0.27681,-0.10705,3.1234,-0.26131,-0.044665,3.1562,-0.28493,0.28874,3.1668,-0.33729,0.47181,3.137,-0.42154,0.17321,3.2377,-0.44293,-0.09659,3.2071,-0.44642,-0.28891,3.101,-0.45693,-0.35446,3.0834,-0.16211,0.17855,3.0782,-0.098537,-0.066518,3.0597,-0.091601,-0.29116,3.0001,-0.064066,-0.38743,3.0478,-0.33419,-0.18939,3.1508,-0.22022,-0.63444,3.1568,-0.1633,-0.96045,3.1067,-0.20451,-0.99597,3.0368,-0.2224,-0.1653,3.0726,-0.26965,-0.56182,2.8564,-0.27798,-0.90045,2.7204,-0.32154,-0.94019,2.6477
-0.28375,-0.10925,3.1238,-0.26561,-0.045886,3.1564,-0.28779,0.29173,3.167,-0.34315,0.4721,3.136,-0.42182,0.17084,3.2398,-0.44054,-0.065409,3.234,-0.47167,-0.28776,3.1803,-0.4958,-0.35797,3.1317,-0.17154,0.17905,3.0707,-0.11353,-0.079542,3.0321,-0.10682,-0.30071,2.9844,-0.10603,-0.36344,2.9633,-0.34003,-0.19082,3.1542,-0.21834,-0.63637,3.1545,-0.16247,-0.95965,3.1066,-0.20656,-0.99523,3.0387,-0.23128,-0.16923,3.0717,-0.25587,-0.56954,2.9018,-0.25159,-0.91996,2.7597,-0.27343,-0.96798,2.6944
-0.28783,-0.11079,3.1246,-0.26776,-0.046529,3.1562,-0.29152,0.2945,3.165,-0.34647,0.47244,3.1364,-0.42094,0.16758,3.2421,-0.43918,-0.089836,3.2483,-0.46924,-0.3137,3.1817,-0.48096,-0.37112,3.1438,-0.18377,0.18062,3.0595,-0.11542,-0.083129,3.0254,-0.11412,-0.29987,2.9686,-0.10686,-0.36617,2.9635,-0.34281,-0.19193,3.1595,-0.20846,-0.63617,3.1602,-0.16074,-0.96409,3.1017,-0.16752,-1.0413,3.1019,-0.23771,-0.17288,3.0704,-0.24,-0.58261,2.9359,-0.21564,-0.94185,2.8291,-0.23309,-0.99471,2.7658
-0.29026,-0.11137,3.126,-0.26825,-0.045978,3.1551,-0.29624,0.29689,3.1588,-0.34972,0.47281,3.1344,-0.42112,0.16429,3.2513,-0.43549,-0.089755,3.2575,-0.47734,-0.31654,3.2163,-0.49329,-0.38701,3.1971,-0.19565,0.17748,3.0477,-0.12285,-0.09088,3.0011,-0.13299,-0.3082,2.952,-0.10834,-0.36342,2.9599,-0.34545,-0.19161,3.1693,-0.20441,-0.63231,3.1567,-0.1594,-0.96666,3.1018,-0.16769,-1.0367,3.0937,-0.24052,-0.17536,3.0695,-0.23113,-0.60003,2.9607,-0.18674,-0.95353,2.8863,-0.19791,-1.006,2.818
-0.29457,-0.11207,3.129,-0.27111,-0.04577,3.1544,-0.29953,0.29752,3.1523,-0.35349,0.47116,3.1332,-0.42462,0.15068,3.2681,-0.42265,-0.09651,3.2847,-0.46903,-0.29965,3.2494,-0.49256,-0.3784,3.2447,-0.20088,0.17744,3.0429,-0.13236,-0.089419,2.9882,-0.14165,-0.30739,2.9403,-0.13353,-0.35663,2.9076,-0.3496,-0.19335,3.1799,-0.19651,-0.62701,3.1474,-0.1573,-0.96601,3.1015,-0.21362,-1.0034,3.044,-0.24502,-0.17873,3.0691,-0.22155,-0.60406,2.9602,-0.16683,-0.96903,2.8909,-0.21198,-1.0031,2.8583
-0.29799,-0.11502,3.131,-0.27545,-0.047631,3.154,-0.30599,0.29702,3.1478,-0.36052,0.46782,3.1314,-0.41233,0.16349,3.2448,-0.40802,-0.095971,3.3164,-0.46119,-0.29908,3.2861,-0.47639,-0.35731,3.3018,-0.20827,0.17645,3.0361,-0.13819,-0.088101,2.98,-0.15423,-0.28936,2.9174,-0.14955,-0.36055,2.9033,-0.35039,-0.19449,3.1821,-0.1846,-0.62708,3.1361,-0.20266,-0.9343,3.0474,-0.20284,-0.98656,3.0244,-0.24853,-0.18293,3.0717,-0.19683,-0.60229,2.9914,-0.1231,-0.9639,2.9686,-0.18926,-1.0155,2.9178
-0.29237,-0.12164,3.1205,-0.27278,-0.052231,3.145,-0.30833,0.29697,3.145,-0.36431,0.46563,3.1271,-0.41226,0.16386,3.2444,-0.42137,-0.12487,3.2987,-0.45092,-0.33002,3.3027,-0.45963,-0.34291,3.3718,-0.21373,0.17523,3.0303,-0.14683,-0.084199,2.9706,-0.16707,-0.28495,2.909,-0.16378,-0.33656,2.9013,-0.33755,-0.20322,3.1605,-0.21082,-0.62222,3.1017,-0.16679,-0.92607,3.0923,-0.17067,-1.0058,3.0632,-0.24307,-0.18488,3.0643,-0.16986,-0.6123,3.0174,-0.085722,-0.97422,3.0357,-0.14102,-1.0189,3.0406
-0.29328,-0.12289,3.1211,-0.27424,-0.052874,3.1442,-0.31173,0.29765,3.1415,-0.3664,0.46573,3.1269,-0.41332,0.16456,3.2416,-0.40733,-0.091952,3.3209,-0.4348,-0.3236,3.3352,-0.44256,-0.33923,3.3869,-0.21706,0.17502,3.0255,-0.14965,-0.078878,2.9679,-0.17748,-0.27651,2.8995,-0.18086,-0.32708,2.8928,-0.33877,-0.20222,3.1615,-0.23384,-0.62812,3.1611,-0.1534,-0.95311,3.0966,-0.19316,-0.99144,3.039,-0.24354,-0.1863,3.0676,-0.16194,-0.62688,3.0814,-0.056141,-1.0156,3.1116,-0.15075,-1.0239,3.0453
-0.29061,-0.12785,3.1185,-0.27252,-0.060323,3.1398,-0.31403,0.27159,3.1323,-0.36997,0.45634,3.1234,-0.41791,0.16581,3.2317,-0.403,-0.080529,3.3292,-0.40957,-0.3465,3.3102,-0.41554,-0.34048,3.4202,-0.21955,0.17592,3.0237,-0.15401,-0.070477,2.9661,-0.19114,-0.26308,2.8879,-0.20718,-0.31658,2.8629,-0.33605,-0.20411,3.1572,-0.21939,-0.62772,3.1487,-0.16298,-0.9513,3.1125,-0.22037,-0.99542,3.0805,-0.24121,-0.18817,3.0686,-0.15391,-0.62251,3.1025,-0.046814,-1.0129,3.146,-0.14552,-1.0336,3.0789
-0.2894,-0.12922,3.1182,-0.27275,-0.061512,3.1385,-0.31613,0.27091,3.1294,-0.37074,0.45475,3.1224,-0.41873,0.16724,3.2285,-0.40137,-0.067752,3.3252,-0.39346,-0.32855,3.268,-0.41042,-0.33762,3.4202,-0.21966,0.17721,3.0229,-0.15818,-0.063779,2.9629,-0.20181,-0.25343,2.8807,-0.21487,-0.31484,2.8624,-0.33457,-0.20524,3.1569,-0.18948,-0.67415,3.1885,-0.16591,-0.94814,3.1122,-0.22283,-0.9874,3.0564,-0.23889,-0.18925,3.0696,-0.14872,-0.619,3.1151,-0.036356,-0.96345,3.1792,-0.1068,-1.0115,3.1187
-0.28898,-0.12809,3.1188,-0.27373,-0.060899,3.1382,-0.31796,0.26907,3.128,-0.37195,0.45266,3.1219,-0.42156,0.16842,3.2248,-0.40208,-0.066168,3.3249,-0.38327,-0.33129,3.2806,-0.40441,-0.335,3.4152,-0.21841,0.17798,3.0226,-0.15899,-0.062642,2.9636,-0.20807,-0.25008,2.8796,-0.23418,-0.29837,2.8593,-0.33375,-0.2046,3.1579,-0.2219,-0.55676,3.1233,-0.12566,-0.97925,3.1715,-0.17126,-1.015,3.1048,-0.23701,-0.18815,3.0714,-0.13466,-0.60679,3.1343,0.059234,-0.97301,3.2379,-0.082306,-0.9825,3.1462
-0.28789,-0.12979,3.1204,-0.27408,-0.062049,3.1382,-0.3188,0.26835,3.1271,-0.3726,0.45146,3.1203,-0.42383,0.16683,3.217,-0.40175,-0.065516,3.323,-0.38434,-0.33886,3.2675,-0.39444,-0.44925,3.1651,-0.21985,0.17688,3.0215,-0.15679,-0.059529,2.9691,-0.22009,-0.23883,2.8719,-0.25639,-0.27952,2.8433,-0.33198,-0.20708,3.1608,-0.22479,-0.55242,3.1366,-0.13092,-0.98587,3.1737,-0.16713,-1.0235,3.1048,-0.23459,-0.18958,3.0747,-0.12713,-0.60322,3.1473,0.084303,-0.97145,3.2999,-0.025503,-0.99193,3.2
-0.28545,-0.13213,3.1232,-0.27781,-0.061609,3.1401,-0.32509,0.29386,3.119,-0.37467,0.45723,3.1175,-0.42737,0.16645,3.1926,-0.40591,-0.056535,3.3036,-0.38999,-0.32326,3.2601,-0.3977,-0.43628,3.1788,-0.21676,0.17841,3.022,-0.14908,-0.055569,2.9808,-0.22046,-0.22741,2.8772,-0.25891,-0.27445,2.8478,-0.32814,-0.20681,3.1639,-0.1919,-0.60277,3.1635,-0.12433,-0.97211,3.1793,-0.17215,-1.0162,3.1127,-0.23202,-0.19045,3.0797,-0.10346,-0.62931,3.1753,0.1291,-0.93368,3.3337,0.0099078,-0.96037,3.2209
-0.28183,-0.13249,3.1263,-0.27706,-0.061357,3.1407,-0.32445,0.2942,3.1184,-0.37229,0.46106,3.1153,-0.42762,0.17224,3.2008,-0.40531,-0.056709,3.301,-0.39555,-0.32388,3.2416,-0.39622,-0.43788,3.18,-0.21182,0.18185,3.0253,-0.14673,-0.056477,2.9872,-0.22264,-0.22717,2.8837,-0.25267,-0.2669,2.8595,-0.3245,-0.20592,3.1661,-0.19635,-0.61374,3.174,-0.16818,-0.94816,3.1266,-0.21387,-0.98862,3.062,-0.22675,-0.18941,3.0867,-0.12849,-0.59848,3.165,0.11198,-0.9187,3.3765,0.030906,-0.95755,3.2664
-0.27829,-0.13165,3.1293,-0.27525,-0.060469,3.1421,-0.32307,0.29371,3.1196,-0.37172,0.46066,3.1142,-0.43183,0.16998,3.1878,-0.40723,-0.063493,3.2696,-0.39726,-0.32867,3.2352,-0.39366,-0.43834,3.1816,-0.20574,0.1824,3.0324,-0.12665,-0.052357,3.0162,-0.20047,-0.22341,2.9107,-0.23388,-0.25857,2.8719,-0.32192,-0.20415,3.1676,-0.21065,-0.58987,3.1707,-0.16742,-0.94326,3.1297,-0.21098,-0.98385,3.0637,-0.22178,-0.1879,3.0919,-0.084689,-0.55652,3.1762,0.054494,-0.82949,3.3398,0.060966,-0.92229,3.3033
-0.27304,-0.13163,3.1357,-0.27136,-0.062393,3.1476,-0.31286,0.26737,3.1277,-0.36904,0.45873,3.1132,-0.43162,0.16986,3.1873,-0.40876,-0.062252,3.2658,-0.40299,-0.35185,3.2125,-0.39934,-0.43354,3.1989,-0.19833,0.18227,3.0392,-0.11699,-0.053679,3.0319,-0.17536,-0.23987,2.959,-0.20252,-0.27674,2.9103,-0.31706,-0.20334,3.1719,-0.20884,-0.59014,3.1723,-0.12459,-0.95908,3.1874,-0.21058,-0.97042,3.0682,-0.2157,-0.18709,3.1005,-0.037768,-0.58234,3.2012,0.12838,-0.90585,3.4172,0.0899,-0.89349,3.357
-0.26919,-0.12961,3.1383,-0.27002,-0.061498,3.1495,-0.31273,0.26754,3.1296,-0.36712,0.45667,3.1146,-0.43177,0.16967,3.1876,-0.41012,-0.066812,3.258,-0.4165,-0.32691,3.2166,-0.40443,-0.43251,3.2066,-0.18523,0.18791,3.0567,-0.09297,-0.057374,3.0602,-0.14732,-0.24191,2.974,-0.15671,-0.28972,2.956,-0.31462,-0.20212,3.1726,-0.19425,-0.60034,3.1825,-0.16783,-0.93398,3.1391,-0.20385,-0.97407,3.0684,-0.20903,-0.18436,3.1051,-0.043026,-0.56048,3.1987,0.043316,-0.84271,3.3771,0.0012697,-0.89347,3.3087
-0.2629,-0.12506,3.143,-0.26558,-0.056579,3.1543,-0.31569,0.29401,3.1382,-0.35369,0.45748,3.1203,-0.43176,0.16479,3.1901,-0.41895,-0.099896,3.2244,-0.42984,-0.305,3.1701,-0.42963,-0.39156,3.1505,-0.17563,0.19093,3.068,-0.076062,-0.056685,3.0874,-0.11606,-0.26268,3.022,-0.11563,-0.31882,3.0012,-0.31088,-0.19687,3.174,-0.177,-0.62156,3.1964,-0.16493,-0.94093,3.1413,-0.19778,-0.9808,3.0691,-0.19732,-0.1811,3.1142,-0.020862,-0.58072,3.2426,0.12706,-0.89808,3.4579,-0.046671,-0.92784,3.264
-0.25389,-0.12151,3.1496,-0.25772,-0.052746,3.1608,-0.31018,0.29382,3.1457,-0.34985,0.45911,3.1276,-0.43049,0.16522,3.193,-0.41967,-0.10188,3.2228,-0.43635,-0.29507,3.1496,-0.44968,-0.35609,3.1108,-0.16892,0.19095,3.08,-0.059839,-0.054524,3.1181,-0.070836,-0.25384,3.0632,-0.12999,-0.31137,2.9976,-0.3031,-0.19217,3.1769,-0.17687,-0.61291,3.1953,-0.15995,-0.93678,3.1457,-0.19026,-0.97651,3.0723,-0.18714,-0.17884,3.122,-0.023482,-0.59888,3.2575,0.12475,-0.91083,3.4796,0.0076786,-0.90327,3.3341
-0.24825,-0.11832,3.1601,-0.25333,-0.050091,3.1693,-0.30596,0.29174,3.151,-0.34337,0.45782,3.1326,-0.42877,0.15833,3.2016,-0.4225,-0.068782,3.2268,-0.42223,-0.31173,3.1744,-0.43865,-0.34777,3.089,-0.15524,0.18964,3.0953,-0.041119,-0.053826,3.1452,-0.025171,-0.28342,3.1203,-0.01435,-0.32316,3.0983,-0.3001,-0.18985,3.1869,-0.18246,-0.60598,3.2143,-0.15913,-0.93987,3.1445,-0.18657,-0.97986,3.0701,-0.17818,-0.17904,3.1344,-0.068586,-0.60898,3.2557,0.095701,-0.91316,3.4774,-0.0053066,-0.90771,3.3319
-0.24161,-0.11706,3.1691,-0.24741,-0.049071,3.1764,-0.29936,0.29013,3.1562,-0.33832,0.46292,3.1396,-0.4278,0.15801,3.2085,-0.42311,-0.067377,3.2265,-0.4278,-0.30414,3.136,-0.43947,-0.35699,3.1068,-0.14812,0.18825,3.1062,-0.030751,-0.04854,3.1707,0.03023,-0.26572,3.1708,0.056336,-0.32324,3.1652,-0.29436,-0.18909,3.1933,-0.15867,-0.61879,3.2206,-0.15884,-0.94205,3.1422,-0.16578,-1.0096,3.122,-0.17108,-0.17825,3.147,-0.067748,-0.61304,3.2613,0.091721,-0.91753,3.4858,0.014813,-0.93484,3.376
-0.23618,-0.11489,3.1811,-0.24251,-0.047277,3.1891,-0.28806,0.29038,3.1758,-0.32969,0.46095,3.1552,-0.42548,0.15677,3.2111,-0.41782,-0.09999,3.2249,-0.44682,-0.27662,3.1202,-0.46435,-0.32634,3.0795,-0.13385,0.18838,3.1281,-0.014828,-0.048517,3.1895,0.062645,-0.25826,3.207,0.091831,-0.31694,3.2099,-0.29146,-0.18793,3.2001,-0.14385,-0.65018,3.2491,-0.1583,-0.92736,3.1655,-0.16387,-0.99446,3.1443,-0.16386,-0.17723,3.162,-0.070446,-0.61916,3.2694,0.080967,-0.94413,3.4721,-0.0015659,-0.95111,3.3566
-0.22411,-0.11578,3.1953,-0.23177,-0.048372,3.2012,-0.27915,0.28757,3.1836,-0.31936,0.46009,3.1673,-0.41589,0.15503,3.2233,-0.41362,-0.090143,3.2408,-0.45383,-0.26302,3.1113,-0.47318,-0.28997,3.0638,-0.1188,0.18683,3.1494,0.01045,-0.039914,3.2219,0.086463,-0.24843,3.251,0.11201,-0.30556,3.2504,-0.2811,-0.1893,3.2133,-0.1583,-0.61482,3.2251,-0.14525,-0.94137,3.1865,-0.16502,-0.99086,3.1076,-0.14943,-0.17785,3.1792,-0.10164,-0.56986,3.2328,0.070239,-0.94607,3.4687,-0.0010506,-0.93528,3.3506
-0.21251,-0.11851,3.2088,-0.22099,-0.051152,3.2142,-0.26903,0.28466,3.1988,-0.30583,0.45357,3.1784,-0.40302,0.15278,3.2287,-0.41267,-0.09077,3.2414,-0.48421,-0.23575,3.0957,-0.50519,-0.28499,3.0444,-0.10606,0.18759,3.1665,0.02677,-0.033731,3.2473,0.12015,-0.24002,3.2923,0.15308,-0.30103,3.2883,-0.27152,-0.19138,3.2221,-0.15574,-0.62442,3.2297,-0.14851,-0.93795,3.1787,-0.16366,-0.99193,3.1025,-0.13653,-0.17977,3.1956,-0.068349,-0.64659,3.2997,0.064567,-0.97399,3.4783,-0.0051384,-0.94286,3.3525
-0.19728,-0.11729,3.2271,-0.20622,-0.050863,3.23,-0.25502,0.27948,3.2094,-0.29258,0.44857,3.1948,-0.39179,0.14769,3.2506,-0.40464,-0.097688,3.2526,-0.49166,-0.22789,3.0854,-0.51576,-0.26591,3.0357,-0.092116,0.18752,3.1833,0.0347,-0.034205,3.2619,0.13572,-0.23061,3.3247,0.17759,-0.2931,3.3573,-0.25589,-0.19219,3.2406,-0.16902,-0.59791,3.208,-0.14715,-0.93683,3.1814,-0.16243,-0.99188,3.106,-0.11993,-0.17963,3.2169,-0.10402,-0.64188,3.288,0.041031,-0.98002,3.4391,-0.02729,-0.93081,3.3049
-0.18872,-0.12068,3.2483,-0.19594,-0.054634,3.2516,-0.23538,0.27525,3.2373,-0.27866,0.44985,3.2104,-0.38062,0.14933,3.2647,-0.39812,-0.076273,3.2691,-0.4723,-0.20495,3.1038,-0.50126,-0.2418,3.0478,-0.088562,0.1852,3.1925,0.044012,-0.023482,3.2903,0.14405,-0.23132,3.3432,0.18739,-0.2938,3.373,-0.24709,-0.1928,3.2633,-0.15069,-0.61835,3.2478,-0.15415,-0.9355,3.1598,-0.17226,-0.97461,3.0823,-0.11518,-0.18327,3.2349,-0.067043,-0.65408,3.3211,0.024854,-0.98914,3.4567,-0.036031,-0.9369,3.3166
-0.17513,-0.1248,3.2695,-0.18351,-0.05883,3.2703,-0.22679,0.26995,3.2474,-0.25664,0.4438,3.2294,-0.36687,0.14561,3.2811,-0.37883,-0.077293,3.2958,-0.45735,-0.20408,3.1379,-0.49346,-0.22657,3.0657,-0.059977,0.17503,3.2275,0.064609,-0.041151,3.3106,0.15221,-0.23268,3.3593,0.20541,-0.28199,3.393,-0.23357,-0.19913,3.2847,-0.15117,-0.61932,3.2518,-0.14374,-0.93406,3.1928,-0.16042,-0.98298,3.113,-0.099778,-0.18755,3.2597,-0.065795,-0.66326,3.3247,0.010541,-0.98835,3.4739,-0.020233,-0.95536,3.3693
-0.16761,-0.12761,3.2873,-0.17469,-0.061868,3.288,-0.21323,0.26511,3.2676,-0.24745,0.44151,3.2387,-0.34731,0.14569,3.3148,-0.36663,-0.077044,3.3195,-0.42603,-0.23257,3.1717,-0.45673,-0.2176,3.1439,-0.056427,0.17467,3.2366,0.065061,-0.042259,3.3135,0.14883,-0.23405,3.361,0.20592,-0.28384,3.3955,-0.22551,-0.20018,3.3053,-0.16265,-0.61148,3.2587,-0.17322,-0.91546,3.1784,-0.17983,-0.9727,3.1122,-0.0949,-0.19145,3.273,-0.079851,-0.64999,3.3345,0.0072448,-0.99275,3.485,-0.038193,-0.94138,3.3493
-0.15645,-0.13259,3.3085,-0.16348,-0.067489,3.3078,-0.19895,0.25649,3.2844,-0.22983,0.42964,3.2523,-0.33419,0.13963,3.3306,-0.33552,-0.099858,3.3699,-0.42362,-0.25236,3.1953,-0.47169,-0.27055,3.1662,-0.0361,0.16462,3.2619,0.07584,-0.048937,3.3349,0.14017,-0.24622,3.3646,0.21675,-0.29723,3.4208,-0.21572,-0.20441,3.3278,-0.20266,-0.57036,3.2197,-0.1599,-0.91366,3.1825,-0.17657,-0.95381,3.1055,-0.083069,-0.19861,3.2949,-0.070887,-0.65232,3.3711,0.0033228,-1.0161,3.5212,-0.028952,-0.96861,3.3942
-0.14912,-0.13414,3.3306,-0.15425,-0.068272,3.3304,-0.1783,0.2613,3.3132,-0.21598,0.43303,3.2706,-0.32144,0.14193,3.3455,-0.31103,-0.11427,3.4145,-0.40944,-0.26817,3.2349,-0.49064,-0.25186,3.1073,-0.017842,0.1614,3.2787,0.081202,-0.05161,3.3439,0.13148,-0.29025,3.3946,0.1532,-0.35983,3.3849,-0.21193,-0.20487,3.3444,-0.20102,-0.57122,3.2223,-0.15746,-0.95559,3.1807,-0.17682,-1.0046,3.1109,-0.076107,-0.20301,3.3201,-0.069404,-0.6555,3.377,0.0024112,-1.0131,3.5334,-0.035816,-0.95716,3.3897
-0.14231,-0.13652,3.3486,-0.14782,-0.070643,3.3445,-0.17457,0.25807,3.3163,-0.19643,0.4294,3.2989,-0.30713,0.14554,3.365,-0.31787,-0.11924,3.404,-0.3767,-0.27547,3.29,-0.43883,-0.26138,3.1404,-0.0083138,0.15706,3.2884,0.068993,-0.086826,3.3692,0.11845,-0.30297,3.3815,0.12821,-0.37101,3.3662,-0.20312,-0.20646,3.3734,-0.16479,-0.60386,3.2726,-0.16214,-0.95119,3.1788,-0.18049,-0.99194,3.1023,-0.070647,-0.20667,3.3361,-0.021909,-0.64224,3.4525,-0.0017315,-0.99283,3.5219,-0.036653,-0.94793,3.3907
-0.13552,-0.13755,3.3681,-0.13957,-0.072174,3.3636,-0.16145,0.25332,3.3304,-0.19068,0.42418,3.2932,-0.29851,0.14403,3.3895,-0.31152,-0.10789,3.4323,-0.33094,-0.3215,3.3977,-0.33525,-0.39183,3.3854,0.004407,0.15224,3.3028,0.07282,-0.095943,3.3757,0.10437,-0.31819,3.3754,0.096641,-0.39597,3.362,-0.2007,-0.20871,3.3888,-0.16363,-0.58226,3.292,-0.16322,-0.94865,3.1797,-0.18385,-0.98994,3.104,-0.062397,-0.20916,3.359,-0.027471,-0.64756,3.4517,0.0057616,-0.99484,3.5318,-0.022634,-0.96646,3.4278
-0.12631,-0.13731,3.3922,-0.12968,-0.072181,3.3864,-0.14864,0.25212,3.3502,-0.18298,0.42213,3.3068,-0.29079,0.14838,3.4087,-0.30051,-0.10598,3.4488,-0.31977,-0.31733,3.4487,-0.31404,-0.3815,3.4508,0.0040018,0.15091,3.3114,0.064448,-0.10083,3.3771,0.066438,-0.31704,3.3559,0.065838,-0.38874,3.3442,-0.18932,-0.20695,3.4164,-0.1667,-0.59938,3.2866,-0.16173,-0.94924,3.1983,-0.18649,-1.0068,3.1278,-0.056716,-0.20684,3.3797,-0.001727,-0.64489,3.4931,0.0071008,-0.99461,3.5318,-0.021028,-0.96161,3.4267
-0.12082,-0.13604,3.4073,-0.12404,-0.070504,3.4016,-0.13948,0.25542,3.3686,-0.16474,0.42304,3.3212,-0.28257,0.1514,3.4113,-0.28169,-0.079432,3.5235,-0.2876,-0.33631,3.5199,-0.27316,-0.31977,3.6325,0.01423,0.14917,3.3307,0.08781,-0.10598,3.4049,0.051345,-0.3146,3.3422,0.04538,-0.39139,3.3343,-0.18439,-0.20403,3.4282,-0.16881,-0.60187,3.2872,-0.16185,-0.95371,3.2296,-0.18616,-1.0312,3.1709,-0.051422,-0.2043,3.3976,-0.065893,-0.5998,3.414,0.010238,-0.99645,3.5354,-0.047011,-0.97909,3.4235
-0.11695,-0.12931,3.4325,-0.11721,-0.063711,3.4268,-0.11618,0.26419,3.4015,-0.14589,0.43499,3.3535,-0.26466,0.1641,3.4593,-0.27016,-0.059953,3.6032,-0.28419,-0.24099,3.6868,-0.30574,-0.29627,3.7147,0.022112,0.15593,3.3637,0.061132,-0.079249,3.3936,-0.0025997,-0.27179,3.3232,-0.070729,-0.31573,3.2532,-0.18429,-0.19306,3.4551,-0.17541,-0.6207,3.3199,-0.17171,-0.96048,3.3091,-0.16298,-1.0153,3.2895,-0.052059,-0.20187,3.4198,-0.066886,-0.65423,3.4386,0.0061492,-1.0101,3.545,-0.061676,-1.0242,3.4509
-0.11633,-0.12827,3.4371,-0.1165,-0.063,3.4312,-0.11546,0.26289,3.4061,-0.14552,0.43367,3.3568,-0.2623,0.16711,3.4711,-0.26903,-0.057691,3.6216,-0.27224,-0.23159,3.718,-0.31445,-0.27694,3.6965,0.021199,0.15552,3.3691,0.058287,-0.077792,3.3935,-0.014187,-0.26856,3.3203,-0.068801,-0.29039,3.2574,-0.18332,-0.19206,3.4594,-0.19279,-0.60601,3.3189,-0.16311,-0.96852,3.3566,-0.19302,-1.0175,3.2935,-0.051724,-0.19969,3.4243,-0.021686,-0.634,3.4727,0.0059223,-1.0124,3.549,-0.047498,-0.99415,3.4681
-0.11806,-0.12577,3.4432,-0.11809,-0.060353,3.4394,-0.11496,0.26635,3.4278,-0.1435,0.43493,3.374,-0.26201,0.16762,3.4847,-0.27391,-0.054316,3.6289,-0.27548,-0.23449,3.7141,-0.30025,-0.2952,3.713,0.025724,0.15507,3.3794,0.05605,-0.07576,3.3947,-0.023995,-0.25941,3.3201,-0.063602,-0.30013,3.2719,-0.18599,-0.19048,3.4642,-0.19658,-0.59228,3.3388,-0.14754,-0.96777,3.3873,-0.1665,-1.0178,3.3289,-0.052198,-0.19832,3.4272,-0.097671,-0.61781,3.4299,-0.049752,-1.0042,3.4792,-0.10072,-0.99832,3.409
-0.11883,-0.12505,3.446,-0.11867,-0.059732,3.4434,-0.11467,0.2663,3.4347,-0.14285,0.43426,3.3773,-0.25998,0.17428,3.4871,-0.27535,-0.053667,3.6301,-0.28862,-0.23683,3.7095,-0.30613,-0.29962,3.7167,0.027086,0.15514,3.3866,0.055295,-0.075139,3.396,-0.032921,-0.2631,3.3169,-0.096564,-0.29883,3.2286,-0.18707,-0.18979,3.4652,-0.19,-0.56489,3.3672,-0.15648,-0.95139,3.4107,-0.19654,-1.0086,3.368,-0.052738,-0.19755,3.43,-0.080116,-0.63027,3.4524,0.024895,-0.98292,3.5253,-0.085312,-1.0099,3.4519
-0.12171,-0.12229,3.4509,-0.12126,-0.057799,3.4474,-0.11783,0.26448,3.4364,-0.14676,0.43837,3.3839,-0.26199,0.17433,3.4911,-0.27999,-0.059085,3.6311,-0.30854,-0.25157,3.6877,-0.24751,-0.35561,3.4085,0.025629,0.16106,3.3943,0.050819,-0.055386,3.3974,-0.035949,-0.26544,3.3146,-0.067613,-0.3144,3.2669,-0.19013,-0.1871,3.4696,-0.18396,-0.59629,3.3883,-0.15501,-0.96459,3.4519,-0.17852,-1.033,3.4329,-0.055958,-0.19381,3.4361,-0.057818,-0.62279,3.4637,-0.066807,-0.95223,3.4667,-0.092827,-1.032,3.4385
-0.12531,-0.12155,3.4558,-0.12541,-0.056112,3.4528,-0.12567,0.27202,3.4445,-0.14897,0.44566,3.3901,-0.26791,0.17659,3.4925,-0.30658,-0.058772,3.5895,-0.31779,-0.26535,3.6835,-0.25098,-0.35411,3.4131,0.022078,0.16228,3.3972,0.044403,-0.076034,3.4002,-0.034946,-0.26989,3.3187,-0.064897,-0.32123,3.2735,-0.19386,-0.18768,3.4753,-0.17921,-0.62506,3.4194,-0.17605,-0.97287,3.4816,-0.20469,-1.027,3.44,-0.05863,-0.19253,3.4398,-0.062824,-0.61449,3.4669,-0.070394,-0.95103,3.4701,-0.094415,-0.98941,3.394
-0.1288,-0.12322,3.4608,-0.12858,-0.057071,3.4575,-0.12785,0.27345,3.4477,-0.15183,0.45349,3.416,-0.27224,0.17453,3.4928,-0.31569,-0.061365,3.5747,-0.33858,-0.28993,3.6408,-0.35226,-0.34086,3.5695,0.021133,0.1622,3.3995,0.046527,-0.075863,3.4088,-0.025398,-0.25061,3.3137,-0.051885,-0.31902,3.2907,-0.19723,-0.18877,3.4792,-0.18237,-0.62214,3.4237,-0.17447,-0.97014,3.4907,-0.16146,-1.0364,3.4757,-0.06247,-0.19473,3.4456,-0.064137,-0.63011,3.4703,-0.049265,-0.94502,3.4728,-0.072594,-0.98346,3.3963
-0.13231,-0.12531,3.4631,-0.1319,-0.058554,3.4607,-0.13033,0.27567,3.4542,-0.15499,0.45424,3.4177,-0.27617,0.17453,3.4939,-0.33231,-0.066536,3.5445,-0.35978,-0.32671,3.5251,-0.36738,-0.40233,3.4794,0.018182,0.16093,3.4043,0.04176,-0.078276,3.4119,-0.023135,-0.28638,3.3441,-0.035193,-0.34199,3.3011,-0.20052,-0.19066,3.4804,-0.18753,-0.62855,3.448,-0.16944,-0.97969,3.5153,-0.17735,-1.0357,3.4731,-0.066277,-0.19692,3.4472,-0.063882,-0.63078,3.4688,-0.064655,-0.96775,3.4847,-0.070665,-1.0191,3.4291
-0.13515,-0.12984,3.4658,-0.13471,-0.062763,3.4647,-0.13358,0.27316,3.4612,-0.16116,0.44862,3.4154,-0.28426,0.16768,3.495,-0.34181,-0.10603,3.5281,-0.36186,-0.3247,3.5214,-0.3671,-0.40139,3.4771,0.011044,0.15762,3.4073,0.037493,-0.075943,3.4148,-0.01341,-0.29692,3.3511,-0.027952,-0.34949,3.3036,-0.20284,-0.19559,3.4809,-0.19028,-0.63585,3.4692,-0.17229,-0.97956,3.5126,-0.21083,-1.0248,3.4682,-0.069661,-0.20024,3.4501,-0.063998,-0.62953,3.4634,-0.063015,-0.96047,3.4869,-0.057051,-1.041,3.4518
-0.14165,-0.136,3.4697,-0.14174,-0.068722,3.4689,-0.14307,0.26816,3.4627,-0.16827,0.44897,3.4162,-0.29812,0.15517,3.4944,-0.34529,-0.10902,3.5155,-0.37446,-0.32505,3.4843,-0.37056,-0.41182,3.4662,0.0033854,0.15388,3.414,0.027941,-0.090111,3.4301,0.0072128,-0.30114,3.3721,0.00030579,-0.36666,3.3442,-0.20797,-0.20222,3.4843,-0.18977,-0.64008,3.4972,-0.17311,-0.98145,3.5131,-0.20443,-1.0313,3.4733,-0.076251,-0.20544,3.4546,-0.075494,-0.6317,3.4557,-0.066794,-0.97277,3.4688,-0.070048,-1.0264,3.4174
-0.14484,-0.13582,3.4718,-0.14547,-0.068849,3.4704,-0.15321,0.26455,3.4603,-0.17199,0.45037,3.4167,-0.30149,0.15558,3.498,-0.36212,-0.10502,3.4735,-0.37853,-0.31263,3.4314,-0.38254,-0.39713,3.4174,0.00024549,0.15442,3.4195,0.027376,-0.084245,3.44,0.026359,-0.29991,3.3879,0.01954,-0.37062,3.3631,-0.2112,-0.20286,3.4866,-0.19947,-0.61643,3.504,-0.17076,-0.98258,3.513,-0.19408,-1.0367,3.4721,-0.077892,-0.20446,3.4585,-0.080249,-0.62784,3.448,-0.058924,-0.94719,3.4688,-0.062578,-1.0014,3.4183
-0.14805,-0.13648,3.4759,-0.14951,-0.069759,3.4735,-0.15786,0.26251,3.4602,-0.17844,0.44675,3.4149,-0.30364,0.15504,3.4958,-0.34543,-0.098128,3.5029,-0.3828,-0.31941,3.3798,-0.37855,-0.38394,3.3689,-0.0051256,0.15268,3.4243,0.027718,-0.08102,3.4402,0.032662,-0.30491,3.3917,0.03158,-0.37834,3.3686,-0.21356,-0.20374,3.4913,-0.1984,-0.61632,3.5127,-0.17016,-0.98653,3.5216,-0.18735,-1.0369,3.5019,-0.080269,-0.20396,3.4633,-0.092396,-0.61811,3.4277,-0.059658,-0.96911,3.485,-0.072197,-1.029,3.4268
-0.15439,-0.13928,3.4784,-0.15678,-0.072113,3.4754,-0.17072,0.26206,3.4598,-0.18198,0.44233,3.4202,-0.31647,0.14806,3.4944,-0.35054,-0.10194,3.5027,-0.37693,-0.30108,3.4402,-0.37885,-0.38416,3.4334,-0.012994,0.15265,3.426,0.026335,-0.081844,3.4439,0.047077,-0.29926,3.421,0.062757,-0.38201,3.4089,-0.21897,-0.20789,3.494,-0.1943,-0.61983,3.5148,-0.17242,-0.99025,3.5276,-0.15643,-1.0369,3.4821,-0.085616,-0.20541,3.466,-0.0956,-0.61603,3.4214,-0.059882,-0.96604,3.4874,-0.073044,-1.0275,3.4266
-0.15451,-0.13671,3.4784,-0.15761,-0.070289,3.4751,-0.17613,0.26303,3.4586,-0.18293,0.44511,3.4227,-0.31802,0.14947,3.4919,-0.35583,-0.11376,3.4926,-0.38407,-0.29446,3.4099,-0.39245,-0.36404,3.3665,-0.017456,0.15495,3.4258,0.022094,-0.077957,3.4477,0.059657,-0.30252,3.4381,0.067922,-0.38608,3.4208,-0.21881,-0.20595,3.4938,-0.19406,-0.61992,3.5169,-0.17413,-0.98764,3.5328,-0.16566,-1.0378,3.4809,-0.084774,-0.20223,3.4665,-0.094482,-0.61482,3.4116,-0.072884,-0.9533,3.4744,-0.072922,-1.0077,3.425
-0.15469,-0.13651,3.478,-0.15813,-0.070052,3.4744,-0.17818,0.26326,3.4577,-0.19454,0.43831,3.4187,-0.31825,0.15255,3.4906,-0.36201,-0.090288,3.476,-0.39439,-0.27074,3.3654,-0.40533,-0.31947,3.3307,-0.019887,0.1553,3.4252,0.026069,-0.084411,3.4522,0.067101,-0.30448,3.4486,0.076267,-0.38653,3.4249,-0.21855,-0.2059,3.4934,-0.1875,-0.63975,3.5132,-0.17526,-0.98601,3.5345,-0.14183,-1.0408,3.5296,-0.085197,-0.2014,3.4658,-0.091541,-0.61344,3.4069,-0.06693,-0.93643,3.4802,-0.070455,-0.99097,3.4289
-0.15514,-0.13617,3.4742,-0.15917,-0.069744,3.4716,-0.18251,0.26276,3.4583,-0.20065,0.43533,3.4094,-0.32059,0.15116,3.4895,-0.3622,-0.092408,3.4747,-0.41459,-0.23243,3.316,-0.41925,-0.28613,3.2757,-0.021613,0.15547,3.4249,0.037059,-0.08833,3.4579,0.059281,-0.30436,3.4195,0.080398,-0.38744,3.426,-0.21838,-0.2066,3.4875,-0.19092,-0.63272,3.5037,-0.16787,-0.98483,3.5391,-0.18099,-1.0351,3.52,-0.084663,-0.20037,3.4607,-0.094159,-0.61218,3.3993,-0.058041,-0.95358,3.5035,-0.071643,-1.0059,3.4473
-0.15421,-0.13625,3.4696,-0.15924,-0.070089,3.4667,-0.18557,0.26178,3.4559,-0.20408,0.43586,3.4103,-0.32398,0.14833,3.4849,-0.36653,-0.095043,3.456,-0.41992,-0.23044,3.2947,-0.42782,-0.25997,3.2471,-0.025841,0.15633,3.4221,0.034588,-0.092711,3.4468,0.061917,-0.30677,3.4172,0.079537,-0.38626,3.3966,-0.21595,-0.20763,3.4837,-0.16117,-0.65656,3.5627,-0.16293,-0.97911,3.535,-0.16306,-1.031,3.4801,-0.082386,-0.19882,3.4559,-0.10351,-0.60578,3.4004,-0.069739,-0.96518,3.5216,-0.10056,-1.0309,3.5093
