-0.17529,-0.14816,3.0497,-0.17685,-0.081738,3.0645,-0.17373,0.24922,3.039,-0.15666,0.42987,2.9639,-0.30212,0.13465,3.0407,-0.38027,-0.07885,3.0939,-0.40293,-0.2728,3.0793,-0.40137,-0.35602,3.078,-0.029815,0.13597,3.0678,0.028623,-0.092374,3.1429,0.046467,-0.24437,3.1922,0.036164,-0.3983,3.157,-0.23896,-0.2084,3.0388,-0.23435,-0.63853,2.9857,-0.22018,-0.96788,2.9904,-0.22633,-1.0104,2.9238,-0.11381,-0.21575,3.0599,-0.15129,-0.625,3.0232,-0.18055,-0.94544,2.9973,-0.17214,-0.98266,2.919
-0.18005,-0.14912,3.0483,-0.18147,-0.082346,3.0623,-0.17745,0.25106,3.0375,-0.16574,0.43026,2.9615,-0.30576,0.13462,3.0364,-0.37516,-0.067746,3.0675,-0.40596,-0.2766,3.0712,-0.41014,-0.35961,3.0665,-0.039454,0.13921,3.0639,0.025551,-0.092178,3.1433,0.036522,-0.21755,3.1868,0.0096941,-0.35516,3.161,-0.24246,-0.20893,3.0378,-0.23692,-0.63838,2.9854,-0.22076,-0.97032,2.9905,-0.22671,-1.0254,2.9444,-0.11938,-0.21475,3.0587,-0.15297,-0.62606,3.0227,-0.27293,-0.92918,2.9436,-0.17232,-0.98405,2.9193
-0.1865,-0.14895,3.0453,-0.18841,-0.082082,3.0585,-0.18525,0.25218,3.0348,-0.16965,0.43122,2.9596,-0.30952,0.13574,3.0332,-0.37911,-0.10294,3.072,-0.41638,-0.28052,3.0472,-0.41767,-0.36374,3.0457,-0.043046,0.1402,3.0646,0.018036,-0.094204,3.1462,0.0063753,-0.31232,3.1406,0.007546,-0.37459,3.1598,-0.24837,-0.20826,3.0347,-0.2314,-0.6302,3.0099,-0.29452,-0.877,2.9527,-0.22948,-0.97873,2.9251,-0.12605,-0.21346,3.0556,-0.15597,-0.62793,3.0219,-0.18116,-0.94926,2.9982,-0.17139,-0.98643,2.92
-0.18923,-0.14773,3.0432,-0.19104,-0.08107,3.056,-0.18728,0.2526,3.0342,-0.17398,0.43042,2.9581,-0.31269,0.13554,3.0313,-0.38901,-0.083918,3.0522,-0.39427,-0.30531,3.0255,-0.42066,-0.38546,3.016,-0.046418,0.14304,3.0663,0.013403,-0.095961,3.1509,0.0072705,-0.31628,3.144,0.0084411,-0.37855,3.1632,-0.25159,-0.20752,3.0312,-0.19592,-0.69033,3.0288,-0.29494,-0.87623,2.9524,-0.22848,-0.97865,2.9248,-0.129,-0.21304,3.0539,-0.16076,-0.62699,3.0208,-0.18352,-0.94905,2.9972,-0.20834,-1.0015,2.9327
-0.1938,-0.1513,3.041,-0.19567,-0.083936,3.0535,-0.19106,0.25273,3.0336,-0.17528,0.43009,2.9563,-0.31902,0.13436,3.0256,-0.39247,-0.088977,3.0477,-0.3955,-0.31956,3.0234,-0.39265,-0.39113,3.0212,-0.054669,0.13961,3.0658,0.0040388,-0.09284,3.1514,0.038324,-0.20865,3.2179,0.012702,-0.34782,3.2174,-0.25422,-0.20921,3.03,-0.19199,-0.69068,3.0277,-0.29508,-0.8769,2.9515,-0.23418,-0.97642,2.9238,-0.13435,-0.21476,3.0512,-0.16575,-0.62533,3.0178,-0.18468,-0.94786,2.9966,-0.20977,-0.99971,2.9323
-0.19562,-0.15184,3.0391,-0.19818,-0.084482,3.0511,-0.19727,0.25266,3.0323,-0.1784,0.42931,2.9524,-0.32343,0.13302,3.0214,-0.39515,-0.091236,3.0364,-0.3938,-0.32788,2.9957,-0.39458,-0.38982,2.9742,-0.057452,0.13815,3.0656,-0.006844,-0.095421,3.1533,-0.0099508,-0.31446,3.1704,-0.0087802,-0.37673,3.1896,-0.25586,-0.21053,3.0273,-0.25699,-0.64771,2.9739,-0.29759,-0.95394,2.9471,-0.23616,-1.0274,2.9419,-0.13596,-0.21495,3.0492,-0.17032,-0.6266,3.0158,-0.18544,-0.94931,2.9956,-0.2116,-0.9991,2.9306
-0.19774,-0.14985,3.0363,-0.20167,-0.082561,3.0468,-0.20708,0.25193,3.0217,-0.1828,0.43137,2.9489,-0.32976,0.13397,3.0109,-0.39922,-0.090348,3.0107,-0.39454,-0.3132,2.9602,-0.3894,-0.38689,2.9499,-0.040772,0.14774,3.0932,-0.012256,-0.094848,3.1591,-0.0093457,-0.2938,3.18,-0.0081751,-0.35606,3.1992,-0.25915,-0.21014,3.0215,-0.26865,-0.6372,2.9784,-0.29823,-0.94402,2.9475,-0.2363,-1.0097,2.9206,-0.13624,-0.21447,3.0491,-0.17572,-0.62396,3.0156,-0.18761,-0.94747,2.9931,-0.21314,-0.99756,2.929
-0.20093,-0.15106,3.0324,-0.2057,-0.083731,3.0421,-0.20827,0.25099,3.0173,-0.18606,0.43119,2.9441,-0.33541,0.12963,2.9984,-0.40262,-0.098767,2.989,-0.38969,-0.32262,2.9428,-0.38068,-0.39423,2.9231,-0.064769,0.13897,3.0672,-0.015921,-0.10223,3.1642,-0.013963,-0.30237,3.1771,-0.012793,-0.36463,3.1962,-0.26255,-0.21257,3.015,-0.2642,-0.63515,2.9813,-0.22708,-0.97139,2.9882,-0.23334,-1.0097,2.9218,-0.13909,-0.21623,3.0481,-0.17964,-0.62447,3.0166,-0.18796,-0.94796,2.9928,-0.21039,-0.99854,2.9299
-0.20332,-0.15172,3.03,-0.20908,-0.084674,3.0381,-0.2132,0.24726,3.0071,-0.18938,0.42694,2.9319,-0.34156,0.1248,2.9833,-0.40648,-0.0992,2.9741,-0.39414,-0.31474,2.9183,-0.38395,-0.38956,2.8956,-0.051363,0.14604,3.0905,-0.021438,-0.10519,3.1687,-0.010026,-0.3059,3.1732,0.0148,-0.35204,3.1476,-0.26443,-0.21368,3.0124,-0.19685,-0.62964,3.0103,-0.22142,-0.96394,2.9909,-0.22421,-1.0053,2.9263,-0.14133,-0.21681,3.0476,-0.20079,-0.65557,3.0112,-0.18939,-0.96873,2.9909,-0.23577,-1.0364,2.9685
-0.20654,-0.15267,3.0295,-0.21254,-0.085452,3.0361,-0.21638,0.24633,2.9986,-0.1909,0.42568,2.9213,-0.34335,0.12497,2.97,-0.41069,-0.090603,2.9532,-0.39809,-0.30944,2.9014,-0.39041,-0.38629,2.8729,-0.058237,0.14103,3.086,-0.02153,-0.10723,3.1692,-0.0026886,-0.30748,3.1724,0.015381,-0.35896,3.1501,-0.26776,-0.21659,3.0117,-0.19348,-0.665,3.0194,-0.28492,-0.92144,2.9539,-0.22076,-1.005,2.9291,-0.14639,-0.21777,3.0508,-0.19147,-0.63312,3.0314,-0.1889,-0.95642,2.9948,-0.21555,-1.004,2.9395
-0.21296,-0.15598,3.0259,-0.21962,-0.087565,3.0295,-0.22605,0.24791,2.9741,-0.1903,0.42808,2.9091,-0.34129,0.12626,2.95,-0.41273,-0.080138,2.9373,-0.40862,-0.29871,2.8692,-0.39611,-0.38205,2.8583,-0.063119,0.14046,3.082,-0.021486,-0.1059,3.1677,-0.016375,-0.30179,3.1379,0.021762,-0.35906,3.1479,-0.27056,-0.21782,3.0097,-0.19001,-0.66768,3.0316,-0.2171,-0.96277,2.9975,-0.2159,-1.0068,2.9344,-0.15386,-0.21942,3.0499,-0.19549,-0.63358,3.0382,-0.18767,-0.95714,2.9992,-0.1341,-1.0043,2.9518
-0.21906,-0.15254,3.0178,-0.22587,-0.08484,3.0187,-0.23169,0.24496,2.9579,-0.1933,0.42624,2.895,-0.34124,0.12523,2.9349,-0.41601,-0.081227,2.9151,-0.4161,-0.30113,2.8632,-0.40684,-0.38336,2.8507,-0.066647,0.13559,3.0801,-0.020077,-0.10928,3.1671,-0.0021273,-0.29938,3.1285,0.015995,-0.35652,3.1224,-0.27714,-0.2172,3.0018,-0.20013,-0.66833,3.0376,-0.21426,-0.96546,3.0032,-0.21523,-1.009,2.9394,-0.15828,-0.21771,3.0474,-0.19895,-0.63197,3.0555,-0.13718,-0.95002,3.0352,-0.13134,-1.0177,3.0013
-0.22671,-0.14685,3.0126,-0.23222,-0.080454,3.0133,-0.23242,0.24566,2.9544,-0.19136,0.42513,2.8877,-0.33697,0.12084,2.9214,-0.42169,-0.08095,2.9091,-0.425,-0.30199,2.8587,-0.41888,-0.38239,2.847,-0.067424,0.13352,3.0794,-0.017464,-0.11065,3.1632,0.016029,-0.29464,3.1056,0.03864,-0.35619,3.0935,-0.2887,-0.21491,2.9915,-0.18689,-0.64292,3.0556,-0.23638,-0.95407,2.9995,-0.21828,-1.0049,2.9422,-0.16512,-0.21743,3.0479,-0.18205,-0.63205,3.0944,-0.16222,-0.94478,3.0314,-0.107,-0.98728,2.9908
-0.22868,-0.14788,3.0085,-0.23425,-0.08136,3.0089,-0.232,0.24477,2.9488,-0.18845,0.42322,2.8796,-0.33626,0.11954,2.9099,-0.43042,-0.091374,2.8995,-0.45081,-0.29689,2.8572,-0.44656,-0.37598,2.8499,-0.068785,0.13259,3.0771,-0.021722,-0.08162,3.1291,0.023438,-0.28108,3.0819,0.051241,-0.35439,3.0643,-0.2902,-0.21582,2.9865,-0.17876,-0.64467,3.068,-0.24193,-0.95903,2.9974,-0.21895,-1.0082,2.9398,-0.16957,-0.2192,3.0453,-0.18492,-0.63227,3.0963,-0.12895,-0.93618,3.0708,-0.077045,-0.98923,3.0393
-0.24043,-0.14618,2.9957,-0.24367,-0.079963,2.9961,-0.23232,0.2444,2.9387,-0.18677,0.42477,2.8749,-0.33535,0.12222,2.9032,-0.43942,-0.088061,2.8976,-0.47039,-0.2933,2.865,-0.47646,-0.36758,2.8567,-0.071028,0.13207,3.0706,-0.024857,-0.083052,3.1189,0.038039,-0.27548,3.0734,0.064264,-0.35352,3.0499,-0.30425,-0.2105,2.9699,-0.23054,-0.63089,3.036,-0.24873,-0.95369,2.9953,-0.22414,-1.0023,2.9379,-0.18343,-0.21812,3.0347,-0.18538,-0.62351,3.1091,-0.12079,-0.92777,3.1049,-0.061959,-0.96788,3.0798
-0.24493,-0.14741,2.9917,-0.24821,-0.080537,2.9912,-0.23298,0.24614,2.9304,-0.18578,0.42579,2.8648,-0.3365,0.12119,2.8967,-0.45284,-0.077579,2.8968,-0.49673,-0.28988,2.8753,-0.5026,-0.36278,2.8714,-0.09586,0.11655,3.0246,-0.018555,-0.084536,3.1105,0.062203,-0.26617,3.0315,0.081734,-0.34094,3.0169,-0.30907,-0.21069,2.964,-0.22904,-0.63061,3.0334,-0.24928,-0.95388,2.994,-0.22339,-1.0028,2.9373,-0.18771,-0.21934,3.0337,-0.18664,-0.59467,3.1218,-0.12112,-0.8988,3.1277,-0.065718,-0.94272,3.1118
-0.24845,-0.14685,2.9924,-0.2507,-0.079404,2.9904,-0.23375,0.24765,2.9252,-0.18627,0.42573,2.8576,-0.33835,0.12318,2.8927,-0.46133,-0.074103,2.9015,-0.50195,-0.28328,2.8916,-0.52113,-0.35064,2.892,-0.076011,0.13297,3.0563,-0.012614,-0.072285,3.0643,0.067495,-0.26274,3.0199,0.094829,-0.33399,2.9815,-0.31363,-0.20887,2.9659,-0.24409,-0.6102,2.9931,-0.25047,-0.93393,2.9901,-0.22374,-1.0015,2.939,-0.19058,-0.21737,3.0364,-0.15971,-0.59725,3.1482,-0.11318,-0.90522,3.1694,-0.055531,-0.9421,3.1563
-0.24439,-0.14457,2.9974,-0.24817,-0.077846,2.9928,-0.23211,0.2468,2.9214,-0.18616,0.42503,2.8549,-0.34088,0.12307,2.8907,-0.48294,-0.077894,2.9291,-0.53171,-0.27645,2.9249,-0.53403,-0.34564,2.918,-0.095911,0.11922,3.014,-0.0053648,-0.068752,3.0468,0.073851,-0.25232,2.964,0.098168,-0.32101,2.9205,-0.30945,-0.20609,2.974,-0.24136,-0.61039,2.9892,-0.25033,-0.93406,2.9888,-0.22406,-1.0026,2.9389,-0.1817,-0.21197,3.0453,-0.16173,-0.60264,3.1596,-0.10598,-0.89901,3.2016,-0.051057,-0.92023,3.1975
-0.24128,-0.14136,2.9984,-0.24576,-0.075625,2.9935,-0.23162,0.24578,2.9176,-0.18704,0.42403,2.8526,-0.34689,0.12105,2.8918,-0.48478,-0.07036,2.9429,-0.56005,-0.25498,2.9571,-0.56119,-0.31888,2.9456,-0.079917,0.12724,3.0142,0.00072531,-0.062078,3.0108,0.095538,-0.25676,2.9127,0.11905,-0.3244,2.8804,-0.30868,-0.20378,2.976,-0.23435,-0.61201,2.9841,-0.24922,-0.93619,2.9824,-0.21723,-0.9799,2.9141,-0.17756,-0.20998,3.0447,-0.16398,-0.6049,3.1674,-0.1351,-0.87738,3.2231,-0.080823,-0.91298,3.2156
-0.24083,-0.14077,2.9982,-0.24441,-0.075349,2.9936,-0.23099,0.24389,2.9165,-0.18945,0.42173,2.8482,-0.34962,0.12133,2.8927,-0.49335,-0.039075,2.9666,-0.5682,-0.23764,2.9714,-0.56895,-0.31202,2.951,-0.083808,0.12252,2.9966,0.0088184,-0.057269,2.9796,0.10726,-0.2388,2.8728,0.13391,-0.2964,2.8188,-0.30945,-0.20379,2.9787,-0.22689,-0.61422,2.9726,-0.24862,-0.93741,2.9806,-0.22072,-0.98141,2.9107,-0.17731,-0.20813,3.0415,-0.15905,-0.59339,3.1683,-0.10982,-0.85335,3.2645,-0.065585,-0.88911,3.2654
-0.24395,-0.14431,2.9976,-0.24532,-0.078368,2.9929,-0.22755,0.23991,2.915,-0.19232,0.42017,2.8464,-0.35327,0.12077,2.8962,-0.50548,-0.043617,3.0052,-0.58551,-0.23126,3.0147,-0.60038,-0.28926,2.9983,-0.088614,0.12392,2.9852,0.017551,-0.048962,2.9579,0.11445,-0.21173,2.8363,0.14096,-0.26536,2.7758,-0.3128,-0.20508,2.9815,-0.22095,-0.61439,2.9668,-0.24696,-0.93685,2.9798,-0.22254,-0.98122,2.909,-0.18363,-0.21164,3.0355,-0.14842,-0.57184,3.1814,-0.1136,-0.84396,3.2754,-0.078885,-0.87488,3.2826
-0.24768,-0.1503,2.9963,-0.24779,-0.083475,2.991,-0.22639,0.23671,2.9097,-0.1929,0.41854,2.8479,-0.35324,0.12003,2.897,-0.5002,-0.041415,3.0109,-0.59976,-0.2274,3.0219,-0.62372,-0.27973,3.0096,-0.087763,0.12315,2.9806,0.022411,-0.046417,2.9441,0.14011,-0.20071,2.7993,0.17963,-0.24656,2.7499,-0.31533,-0.20529,2.9829,-0.2171,-0.61305,2.963,-0.24474,-0.93496,2.9806,-0.22175,-0.97992,2.9096,-0.19079,-0.22005,3.0307,-0.14956,-0.5756,3.18,-0.10323,-0.86389,3.3062,-0.066255,-0.8792,3.3123
-0.24998,-0.15213,2.9961,-0.24928,-0.085229,2.9907,-0.22581,0.23487,2.9096,-0.19341,0.41679,2.8488,-0.35169,0.11799,2.897,-0.49492,-0.038387,3.0196,-0.60735,-0.2162,3.0447,-0.64129,-0.26674,3.0253,-0.086244,0.12121,2.9778,0.034629,-0.044673,2.917,0.16363,-0.18711,2.8019,0.20667,-0.22025,2.7533,-0.31759,-0.20621,2.9842,-0.21502,-0.61382,2.9582,-0.24356,-0.93505,2.98,-0.2212,-0.98013,2.9089,-0.19368,-0.22187,3.0289,-0.14981,-0.57552,3.1773,-0.1177,-0.85319,3.2886,-0.095345,-0.89827,3.2175
-0.24998,-0.15318,2.996,-0.24914,-0.086313,2.9907,-0.22399,0.23271,2.911,-0.1942,0.4159,2.8485,-0.35212,0.11703,2.8974,-0.49677,-0.035625,3.0222,-0.60928,-0.21371,3.0457,-0.64296,-0.26641,3.0365,-0.084176,0.11791,2.9766,0.041433,-0.042598,2.9238,0.18391,-0.15894,2.8403,0.23798,-0.20815,2.7898,-0.31828,-0.20769,2.9853,-0.21477,-0.61481,2.9563,-0.24334,-0.93578,2.9802,-0.22169,-0.98087,2.9087,-0.19212,-0.22205,3.0281,-0.14978,-0.57948,3.1707,-0.12008,-0.85231,3.2693,-0.082947,-0.87877,3.2754
-0.24842,-0.1521,2.9948,-0.24823,-0.085776,2.9898,-0.22367,0.23237,2.9113,-0.19371,0.41672,2.8504,-0.3524,0.11688,2.8975,-0.49866,-0.036272,3.0167,-0.61105,-0.21194,3.0421,-0.64241,-0.26596,3.0342,-0.082661,0.11821,2.9782,0.050617,-0.033766,2.9523,0.21545,-0.17714,2.8892,0.26322,-0.21331,2.8424,-0.31806,-0.20736,2.9839,-0.21751,-0.61577,2.9544,-0.24373,-0.93657,2.9799,-0.22381,-0.99921,2.9328,-0.18849,-0.22151,3.0283,-0.15618,-0.58946,3.148,-0.11688,-0.86599,3.2358,-0.073772,-0.89768,3.2365
-0.24887,-0.14978,2.9931,-0.24911,-0.083985,2.9881,-0.22461,0.23302,2.9106,-0.19431,0.4174,2.8503,-0.35501,0.1168,2.8986,-0.50638,-0.039099,3.0085,-0.60926,-0.2226,3.0276,-0.63441,-0.28036,3.0227,-0.075465,0.10979,2.9886,0.058646,-0.035104,3.0061,0.21586,-0.17237,2.9699,0.26769,-0.21308,2.9533,-0.32061,-0.20649,2.9803,-0.23062,-0.63629,2.9555,-0.24638,-0.95659,2.9842,-0.22206,-1.0118,2.9388,-0.18701,-0.22186,3.0281,-0.17088,-0.59054,3.1145,-0.11505,-0.87196,3.1902,-0.091939,-0.91693,3.119
-0.24687,-0.14696,2.9922,-0.24822,-0.081776,2.9872,-0.22509,0.23386,2.9105,-0.1944,0.41789,2.8504,-0.35509,0.11764,2.8971,-0.50384,-0.054793,2.9897,-0.6031,-0.23206,3.0196,-0.61391,-0.29437,3.0187,-0.081562,0.12064,2.9949,0.047332,-0.032911,3.0489,0.19935,-0.17559,3.0599,0.24397,-0.21999,3.0579,-0.31963,-0.20667,2.9771,-0.24582,-0.60826,2.9662,-0.25233,-0.93118,2.9783,-0.22658,-0.97604,2.908,-0.18236,-0.21919,3.0321,-0.15817,-0.62656,3.1055,-0.097769,-0.94172,3.137,-0.045774,-0.98531,3.1131
-0.24668,-0.15348,2.9927,-0.24839,-0.086029,2.9872,-0.22572,0.23404,2.9102,-0.19454,0.41793,2.8505,-0.35318,0.11847,2.8943,-0.5266,-0.055093,2.9504,-0.58341,-0.24648,2.9873,-0.59103,-0.31062,2.9925,-0.070749,0.1241,3.0123,0.084278,-0.027056,3.1089,0.17386,-0.16891,3.1801,0.21955,-0.21978,3.1668,-0.31586,-0.21096,2.9783,-0.2219,-0.62938,3.0007,-0.25528,-0.9514,2.9815,-0.22718,-1.012,2.9309,-0.18438,-0.22205,3.0313,-0.1246,-0.65958,3.0807,-0.10807,-0.96385,3.0575,-0.057906,-1.0189,3.0198
-0.24048,-0.18257,3.0085,-0.24414,-0.11116,3.0005,-0.22929,0.23389,2.9093,-0.19591,0.41774,2.8513,-0.35193,0.11579,2.8917,-0.52405,-0.066907,2.9335,-0.57115,-0.26825,2.9397,-0.57012,-0.33669,2.9435,-0.072186,0.13118,3.0262,0.061589,-0.023609,3.1828,0.1955,-0.16802,3.2491,0.2558,-0.21694,3.2377,-0.2993,-0.22904,3.0005,-0.255,-0.63232,2.9903,-0.26173,-0.95782,2.9781,-0.22867,-1.0154,2.9286,-0.18486,-0.24089,3.0379,-0.1232,-0.63291,3.008,-0.12023,-0.92726,2.9682,-0.089542,-0.97254,2.9001
-0.2384,-0.18605,3.0076,-0.2429,-0.11439,2.9991,-0.23256,0.22838,2.9057,-0.1982,0.4122,2.8515,-0.34515,0.11006,2.8877,-0.51054,-0.079538,2.8909,-0.56145,-0.28589,2.9042,-0.56987,-0.35517,2.9091,-0.07728,0.13015,3.0393,0.015348,-0.0084598,3.2312,0.12817,-0.15136,3.3397,0.17077,-0.19532,3.3851,-0.28662,-0.22996,3.0036,-0.27644,-0.64201,2.9859,-0.26411,-0.96648,2.978,-0.22938,-1.0164,2.9263,-0.18597,-0.24118,3.0344,-0.12982,-0.682,2.9011,-0.13939,-0.95131,2.8586,-0.13233,-1.0025,2.8286
-0.23736,-0.18984,3.0064,-0.24227,-0.11924,2.9976,-0.23533,0.21766,2.9044,-0.19927,0.40034,2.8509,-0.33838,0.10085,2.8888,-0.49448,-0.092778,2.8768,-0.54527,-0.31239,2.8625,-0.55141,-0.38817,2.8643,-0.084609,0.13226,3.05,-0.028601,0.014564,3.2657,0.044832,-0.10328,3.4027,0.082283,-0.14938,3.4355,-0.28372,-0.23436,3.0037,-0.28368,-0.64526,2.9876,-0.26355,-0.9689,2.9752,-0.22774,-1.0222,2.9265,-0.18706,-0.24066,3.0313,-0.18248,-0.62733,2.8292,-0.11459,-0.82119,2.5931,-0.1301,-0.87108,2.5647
-0.23353,-0.18709,3.0066,-0.23956,-0.11858,2.9982,-0.23806,0.20483,2.9109,-0.19898,0.39128,2.8552,-0.33091,0.086816,2.8933,-0.4834,-0.11421,2.8609,-0.52596,-0.33139,2.8398,-0.52557,-0.41065,2.8239,-0.089931,0.13178,3.0591,-0.028954,0.011855,3.2725,-0.026271,-0.060681,3.5125,0.01118,-0.10678,3.5453,-0.27923,-0.23679,3,-0.28941,-0.60872,2.9786,-0.2919,-0.90659,2.9722,-0.25383,-0.961,2.9245,-0.1844,-0.2292,3.0335,-0.20546,-0.57284,2.7982,-0.17684,-0.74192,2.5089,-0.20939,-0.77685,2.4757
-0.2271,-0.18833,3.0088,-0.23378,-0.12164,3.0019,-0.23729,0.19331,2.9254,-0.19746,0.37742,2.86,-0.32978,0.08261,2.9023,-0.47689,-0.11897,2.858,-0.51099,-0.33464,2.8219,-0.50181,-0.41275,2.8053,-0.091188,0.13246,3.0611,-0.029276,0.011792,3.2738,-0.026225,-0.060385,3.5123,0.011227,-0.10649,3.5452,-0.27136,-0.2393,3.0022,-0.30977,-0.63176,2.9662,-0.26301,-0.93329,2.9823,-0.22758,-0.9873,2.9304,-0.17636,-0.23146,3.0361,-0.20946,-0.53506,2.7345,-0.31493,-0.6283,2.3681,-0.26559,-0.70776,2.4179
-0.22469,-0.18713,3.0111,-0.23238,-0.12205,3.0048,-0.23961,0.18798,2.9312,-0.20193,0.36853,2.8585,-0.33178,0.077204,2.912,-0.46793,-0.12304,2.8648,-0.4825,-0.34061,2.8228,-0.47615,-0.4184,2.7917,-0.092163,0.13004,3.0648,-0.029606,0.0089889,3.2772,-0.025943,-0.061543,3.513,0.011508,-0.10764,3.5458,-0.27063,-0.23853,3.003,-0.3059,-0.63266,2.9638,-0.25237,-0.93051,2.9752,-0.21864,-0.9842,2.9209,-0.17286,-0.2323,3.041,-0.24129,-0.48905,2.7088,-0.37126,-0.60323,2.337,-0.37023,-0.67556,2.367
-0.22251,-0.18705,3.0151,-0.23066,-0.12321,3.0109,-0.24066,0.1868,2.9501,-0.20565,0.36414,2.8664,-0.3327,0.076319,2.9249,-0.46025,-0.12429,2.881,-0.46948,-0.34612,2.8227,-0.45916,-0.41787,2.8138,-0.092307,0.12991,3.0648,-0.029684,0.0087467,3.2771,-0.025763,-0.061856,3.5122,0.011688,-0.10796,3.5451,-0.26986,-0.2381,3.0057,-0.30149,-0.62766,2.9593,-0.2494,-0.92713,2.9742,-0.20784,-0.98654,2.9201,-0.1704,-0.23213,3.044,-0.23984,-0.44711,2.7243,-0.3389,-0.5857,2.4229,-0.35309,-0.58369,2.3519
-0.22413,-0.18668,3.0203,-0.23218,-0.12312,3.017,-0.24265,0.18759,2.957,-0.21521,0.36819,2.8735,-0.34163,0.078131,2.9433,-0.45352,-0.12041,2.9079,-0.45798,-0.33065,2.8473,-0.44339,-0.40261,2.8367,-0.092277,0.12833,3.0678,-0.18947,0.0078541,3.2595,-0.033632,-0.13208,3.4978,0.0045376,-0.18402,3.5469,-0.27795,-0.23827,3.0113,-0.29964,-0.62427,2.957,-0.2391,-0.92079,2.9676,-0.20459,-0.98079,2.9158,-0.16656,-0.23696,3.0533,-0.26332,-0.44087,2.7046,-0.36352,-0.60061,2.4154,-0.38264,-0.6028,2.3459
-0.22338,-0.17798,3.0248,-0.23214,-0.11606,3.0223,-0.24627,0.19067,2.9666,-0.22484,0.37309,2.8854,-0.34453,0.086049,2.957,-0.45157,-0.11377,2.9362,-0.44988,-0.32532,2.8808,-0.43834,-0.39433,2.8562,-0.092702,0.12973,3.07,-0.047443,-0.043353,3.2521,-0.036482,-0.1367,3.4961,0.0016524,-0.18862,3.5449,-0.27811,-0.2335,3.0122,-0.29841,-0.62427,2.9569,-0.23686,-0.91782,2.9575,-0.28574,-1.0085,2.9098,-0.16401,-0.23123,3.0566,-0.26349,-0.44207,2.7082,-0.36515,-0.59221,2.456,-0.33294,-0.63305,2.3859
-0.22295,-0.17635,3.0258,-0.23182,-0.11441,3.0242,-0.24885,0.19761,2.9798,-0.23606,0.3792,2.8948,-0.35572,0.093683,2.9715,-0.45939,-0.10757,2.9523,-0.44742,-0.31893,2.9002,-0.43399,-0.38828,2.8768,-0.096055,0.13314,3.0708,-0.03967,0.00017816,3.2783,-0.029181,-0.081019,3.5264,0.0083989,-0.12812,3.5625,-0.27744,-0.23204,3.0124,-0.24617,-0.59346,2.9841,-0.24522,-0.91927,2.9627,-0.28319,-0.96766,2.865,-0.16304,-0.23033,3.0555,-0.26821,-0.4627,2.726,-0.36791,-0.64694,2.4624,-0.38124,-0.664,2.3843
-0.22291,-0.17149,3.0281,-0.23168,-0.10914,3.0275,-0.24815,0.20354,2.9854,-0.24069,0.38419,2.8985,-0.36059,0.10046,2.9802,-0.46426,-0.10896,2.9732,-0.4486,-0.31299,2.9273,-0.42954,-0.38117,2.9134,-0.098475,0.13991,3.0711,-0.021325,0.044489,3.2908,-0.0053316,-0.031581,3.5402,0.032914,-0.081463,3.586,-0.27753,-0.22738,3.015,-0.25103,-0.62862,2.9627,-0.24597,-0.95351,2.9519,-0.28404,-0.96849,2.8595,-0.16274,-0.22697,3.0556,-0.26686,-0.47089,2.7301,-0.37661,-0.67523,2.4765,-0.38622,-0.70076,2.3961
-0.22199,-0.16921,3.0286,-0.23062,-0.1061,3.0292,-0.24879,0.213,2.995,-0.24325,0.3932,2.9101,-0.36434,0.1031,2.9873,-0.47012,-0.1023,3.0046,-0.44888,-0.30364,2.9582,-0.4258,-0.37412,2.9357,-0.098383,0.14136,3.0725,-0.024609,0.028322,3.2856,-0.027545,-0.17523,3.3736,0.0099064,-0.22134,3.4064,-0.27575,-0.2228,3.0164,-0.29489,-0.6241,2.9555,-0.24676,-0.94627,2.9503,-0.28623,-0.96891,2.8581,-0.16117,-0.22576,3.0533,-0.2643,-0.50497,2.7286,-0.36558,-0.7183,2.4803,-0.33946,-0.75678,2.4064
-0.22186,-0.16616,3.0294,-0.22781,-0.10233,3.0323,-0.24755,0.21918,3.0057,-0.25305,0.40387,2.9258,-0.36754,0.10475,2.9967,-0.47111,-0.097146,3.0244,-0.4459,-0.30163,2.9738,-0.42482,-0.36757,2.956,-0.10408,0.11969,3.0499,-0.034743,-0.013433,3.2637,-0.009314,-0.23451,3.3509,-0.019714,-0.29843,3.3582,-0.27768,-0.22,3.0208,-0.29421,-0.62418,2.9551,-0.24658,-0.94458,2.9501,-0.23042,-0.98259,2.8736,-0.15984,-0.22301,3.0481,-0.25543,-0.51522,2.7345,-0.33504,-0.75898,2.5098,-0.34414,-0.79532,2.4476
-0.222,-0.16348,3.0308,-0.22734,-0.099206,3.0337,-0.24645,0.22381,3.0107,-0.25476,0.40998,2.9331,-0.36842,0.10895,3.0073,-0.46889,-0.093077,3.0381,-0.44222,-0.30002,3.0106,-0.4259,-0.3687,2.987,-0.11023,0.13313,3.0492,-0.028525,-0.029662,3.2493,0.020852,-0.22961,3.2574,0.020284,-0.3154,3.2778,-0.27763,-0.21752,3.0239,-0.29277,-0.62479,2.9552,-0.24611,-0.94494,2.9483,-0.23302,-0.98275,2.8711,-0.16036,-0.21998,3.0459,-0.24303,-0.52739,2.7539,-0.30499,-0.78698,2.5435,-0.31739,-0.82292,2.4818
-0.21997,-0.16062,3.0313,-0.2252,-0.096463,3.0343,-0.2449,0.22679,3.0166,-0.25532,0.41654,2.9437,-0.37131,0.11252,3.0161,-0.46174,-0.086948,3.0645,-0.44351,-0.28741,3.0334,-0.43154,-0.36142,3.019,-0.11275,0.13361,3.047,-0.010571,-0.043503,3.229,0.033613,-0.24922,3.2324,0.038319,-0.31843,3.2228,-0.27617,-0.21553,3.0271,-0.28966,-0.62614,2.9543,-0.24356,-0.94257,2.9479,-0.23377,-0.97998,2.87,-0.15793,-0.21566,3.0407,-0.22442,-0.53503,2.77,-0.28618,-0.80822,2.5795,-0.29199,-0.84473,2.506
-0.21984,-0.15824,3.0317,-0.22474,-0.09342,3.0347,-0.24258,0.23422,3.0235,-0.25653,0.42198,2.9518,-0.37186,0.11867,3.0267,-0.45959,-0.078827,3.0782,-0.44309,-0.27461,3.0577,-0.42043,-0.3559,3.045,-0.10834,0.13362,3.0496,-0.0046156,-0.043508,3.2194,0.038142,-0.26372,3.1849,0.037634,-0.32696,3.1642,-0.27615,-0.21262,3.0291,-0.28198,-0.64637,2.953,-0.23172,-0.9498,2.954,-0.30721,-0.99033,2.8513,-0.1573,-0.21466,3.0371,-0.22626,-0.57449,2.7713,-0.27412,-0.85289,2.5859,-0.29036,-0.89628,2.5059
-0.22308,-0.1503,3.03,-0.22682,-0.086966,3.0345,-0.24061,0.23776,3.0278,-0.25457,0.42654,2.9623,-0.3726,0.12083,3.0296,-0.45454,-0.078182,3.0918,-0.44207,-0.27377,3.0623,-0.42296,-0.35574,3.049,-0.097632,0.13878,3.0552,0.0053644,-0.06617,3.1943,0.036301,-0.2636,3.1472,0.040113,-0.33489,3.1401,-0.28287,-0.20453,3.0283,-0.28019,-0.64162,2.9536,-0.22743,-0.93208,2.9544,-0.30195,-0.98512,2.8537,-0.15835,-0.21117,3.0305,-0.21718,-0.58871,2.7745,-0.26078,-0.87052,2.5939,-0.27593,-0.90615,2.5101
-0.22739,-0.14811,3.0269,-0.23033,-0.084589,3.0328,-0.24026,0.2408,3.0295,-0.25457,0.43045,2.9649,-0.37195,0.12255,3.0315,-0.44928,-0.082443,3.1141,-0.44151,-0.27637,3.1044,-0.42787,-0.35824,3.0839,-0.096346,0.13868,3.0558,0.0040468,-0.067285,3.1896,0.035342,-0.26828,3.1413,0.037863,-0.3341,3.1239,-0.28801,-0.20256,3.0251,-0.27876,-0.65041,2.9534,-0.22647,-0.94491,2.9565,-0.30186,-0.99347,2.8539,-0.16376,-0.21074,3.0245,-0.20881,-0.5956,2.7942,-0.24944,-0.87242,2.6047,-0.25822,-0.91166,2.5205
-0.22711,-0.14576,3.026,-0.23013,-0.082423,3.0339,-0.23591,0.24741,3.0375,-0.24991,0.43375,2.9691,-0.36902,0.1245,3.0338,-0.44365,-0.069629,3.1212,-0.4407,-0.2719,3.1073,-0.42502,-0.32502,3.096,-0.09325,0.14065,3.0582,0.003833,-0.071462,3.1811,0.016341,-0.2827,3.1207,0.037343,-0.34374,3.1116,-0.28801,-0.20076,3.0229,-0.27799,-0.6442,2.9542,-0.22527,-0.95245,2.9588,-0.21754,-0.98778,2.8794,-0.1644,-0.20979,3.0237,-0.19879,-0.58696,2.7982,-0.23686,-0.87039,2.6197,-0.2461,-0.91476,2.5451
-0.22734,-0.14508,3.0245,-0.2306,-0.081506,3.0345,-0.23485,0.2488,3.039,-0.24484,0.43511,2.9739,-0.36556,0.12676,3.0368,-0.43433,-0.042911,3.1208,-0.4386,-0.24445,3.1107,-0.44533,-0.33302,3.082,-0.089176,0.14086,3.0632,0.0083745,-0.073699,3.1755,0.029421,-0.26913,3.1174,0.031191,-0.33009,3.1064,-0.28778,-0.19944,3.0212,-0.27659,-0.65128,2.9527,-0.22462,-0.95523,2.9584,-0.21628,-0.99033,2.8789,-0.16568,-0.20868,3.0202,-0.19384,-0.592,2.7929,-0.22976,-0.87768,2.6189,-0.23845,-0.92083,2.5294
-0.2283,-0.1442,3.0244,-0.2311,-0.080652,3.037,-0.22882,0.25332,3.0458,-0.24017,0.43851,2.9817,-0.36195,0.12928,3.039,-0.43327,-0.04049,3.1187,-0.43241,-0.24835,3.1123,-0.44052,-0.34,3.0855,-0.086363,0.14224,3.0658,0.011206,-0.073888,3.1726,0.020429,-0.2688,3.1087,0.023029,-0.32855,3.0941,-0.28946,-0.19774,3.0198,-0.2757,-0.66047,2.9537,-0.3016,-0.96823,2.9296,-0.29608,-1.0022,2.8512,-0.16809,-0.20912,3.0202,-0.19075,-0.59544,2.7934,-0.22181,-0.88077,2.6174,-0.22993,-0.93476,2.5335
-0.22673,-0.1395,3.0247,-0.22921,-0.075984,3.0402,-0.22491,0.25573,3.0487,-0.23183,0.44764,2.9978,-0.35919,0.13147,3.0406,-0.43902,-0.045602,3.141,-0.42929,-0.23904,3.1171,-0.44288,-0.30855,3.0937,-0.079701,0.14794,3.0746,0.011296,-0.073132,3.1721,0.016425,-0.26801,3.1076,0.021006,-0.33139,3.0931,-0.28903,-0.19362,3.0175,-0.23451,-0.62617,2.9273,-0.30112,-0.96841,2.9294,-0.25715,-0.9232,2.8706,-0.16628,-0.20727,3.0217,-0.18732,-0.59381,2.7969,-0.20749,-0.87346,2.6296,-0.21983,-0.92581,2.5452
-0.22401,-0.13818,3.0254,-0.22593,-0.07455,3.0439,-0.21971,0.25772,3.0524,-0.22602,0.4483,3.002,-0.35469,0.13407,3.0411,-0.43459,-0.03901,3.134,-0.42794,-0.23319,3.1178,-0.44539,-0.30524,3.0842,-0.07852,0.14777,3.0748,0.011578,-0.071231,3.1707,0.0089243,-0.26579,3.1005,0.015158,-0.32943,3.0879,-0.28648,-0.19157,3.015,-0.23662,-0.63307,2.9294,-0.30076,-0.96849,2.9293,-0.25828,-0.92793,2.8725,-0.16412,-0.20729,3.0238,-0.18172,-0.59832,2.794,-0.20468,-0.87473,2.6287,-0.20328,-0.91359,2.5388
-0.22348,-0.13535,3.0248,-0.22558,-0.072376,3.0448,-0.21686,0.25857,3.0554,-0.21842,0.44801,3.004,-0.34924,0.13517,3.0404,-0.43221,-0.038281,3.1304,-0.42114,-0.23186,3.1073,-0.43889,-0.30486,3.0827,-0.071762,0.14821,3.0801,0.01066,-0.073611,3.1681,0.011391,-0.26716,3.0985,0.017677,-0.33087,3.0863,-0.28708,-0.18822,3.0105,-0.23514,-0.6219,2.9293,-0.29872,-0.94005,2.9291,-0.25273,-0.93398,2.8678,-0.16346,-0.20718,3.0242,-0.17897,-0.5937,2.7985,-0.19352,-0.8734,2.6308,-0.19656,-0.9125,2.5411
-0.22414,-0.13519,3.0246,-0.22596,-0.072477,3.047,-0.21316,0.25935,3.0586,-0.21276,0.4497,3.0103,-0.34739,0.13592,3.0414,-0.42964,-0.040189,3.1305,-0.41103,-0.25254,3.0846,-0.43412,-0.34632,3.0751,-0.069599,0.148,3.0817,0.011441,-0.068913,3.1658,0.011622,-0.26377,3.1009,0.017908,-0.32749,3.0886,-0.28862,-0.18718,3.0097,-0.23738,-0.64842,2.9341,-0.29985,-0.96918,2.9289,-0.24971,-0.9459,2.8673,-0.16428,-0.20762,3.0239,-0.17333,-0.62187,2.8033,-0.18764,-0.89101,2.6257,-0.17572,-0.91113,2.5366
-0.22385,-0.13532,3.0243,-0.22543,-0.072822,3.049,-0.20866,0.26131,3.063,-0.20101,0.45255,3.0207,-0.34089,0.13769,3.0421,-0.41911,-0.052577,3.1331,-0.44622,-0.22482,3.0996,-0.44158,-0.30556,3.08,-0.068368,0.14687,3.0812,0.011236,-0.069856,3.1657,0.01057,-0.26492,3.1016,0.016856,-0.32864,3.0893,-0.28833,-0.1862,3.0079,-0.2343,-0.65329,2.935,-0.29919,-0.96961,2.9287,-0.24725,-0.94846,2.8699,-0.16445,-0.20896,3.0241,-0.17021,-0.62598,2.8071,-0.1811,-0.89545,2.6335,-0.15042,-0.92609,2.5514
-0.22414,-0.13464,3.0236,-0.22533,-0.072572,3.0506,-0.2053,0.26184,3.0648,-0.19968,0.45281,3.0222,-0.33882,0.13983,3.0438,-0.41556,-0.05527,3.1325,-0.41488,-0.25195,3.0917,-0.43992,-0.31587,3.0759,-0.066746,0.14705,3.0811,0.015374,-0.049434,3.1645,0.014479,-0.2462,3.1073,0.026512,-0.30997,3.1012,-0.28926,-0.18496,3.006,-0.23982,-0.65608,2.9505,-0.29882,-0.96986,2.9287,-0.24038,-0.9753,2.8761,-0.16511,-0.20884,3.0236,-0.16609,-0.62555,2.8246,-0.16232,-0.90911,2.6617,-0.15281,-0.94102,2.5705
-0.22356,-0.13692,3.0231,-0.22404,-0.074187,3.0523,-0.20448,0.26253,3.0656,-0.19525,0.45332,3.0243,-0.33567,0.14064,3.0456,-0.41394,-0.057007,3.1296,-0.44372,-0.22624,3.0871,-0.4404,-0.3085,3.0751,-0.066893,0.14203,3.0758,0.029712,-0.065128,3.1614,0.019792,-0.2617,3.1044,0.014072,-0.3466,3.0813,-0.28946,-0.19329,3.0034,-0.23754,-0.65641,2.948,-0.29717,-0.95483,2.9298,-0.23393,-0.98226,2.8696,-0.16472,-0.20964,3.0238,-0.15318,-0.61557,2.8462,-0.15436,-0.9016,2.6808,-0.1262,-0.95921,2.6201
-0.21227,-0.13868,3.0309,-0.21442,-0.078795,3.0602,-0.20072,0.22755,3.0619,-0.186,0.42793,3.0279,-0.33198,0.14584,3.0506,-0.4121,-0.059704,3.1276,-0.44391,-0.2286,3.0824,-0.44045,-0.31116,3.0727,-0.063905,0.14084,3.0777,0.030721,-0.066439,3.1534,0.029673,-0.26423,3.1009,0.023069,-0.34876,3.0767,-0.27135,-0.19807,3.0141,-0.23787,-0.65697,2.9499,-0.29773,-0.96581,2.9305,-0.2299,-0.98838,2.8704,-0.152,-0.21229,3.0353,-0.15135,-0.61555,2.8492,-0.14051,-0.91522,2.723,-0.13929,-0.95804,2.656
-0.21275,-0.13899,3.0304,-0.21442,-0.079166,3.0624,-0.19305,0.2701,3.0815,-0.17962,0.44996,3.0328,-0.32912,0.14671,3.0527,-0.41178,-0.059691,3.1272,-0.41516,-0.25231,3.086,-0.43989,-0.31198,3.0745,-0.060932,0.13943,3.0793,0.034042,-0.069125,3.1542,0.036879,-0.26555,3.0956,0.024248,-0.34938,3.0713,-0.27607,-0.19666,3.0105,-0.23852,-0.65161,2.9507,-0.2448,-0.97162,2.9539,-0.22213,-0.9937,2.8687,-0.15386,-0.21194,3.0325,-0.15093,-0.62431,2.8657,-0.13299,-0.93171,2.7648,-0.11231,-0.97925,2.6993
-0.20898,-0.14107,3.0329,-0.21081,-0.081046,3.0669,-0.19406,0.24271,3.0767,-0.17787,0.44111,3.0388,-0.32688,0.14704,3.0551,-0.40958,-0.048704,3.1246,-0.4135,-0.24306,3.0863,-0.43893,-0.31487,3.075,-0.056523,0.13893,3.0836,0.042373,-0.072998,3.1561,0.042638,-0.26679,3.0874,0.030731,-0.31991,3.0655,-0.27239,-0.19887,3.0134,-0.23065,-0.64196,2.95,-0.22111,-0.96602,2.9325,-0.19549,-0.99251,2.8492,-0.14992,-0.213,3.0352,-0.14988,-0.62572,2.876,-0.12568,-0.94462,2.8406,-0.043272,-0.9957,2.7461
-0.20203,-0.13982,3.038,-0.20548,-0.082298,3.073,-0.19141,0.2204,3.0782,-0.17703,0.41999,3.0453,-0.32549,0.14757,3.0578,-0.40504,-0.057708,3.1294,-0.41002,-0.25759,3.0807,-0.43733,-0.32713,3.074,-0.047358,0.14216,3.0923,0.045788,-0.071779,3.1524,0.045648,-0.2661,3.0855,0.032143,-0.32008,3.0629,-0.26519,-0.19965,3.0174,-0.22549,-0.63827,2.9508,-0.2202,-0.96238,2.9382,-0.17668,-0.99834,2.8747,-0.14232,-0.21097,3.0416,-0.17449,-0.62118,2.8838,-0.13768,-0.94954,2.8978,-0.080254,-1.0102,2.89
-0.20939,-0.136,3.0333,-0.2092,-0.076767,3.0728,-0.18467,0.26976,3.0933,-0.16883,0.4521,3.0472,-0.31997,0.14888,3.0637,-0.40137,-0.043038,3.1246,-0.4105,-0.24602,3.0843,-0.43698,-0.32815,3.0736,-0.042418,0.14013,3.0925,0.051271,-0.076261,3.1478,0.04771,-0.2709,3.0821,0.034199,-0.31997,3.061,-0.27855,-0.19219,3.0113,-0.22089,-0.62568,2.9552,-0.22678,-0.94999,2.9528,-0.21707,-0.9827,2.8726,-0.1535,-0.20599,3.0309,-0.13796,-0.62897,2.9135,-0.097896,-0.94889,2.9355,-0.012977,-1.0318,2.9575
-0.18557,-0.13891,3.0434,-0.19171,-0.078691,3.081,-0.18072,0.24627,3.0855,-0.16473,0.44269,3.0558,-0.31456,0.14926,3.0641,-0.39048,-0.062001,3.1359,-0.41365,-0.258,3.0849,-0.42458,-0.32858,3.0794,-0.036678,0.13761,3.0935,0.038057,-0.073662,3.1439,0.016592,-0.2594,3.0785,0.015104,-0.31383,3.067,-0.24656,-0.19987,3.025,-0.21953,-0.62916,2.9597,-0.23317,-0.95273,2.9611,-0.22356,-0.98603,2.8812,-0.12207,-0.2078,3.0462,-0.13445,-0.6115,2.9333,-0.094439,-0.92997,2.9641,-0.058451,-0.97906,2.9404
-0.16859,-0.1467,3.0575,-0.17242,-0.08614,3.0952,-0.17257,0.24233,3.0895,-0.15998,0.44045,3.06,-0.31108,0.14799,3.0659,-0.38984,-0.049686,3.1341,-0.40941,-0.24671,3.0927,-0.4218,-0.32741,3.0797,-0.035222,0.1369,3.0927,0.029038,-0.073516,3.1298,0.027337,-0.2649,3.0912,0.041521,-0.32685,3.0644,-0.22788,-0.20771,3.0423,-0.21917,-0.6298,2.9618,-0.23364,-0.95305,2.9662,-0.22497,-0.98703,2.8866,-0.1105,-0.21146,3.0569,-0.12552,-0.61376,2.9471,-0.036631,-0.92483,3.0343,-0.054863,-0.97534,2.9849
-0.17048,-0.14425,3.053,-0.17409,-0.082572,3.0929,-0.16614,0.26973,3.1005,-0.15386,0.45362,3.057,-0.30724,0.1474,3.0675,-0.38561,-0.088021,3.1405,-0.40014,-0.2742,3.0772,-0.4204,-0.3392,3.0772,-0.028492,0.13601,3.0937,0.030305,-0.073147,3.1296,0.027625,-0.26451,3.0879,0.044209,-0.32824,3.0669,-0.23538,-0.20306,3.0322,-0.2146,-0.62907,2.9708,-0.23829,-0.95321,2.965,-0.22961,-0.98647,2.885,-0.11021,-0.21101,3.0536,-0.0695,-0.60816,2.9838,-0.023904,-0.93091,3.0709,-0.049784,-0.95563,2.9618
-0.16614,-0.14167,3.0524,-0.17039,-0.079515,3.0937,-0.16354,0.27062,3.102,-0.15015,0.4517,3.06,-0.30319,0.14886,3.0719,-0.38286,-0.079706,3.1418,-0.39548,-0.26819,3.0858,-0.41515,-0.32874,3.078,-0.016754,0.13468,3.1015,0.032992,-0.072452,3.1295,0.036829,-0.26581,3.0989,0.056482,-0.32515,3.0798,-0.23166,-0.20175,3.0319,-0.21133,-0.6279,2.9763,-0.23878,-0.95238,2.9639,-0.22891,-0.98546,2.8837,-0.10389,-0.20852,3.0522,-0.1071,-0.62607,2.9863,-0.023023,-0.91908,3.1106,-0.059051,-0.99322,3.027
-0.14771,-0.13729,3.0685,-0.15601,-0.073832,3.1041,-0.15951,0.27097,3.1007,-0.1411,0.45393,3.0663,-0.29784,0.14941,3.077,-0.37964,-0.076828,3.1394,-0.38487,-0.2677,3.0932,-0.40362,-0.33478,3.086,-0.012514,0.13485,3.1042,0.03798,-0.072648,3.1317,0.064053,-0.26165,3.1264,0.064012,-0.35317,3.0839,-0.20992,-0.20225,3.0533,-0.20864,-0.62723,2.9819,-0.23821,-0.95169,2.9633,-0.22924,-0.98568,2.8835,-0.081022,-0.20481,3.0729,-0.10348,-0.63098,3.0048,-0.018257,-0.92733,3.1333,-0.0053865,-0.96094,3.052
