-0.32534,-0.17289,2.6961,-0.32427,-0.11003,2.7379,-0.31486,0.22543,2.7192,-0.28527,0.39653,2.6766,-0.46031,0.12926,2.7356,-0.53955,-0.11633,2.7443,-0.56058,-0.30506,2.6709,-0.57337,-0.35752,2.6573,-0.15697,0.10067,2.7329,-0.1438,-0.15298,2.711,-0.12292,-0.34733,2.6621,-0.12451,-0.38091,2.6473,-0.39899,-0.23701,2.6858,-0.47149,-0.6028,2.6106,-0.54538,-0.91755,2.5526,-0.5448,-0.95031,2.4773,-0.25769,-0.2515,2.6934,-0.25678,-0.59412,2.6983,-0.29906,-0.94555,2.7432,-0.272,-1.0015,2.7016
-0.32851,-0.17253,2.6926,-0.3284,-0.10937,2.7332,-0.31894,0.22555,2.7139,-0.28807,0.39542,2.6705,-0.46525,0.13048,2.726,-0.54645,-0.11781,2.7337,-0.56729,-0.30654,2.6602,-0.5804,-0.3596,2.6489,-0.15876,0.099534,2.7295,-0.14931,-0.15436,2.7077,-0.13226,-0.34856,2.6572,-0.1291,-0.38937,2.6465,-0.40371,-0.23738,2.6807,-0.47864,-0.60049,2.6007,-0.54764,-0.9176,2.5456,-0.54558,-0.95049,2.4705,-0.25924,-0.2518,2.6919,-0.2598,-0.5945,2.6956,-0.30007,-0.94027,2.743,-0.27322,-0.99654,2.7003
-0.33606,-0.17389,2.6851,-0.33665,-0.11013,2.7242,-0.32839,0.22602,2.7039,-0.29388,0.39589,2.6627,-0.47085,0.1296,2.7144,-0.55383,-0.12112,2.7189,-0.57666,-0.31081,2.6493,-0.58595,-0.36331,2.6335,-0.16694,0.098754,2.7221,-0.15376,-0.15466,2.7037,-0.14224,-0.34978,2.6555,-0.13744,-0.41353,2.6408,-0.40992,-0.23908,2.6728,-0.48052,-0.59936,2.5973,-0.54998,-0.9165,2.5361,-0.54698,-0.94956,2.461,-0.26731,-0.25441,2.686,-0.26212,-0.59309,2.693,-0.30034,-0.93935,2.7429,-0.27379,-0.99668,2.7014
-0.34309,-0.1765,2.6788,-0.34403,-0.11219,2.7165,-0.33696,0.22508,2.6955,-0.2989,0.39434,2.6541,-0.47701,0.12844,2.7039,-0.56434,-0.11933,2.7087,-0.58692,-0.30611,2.6301,-0.59752,-0.35783,2.6147,-0.17533,0.098274,2.7119,-0.16523,-0.1601,2.6924,-0.14831,-0.3561,2.6492,-0.14501,-0.39584,2.6383,-0.41482,-0.24115,2.668,-0.48803,-0.5968,2.5862,-0.5527,-0.91243,2.5287,-0.54961,-0.94562,2.4537,-0.27524,-0.25647,2.6794,-0.26523,-0.59328,2.6889,-0.30054,-0.93943,2.7423,-0.27431,-0.99688,2.7022
-0.34963,-0.17693,2.6699,-0.35074,-0.11264,2.7062,-0.34516,0.22324,2.6847,-0.30554,0.39356,2.643,-0.4882,0.12665,2.689,-0.57426,-0.11866,2.6972,-0.60165,-0.30554,2.6201,-0.61377,-0.35808,2.6077,-0.18826,0.10206,2.6971,-0.17866,-0.14743,2.6814,-0.15577,-0.34504,2.6479,-0.12222,-0.39478,2.6462,-0.42077,-0.24236,2.6591,-0.49275,-0.597,2.5807,-0.5532,-0.91164,2.5238,-0.55022,-0.94497,2.4488,-0.28196,-0.25533,2.6712,-0.2707,-0.59227,2.6808,-0.30105,-0.93769,2.7406,-0.29456,-0.98845,2.6959
-0.3546,-0.1781,2.6624,-0.35751,-0.11305,2.6963,-0.35493,0.22209,2.672,-0.31756,0.39112,2.6271,-0.49928,0.12414,2.6725,-0.59206,-0.11541,2.6796,-0.619,-0.30147,2.6002,-0.62846,-0.33507,2.5911,-0.19226,0.10121,2.6927,-0.188,-0.15728,2.6725,-0.16579,-0.3538,2.6369,-0.15817,-0.40327,2.6244,-0.42619,-0.24429,2.6506,-0.49686,-0.59453,2.5754,-0.5544,-0.90531,2.513,-0.54863,-0.93897,2.4383,-0.28597,-0.25638,2.6655,-0.27641,-0.59267,2.6747,-0.30146,-0.93837,2.7396,-0.29568,-0.97203,2.6649
-0.37273,-0.18085,2.6448,-0.37482,-0.11546,2.6777,-0.36805,0.22256,2.6569,-0.32594,0.38883,2.6166,-0.51136,0.12015,2.6547,-0.61735,-0.10644,2.6574,-0.63507,-0.2949,2.5841,-0.6426,-0.357,2.5733,-0.21047,0.091474,2.6739,-0.19579,-0.16482,2.6652,-0.175,-0.36121,2.628,-0.1677,-0.41301,2.6134,-0.44382,-0.24722,2.6318,-0.50283,-0.59332,2.5675,-0.55439,-0.90508,2.5117,-0.54878,-0.93859,2.437,-0.3046,-0.26067,2.6502,-0.29006,-0.6147,2.6686,-0.3028,-0.95519,2.7425,-0.29184,-1.004,2.6931
-0.37811,-0.18089,2.6373,-0.38152,-0.11497,2.6679,-0.38275,0.22223,2.6431,-0.33939,0.38711,2.6028,-0.52477,0.12096,2.641,-0.62648,-0.10322,2.6443,-0.66677,-0.28536,2.5597,-0.66747,-0.32855,2.5467,-0.22014,0.088057,2.665,-0.20705,-0.17454,2.6538,-0.17856,-0.37071,2.6235,-0.17776,-0.39548,2.6101,-0.4496,-0.24806,2.6231,-0.5058,-0.59229,2.5584,-0.55518,-0.90553,2.5091,-0.5485,-0.93944,2.4347,-0.30723,-0.26041,2.644,-0.29642,-0.61686,2.6625,-0.30233,-0.95638,2.7364,-0.26143,-1.0028,2.6976
-0.38822,-0.18138,2.6244,-0.39266,-0.11505,2.6515,-0.39788,0.22158,2.6253,-0.34899,0.38868,2.5919,-0.54088,0.1201,2.6216,-0.64634,-0.097002,2.6212,-0.68885,-0.28026,2.5414,-0.68817,-0.33437,2.5266,-0.24336,0.089107,2.6448,-0.21688,-0.1656,2.6456,-0.18925,-0.36144,2.6118,-0.16211,-0.39952,2.6136,-0.45995,-0.24962,2.6083,-0.51393,-0.59271,2.5449,-0.55733,-0.90523,2.5037,-0.55104,-0.93947,2.4294,-0.31498,-0.25997,2.6352,-0.30748,-0.59566,2.642,-0.29987,-0.93159,2.7298,-0.29359,-0.96583,2.6555
-0.40612,-0.1816,2.6096,-0.41056,-0.11513,2.6367,-0.41043,0.22293,2.6129,-0.36558,0.39056,2.5772,-0.55211,0.12009,2.601,-0.67378,-0.091709,2.5898,-0.71346,-0.27857,2.5178,-0.71693,-0.32863,2.502,-0.25667,0.089079,2.6326,-0.23606,-0.16052,2.6272,-0.20251,-0.35626,2.6007,-0.19772,-0.42075,2.5919,-0.47565,-0.24883,2.5945,-0.52145,-0.58889,2.5361,-0.56133,-0.89824,2.4979,-0.55276,-0.9323,2.4237,-0.33663,-0.25926,2.6197,-0.31196,-0.59595,2.6387,-0.29954,-0.93152,2.7272,-0.29097,-0.96559,2.653
-0.42395,-0.17911,2.597,-0.42791,-0.11231,2.6218,-0.42725,0.22529,2.5955,-0.38385,0.39591,2.5548,-0.56728,0.12362,2.5839,-0.68592,-0.085293,2.5768,-0.7397,-0.26734,2.5005,-0.74144,-0.32075,2.484,-0.27438,0.092154,2.6166,-0.25161,-0.16933,2.6154,-0.21663,-0.36492,2.5904,-0.20893,-0.43109,2.5826,-0.49463,-0.24563,2.5813,-0.52957,-0.58289,2.5267,-0.56205,-0.89808,2.4957,-0.54281,-0.96032,2.4673,-0.35393,-0.25782,2.6089,-0.32037,-0.59666,2.6331,-0.30085,-0.93234,2.7272,-0.27553,-0.99082,2.6771
-0.43883,-0.17745,2.5877,-0.44289,-0.11033,2.6109,-0.43774,0.22727,2.5832,-0.39685,0.39633,2.5448,-0.58489,0.12623,2.5657,-0.7074,-0.083568,2.559,-0.77188,-0.26512,2.4832,-0.77304,-0.31477,2.4622,-0.2849,0.093949,2.6066,-0.26033,-0.16914,2.6054,-0.22594,-0.36483,2.5823,-0.22624,-0.4396,2.5715,-0.51038,-0.2434,2.5723,-0.53596,-0.58165,2.522,-0.56367,-0.89879,2.4939,-0.55313,-0.93348,2.4203,-0.36927,-0.25597,2.6006,-0.32748,-0.59743,2.6276,-0.30085,-0.93307,2.727,-0.27418,-0.99136,2.6789
-0.4505,-0.17591,2.5814,-0.45443,-0.10815,2.6026,-0.4508,0.23029,2.5697,-0.40761,0.39916,2.5327,-0.59318,0.12645,2.5516,-0.72969,-0.0779,2.5459,-0.80073,-0.25467,2.4699,-0.80403,-0.30995,2.446,-0.30183,0.093866,2.5927,-0.27282,-0.16938,2.5951,-0.23787,-0.36481,2.5667,-0.23808,-0.43935,2.5548,-0.5218,-0.24204,2.5654,-0.54447,-0.57731,2.5186,-0.56579,-0.89848,2.4926,-0.54455,-0.9598,2.4678,-0.3811,-0.25344,2.5969,-0.33436,-0.59961,2.6253,-0.30106,-0.93541,2.7269,-0.27452,-0.98877,2.6847
-0.46003,-0.17283,2.5755,-0.46476,-0.10478,2.5948,-0.46325,0.2329,2.5585,-0.42345,0.40147,2.5153,-0.60663,0.1289,2.537,-0.75103,-0.058434,2.5394,-0.81523,-0.23947,2.4691,-0.8264,-0.29147,2.4469,-0.31748,0.10122,2.5833,-0.29609,-0.15179,2.5762,-0.25045,-0.34488,2.5572,-0.25269,-0.40477,2.5458,-0.53014,-0.23969,2.5587,-0.55463,-0.57107,2.5123,-0.56878,-0.89731,2.4885,-0.55709,-0.93287,2.4156,-0.39049,-0.24972,2.5936,-0.34435,-0.58938,2.6177,-0.30264,-0.93043,2.7255,-0.26384,-0.9792,2.6836
-0.47642,-0.16946,2.5654,-0.48051,-0.10191,2.5837,-0.47486,0.23346,2.5484,-0.43058,0.40145,2.5071,-0.61325,0.1301,2.5263,-0.75876,-0.056852,2.5358,-0.84168,-0.23034,2.4647,-0.86235,-0.28018,2.4442,-0.32765,0.10519,2.576,-0.30454,-0.14942,2.5682,-0.27611,-0.34633,2.5433,-0.2652,-0.39192,2.5328,-0.5482,-0.23555,2.5459,-0.56082,-0.57008,2.509,-0.57043,-0.8971,2.4856,-0.54635,-0.95747,2.4633,-0.40659,-0.24683,2.5867,-0.34216,-0.59645,2.6191,-0.30507,-0.93348,2.7263,-0.26643,-0.97935,2.6857
-0.48195,-0.16908,2.5597,-0.48627,-0.10159,2.5771,-0.48084,0.23352,2.5424,-0.43582,0.40356,2.5026,-0.62363,0.13204,2.5178,-0.77623,-0.054034,2.5319,-0.86503,-0.22676,2.4667,-0.88908,-0.28355,2.4498,-0.33412,0.10788,2.5724,-0.31593,-0.14884,2.5552,-0.28634,-0.34568,2.5313,-0.26752,-0.39776,2.5255,-0.55273,-0.23539,2.5402,-0.56768,-0.56772,2.5026,-0.57251,-0.89663,2.484,-0.54652,-0.95708,2.46,-0.41317,-0.24729,2.5813,-0.34367,-0.59503,2.6174,-0.29772,-0.92448,2.7352,-0.2374,-0.99383,2.7566
-0.4869,-0.1676,2.5517,-0.49178,-0.10033,2.5684,-0.49236,0.23387,2.5327,-0.4419,0.40306,2.4966,-0.63203,0.13427,2.5139,-0.78674,-0.048157,2.5325,-0.88294,-0.21972,2.4758,-0.90111,-0.27562,2.4612,-0.34275,0.11034,2.5674,-0.32034,-0.14944,2.5507,-0.29135,-0.34642,2.5263,-0.27102,-0.39921,2.5188,-0.55753,-0.23446,2.532,-0.57833,-0.56683,2.4931,-0.57401,-0.89698,2.4821,-0.56064,-0.9327,2.4095,-0.41562,-0.24579,2.5733,-0.34438,-0.60274,2.6166,-0.33162,-0.90603,2.7266,-0.26787,-0.96837,2.7575
-0.48947,-0.16907,2.5459,-0.49497,-0.10155,2.5622,-0.5001,0.23435,2.5277,-0.44873,0.4042,2.4917,-0.63737,0.13449,2.5099,-0.79596,-0.046926,2.5323,-0.90369,-0.21464,2.4837,-0.91975,-0.26981,2.4729,-0.35119,0.11098,2.5635,-0.33546,-0.15198,2.5422,-0.29481,-0.34705,2.5249,-0.29103,-0.40612,2.5036,-0.5592,-0.23626,2.5254,-0.58343,-0.56461,2.4861,-0.57567,-0.89623,2.4792,-0.56209,-0.93181,2.4066,-0.41737,-0.24617,2.5676,-0.3444,-0.60763,2.6119,-0.30636,-0.93076,2.7545,-0.28399,-0.96102,2.7624
-0.49429,-0.17031,2.5376,-0.49968,-0.10267,2.5534,-0.50636,0.23392,2.5205,-0.45672,0.40406,2.4867,-0.64435,0.13564,2.5063,-0.8004,-0.047195,2.5324,-0.91536,-0.21486,2.4919,-0.93511,-0.27012,2.4798,-0.3603,0.10946,2.5572,-0.3405,-0.15221,2.5374,-0.30423,-0.34812,2.5192,-0.29335,-0.4075,2.5004,-0.56223,-0.2378,2.5186,-0.59434,-0.56172,2.473,-0.57678,-0.8954,2.4777,-0.56379,-0.93093,2.4049,-0.42423,-0.24651,2.5577,-0.34362,-0.60372,2.6022,-0.35447,-0.89078,2.7125,-0.2985,-0.95342,2.7556
-0.498,-0.16953,2.5299,-0.50345,-0.10219,2.5457,-0.51048,0.23392,2.5159,-0.46136,0.40583,2.4845,-0.65216,0.13658,2.5025,-0.80532,-0.046496,2.5329,-0.92611,-0.21379,2.4983,-0.95193,-0.26926,2.4941,-0.36317,0.11014,2.5541,-0.34913,-0.15229,2.5256,-0.30832,-0.34678,2.516,-0.28897,-0.39121,2.4855,-0.56617,-0.23799,2.5108,-0.59773,-0.56163,2.468,-0.5782,-0.8946,2.4755,-0.56512,-0.92992,2.4026,-0.42718,-0.246,2.5496,-0.34657,-0.60224,2.5865,-0.36899,-0.91395,2.7087,-0.30293,-0.9628,2.7538
-0.5032,-0.16996,2.5227,-0.50858,-0.10284,2.5389,-0.51592,0.23356,2.5133,-0.4646,0.40476,2.4821,-0.65887,0.13676,2.501,-0.82067,-0.045542,2.5375,-0.93566,-0.21369,2.5085,-0.95854,-0.26877,2.5005,-0.36932,0.1091,2.5501,-0.35091,-0.15937,2.5232,-0.31057,-0.35599,2.5007,-0.29561,-0.40318,2.489,-0.5718,-0.23886,2.5023,-0.60177,-0.5639,2.4606,-0.57862,-0.89497,2.4743,-0.56604,-0.92994,2.4011,-0.43165,-0.24675,2.5416,-0.34929,-0.60573,2.5734,-0.37601,-0.91177,2.6844,-0.3092,-0.95804,2.7171
-0.50684,-0.17239,2.5173,-0.51142,-0.10495,2.5326,-0.51852,0.23326,2.5118,-0.46898,0.40226,2.4792,-0.6602,0.13636,2.4997,-0.82898,-0.04655,2.5405,-0.93968,-0.21551,2.5107,-0.96822,-0.27431,2.5076,-0.37161,0.10048,2.5431,-0.35508,-0.15587,2.5191,-0.31683,-0.35078,2.5091,-0.31108,-0.39752,2.4677,-0.5743,-0.23993,2.4978,-0.60643,-0.56684,2.4531,-0.57956,-0.8944,2.4728,-0.56829,-0.92912,2.3992,-0.43659,-0.24976,2.5336,-0.35863,-0.61578,2.5466,-0.38095,-0.91705,2.6567,-0.31493,-0.97658,2.6847
-0.51354,-0.17486,2.5081,-0.51742,-0.10718,2.5243,-0.52262,0.2337,2.5102,-0.47316,0.40274,2.4783,-0.66181,0.13613,2.4989,-0.83102,-0.046434,2.54,-0.94195,-0.21582,2.5135,-0.9697,-0.27493,2.5087,-0.37635,0.10038,2.5382,-0.35568,-0.14751,2.5154,-0.3199,-0.36662,2.5014,-0.30505,-0.43011,2.4688,-0.58163,-0.24114,2.4876,-0.6176,-0.58611,2.4414,-0.57573,-0.90014,2.4754,-0.56508,-0.93433,2.4015,-0.44388,-0.25335,2.5222,-0.37072,-0.6254,2.5273,-0.39842,-0.93533,2.6078,-0.32672,-0.98259,2.6412
-0.51728,-0.17744,2.5024,-0.52093,-0.10967,2.5195,-0.52479,0.23291,2.5099,-0.47491,0.40288,2.479,-0.66407,0.13451,2.4984,-0.83208,-0.046287,2.5392,-0.94218,-0.21605,2.5145,-0.96987,-0.27517,2.5095,-0.37911,0.097459,2.5366,-0.35833,-0.15418,2.513,-0.32127,-0.36683,2.4967,-0.29997,-0.41372,2.4611,-0.58567,-0.24325,2.4808,-0.623,-0.59261,2.4363,-0.57364,-0.90384,2.4768,-0.56313,-0.93767,2.4027,-0.44776,-0.2566,2.5156,-0.3797,-0.63279,2.5003,-0.40663,-0.94416,2.5646,-0.33235,-1.0003,2.58
-0.52066,-0.17952,2.4964,-0.52398,-0.11178,2.5149,-0.52555,0.23231,2.5094,-0.47699,0.40197,2.4799,-0.66539,0.13359,2.4977,-0.83361,-0.055544,2.5383,-0.94559,-0.22341,2.5125,-0.97195,-0.28296,2.5054,-0.3803,0.095512,2.5351,-0.35974,-0.16272,2.5113,-0.32174,-0.36992,2.492,-0.30376,-0.41811,2.4626,-0.58941,-0.24479,2.4744,-0.62892,-0.59615,2.4307,-0.57776,-0.90263,2.4726,-0.56728,-0.93615,2.3983,-0.45176,-0.25892,2.5084,-0.39485,-0.63097,2.4666,-0.42615,-0.93546,2.5018,-0.35771,-0.99839,2.5135
-0.52509,-0.18297,2.4891,-0.5286,-0.11913,2.5081,-0.52883,0.19394,2.5061,-0.48019,0.38603,2.4842,-0.66683,0.13225,2.4981,-0.83826,-0.059116,2.5358,-0.94496,-0.23035,2.5108,-0.96887,-0.29055,2.5017,-0.38228,0.090573,2.5338,-0.3581,-0.16086,2.513,-0.32425,-0.36595,2.4893,-0.306,-0.42154,2.4638,-0.59245,-0.24742,2.4667,-0.63339,-0.59754,2.4254,-0.58215,-0.87999,2.4644,-0.53834,-0.92831,2.4279,-0.46045,-0.26435,2.498,-0.4121,-0.62018,2.4294,-0.44982,-0.91969,2.4365,-0.40021,-0.99485,2.4593
-0.53216,-0.18516,2.4802,-0.53427,-0.12281,2.5032,-0.52917,0.19317,2.5061,-0.48023,0.38604,2.4853,-0.66711,0.13151,2.4982,-0.83781,-0.060286,2.534,-0.93642,-0.23438,2.4931,-0.95758,-0.28803,2.4835,-0.3841,0.090426,2.534,-0.36076,-0.16051,2.5124,-0.32548,-0.36574,2.4879,-0.31448,-0.42266,2.4572,-0.59928,-0.24791,2.4548,-0.64671,-0.58831,2.4129,-0.58069,-0.91342,2.4698,-0.57003,-0.94597,2.3951,-0.47001,-0.26631,2.4883,-0.43226,-0.62486,2.396,-0.47118,-0.89987,2.3715,-0.44175,-0.95532,2.3359
-0.53524,-0.18677,2.475,-0.53767,-0.12625,2.5006,-0.52964,0.18383,2.506,-0.48305,0.37832,2.4863,-0.66702,0.12932,2.499,-0.83781,-0.063314,2.5292,-0.93172,-0.2371,2.4756,-0.9496,-0.28909,2.4647,-0.38587,0.089103,2.5365,-0.36271,-0.15975,2.5116,-0.33133,-0.35858,2.4835,-0.31583,-0.42272,2.4575,-0.60164,-0.24775,2.449,-0.64862,-0.58828,2.4086,-0.58933,-0.9029,2.4626,-0.57802,-0.9351,2.3879,-0.47456,-0.26879,2.4816,-0.47316,-0.61027,2.3667,-0.47884,-0.87773,2.3059,-0.49056,-0.92525,2.2729
-0.53993,-0.18566,2.47,-0.54189,-0.12462,2.4995,-0.52853,0.21668,2.5164,-0.48047,0.39468,2.4842,-0.66716,0.12631,2.5008,-0.83178,-0.059833,2.519,-0.92641,-0.2315,2.4605,-0.94028,-0.28029,2.4448,-0.38688,0.089204,2.5411,-0.37079,-0.18024,2.5056,-0.33112,-0.3749,2.4786,-0.31912,-0.42481,2.4534,-0.61253,-0.2438,2.4388,-0.65157,-0.58858,2.4003,-0.59064,-0.87291,2.442,-0.56954,-0.89974,2.362,-0.47742,-0.26924,2.4769,-0.48979,-0.59217,2.3408,-0.49083,-0.85078,2.2395,-0.50661,-0.8957,2.1959
-0.54229,-0.18625,2.4668,-0.54396,-0.1254,2.4995,-0.52875,0.21305,2.518,-0.48155,0.38888,2.4852,-0.66777,0.12256,2.5024,-0.82755,-0.058931,2.5025,-0.91994,-0.22601,2.426,-0.93334,-0.27685,2.408,-0.38733,0.086758,2.5435,-0.37278,-0.18282,2.5065,-0.33772,-0.37765,2.472,-0.32693,-0.42879,2.4487,-0.61539,-0.24367,2.4351,-0.6591,-0.58671,2.3862,-0.61283,-0.89437,2.4355,-0.57358,-0.88462,2.3381,-0.47923,-0.27123,2.4724,-0.52166,-0.58178,2.3095,-0.51186,-0.82665,2.1738,-0.52335,-0.87046,2.1205
-0.54282,-0.18757,2.4647,-0.54494,-0.12734,2.4991,-0.52653,0.20745,2.5218,-0.48109,0.38619,2.4875,-0.6677,0.11381,2.5045,-0.82555,-0.059069,2.4964,-0.91602,-0.22117,2.4052,-0.93275,-0.27355,2.386,-0.38592,0.084052,2.5488,-0.37366,-0.18547,2.5065,-0.34276,-0.38065,2.4689,-0.3266,-0.45203,2.4495,-0.61648,-0.24538,2.4312,-0.66648,-0.58737,2.3784,-0.58001,-0.90266,2.454,-0.57395,-0.90913,2.3699,-0.47927,-0.27297,2.47,-0.53063,-0.57226,2.2927,-0.52425,-0.7989,2.1229,-0.53427,-0.8407,2.0658
-0.54281,-0.18859,2.4632,-0.54498,-0.12869,2.4992,-0.52433,0.20184,2.5249,-0.47943,0.37481,2.4888,-0.6676,0.11001,2.5071,-0.82666,-0.060009,2.4888,-0.91551,-0.21889,2.3853,-0.92933,-0.26762,2.3558,-0.38605,0.078431,2.5495,-0.37433,-0.1911,2.5063,-0.3443,-0.38624,2.4669,-0.33408,-0.43707,2.4479,-0.61682,-0.2459,2.43,-0.66046,-0.58084,2.3658,-0.58192,-0.89685,2.4498,-0.57621,-0.90327,2.3656,-0.47873,-0.27504,2.4668,-0.52911,-0.57528,2.247,-0.54037,-0.78832,2.0571,-0.52756,-0.81918,1.9821
-0.54249,-0.19111,2.4611,-0.54444,-0.1315,2.4996,-0.522,0.19684,2.5278,-0.47882,0.37112,2.4889,-0.66783,0.10446,2.5102,-0.82564,-0.056622,2.482,-0.91219,-0.21296,2.3698,-0.92374,-0.25799,2.3388,-0.38508,0.076372,2.5498,-0.37706,-0.19314,2.5026,-0.35229,-0.38802,2.455,-0.34181,-0.4325,2.4346,-0.61673,-0.24673,2.4291,-0.66007,-0.57546,2.3577,-0.58394,-0.89565,2.4467,-0.57884,-0.90039,2.3627,-0.47797,-0.27878,2.4617,-0.54861,-0.55814,2.2261,-0.54669,-0.75999,2.023,-0.57334,-0.79505,1.9697
-0.53923,-0.19331,2.461,-0.54137,-0.13491,2.5012,-0.5196,0.19144,2.5304,-0.47747,0.36654,2.489,-0.66705,0.098966,2.5126,-0.82518,-0.055322,2.4794,-0.9126,-0.21094,2.3648,-0.92288,-0.25189,2.3307,-0.38202,0.06754,2.5494,-0.37736,-0.20172,2.4985,-0.35389,-0.41101,2.4439,-0.34355,-0.44136,2.4256,-0.61441,-0.24886,2.4295,-0.66176,-0.57208,2.3541,-0.58508,-0.89435,2.4452,-0.58145,-0.89778,2.3614,-0.47186,-0.28143,2.4605,-0.53851,-0.54325,2.204,-0.55657,-0.73767,1.9936,-0.56685,-0.76565,1.9254
-0.53814,-0.19717,2.4598,-0.53972,-0.13915,2.5017,-0.51883,0.18823,2.5312,-0.47627,0.3638,2.4868,-0.66725,0.095591,2.5147,-0.82567,-0.056052,2.4783,-0.91126,-0.20877,2.3594,-0.92416,-0.25124,2.3307,-0.37996,0.060246,2.5441,-0.38456,-0.20693,2.4832,-0.35626,-0.41357,2.4251,-0.35047,-0.43972,2.4097,-0.61414,-0.25221,2.4294,-0.66783,-0.56889,2.3497,-0.58778,-0.8915,2.4419,-0.58554,-0.89352,2.3585,-0.46972,-0.28512,2.4579,-0.53807,-0.52226,2.1956,-0.56936,-0.71387,1.9638,-0.55953,-0.74431,1.8881
-0.53844,-0.19937,2.458,-0.53906,-0.14214,2.5018,-0.51762,0.18431,2.5324,-0.47504,0.35913,2.4866,-0.66775,0.090543,2.5186,-0.82356,-0.06089,2.4771,-0.91279,-0.21015,2.3583,-0.92536,-0.25117,2.331,-0.37758,0.052364,2.5408,-0.38755,-0.20823,2.4787,-0.35567,-0.41097,2.4157,-0.34573,-0.45617,2.3944,-0.61599,-0.2542,2.4277,-0.6745,-0.57084,2.3523,-0.58909,-0.89122,2.4411,-0.5877,-0.89287,2.3577,-0.47025,-0.28698,2.4544,-0.54217,-0.51671,2.1874,-0.57463,-0.70227,1.9567,-0.56644,-0.73261,1.8807
-0.53855,-0.20044,2.4571,-0.53863,-0.14384,2.5022,-0.51612,0.18164,2.5336,-0.47334,0.35691,2.4872,-0.66702,0.089637,2.5215,-0.82309,-0.061741,2.4789,-0.91353,-0.21177,2.365,-0.9286,-0.25381,2.3388,-0.37633,0.05056,2.5394,-0.38841,-0.21597,2.4675,-0.35543,-0.41849,2.4092,-0.34861,-0.45654,2.3888,-0.61635,-0.25483,2.4275,-0.67511,-0.57239,2.3521,-0.59101,-0.89009,2.4398,-0.59018,-0.8916,2.3564,-0.47058,-0.2883,2.452,-0.55698,-0.50915,2.1629,-0.57691,-0.70135,1.9463,-0.58184,-0.72951,1.8758
-0.53751,-0.20146,2.4568,-0.53735,-0.14541,2.5029,-0.51486,0.17965,2.5339,-0.47224,0.35535,2.4887,-0.66614,0.087315,2.523,-0.82264,-0.062321,2.482,-0.91512,-0.21787,2.3805,-0.93283,-0.26132,2.3516,-0.37348,0.046754,2.5379,-0.38652,-0.21925,2.4632,-0.36138,-0.40748,2.3914,-0.35383,-0.46575,2.3954,-0.61564,-0.25591,2.428,-0.67172,-0.56816,2.3508,-0.5911,-0.89066,2.4396,-0.59073,-0.89204,2.3563,-0.46862,-0.28956,2.4508,-0.55843,-0.50374,2.1629,-0.57805,-0.6983,1.9428,-0.58338,-0.72771,1.8729
-0.53651,-0.20218,2.4566,-0.53634,-0.14649,2.5037,-0.51456,0.17892,2.5341,-0.47126,0.35417,2.4889,-0.6655,0.085682,2.5246,-0.82141,-0.065138,2.4872,-0.91631,-0.22076,2.3884,-0.9343,-0.26342,2.3656,-0.36961,0.044187,2.5375,-0.38533,-0.22143,2.4614,-0.36088,-0.4096,2.3889,-0.35519,-0.46688,2.3918,-0.61483,-0.2569,2.4286,-0.67167,-0.56796,2.351,-0.5913,-0.88931,2.4382,-0.59108,-0.89089,2.3547,-0.467,-0.28978,2.45,-0.55641,-0.49479,2.1685,-0.57852,-0.69358,1.9458,-0.57237,-0.72381,1.8695
-0.53547,-0.20451,2.4558,-0.5352,-0.1488,2.504,-0.51392,0.17785,2.5344,-0.46932,0.35184,2.4893,-0.66488,0.084465,2.526,-0.82077,-0.068404,2.4934,-0.91777,-0.22827,2.4051,-0.94017,-0.27753,2.3789,-0.3695,0.043451,2.5368,-0.38658,-0.22147,2.4577,-0.36087,-0.41043,2.3753,-0.36221,-0.44902,2.3504,-0.61324,-0.25904,2.4294,-0.66888,-0.56557,2.3493,-0.59144,-0.88922,2.4379,-0.59157,-0.89088,2.3545,-0.46681,-0.29066,2.4478,-0.55726,-0.49551,2.1666,-0.57871,-0.69399,1.9533,-0.57307,-0.7242,1.877
-0.53523,-0.20507,2.4553,-0.53452,-0.14959,2.5043,-0.5134,0.17771,2.5345,-0.46885,0.3523,2.4886,-0.66386,0.084141,2.5273,-0.82116,-0.073542,2.4989,-0.91959,-0.2345,2.4151,-0.94116,-0.28407,2.3944,-0.37042,0.043538,2.5351,-0.38773,-0.22122,2.4551,-0.36325,-0.40751,2.3712,-0.35956,-0.46384,2.3422,-0.61306,-0.25936,2.4297,-0.66854,-0.56402,2.3516,-0.59168,-0.88893,2.4383,-0.59231,-0.8907,2.3548,-0.46693,-0.29008,2.446,-0.5575,-0.50098,2.1659,-0.57808,-0.70097,1.9606,-0.57322,-0.73118,1.8842
-0.53541,-0.20497,2.4551,-0.53357,-0.14982,2.5048,-0.51294,0.17751,2.5346,-0.46875,0.3516,2.4883,-0.66268,0.084837,2.529,-0.82174,-0.07558,2.5047,-0.92032,-0.23894,2.4262,-0.94149,-0.28669,2.4046,-0.37458,0.057254,2.5326,-0.38676,-0.197,2.4568,-0.36712,-0.38929,2.3743,-0.36282,-0.44696,2.3466,-0.61295,-0.25895,2.4304,-0.67038,-0.5701,2.3585,-0.59123,-0.88924,2.4394,-0.59382,-0.89107,2.3559,-0.46744,-0.28916,2.4453,-0.55616,-0.50421,2.1666,-0.57738,-0.70987,1.9674,-0.57449,-0.74009,1.8911
-0.53517,-0.20332,2.4559,-0.53267,-0.14881,2.5058,-0.51219,0.17758,2.5344,-0.4687,0.35191,2.4881,-0.66223,0.08603,2.5313,-0.82142,-0.077895,2.5088,-0.91912,-0.24308,2.4333,-0.93443,-0.28238,2.4187,-0.37179,0.053769,2.5299,-0.38639,-0.21107,2.4495,-0.36461,-0.39754,2.37,-0.36093,-0.44767,2.3442,-0.61385,-0.25767,2.432,-0.66993,-0.5737,2.3633,-0.59003,-0.89204,2.4414,-0.59301,-0.89354,2.3581,-0.46728,-0.28776,2.4455,-0.55216,-0.51876,2.171,-0.56818,-0.73467,1.9843,-0.58466,-0.75467,1.9142
-0.53449,-0.20257,2.4563,-0.53182,-0.14822,2.5066,-0.51181,0.17799,2.5341,-0.46926,0.35262,2.4885,-0.66184,0.086241,2.5323,-0.81908,-0.078367,2.5142,-0.91623,-0.24625,2.4452,-0.93696,-0.29517,2.4282,-0.37147,0.054247,2.5289,-0.38543,-0.2105,2.4481,-0.36484,-0.39711,2.3684,-0.35968,-0.45561,2.3392,-0.61291,-0.25691,2.4334,-0.66958,-0.57323,2.3682,-0.58635,-0.89539,2.4414,-0.58959,-0.89703,2.358,-0.46644,-0.2866,2.4458,-0.54798,-0.51233,2.2003,-0.56252,-0.73282,2.008,-0.5781,-0.76452,1.9415
-0.5342,-0.20185,2.4569,-0.53107,-0.14759,2.5075,-0.51143,0.17866,2.5336,-0.47029,0.35464,2.488,-0.6615,0.088014,2.5345,-0.81647,-0.079722,2.5222,-0.91274,-0.24836,2.454,-0.92546,-0.28548,2.438,-0.37142,0.055402,2.5274,-0.38475,-0.20947,2.447,-0.36445,-0.39673,2.369,-0.36013,-0.45505,2.3393,-0.61268,-0.25606,2.4352,-0.67066,-0.57473,2.3744,-0.58573,-0.89641,2.4428,-0.58889,-0.89847,2.3593,-0.46608,-0.28565,2.446,-0.53921,-0.52741,2.2007,-0.55322,-0.74837,2.0199,-0.57386,-0.77145,1.9524
-0.53369,-0.20118,2.4575,-0.5301,-0.14655,2.5084,-0.5097,0.18195,2.5328,-0.47162,0.35741,2.4865,-0.66079,0.089112,2.5354,-0.81452,-0.081975,2.5285,-0.90931,-0.25091,2.4588,-0.91949,-0.28905,2.4463,-0.37065,0.056617,2.5258,-0.38247,-0.19968,2.4474,-0.366,-0.38843,2.3721,-0.36211,-0.4472,2.3431,-0.61218,-0.2555,2.4365,-0.67117,-0.57387,2.3789,-0.5868,-0.89647,2.4475,-0.58883,-0.89952,2.3638,-0.46541,-0.28474,2.4466,-0.53275,-0.52827,2.216,-0.54743,-0.7501,2.0364,-0.56738,-0.78248,1.9725
-0.5327,-0.19806,2.4596,-0.5292,-0.14328,2.5104,-0.5085,0.18507,2.5317,-0.47359,0.36254,2.4855,-0.65986,0.091737,2.5362,-0.80929,-0.081616,2.5348,-0.90303,-0.25099,2.4649,-0.91118,-0.2934,2.4553,-0.36737,0.060353,2.5273,-0.38144,-0.20478,2.4482,-0.36403,-0.39283,2.3713,-0.36152,-0.43757,2.3468,-0.61147,-0.25399,2.4383,-0.64509,-0.56741,2.3622,-0.58474,-0.89428,2.4428,-0.58528,-0.89858,2.3588,-0.46427,-0.27923,2.4503,-0.52591,-0.53076,2.2248,-0.53571,-0.76078,2.0578,-0.53575,-0.79122,1.9813
-0.53193,-0.19562,2.4609,-0.5281,-0.14041,2.5118,-0.50884,0.19033,2.5314,-0.47303,0.36723,2.4863,-0.65888,0.096032,2.5372,-0.80354,-0.083536,2.5392,-0.89465,-0.25537,2.4729,-0.90045,-0.29839,2.4622,-0.36973,0.067041,2.5258,-0.38055,-0.1964,2.4502,-0.3615,-0.38455,2.3744,-0.35822,-0.43536,2.3481,-0.61003,-0.25193,2.44,-0.64378,-0.56524,2.3652,-0.58408,-0.89356,2.4456,-0.58399,-0.89926,2.3613,-0.4637,-0.27545,2.4524,-0.51328,-0.53345,2.2353,-0.52633,-0.77156,2.0816,-0.52724,-0.80207,2.0051
-0.5308,-0.19321,2.4626,-0.52713,-0.13755,2.5135,-0.5101,0.19501,2.5312,-0.47499,0.37172,2.4867,-0.65858,0.098083,2.5375,-0.80212,-0.084107,2.5419,-0.8849,-0.26192,2.4824,-0.89364,-0.30249,2.4667,-0.3677,0.073168,2.5252,-0.37873,-0.19359,2.4531,-0.35674,-0.38146,2.3769,-0.3517,-0.43097,2.3518,-0.6078,-0.24977,2.4436,-0.64255,-0.5638,2.3756,-0.58182,-0.89518,2.4494,-0.58055,-0.90223,2.365,-0.46242,-0.27271,2.4538,-0.49889,-0.53566,2.2545,-0.50798,-0.78387,2.1197,-0.5093,-0.81446,2.0432
-0.52898,-0.19044,2.4646,-0.52525,-0.13442,2.5155,-0.50993,0.19927,2.5311,-0.47638,0.37524,2.486,-0.65758,0.099791,2.5372,-0.79826,-0.085147,2.5474,-0.873,-0.26642,2.4874,-0.88076,-0.30586,2.4739,-0.36709,0.079584,2.5239,-0.3778,-0.18801,2.4559,-0.35292,-0.37559,2.3801,-0.34862,-0.42051,2.3533,-0.60565,-0.24864,2.4455,-0.64242,-0.57398,2.3947,-0.61316,-0.89142,2.4305,-0.5776,-0.88177,2.3154,-0.4601,-0.26993,2.4565,-0.49066,-0.53618,2.2731,-0.48763,-0.79711,2.1556,-0.48952,-0.82779,2.0791
-0.52804,-0.18869,2.4658,-0.52439,-0.13218,2.5166,-0.51027,0.20308,2.5302,-0.47835,0.38308,2.4874,-0.65634,0.10305,2.5372,-0.78967,-0.088225,2.5524,-0.86035,-0.27121,2.4935,-0.86259,-0.31354,2.48,-0.3664,0.081352,2.5233,-0.37564,-0.18714,2.4605,-0.34917,-0.37375,2.3823,-0.34073,-0.43127,2.3517,-0.60439,-0.24743,2.4469,-0.64171,-0.5715,2.4005,-0.59094,-0.8591,2.451,-0.57885,-0.88045,2.3684,-0.45888,-0.26808,2.4582,-0.4847,-0.54403,2.2897,-0.47218,-0.81456,2.1942,-0.48385,-0.86358,2.1505
-0.52663,-0.18662,2.4671,-0.52318,-0.12959,2.518,-0.50976,0.20649,2.53,-0.47981,0.38698,2.4871,-0.65609,0.10458,2.5371,-0.7863,-0.089522,2.5564,-0.84385,-0.27812,2.5025,-0.84616,-0.31514,2.4858,-0.36587,0.084105,2.5241,-0.3745,-0.18458,2.4624,-0.34202,-0.37125,2.3877,-0.33113,-0.42933,2.3593,-0.60314,-0.24666,2.4478,-0.63652,-0.57647,2.4076,-0.58769,-0.8708,2.4526,-0.61856,-0.91956,2.3597,-0.45717,-0.26548,2.4605,-0.44377,-0.55437,2.29,-0.45418,-0.8384,2.238,-0.45603,-0.86923,2.1615
-0.52494,-0.1848,2.4688,-0.52197,-0.12763,2.5194,-0.50974,0.20798,2.5298,-0.48022,0.39063,2.489,-0.65513,0.10704,2.5372,-0.77948,-0.093264,2.5623,-0.82652,-0.28466,2.5088,-0.82834,-0.32246,2.4911,-0.36503,0.084906,2.5247,-0.37096,-0.18415,2.4655,-0.32978,-0.37022,2.3962,-0.3225,-0.41125,2.3734,-0.60011,-0.24491,2.4503,-0.63414,-0.57499,2.4117,-0.58041,-0.89143,2.4641,-0.5821,-0.92235,2.3877,-0.4556,-0.2633,2.4626,-0.4305,-0.5619,2.3073,-0.43961,-0.86436,2.2894,-0.4413,-0.89527,2.2129
-0.52258,-0.18282,2.4707,-0.52005,-0.12534,2.521,-0.50963,0.2102,2.5291,-0.48047,0.39195,2.4895,-0.65456,0.10853,2.5376,-0.76242,-0.10292,2.5654,-0.81663,-0.29262,2.5121,-0.81818,-0.32895,2.4965,-0.36338,0.092741,2.526,-0.36319,-0.17674,2.4716,-0.32164,-0.36452,2.4069,-0.29464,-0.41542,2.3911,-0.59578,-0.24308,2.4537,-0.63381,-0.57358,2.4139,-0.57695,-0.89957,2.4703,-0.57873,-0.93058,2.394,-0.45355,-0.26009,2.4646,-0.41276,-0.57784,2.3297,-0.42512,-0.88614,2.3422,-0.40155,-0.93789,2.2968
-0.51719,-0.18004,2.4743,-0.51582,-0.12218,2.524,-0.51022,0.21286,2.5292,-0.48133,0.39331,2.4898,-0.6528,0.11151,2.5386,-0.75214,-0.10723,2.5656,-0.79538,-0.30151,2.5222,-0.80255,-0.34723,2.51,-0.36143,0.09509,2.525,-0.36032,-0.17475,2.473,-0.31388,-0.36246,2.4121,-0.28933,-0.41244,2.3932,-0.58774,-0.24192,2.4589,-0.62757,-0.57201,2.4194,-0.57691,-0.89877,2.471,-0.57919,-0.92995,2.3947,-0.44764,-0.25578,2.4685,-0.3992,-0.58048,2.3454,-0.40773,-0.897,2.3946,-0.37902,-0.95032,2.3543
-0.51429,-0.17883,2.4765,-0.51276,-0.1205,2.5261,-0.50977,0.21467,2.5299,-0.48186,0.39467,2.4902,-0.6505,0.11307,2.5409,-0.74752,-0.1141,2.5675,-0.79084,-0.30789,2.5212,-0.79493,-0.35333,2.5109,-0.36019,0.096295,2.5248,-0.35497,-0.17357,2.4741,-0.30616,-0.36231,2.4197,-0.28463,-0.40903,2.3986,-0.58423,-0.24157,2.4619,-0.61603,-0.57613,2.4248,-0.57686,-0.8975,2.471,-0.57985,-0.92876,2.3948,-0.44515,-0.25419,2.4701,-0.38313,-0.59089,2.3675,-0.3918,-0.90351,2.4413,-0.37013,-0.95602,2.4105
-0.5099,-0.17936,2.4799,-0.50824,-0.12022,2.5294,-0.50769,0.21635,2.5311,-0.48235,0.39438,2.4907,-0.64827,0.11367,2.542,-0.73697,-0.12246,2.5728,-0.77574,-0.31768,2.5296,-0.78674,-0.3564,2.5161,-0.35874,0.095623,2.5233,-0.34754,-0.17458,2.4792,-0.29485,-0.36156,2.4253,-0.28046,-0.40883,2.4009,-0.57908,-0.24285,2.4672,-0.61043,-0.57643,2.4285,-0.57637,-0.89789,2.4715,-0.58003,-0.92928,2.3955,-0.44142,-0.25396,2.4723,-0.36782,-0.59296,2.3893,-0.37057,-0.91229,2.4873,-0.32227,-0.98757,2.5018
-0.50409,-0.17799,2.4841,-0.50235,-0.11825,2.5334,-0.50453,0.21965,2.5335,-0.48122,0.39735,2.4928,-0.64548,0.11532,2.545,-0.73071,-0.12458,2.5751,-0.76068,-0.32168,2.5346,-0.77242,-0.37451,2.5208,-0.35394,0.099964,2.524,-0.34021,-0.17041,2.4835,-0.28655,-0.35752,2.4293,-0.26937,-0.40423,2.4079,-0.57331,-0.24199,2.4721,-0.60532,-0.57942,2.4316,-0.57541,-0.89658,2.4714,-0.57979,-0.92808,2.3955,-0.435,-0.25253,2.4762,-0.35623,-0.60666,2.4135,-0.34961,-0.91365,2.5298,-0.29276,-0.98725,2.5481
-0.4989,-0.17712,2.4886,-0.49697,-0.1169,2.5376,-0.50161,0.22128,2.5351,-0.47996,0.39807,2.4937,-0.64012,0.11822,2.549,-0.72257,-0.12386,2.5762,-0.75397,-0.32098,2.5375,-0.77306,-0.36024,2.5201,-0.34865,0.10145,2.5247,-0.32348,-0.16817,2.4911,-0.2781,-0.35712,2.4345,-0.2637,-0.39158,2.4179,-0.56791,-0.24102,2.4774,-0.60037,-0.57962,2.4336,-0.57443,-0.89736,2.4724,-0.57957,-0.92903,2.3965,-0.42964,-0.25165,2.4807,-0.35101,-0.61208,2.4311,-0.32519,-0.92365,2.5705,-0.27205,-1.0004,2.5871
-0.49333,-0.17752,2.4922,-0.49131,-0.11678,2.5414,-0.49572,0.2242,2.5387,-0.47716,0.40197,2.4961,-0.63285,0.11979,2.5511,-0.71038,-0.12451,2.5808,-0.73801,-0.32078,2.5335,-0.75032,-0.36427,2.5303,-0.34244,0.10403,2.527,-0.31392,-0.15654,2.4965,-0.26964,-0.34665,2.4419,-0.25114,-0.38538,2.4232,-0.56108,-0.24049,2.4825,-0.5937,-0.58029,2.4373,-0.5736,-0.89766,2.4736,-0.57872,-0.92935,2.3977,-0.4254,-0.25132,2.4832,-0.34532,-0.62025,2.4631,-0.30432,-0.93376,2.5999,-0.27938,-0.98105,2.5622
-0.48939,-0.17784,2.4951,-0.48644,-0.11692,2.5443,-0.48708,0.22587,2.5416,-0.47259,0.40377,2.5009,-0.62689,0.11851,2.5561,-0.70343,-0.12408,2.5825,-0.7294,-0.31964,2.5306,-0.74552,-0.36022,2.5255,-0.33308,0.10625,2.5294,-0.30205,-0.14282,2.5004,-0.24633,-0.33085,2.4532,-0.242,-0.38201,2.4314,-0.55771,-0.2412,2.4866,-0.58539,-0.582,2.4414,-0.57167,-0.89946,2.4742,-0.57743,-0.93116,2.3983,-0.42173,-0.25144,2.4852,-0.34207,-0.62304,2.4819,-0.28829,-0.93703,2.6215,-0.26822,-0.98209,2.5836
-0.48041,-0.17792,2.5003,-0.477,-0.11671,2.5496,-0.47733,0.22679,2.5457,-0.46635,0.40395,2.5051,-0.61431,0.12045,2.5597,-0.68651,-0.12568,2.5799,-0.72501,-0.32001,2.531,-0.73219,-0.3753,2.5325,-0.32321,0.10529,2.5324,-0.29127,-0.15062,2.506,-0.23343,-0.33805,2.4595,-0.22985,-0.38025,2.4391,-0.54856,-0.24076,2.4925,-0.57277,-0.58209,2.4467,-0.57023,-0.9003,2.4752,-0.57607,-0.93205,2.3993,-0.41397,-0.25061,2.4899,-0.33581,-0.6302,2.5043,-0.28351,-0.93275,2.631,-0.2655,-0.98268,2.5919
-0.4651,-0.17702,2.5073,-0.46123,-0.11608,2.557,-0.46104,0.22757,2.5551,-0.45376,0.40702,2.5118,-0.60247,0.12218,2.5641,-0.67737,-0.12228,2.5835,-0.70091,-0.31827,2.5323,-0.71896,-0.35889,2.5277,-0.31198,0.10943,2.5361,-0.28247,-0.15374,2.5086,-0.22061,-0.33907,2.4601,-0.21479,-0.37633,2.4498,-0.53339,-0.2397,2.4993,-0.56632,-0.58317,2.4512,-0.56769,-0.9012,2.4761,-0.57379,-0.93284,2.4001,-0.39929,-0.24874,2.4961,-0.33177,-0.63949,2.5306,-0.27806,-0.92221,2.6401,-0.28416,-0.95385,2.5642
-0.45414,-0.17729,2.5129,-0.45061,-0.116,2.5624,-0.45297,0.22794,2.5589,-0.44006,0.40798,2.5192,-0.58816,0.12229,2.5699,-0.6582,-0.12326,2.5896,-0.69068,-0.31761,2.5358,-0.69418,-0.37072,2.5456,-0.29668,0.10891,2.5406,-0.26031,-0.1485,2.519,-0.2084,-0.33806,2.4724,-0.20481,-0.37771,2.4531,-0.52172,-0.23987,2.5068,-0.55265,-0.58331,2.4576,-0.56487,-0.90553,2.478,-0.57125,-0.93728,2.4021,-0.38791,-0.24856,2.5005,-0.32531,-0.64078,2.5428,-0.27728,-0.9265,2.6519,-0.26047,-0.98494,2.6107
-0.44087,-0.17533,2.5191,-0.43707,-0.11412,2.5687,-0.43614,0.22986,2.5656,-0.42696,0.40862,2.5248,-0.57461,0.12283,2.5749,-0.64643,-0.12002,2.5934,-0.67634,-0.31303,2.5337,-0.68897,-0.37078,2.5433,-0.27884,0.10744,2.5469,-0.2469,-0.15195,2.525,-0.19776,-0.34198,2.4758,-0.19473,-0.3803,2.4547,-0.51076,-0.23848,2.5125,-0.54108,-0.58357,2.4626,-0.5629,-0.90618,2.4794,-0.56875,-0.93789,2.4034,-0.3737,-0.24709,2.5066,-0.31643,-0.64341,2.5575,-0.27588,-0.93375,2.6606,-0.26332,-0.98185,2.6165
-0.42135,-0.17265,2.5278,-0.41968,-0.11145,2.5769,-0.42397,0.23029,2.5704,-0.41086,0.40588,2.53,-0.56223,0.12181,2.58,-0.63042,-0.1185,2.5988,-0.66409,-0.30861,2.5306,-0.65719,-0.36016,2.5151,-0.2594,0.11021,2.5576,-0.23281,-0.15223,2.5295,-0.18749,-0.34386,2.4824,-0.18357,-0.38078,2.4605,-0.49251,-0.23763,2.5199,-0.52884,-0.58293,2.4745,-0.55928,-0.90547,2.4845,-0.54929,-0.96376,2.4636,-0.35083,-0.24545,2.5174,-0.30963,-0.64286,2.5693,-0.27703,-0.93144,2.6621,-0.25914,-0.9834,2.6198
-0.40339,-0.16827,2.5355,-0.40205,-0.1075,2.5846,-0.40455,0.23127,2.5767,-0.39836,0.40427,2.5351,-0.54557,0.12252,2.586,-0.61718,-0.11454,2.6047,-0.64413,-0.30598,2.5367,-0.6434,-0.35851,2.5239,-0.24545,0.12461,2.5704,-0.21545,-0.14472,2.5396,-0.1776,-0.33845,2.4939,-0.17031,-0.38129,2.4667,-0.4737,-0.23387,2.5273,-0.519,-0.58507,2.4835,-0.55584,-0.90648,2.4888,-0.54783,-0.9622,2.4644,-0.33422,-0.24076,2.5258,-0.29905,-0.63851,2.5799,-0.27663,-0.93509,2.6651,-0.25537,-0.98983,2.6251
-0.37242,-0.1674,2.5488,-0.37578,-0.10529,2.5948,-0.39512,0.23239,2.5817,-0.37863,0.40795,2.5471,-0.53303,0.12334,2.5904,-0.59969,-0.11496,2.6101,-0.62511,-0.30603,2.54,-0.62297,-0.36133,2.5339,-0.23546,0.1242,2.5762,-0.20251,-0.14498,2.5465,-0.16533,-0.33845,2.4994,-0.15686,-0.37798,2.4708,-0.4391,-0.23541,2.5395,-0.50176,-0.58729,2.494,-0.55194,-0.90872,2.4898,-0.55478,-0.94116,2.4139,-0.30072,-0.23869,2.5418,-0.28883,-0.63446,2.5889,-0.27592,-0.93532,2.6675,-0.25458,-0.99032,2.6262
-0.36371,-0.16414,2.5537,-0.3662,-0.1026,2.599,-0.38114,0.23225,2.588,-0.36635,0.40629,2.5508,-0.51985,0.12569,2.5997,-0.58689,-0.11331,2.6156,-0.61278,-0.30378,2.5444,-0.61777,-0.35821,2.5356,-0.21995,0.12869,2.5876,-0.19101,-0.14095,2.5533,-0.14854,-0.33421,2.511,-0.14616,-0.38064,2.4801,-0.43139,-0.2338,2.5447,-0.48895,-0.59134,2.5041,-0.54972,-0.90754,2.4896,-0.54482,-0.96365,2.4638,-0.29149,-0.23686,2.5468,-0.2715,-0.59735,2.5812,-0.27456,-0.93365,2.6703,-0.25861,-0.98988,2.6309
-0.35253,-0.16631,2.559,-0.35472,-0.10407,2.6032,-0.3704,0.23303,2.5924,-0.35499,0.40528,2.5546,-0.50547,0.12728,2.605,-0.57157,-0.1158,2.6185,-0.60102,-0.30595,2.5473,-0.60269,-0.36104,2.539,-0.2077,0.12556,2.5921,-0.17048,-0.14315,2.5665,-0.13279,-0.33684,2.5201,-0.12472,-0.37809,2.5027,-0.41925,-0.23545,2.5513,-0.48304,-0.59205,2.5101,-0.54914,-0.90637,2.49,-0.5446,-0.96311,2.4631,-0.28116,-0.2379,2.5514,-0.26593,-0.59182,2.5838,-0.27203,-0.93489,2.6755,-0.25645,-0.9905,2.6337
-0.3399,-0.16888,2.5659,-0.34095,-0.10658,2.6097,-0.35204,0.23185,2.6002,-0.33602,0.40447,2.5627,-0.49277,0.12516,2.6128,-0.55913,-0.11486,2.6245,-0.59344,-0.30538,2.5559,-0.59333,-0.36146,2.5555,-0.18596,0.10802,2.5965,-0.16097,-0.15195,2.5732,-0.11573,-0.34346,2.525,-0.11063,-0.37017,2.5167,-0.40803,-0.23746,2.5587,-0.47374,-0.59308,2.519,-0.54828,-0.90375,2.4902,-0.55103,-0.93609,2.4143,-0.26828,-0.24137,2.5575,-0.25778,-0.5873,2.5895,-0.27087,-0.9287,2.681,-0.24469,-1.0122,2.6688
