-0.19781,-0.19745,2.7024,-0.19812,-0.13014,2.7106,-0.19163,0.20817,2.7078,-0.16875,0.38162,2.698,-0.32411,0.088595,2.7111,-0.42518,-0.16059,2.7411,-0.45697,-0.35794,2.7099,-0.44648,-0.37746,2.7108,-0.032434,0.066846,2.716,-0.024377,-0.13949,2.6329,-0.02296,-0.26555,2.4694,-0.036532,-0.27738,2.4623,-0.26446,-0.26053,2.6963,-0.26175,-0.67504,2.6418,-0.33155,-0.95978,2.6664,-0.34035,-1.0143,2.6345,-0.1294,-0.26788,2.7035,-0.093115,-0.68792,2.7091,-0.096223,-0.96924,2.7363,-0.08369,-1.031,2.7162
-0.19597,-0.19807,2.7004,-0.19632,-0.13079,2.7098,-0.1854,0.20867,2.7056,-0.15066,0.3796,2.6959,-0.31808,0.089946,2.7003,-0.42541,-0.15495,2.7396,-0.45611,-0.35344,2.7177,-0.44851,-0.37713,2.7186,-0.030677,0.065527,2.7185,-0.038915,-0.14901,2.6136,-0.034947,-0.26746,2.4434,-0.056429,-0.29543,2.4269,-0.26243,-0.26043,2.6906,-0.25672,-0.67746,2.63,-0.34985,-0.96204,2.6468,-0.36839,-1.0164,2.6136,-0.12931,-0.26885,2.7034,-0.073559,-0.66161,2.7049,-0.11353,-0.965,2.7209,-0.085666,-1.0179,2.7198
-0.19596,-0.19121,2.6878,-0.19569,-0.12588,2.7014,-0.17994,0.20886,2.7024,-0.14315,0.37931,2.6951,-0.31327,0.087206,2.6866,-0.42766,-0.15241,2.7352,-0.4571,-0.35128,2.7308,-0.44712,-0.39145,2.7445,-0.029499,0.064324,2.7233,-0.04544,-0.15855,2.608,-0.092896,-0.24607,2.4248,-0.085155,-0.25608,2.4434,-0.27159,-0.25161,2.655,-0.25334,-0.67705,2.6086,-0.38522,-0.96237,2.6202,-0.37104,-1.0105,2.5659,-0.12952,-0.26454,2.6998,-0.076031,-0.66752,2.7312,-0.084998,-0.94006,2.7155,-0.085401,-0.99011,2.6623
-0.19369,-0.18704,2.6696,-0.19255,-0.12281,2.6876,-0.17492,0.20775,2.6939,-0.13799,0.37973,2.6919,-0.31309,0.089818,2.6755,-0.43004,-0.13937,2.7253,-0.45012,-0.33616,2.7485,-0.44758,-0.38953,2.7682,-0.048348,0.056763,2.7131,-0.07396,-0.15117,2.5964,-0.092727,-0.24837,2.4159,-0.11293,-0.23578,2.4396,-0.26837,-0.25004,2.6445,-0.25643,-0.67616,2.5939,-0.42283,-0.95795,2.5906,-0.39411,-1.015,2.5683,-0.1295,-0.25489,2.6797,-0.076089,-0.67199,2.7338,-0.082843,-0.93561,2.7219,-0.083092,-0.98539,2.6688
-0.19535,-0.18685,2.6598,-0.19514,-0.12211,2.6785,-0.17333,0.21033,2.6834,-0.13225,0.38062,2.6854,-0.30948,0.091109,2.6598,-0.43271,-0.13399,2.7213,-0.45014,-0.32569,2.7673,-0.45138,-0.37271,2.7993,-0.023856,0.086375,2.7568,-0.028401,-0.12388,2.6132,-0.14497,-0.22064,2.4166,-0.1381,-0.22334,2.438,-0.27084,-0.24999,2.6311,-0.26373,-0.66887,2.5735,-0.44687,-0.96001,2.5526,-0.41516,-1.0127,2.5164,-0.12907,-0.25344,2.6756,-0.078633,-0.67143,2.7343,-0.075995,-0.9344,2.7229,-0.038962,-1.0406,2.7356
-0.19878,-0.18486,2.6466,-0.19943,-0.11988,2.6659,-0.1759,0.21358,2.6729,-0.12913,0.38168,2.6775,-0.30904,0.089378,2.6446,-0.43475,-0.13046,2.7171,-0.45951,-0.30526,2.7957,-0.44604,-0.35395,2.8265,-0.024489,0.082294,2.7627,-0.032275,-0.116,2.6232,-0.18062,-0.24434,2.3934,-0.13576,-0.22123,2.4443,-0.27482,-0.2486,2.6074,-0.28096,-0.67496,2.5502,-0.46193,-0.96498,2.5107,-0.44076,-1.0223,2.4737,-0.13157,-0.2532,2.6702,-0.082504,-0.67197,2.7388,-0.045627,-0.97406,2.7636,-0.03851,-1.0408,2.7353
-0.2002,-0.18273,2.6388,-0.20177,-0.11793,2.6574,-0.17982,0.21387,2.6617,-0.1291,0.38132,2.6722,-0.31101,0.086256,2.6286,-0.43845,-0.12907,2.7126,-0.45786,-0.30423,2.7953,-0.44407,-0.35146,2.8282,-0.0287,0.082713,2.7613,-0.035488,-0.11763,2.626,-0.181,-0.23359,2.3834,-0.141,-0.22467,2.4443,-0.27462,-0.2483,2.597,-0.29475,-0.66869,2.534,-0.46142,-0.95528,2.467,-0.47512,-0.9801,2.3861,-0.13381,-0.25404,2.6662,-0.09709,-0.67084,2.7365,-0.048782,-0.97553,2.7642,-0.077925,-1.0119,2.7153
-0.21119,-0.19344,2.6179,-0.21191,-0.12734,2.6369,-0.18453,0.21196,2.6463,-0.13233,0.37822,2.6598,-0.31298,0.080319,2.6106,-0.44384,-0.12876,2.7085,-0.49198,-0.30579,2.779,-0.45037,-0.34757,2.8336,-0.03827,0.07451,2.757,-0.042008,-0.11559,2.6308,-0.18457,-0.24534,2.3723,-0.14789,-0.22372,2.4463,-0.27614,-0.25205,2.5897,-0.32247,-0.6605,2.5013,-0.44752,-0.94309,2.4287,-0.41788,-0.99028,2.3784,-0.15316,-0.25693,2.6381,-0.10223,-0.66817,2.7341,-0.051796,-0.97319,2.7633,-0.037451,-1.04,2.7381
-0.21615,-0.19867,2.6064,-0.21707,-0.13139,2.6251,-0.19609,0.21008,2.6287,-0.14423,0.37319,2.6364,-0.31994,0.077722,2.5976,-0.45463,-0.12854,2.6989,-0.50301,-0.29638,2.7873,-0.47492,-0.33109,2.844,-0.054091,0.066655,2.7388,-0.1429,-0.16153,2.5559,-0.18737,-0.25477,2.3759,-0.20491,-0.27393,2.3262,-0.28061,-0.25704,2.5774,-0.33507,-0.65462,2.4769,-0.43828,-0.93151,2.4016,-0.40534,-0.97437,2.3472,-0.15755,-0.26174,2.6257,-0.11841,-0.66556,2.7223,-0.062063,-0.96861,2.7643,-0.03799,-1.0342,2.7438
-0.21616,-0.20119,2.5979,-0.21855,-0.13392,2.6148,-0.20606,0.20885,2.6137,-0.15256,0.37262,2.6256,-0.33321,0.07625,2.5859,-0.47523,-0.12688,2.6822,-0.51394,-0.29501,2.7786,-0.4798,-0.33022,2.834,-0.059956,0.065287,2.7339,-0.13838,-0.18468,2.5512,-0.16205,-0.32075,2.3991,-0.1867,-0.26774,2.3986,-0.28054,-0.26075,2.57,-0.34778,-0.65352,2.4549,-0.43419,-0.92699,2.3793,-0.40029,-0.96931,2.3247,-0.15552,-0.26355,2.6172,-0.12999,-0.66206,2.7043,-0.070685,-0.9674,2.7607,-0.038933,-1.0309,2.7443
-0.25472,-0.2064,2.5518,-0.25617,-0.13995,2.572,-0.22516,0.20584,2.5942,-0.17179,0.36803,2.6064,-0.34779,0.076297,2.5716,-0.49431,-0.13049,2.6584,-0.54032,-0.30725,2.7299,-0.56522,-0.35152,2.7529,-0.074681,0.06166,2.7132,-0.10113,-0.17016,2.6101,-0.11959,-0.31041,2.4547,-0.084496,-0.3152,2.4498,-0.32137,-0.26392,2.5203,-0.36925,-0.64178,2.4209,-0.43403,-0.91688,2.3566,-0.35356,-0.94653,2.3032,-0.19563,-0.27454,2.5697,-0.13505,-0.66326,2.6894,-0.072215,-0.97065,2.7577,-0.038916,-1.0329,2.7398
-0.26223,-0.21225,2.5441,-0.26315,-0.14525,2.565,-0.23792,0.19884,2.5796,-0.18814,0.3637,2.5905,-0.37455,0.074611,2.5581,-0.51181,-0.14169,2.6373,-0.56558,-0.32611,2.6842,-0.59059,-0.38676,2.6994,-0.087086,0.054471,2.6907,-0.10687,-0.17342,2.6002,-0.099302,-0.33045,2.4691,-0.085602,-0.37894,2.451,-0.32589,-0.26721,2.5164,-0.37962,-0.6415,2.399,-0.43369,-0.91412,2.3435,-0.35658,-0.93639,2.2842,-0.20886,-0.28823,2.5559,-0.15148,-0.66409,2.6349,-0.072576,-0.97363,2.7512,-0.036727,-1.0361,2.7401
-0.27408,-0.21655,2.5291,-0.27607,-0.15444,2.5513,-0.26153,0.16333,2.56,-0.21072,0.34631,2.5703,-0.38999,0.070935,2.5506,-0.53245,-0.15248,2.6044,-0.58676,-0.34189,2.6335,-0.59901,-0.39624,2.6476,-0.09779,0.054238,2.6743,-0.10467,-0.20476,2.5836,-0.074032,-0.3807,2.4868,-0.043575,-0.3791,2.4905,-0.34156,-0.27674,2.4961,-0.38953,-0.64175,2.3807,-0.43383,-0.90977,2.3269,-0.3628,-0.92415,2.2578,-0.21633,-0.30118,2.5372,-0.1636,-0.65301,2.5754,-0.076069,-0.95303,2.7141,-0.046286,-0.98687,2.6411
-0.30754,-0.21644,2.4891,-0.30874,-0.15325,2.519,-0.28176,0.18515,2.556,-0.23527,0.34818,2.5518,-0.40727,0.064227,2.5393,-0.54794,-0.16495,2.5776,-0.6055,-0.35939,2.5774,-0.62144,-0.40898,2.5832,-0.12476,0.061075,2.6512,-0.10432,-0.20356,2.5792,-0.05911,-0.39427,2.5374,-0.039395,-0.42439,2.5286,-0.37541,-0.27469,2.4556,-0.4034,-0.65228,2.3535,-0.47563,-0.93154,2.3138,-0.36912,-0.99458,2.2133,-0.24876,-0.29122,2.4964,-0.2635,-0.6464,2.4268,-0.076299,-0.94007,2.6662,-0.048979,-0.97263,2.5917
-0.32488,-0.22109,2.4686,-0.32412,-0.15889,2.5024,-0.29544,0.17997,2.5487,-0.25807,0.34801,2.5428,-0.43182,0.053393,2.5287,-0.57011,-0.18247,2.5398,-0.62478,-0.3762,2.5166,-0.63941,-0.42699,2.5163,-0.1633,0.022753,2.5641,-0.10155,-0.2107,2.5696,-0.045064,-0.40028,2.5814,-0.01048,-0.44584,2.5804,-0.39689,-0.28107,2.4367,-0.39961,-0.67081,2.3276,-0.47612,-0.92946,2.3092,-0.3817,-1.0145,2.2071,-0.26294,-0.29577,2.4703,-0.2145,-0.69107,2.3854,-0.067304,-0.92498,2.618,-0.05296,-0.95603,2.5394
-0.33268,-0.22403,2.4575,-0.33379,-0.16367,2.4919,-0.31604,0.16587,2.5362,-0.2815,0.33866,2.5304,-0.44426,0.042975,2.5197,-0.58515,-0.19264,2.5166,-0.63838,-0.38115,2.4565,-0.65084,-0.43302,2.4473,-0.16383,0.024212,2.5587,-0.096357,-0.20786,2.5822,-0.035035,-0.40161,2.5913,-0.01481,-0.44614,2.6025,-0.40506,-0.2876,2.4249,-0.39547,-0.67784,2.3067,-0.47648,-0.92698,2.292,-0.40312,-1.0194,2.2019,-0.27019,-0.29832,2.4551,-0.24529,-0.66872,2.3103,-0.11597,-0.89596,2.4925,-0.05247,-0.9946,2.5855
-0.35313,-0.22889,2.4415,-0.35284,-0.17026,2.4781,-0.33048,0.15734,2.5279,-0.30044,0.32701,2.5227,-0.45808,0.034701,2.5099,-0.59132,-0.19845,2.4728,-0.64747,-0.38438,2.4075,-0.6601,-0.44567,2.3874,-0.17798,0.019001,2.5429,-0.098397,-0.20718,2.5815,-0.042868,-0.39831,2.6155,-0.030006,-0.44043,2.6355,-0.42675,-0.29705,2.4099,-0.40353,-0.67753,2.2755,-0.47715,-0.91662,2.2775,-0.41977,-1.0232,2.2042,-0.29125,-0.29872,2.4364,-0.27668,-0.65571,2.2589,-0.15806,-0.9008,2.4241,-0.124,-0.96919,2.4179
-0.36287,-0.24046,2.4249,-0.36309,-0.18226,2.4652,-0.34948,0.1479,2.5193,-0.33097,0.3241,2.5196,-0.47244,0.025609,2.5039,-0.59687,-0.20645,2.4521,-0.64891,-0.37949,2.3526,-0.66383,-0.44494,2.3337,-0.1976,0.021269,2.5242,-0.10489,-0.20754,2.5801,-0.049284,-0.39556,2.6253,-0.03646,-0.43711,2.6434,-0.43244,-0.30695,2.4013,-0.43401,-0.68523,2.2561,-0.47859,-0.91653,2.2675,-0.42403,-1.0238,2.2057,-0.29958,-0.29985,2.4149,-0.31306,-0.61529,2.2146,-0.21187,-0.89604,2.3342,-0.1962,-0.95374,2.2956
-0.36914,-0.24105,2.4181,-0.36888,-0.18373,2.4601,-0.35945,0.1472,2.5134,-0.34872,0.32358,2.512,-0.48437,0.020481,2.4985,-0.59383,-0.20641,2.4109,-0.64915,-0.37894,2.3108,-0.66347,-0.43836,2.2792,-0.21765,0.023121,2.5052,-0.11001,-0.20787,2.5812,-0.051265,-0.39316,2.632,-0.037151,-0.43087,2.6566,-0.43845,-0.30951,2.3957,-0.47477,-0.70613,2.2579,-0.43371,-0.98621,2.2953,-0.42841,-1.0168,2.2154,-0.30472,-0.29718,2.406,-0.35373,-0.60965,2.1846,-0.30081,-0.88852,2.2354,-0.29896,-0.9459,2.1439
-0.37271,-0.23828,2.4131,-0.37392,-0.18146,2.4563,-0.37504,0.14763,2.5035,-0.36095,0.3227,2.5053,-0.49564,0.022212,2.4944,-0.59093,-0.20147,2.396,-0.63015,-0.34995,2.2556,-0.64546,-0.41175,2.2114,-0.22053,0.026519,2.5025,-0.12124,-0.20424,2.5796,-0.055993,-0.3856,2.6352,-0.036348,-0.42096,2.66,-0.44249,-0.3087,2.3931,-0.47345,-0.70629,2.2572,-0.44318,-0.98071,2.2633,-0.49878,-0.93206,2.2627,-0.30629,-0.29109,2.3981,-0.37409,-0.58941,2.1531,-0.35039,-0.85681,2.1353,-0.39342,-0.92006,2.0476
-0.38321,-0.23915,2.411,-0.38368,-0.18249,2.4551,-0.3842,0.1483,2.4992,-0.38117,0.32538,2.4969,-0.50413,0.025529,2.4897,-0.57895,-0.17184,2.3845,-0.62059,-0.31974,2.2436,-0.63327,-0.37147,2.1871,-0.23731,0.044287,2.4921,-0.12931,-0.20069,2.575,-0.056316,-0.37744,2.6349,-0.035396,-0.40776,2.6555,-0.45094,-0.30681,2.3956,-0.52025,-0.71853,2.2921,-0.43922,-0.97938,2.2612,-0.47777,-0.92323,2.2792,-0.32048,-0.29682,2.3917,-0.38582,-0.58048,2.1402,-0.42432,-0.84254,1.9878,-0.48605,-0.86723,1.9645
-0.38897,-0.24768,2.4098,-0.38926,-0.18855,2.455,-0.39378,0.15013,2.4959,-0.3943,0.32468,2.4928,-0.51223,0.025355,2.4816,-0.57936,-0.16131,2.3665,-0.60865,-0.30445,2.2172,-0.61417,-0.34224,2.177,-0.25652,0.044149,2.4822,-0.1333,-0.19868,2.5722,-0.055823,-0.37415,2.6305,-0.038594,-0.38719,2.6403,-0.45269,-0.3093,2.398,-0.50386,-0.73759,2.2837,-0.4371,-0.98324,2.2549,-0.47959,-0.93,2.2727,-0.32518,-0.29957,2.3906,-0.39807,-0.56382,2.1399,-0.46218,-0.80404,1.9425,-0.52983,-0.82318,1.9464
-0.39217,-0.24634,2.4101,-0.39363,-0.1875,2.4563,-0.40232,0.15082,2.4937,-0.40616,0.32468,2.4865,-0.52039,0.025229,2.476,-0.58188,-0.15244,2.3575,-0.59138,-0.28082,2.192,-0.59551,-0.30756,2.1431,-0.2596,0.0469,2.48,-0.13482,-0.19478,2.5681,-0.056811,-0.37288,2.6189,-0.038634,-0.38376,2.6352,-0.4561,-0.30861,2.3994,-0.50835,-0.71052,2.2947,-0.50699,-1.0062,2.309,-0.50179,-1.037,2.2292,-0.32733,-0.29847,2.3914,-0.38362,-0.58883,2.1675,-0.47247,-0.79881,1.9335,-0.53626,-0.78304,1.9083
-0.39664,-0.24658,2.4109,-0.39876,-0.18817,2.4577,-0.40892,0.1503,2.4919,-0.42201,0.32274,2.4799,-0.53016,0.012665,2.4688,-0.58818,-0.15215,2.3437,-0.57397,-0.26236,2.1657,-0.57667,-0.28631,2.1097,-0.26511,0.047184,2.4767,-0.13296,-0.18784,2.5589,-0.053349,-0.36738,2.6033,-0.040533,-0.36826,2.6077,-0.46001,-0.30949,2.4029,-0.50511,-0.69555,2.2968,-0.49958,-1.0092,2.3182,-0.49289,-1.04,2.2385,-0.33407,-0.29718,2.3917,-0.41743,-0.58448,2.1389,-0.47444,-0.79467,1.9381,-0.53871,-0.78263,1.9121
-0.40095,-0.23973,2.4137,-0.40303,-0.1839,2.4605,-0.41243,0.15022,2.4918,-0.42357,0.32288,2.4795,-0.53156,0.012074,2.4677,-0.58698,-0.15079,2.3337,-0.56618,-0.25177,2.1508,-0.56896,-0.26984,2.0957,-0.26297,0.048628,2.4788,-0.14979,-0.1694,2.5151,-0.061952,-0.33913,2.5566,-0.037799,-0.37544,2.5661,-0.46502,-0.30619,2.4037,-0.50389,-0.69857,2.2947,-0.49883,-1.0108,2.3187,-0.49203,-1.0415,2.239,-0.33592,-0.29036,2.3955,-0.40774,-0.58948,2.1421,-0.47131,-0.83909,1.9328,-0.49919,-0.78667,1.9705
-0.41304,-0.24957,2.406,-0.4129,-0.19132,2.4563,-0.41587,0.14884,2.4925,-0.42789,0.32091,2.4797,-0.53389,0.011145,2.4672,-0.58736,-0.14821,2.3286,-0.55725,-0.23582,2.1405,-0.56157,-0.24134,2.0929,-0.26365,0.048454,2.4793,-0.14904,-0.17175,2.5123,-0.059184,-0.3446,2.5397,-0.034606,-0.38136,2.5475,-0.47082,-0.30814,2.3987,-0.49812,-0.70011,2.2842,-0.49751,-1.0125,2.3188,-0.49084,-1.0432,2.2391,-0.35703,-0.31203,2.3835,-0.41201,-0.58273,2.1527,-0.46459,-0.79604,1.9343,-0.46382,-0.82795,1.8412
-0.4139,-0.24996,2.4049,-0.41442,-0.19241,2.4561,-0.41866,0.14889,2.4947,-0.42916,0.32085,2.4817,-0.5353,0.014371,2.4688,-0.58735,-0.14673,2.324,-0.55794,-0.22893,2.1331,-0.56097,-0.23197,2.0905,-0.26552,0.048418,2.4802,-0.14975,-0.17522,2.5044,-0.052509,-0.34718,2.5144,-0.032397,-0.37198,2.5141,-0.47224,-0.30791,2.3954,-0.49873,-0.69411,2.2831,-0.49238,-1.012,2.3178,-0.48609,-1.0426,2.238,-0.35713,-0.31175,2.3831,-0.42226,-0.57427,2.144,-0.47701,-0.81053,1.9445,-0.47491,-0.84995,1.8542
-0.41381,-0.24924,2.4043,-0.41483,-0.19243,2.4566,-0.42042,0.14965,2.4973,-0.42901,0.32165,2.484,-0.53654,0.017006,2.4699,-0.59055,-0.14271,2.322,-0.55628,-0.22375,2.1317,-0.56095,-0.22321,2.0901,-0.26625,0.049022,2.4823,-0.1502,-0.17598,2.498,-0.052157,-0.34814,2.4965,-0.026639,-0.36975,2.4912,-0.47185,-0.3071,2.3941,-0.49991,-0.69847,2.2795,-0.48195,-1.0116,2.3166,-0.47571,-1.0421,2.2368,-0.3563,-0.3087,2.3826,-0.42633,-0.58858,2.1508,-0.39926,-0.87202,2.0912,-0.38117,-0.90298,2.0307
-0.41348,-0.24786,2.4048,-0.41594,-0.19259,2.4573,-0.42221,0.13497,2.4988,-0.427,0.32404,2.4904,-0.5369,0.020681,2.4711,-0.58834,-0.14361,2.3245,-0.56158,-0.21499,2.1293,-0.56145,-0.21921,2.0911,-0.26178,0.051918,2.4902,-0.14875,-0.17633,2.489,-0.053172,-0.34808,2.4563,-0.029843,-0.36221,2.4549,-0.4717,-0.3054,2.3939,-0.502,-0.69631,2.2809,-0.47817,-1.011,2.3174,-0.47193,-1.0414,2.2375,-0.35481,-0.30678,2.3841,-0.41896,-0.59221,2.1663,-0.35936,-0.85722,2.1508,-0.37366,-0.89715,2.0558
-0.41197,-0.2392,2.4114,-0.41525,-0.18483,2.464,-0.41876,0.15539,2.507,-0.4209,0.3293,2.5008,-0.53676,0.024851,2.4735,-0.59076,-0.13802,2.3312,-0.5672,-0.21192,2.1365,-0.56405,-0.21759,2.0925,-0.25979,0.051576,2.4925,-0.14895,-0.1779,2.4826,-0.054848,-0.34865,2.4356,-0.037099,-0.35469,2.4311,-0.47249,-0.30194,2.3954,-0.50692,-0.69222,2.3051,-0.41816,-0.98268,2.2167,-0.41202,-1.0131,2.1368,-0.34788,-0.29031,2.399,-0.39338,-0.60528,2.2002,-0.35164,-0.86957,2.1965,-0.2994,-0.94555,2.1837
-0.40965,-0.23191,2.4183,-0.4144,-0.18102,2.4695,-0.41964,0.13623,2.5061,-0.41522,0.33166,2.5097,-0.53753,0.027865,2.4767,-0.59349,-0.1373,2.3371,-0.57357,-0.21203,2.1426,-0.57067,-0.21955,2.1004,-0.25786,0.051931,2.4967,-0.15064,-0.17849,2.4784,-0.058025,-0.34756,2.4199,-0.043058,-0.34866,2.4113,-0.47119,-0.29302,2.4017,-0.50107,-0.69455,2.3039,-0.42131,-0.98794,2.269,-0.41505,-1.0183,2.1892,-0.34642,-0.28947,2.4025,-0.37415,-0.61696,2.2279,-0.27813,-0.9118,2.2908,-0.23058,-0.97956,2.2844
-0.40754,-0.23153,2.422,-0.41247,-0.18113,2.4739,-0.41879,0.13626,2.5093,-0.41217,0.33074,2.5151,-0.53796,0.031133,2.4812,-0.59923,-0.13806,2.349,-0.57931,-0.21313,2.1557,-0.58234,-0.23589,2.1303,-0.25874,0.061158,2.504,-0.16168,-0.17207,2.4702,-0.069082,-0.33648,2.3977,-0.059716,-0.34135,2.3904,-0.46758,-0.29228,2.4061,-0.47698,-0.69062,2.2983,-0.44608,-0.99664,2.2985,-0.43875,-1.0269,2.2188,-0.34521,-0.29043,2.4067,-0.33581,-0.67608,2.2742,-0.26772,-0.92259,2.3491,-0.23957,-0.91955,2.3196
-0.39923,-0.22547,2.4364,-0.40517,-0.1704,2.4904,-0.41059,0.16818,2.5261,-0.39999,0.3367,2.5209,-0.53644,0.032639,2.4854,-0.60966,-0.1282,2.3671,-0.58927,-0.22259,2.1825,-0.59367,-0.25188,2.1514,-0.24337,0.044404,2.5165,-0.15947,-0.18523,2.4671,-0.072459,-0.34601,2.3786,-0.047933,-0.34278,2.3811,-0.46568,-0.29241,2.412,-0.46599,-0.69741,2.3074,-0.4438,-1.0007,2.306,-0.43601,-1.031,2.2263,-0.32716,-0.28813,2.4293,-0.33699,-0.62979,2.2801,-0.22296,-0.92544,2.4005,-0.18117,-0.9653,2.3754
-0.39517,-0.22675,2.4436,-0.40211,-0.17066,2.4967,-0.40646,0.17068,2.5301,-0.39245,0.33824,2.5238,-0.5324,0.03586,2.4931,-0.61141,-0.13606,2.3908,-0.60206,-0.24186,2.2109,-0.60057,-0.27489,2.1827,-0.23929,0.044593,2.5266,-0.16715,-0.18643,2.4674,-0.081809,-0.34179,2.3668,-0.060367,-0.34296,2.3557,-0.46225,-0.29383,2.4174,-0.44242,-0.69171,2.3186,-0.52368,-0.94797,2.2777,-0.44054,-1.0338,2.234,-0.32445,-0.29319,2.4378,-0.29326,-0.6557,2.3329,-0.16715,-0.94106,2.4837,-0.14822,-1.0026,2.4497
-0.38694,-0.22587,2.4583,-0.3952,-0.1691,2.5105,-0.39976,0.17212,2.5385,-0.38031,0.34216,2.5351,-0.52842,0.037197,2.5011,-0.60449,-0.14313,2.4121,-0.61004,-0.26672,2.2454,-0.6059,-0.31783,2.2126,-0.23246,0.043686,2.5409,-0.18259,-0.16906,2.4796,-0.10682,-0.32532,2.3718,-0.08682,-0.35883,2.3437,-0.45494,-0.29374,2.4295,-0.4427,-0.68352,2.3304,-0.51823,-0.93921,2.2809,-0.43829,-1.0348,2.23,-0.31549,-0.29663,2.455,-0.2627,-0.65561,2.3759,-0.19192,-0.88112,2.4465,-0.18169,-0.91175,2.3672
-0.37931,-0.22846,2.4692,-0.38839,-0.17108,2.5211,-0.39395,0.17119,2.5458,-0.37382,0.34088,2.5403,-0.52148,0.036265,2.5114,-0.60097,-0.14974,2.4271,-0.61193,-0.2988,2.2842,-0.60291,-0.3631,2.2401,-0.22884,0.042472,2.5537,-0.18939,-0.17286,2.488,-0.11544,-0.32499,2.3734,-0.10795,-0.3526,2.3533,-0.44557,-0.29564,2.4411,-0.44482,-0.67505,2.3388,-0.51223,-0.93522,2.2827,-0.43858,-1.0357,2.2274,-0.30895,-0.29946,2.4672,-0.24428,-0.64727,2.4202,-0.18161,-0.86915,2.5303,-0.20802,-0.91426,2.4662
-0.35365,-0.23485,2.4952,-0.3686,-0.17518,2.5434,-0.3864,0.16887,2.5532,-0.36168,0.34466,2.5514,-0.51072,0.035244,2.5198,-0.59458,-0.1674,2.4503,-0.6104,-0.33238,2.3275,-0.60168,-0.37821,2.2959,-0.22176,0.038147,2.5751,-0.1952,-0.19004,2.5048,-0.12848,-0.33074,2.3704,-0.1049,-0.37764,2.3293,-0.41608,-0.30163,2.4634,-0.43751,-0.67988,2.3462,-0.51462,-0.95177,2.2828,-0.43688,-1.0336,2.2221,-0.282,-0.31302,2.5012,-0.22196,-0.64652,2.4719,-0.16349,-0.88766,2.6266,-0.18471,-0.90932,2.5403
-0.34923,-0.23474,2.5054,-0.36498,-0.17573,2.553,-0.37903,0.16397,2.5633,-0.3509,0.33975,2.559,-0.50004,0.032008,2.5343,-0.58423,-0.19499,2.4752,-0.60158,-0.37344,2.3744,-0.60037,-0.4162,2.3545,-0.20952,0.030332,2.5963,-0.19485,-0.20455,2.5218,-0.14937,-0.34989,2.3827,-0.10534,-0.38208,2.3352,-0.41329,-0.30122,2.4731,-0.42947,-0.68347,2.3488,-0.51609,-0.95899,2.2847,-0.43008,-1.0294,2.2221,-0.27665,-0.3118,2.5134,-0.20254,-0.6778,2.5417,-0.14899,-0.94174,2.7075,-0.13135,-0.97326,2.6298
-0.34998,-0.2392,2.5231,-0.36268,-0.18049,2.5706,-0.36447,0.15527,2.5793,-0.33344,0.33115,2.5734,-0.4863,0.030149,2.5516,-0.57564,-0.20532,2.4995,-0.59626,-0.39212,2.4204,-0.59747,-0.43232,2.4166,-0.20649,0.028219,2.6123,-0.1921,-0.21649,2.5406,-0.15496,-0.38006,2.4242,-0.12685,-0.40557,2.3745,-0.41608,-0.30234,2.4933,-0.42756,-0.68404,2.3546,-0.52197,-0.96019,2.2903,-0.42648,-1.0268,2.2221,-0.28216,-0.31585,2.5324,-0.1996,-0.6757,2.5961,-0.16662,-0.92866,2.7319,-0.20565,-0.90633,2.6037
-0.33288,-0.24757,2.5566,-0.3456,-0.18719,2.6028,-0.34905,0.14935,2.5955,-0.32114,0.32371,2.5859,-0.47373,0.02762,2.5687,-0.55835,-0.21566,2.542,-0.58759,-0.40832,2.4828,-0.59156,-0.4541,2.4771,-0.19803,0.025906,2.6341,-0.19098,-0.22674,2.5632,-0.1615,-0.40072,2.4591,-0.13145,-0.43486,2.4252,-0.39746,-0.31104,2.5296,-0.41498,-0.6627,2.3872,-0.50441,-0.91636,2.2955,-0.42283,-1.0225,2.2133,-0.26548,-0.31965,2.5655,-0.20622,-0.68312,2.6551,-0.21148,-0.9271,2.7448,-0.20035,-0.96444,2.7119
-0.30742,-0.24298,2.5945,-0.32431,-0.18211,2.6376,-0.33573,0.14695,2.6144,-0.30828,0.32105,2.6021,-0.45685,0.027599,2.5927,-0.54565,-0.21926,2.5746,-0.57065,-0.41724,2.5453,-0.57837,-0.48381,2.5397,-0.18189,0.02507,2.6713,-0.18816,-0.22973,2.5888,-0.15762,-0.41883,2.5223,-0.13635,-0.46112,2.4938,-0.37417,-0.31412,2.5615,-0.40355,-0.6846,2.4101,-0.50586,-0.95483,2.2912,-0.41729,-1.0071,2.2042,-0.23272,-0.30961,2.6153,-0.20307,-0.68776,2.6894,-0.1807,-0.92828,2.7668,-0.18543,-0.9621,2.7395
-0.29128,-0.24489,2.6255,-0.30865,-0.1818,2.6633,-0.32237,0.14813,2.6321,-0.29373,0.32203,2.6143,-0.44139,0.028084,2.6172,-0.52353,-0.22006,2.616,-0.56048,-0.41679,2.5935,-0.56899,-0.47993,2.6078,-0.17332,0.035976,2.7048,-0.14276,-0.16517,2.6718,-0.15805,-0.41169,2.5832,-0.14351,-0.45862,2.554,-0.35239,-0.31344,2.6003,-0.39775,-0.6615,2.4438,-0.48168,-0.92597,2.3252,-0.42781,-0.96938,2.2888,-0.21939,-0.31237,2.6469,-0.19006,-0.68341,2.7189,-0.19428,-0.93365,2.7899,-0.12349,-1.0196,2.8498
-0.2814,-0.24261,2.6589,-0.29814,-0.17647,2.6934,-0.3064,0.15784,2.651,-0.27503,0.33039,2.6351,-0.42497,0.039883,2.6388,-0.50889,-0.21316,2.642,-0.54061,-0.41034,2.6503,-0.55014,-0.46393,2.6589,-0.15006,0.044525,2.7587,-0.15336,-0.1787,2.6818,-0.14451,-0.38258,2.6464,-0.13158,-0.42443,2.6002,-0.34102,-0.30777,2.6382,-0.38929,-0.65105,2.4806,-0.43958,-0.91223,2.3487,-0.40025,-0.9506,2.2847,-0.21461,-0.30894,2.679,-0.18467,-0.68081,2.7351,-0.1668,-0.96294,2.8301,-0.18004,-0.96173,2.784
-0.27289,-0.24271,2.6832,-0.28995,-0.17461,2.7128,-0.29808,0.16474,2.6639,-0.25921,0.33974,2.6568,-0.415,0.045164,2.649,-0.48918,-0.20602,2.6759,-0.522,-0.40403,2.6966,-0.52657,-0.47073,2.7119,-0.14544,0.053562,2.7768,-0.12479,-0.15866,2.7456,-0.10972,-0.365,2.7073,-0.079911,-0.40164,2.6606,-0.32475,-0.30258,2.6708,-0.38267,-0.64473,2.5092,-0.43353,-0.91967,2.3952,-0.401,-0.95322,2.318,-0.21011,-0.30369,2.7049,-0.17991,-0.68176,2.7567,-0.16379,-0.96192,2.8314,-0.18767,-0.96438,2.7982
-0.26213,-0.24911,2.7149,-0.27901,-0.17739,2.7413,-0.28378,0.17307,2.685,-0.24393,0.34731,2.6753,-0.39842,0.052688,2.6619,-0.47604,-0.19786,2.6937,-0.50192,-0.39751,2.7301,-0.50371,-0.46064,2.7581,-0.13848,0.059942,2.7943,-0.11624,-0.18334,2.7717,-0.094961,-0.37153,2.7619,-0.08239,-0.43227,2.7252,-0.31066,-0.30357,2.7004,-0.37523,-0.62674,2.5613,-0.42681,-0.92469,2.4361,-0.39622,-0.96047,2.3597,-0.20861,-0.30526,2.729,-0.17603,-0.6784,2.7771,-0.16089,-0.96769,2.8351,-0.18457,-0.96864,2.814
-0.26109,-0.24205,2.7294,-0.27626,-0.17078,2.7543,-0.27503,0.18142,2.702,-0.234,0.35173,2.6907,-0.38674,0.060661,2.6771,-0.46108,-0.17508,2.7244,-0.49095,-0.36946,2.7519,-0.48546,-0.41785,2.7715,-0.13085,0.065396,2.8125,-0.098856,-0.17623,2.8325,-0.11405,-0.37477,2.7674,-0.082317,-0.42219,2.7388,-0.30957,-0.29465,2.7163,-0.37185,-0.63249,2.5657,-0.43012,-0.9354,2.4799,-0.39867,-0.97045,2.4033,-0.20982,-0.29882,2.7458,-0.1741,-0.67492,2.7906,-0.15762,-0.97326,2.8395,-0.19475,-0.97472,2.8156
-0.25108,-0.23193,2.7521,-0.26675,-0.16071,2.7741,-0.26937,0.18597,2.7132,-0.22589,0.3565,2.7027,-0.37558,0.063481,2.6904,-0.45617,-0.16688,2.7298,-0.46545,-0.36462,2.7828,-0.46716,-0.38176,2.7879,-0.11982,0.06726,2.8401,-0.0896,-0.17955,2.8513,-0.10944,-0.37447,2.7981,-0.076485,-0.4292,2.7756,-0.30129,-0.28884,2.7338,-0.35704,-0.6483,2.5786,-0.43321,-0.95272,2.5335,-0.43601,-0.99868,2.4839,-0.19684,-0.28974,2.7781,-0.17113,-0.66476,2.8056,-0.1558,-0.95642,2.8425,-0.17905,-0.96149,2.8448
-0.26138,-0.21347,2.7462,-0.27135,-0.14816,2.7728,-0.26384,0.18944,2.7243,-0.21921,0.36164,2.7206,-0.37079,0.066993,2.702,-0.44923,-0.1546,2.7439,-0.46634,-0.35405,2.7703,-0.46477,-0.37773,2.7882,-0.11088,0.080027,2.8576,-0.083887,-0.17375,2.8728,-0.070126,-0.37324,2.8215,-0.061786,-0.43183,2.8129,-0.32145,-0.27363,2.7204,-0.33956,-0.66279,2.5979,-0.43623,-0.96842,2.5846,-0.43008,-1.0117,2.5279,-0.20221,-0.27429,2.7746,-0.16551,-0.66179,2.8136,-0.15491,-0.95212,2.8476,-0.2003,-0.9535,2.7914
-0.26464,-0.21684,2.7579,-0.2728,-0.14833,2.7824,-0.25984,0.19422,2.738,-0.21637,0.36399,2.7282,-0.36561,0.071174,2.7142,-0.45155,-0.15411,2.7496,-0.4603,-0.35849,2.7767,-0.46026,-0.37872,2.7934,-0.10891,0.079415,2.8638,-0.082366,-0.16897,2.8892,-0.070471,-0.36602,2.8264,-0.065157,-0.37028,2.8328,-0.31994,-0.27342,2.7357,-0.32808,-0.66688,2.6198,-0.42794,-0.97131,2.6504,-0.40902,-1.0165,2.5958,-0.21309,-0.27836,2.7827,-0.16205,-0.66075,2.8173,-0.15332,-0.95028,2.8496,-0.23243,-0.96796,2.8095
-0.26606,-0.2161,2.7633,-0.27407,-0.14769,2.7864,-0.25735,0.19449,2.7448,-0.2117,0.36749,2.7423,-0.36428,0.070786,2.7205,-0.45152,-0.16494,2.7622,-0.48237,-0.36061,2.7825,-0.50722,-0.42453,2.777,-0.10549,0.078097,2.8695,-0.082245,-0.16828,2.8926,-0.068468,-0.36608,2.8333,-0.10427,-0.39428,2.85,-0.32144,-0.27261,2.7429,-0.31526,-0.67105,2.6471,-0.40406,-0.96634,2.7063,-0.40817,-1.0218,2.6616,-0.21429,-0.27749,2.7878,-0.15917,-0.66497,2.8221,-0.14937,-0.95539,2.8561,-0.23415,-0.97274,2.8169
-0.25317,-0.20882,2.7822,-0.26505,-0.14164,2.8008,-0.25285,0.19639,2.7545,-0.21126,0.36759,2.7454,-0.36148,0.071574,2.7264,-0.45588,-0.16684,2.7643,-0.48374,-0.36939,2.7786,-0.4904,-0.43674,2.7702,-0.10397,0.079916,2.8718,-0.082031,-0.16323,2.8976,-0.05939,-0.35953,2.8354,-0.051842,-0.42497,2.8189,-0.31187,-0.27178,2.7557,-0.30473,-0.66625,2.6862,-0.331,-0.97653,2.7436,-0.38261,-1.0246,2.7106,-0.19517,-0.272,2.8139,-0.16044,-0.66281,2.8209,-0.14621,-0.95618,2.8597,-0.20631,-0.97262,2.8509
