0.059034,-0.28561,2.7161,0.051332,-0.2323,2.7213,0.038118,0.033089,2.6955,0.080645,0.22241,2.6663,-0.075183,-0.043134,2.6406,-0.16107,-0.20098,2.5761,-0.086992,-0.21503,2.4021,-0.07478,-0.18581,2.3422,0.17805,-0.028354,2.7971,0.23991,-0.28335,2.7597,0.29043,-0.40787,2.6369,0.31535,-0.45266,2.5897,0.010432,-0.34966,2.6991,-0.022371,-0.65909,2.692,-0.087143,-0.89528,2.9315,-0.06517,-0.92976,2.8635,0.11624,-0.35326,2.7365,0.14593,-0.66736,2.6819,0.098435,-0.91558,2.6883,0.15443,-0.97536,2.6629
0.060008,-0.29595,2.6827,0.054447,-0.24106,2.6895,0.050434,0.031554,2.669,0.090664,0.223,2.6457,-0.061743,-0.045839,2.6155,-0.16858,-0.19985,2.5157,-0.086838,-0.17107,2.3559,-0.086633,-0.13463,2.2918,0.18809,-0.035593,2.7783,0.26523,-0.26932,2.7133,0.32826,-0.38878,2.5885,0.35579,-0.42395,2.5492,0.013588,-0.35585,2.6665,0.039111,-0.68846,2.6306,-0.076632,-0.89291,2.8747,-0.063433,-0.94813,2.8684,0.10916,-0.35995,2.6994,0.14553,-0.68412,2.6032,0.10409,-0.92168,2.6782,0.16438,-0.99141,2.6501
0.068976,-0.28709,2.6413,0.063918,-0.23532,2.6486,0.060536,0.029257,2.6372,0.095202,0.2228,2.6227,-0.052716,-0.045707,2.5835,-0.16001,-0.19323,2.4831,-0.12364,-0.16608,2.3166,-0.11509,-0.11578,2.2372,0.20657,-0.054583,2.7316,0.28295,-0.25625,2.6678,0.35556,-0.3733,2.5245,0.38976,-0.3998,2.4713,0.0048263,-0.3588,2.6126,0.022346,-0.74756,2.6369,-0.081806,-0.92087,2.8538,-0.073008,-0.9919,2.8878,0.12721,-0.37126,2.6735,0.13757,-0.69443,2.5865,0.091494,-0.92796,2.6535,0.16757,-1,2.6457
0.070992,-0.28149,2.613,0.06542,-0.22268,2.6182,0.062149,0.074401,2.6045,0.097975,0.23982,2.6079,-0.05025,-0.041683,2.541,-0.18531,-0.18607,2.4814,-0.1593,-0.077003,2.3235,-0.15194,-0.010012,2.2575,0.20521,-0.053393,2.6948,0.29747,-0.23633,2.6264,0.38287,-0.33575,2.4751,0.42657,-0.36603,2.4253,6.8164e-06,-0.35678,2.5676,0.032738,-0.68911,2.5025,-0.081307,-0.93536,2.7869,-0.056328,-1.0106,2.7938,0.14168,-0.35937,2.6456,0.10545,-0.69086,2.5726,0.099752,-0.91644,2.634,0.16443,-0.96556,2.6284
0.076819,-0.26581,2.5711,0.071115,-0.20862,2.5817,0.06818,0.082954,2.5793,0.10239,0.2532,2.5675,-0.053479,-0.035597,2.5144,-0.19696,-0.12579,2.4337,-0.18224,0.0037734,2.2642,-0.18582,0.034977,2.2483,0.21038,-0.039647,2.6633,0.29887,-0.2142,2.5656,0.40152,-0.29013,2.4289,0.44937,-0.31484,2.3733,0.0087083,-0.34444,2.5414,0.059507,-0.68693,2.4671,-0.057381,-0.92223,2.6824,-0.03212,-0.98486,2.6783,0.14436,-0.33932,2.5979,0.14474,-0.67323,2.5567,0.10674,-0.90973,2.6328,0.1641,-0.96273,2.6233
0.074988,-0.23148,2.5298,0.071639,-0.17343,2.5396,0.078833,0.12022,2.5398,0.10839,0.2832,2.5314,-0.047609,-0.0081227,2.4731,-0.2043,-0.099006,2.4151,-0.21438,0.047771,2.2557,-0.21328,0.073179,2.2439,0.20972,-0.014868,2.6108,0.3051,-0.1578,2.5313,0.41815,-0.24986,2.3704,0.45998,-0.26916,2.3216,0.0066955,-0.30536,2.4937,0.063781,-0.66215,2.3972,-0.057303,-0.91992,2.569,-0.041729,-0.98348,2.5535,0.13971,-0.30926,2.5579,0.14196,-0.66665,2.5626,0.11276,-0.97773,2.724,0.10456,-0.96347,2.6369
0.075346,-0.20561,2.4897,0.071652,-0.14701,2.4969,0.072257,0.1457,2.4857,0.10282,0.30878,2.4829,-0.044728,0.011671,2.4391,-0.23185,-0.041963,2.3666,-0.24687,0.095218,2.2405,-0.25052,0.13088,2.2299,0.20449,0.031038,2.5663,0.32637,-0.13576,2.4813,0.42633,-0.20271,2.3261,0.46951,-0.21978,2.2744,0.0081819,-0.28199,2.4623,0.050541,-0.62858,2.315,-0.039367,-0.91317,2.4518,-0.022764,-0.98588,2.4319,0.14189,-0.27458,2.5165,0.15083,-0.65249,2.558,0.088957,-0.95206,2.6888,0.14486,-0.99664,2.6468
0.073636,-0.14282,2.449,0.068028,-0.08781,2.4578,0.061615,0.19052,2.4526,0.097681,0.34908,2.4373,-0.054516,0.058763,2.3972,-0.24165,-0.016014,2.3527,-0.28443,0.15552,2.2189,-0.28161,0.1736,2.2151,0.20307,0.055976,2.5311,0.30193,-0.097575,2.4477,0.41186,-0.16395,2.2959,0.46541,-0.17872,2.2371,0.0013864,-0.22923,2.4025,0.046847,-0.57939,2.2491,-0.025789,-0.88122,2.3293,0.0080565,-0.93667,2.2821,0.14858,-0.23264,2.4882,0.16948,-0.6183,2.5422,0.09912,-0.93118,2.6815,0.11963,-0.96392,2.6116
0.071293,-0.12748,2.4002,0.065767,-0.071378,2.4138,0.060316,0.21209,2.4248,0.094565,0.37053,2.4023,-0.072205,0.094686,2.3628,-0.24253,-0.014728,2.3504,-0.31581,0.13876,2.2156,-0.31545,0.18679,2.2059,0.19211,0.087258,2.4784,0.30119,-0.077109,2.4084,0.41711,-0.12638,2.2597,0.47001,-0.13173,2.1956,0.0026948,-0.20642,2.3658,0.040084,-0.55769,2.1924,-0.0048264,-0.85968,2.2019,0.021709,-0.9146,2.147,0.14111,-0.20114,2.4242,0.17824,-0.58457,2.5106,0.1116,-0.92506,2.6717,0.13376,-0.97342,2.6407
0.061764,-0.13419,2.3438,0.05633,-0.074965,2.3576,0.049216,0.22943,2.3753,0.089394,0.38514,2.3609,-0.074844,0.11087,2.3277,-0.26708,0.012023,2.2963,-0.33952,0.15217,2.2033,-0.3589,0.19786,2.1874,0.18353,0.1099,2.4343,0.29667,-0.062064,2.3611,0.41702,-0.11043,2.2338,0.46884,-0.11515,2.1831,0.0040795,-0.19775,2.3261,0.041682,-0.53005,2.1508,0.020157,-0.86874,2.0577,0.027669,-0.93495,1.9936,0.12346,-0.1917,2.3533,0.1885,-0.55897,2.4611,0.14867,-0.89746,2.6259,0.17464,-0.95067,2.6022
0.053184,-0.12396,2.2996,0.048822,-0.065292,2.316,0.048452,0.23778,2.344,0.088864,0.39616,2.3245,-0.077627,0.12505,2.2831,-0.29008,0.033274,2.2468,-0.3814,0.16145,2.152,-0.38634,0.18253,2.1565,0.18416,0.11992,2.3966,0.30528,-0.052292,2.3123,0.44901,-0.10112,2.19,0.49618,-0.10759,2.1509,0.00075333,-0.18409,2.2834,0.037954,-0.52356,2.1331,0.022963,-0.84259,1.9848,0.041526,-0.87242,1.9125,0.10949,-0.17789,2.3056,0.19649,-0.54432,2.4204,0.1833,-0.8753,2.5936,0.21601,-0.92649,2.5732
0.048855,-0.11587,2.2468,0.044365,-0.058509,2.2634,0.045723,0.23896,2.2899,0.089509,0.39627,2.2794,-0.078865,0.11992,2.2357,-0.29066,0.025662,2.2087,-0.39518,0.14577,2.1163,-0.39971,0.16424,2.1179,0.18037,0.12161,2.3536,0.30496,-0.057054,2.2806,0.4638,-0.11567,2.182,0.51024,-0.12171,2.1597,-0.014638,-0.18185,2.2141,0.03751,-0.51522,2.0736,0.024417,-0.83116,1.9413,0.041102,-0.86117,1.8686,0.11072,-0.18091,2.2656,0.2128,-0.54624,2.3737,0.2296,-0.88075,2.5412,0.28891,-0.94481,2.6109
0.03914,-0.13434,2.1925,0.035612,-0.076157,2.2106,0.044014,0.22664,2.2417,0.090255,0.38057,2.2315,-0.073643,0.10886,2.1876,-0.28394,0.0011557,2.1537,-0.40197,0.11369,2.067,-0.40302,0.12695,2.0683,0.17674,0.11911,2.3197,0.30623,-0.06456,2.2579,0.47807,-0.14493,2.1831,0.52195,-0.16258,2.172,-0.018101,-0.19189,2.1693,0.03548,-0.51139,2.0197,0.029935,-0.83137,1.8944,0.044144,-0.86119,1.8211,0.096027,-0.19659,2.1986,0.22943,-0.5617,2.3176,0.27304,-0.89288,2.4722,0.30932,-0.94113,2.4478
0.038564,-0.15493,2.1435,0.035985,-0.098298,2.1631,0.050752,0.19913,2.1967,0.094429,0.35573,2.1977,-0.076293,0.081255,2.1438,-0.2835,-0.024134,2.0977,-0.41166,0.06681,2.0006,-0.39881,0.076221,2.0093,0.17436,0.090782,2.2714,0.30734,-0.086508,2.2295,0.46073,-0.18716,2.1875,0.52343,-0.21831,2.1878,-0.023198,-0.21487,2.1147,0.051124,-0.53399,1.9436,0.035469,-0.83416,1.878,0.049978,-0.86408,1.8048,0.097015,-0.21867,2.1513,0.26047,-0.6341,2.2953,0.31432,-0.89656,2.3681,0.38205,-0.9556,2.4349
0.075873,-0.22665,2.1361,0.067467,-0.17751,2.1529,0.056988,0.080041,2.1619,0.094501,0.26647,2.1573,-0.073258,0.063918,2.1127,-0.29693,-0.05482,2.0708,-0.38272,-0.0007304,1.9375,-0.38856,0.015841,1.9469,0.1716,0.06813,2.2432,0.31418,-0.12398,2.2212,0.46166,-0.23221,2.2113,0.50355,-0.25037,2.211,0.024308,-0.28148,2.1119,0.062623,-0.55642,1.8885,0.03444,-0.87482,1.8656,0.047961,-0.9072,1.7932,0.13384,-0.30731,2.1431,0.26086,-0.64933,2.1996,0.31565,-0.83243,2.2544,0.34417,-0.86212,2.1859
0.069616,-0.23644,2.1069,0.060622,-0.1889,2.1248,0.052742,0.059819,2.1328,0.096998,0.24355,2.1202,-0.068149,0.045996,2.0768,-0.22748,-0.073392,2.0371,-0.39246,-0.056209,1.9003,-0.37384,-0.047344,1.8791,0.16373,0.041863,2.2176,0.28861,-0.14074,2.2163,0.41326,-0.26616,2.2148,0.48205,-0.3015,2.2351,0.015726,-0.29433,2.075,0.064132,-0.55388,1.8702,0.036348,-0.87792,1.8595,0.047792,-0.91153,1.7874,0.12813,-0.31885,2.1193,0.25568,-0.59698,2.1182,0.32772,-0.9408,2.1254,0.3338,-0.96837,1.9327
0.0056745,-0.22812,2.0651,0.0052064,-0.16721,2.0864,0.045459,0.15007,2.1088,0.095022,0.30844,2.0918,-0.067551,0.035232,2.057,-0.19722,-0.10827,2.0044,-0.3369,-0.12538,1.8612,-0.3249,-0.1121,1.8263,0.16242,0.032572,2.2119,0.25253,-0.16405,2.2153,0.37276,-0.29119,2.2312,0.41719,-0.31973,2.2467,-0.034198,-0.27445,2.0617,0.066336,-0.55593,1.852,0.037799,-0.8747,1.8518,0.046579,-0.90731,1.7789,0.037214,-0.29984,2.0523,0.25261,-0.60569,2.0268,0.18179,-0.97842,1.9576,0.084823,-0.79992,1.9431
0.043098,-0.22478,2.0076,0.03505,-0.17365,2.0331,0.041469,0.10559,2.0762,0.097077,0.28335,2.061,-0.065406,0.02464,2.0384,-0.178,-0.12308,1.9887,-0.25198,-0.18617,1.83,-0.27337,-0.14925,1.8052,0.16166,0.019317,2.2049,0.23049,-0.19388,2.224,0.34248,-0.3306,2.2722,0.38545,-0.36817,2.2873,0.016933,-0.28768,2.0147,0.068981,-0.54571,1.8352,0.038722,-0.85663,1.8466,0.047292,-0.96895,1.7501,0.067322,-0.31595,1.9592,0.20612,-0.61892,1.8779,0.22871,-0.85115,1.6938,0.23514,-0.88073,1.6193
0.064152,-0.25661,1.9909,0.052396,-0.20704,2.0163,0.045483,0.067168,2.0547,0.09713,0.2535,2.0388,-0.059863,0.018142,2.0212,-0.15521,-0.14317,1.9557,-0.21409,-0.19136,1.7938,-0.24093,-0.1636,1.7712,0.16162,0.0097228,2.2024,0.19402,-0.20523,2.2317,0.28099,-0.34315,2.2894,0.31794,-0.37832,2.3092,0.037927,-0.31635,1.9818,0.11088,-0.57129,1.8222,0.031442,-0.89055,1.8427,0.037034,-0.92035,1.7683,0.097049,-0.34674,1.9659,0.21877,-0.63497,1.7972,0.18026,-0.84941,1.5267,0.18586,-0.87921,1.4523
0.06223,-0.25241,1.9756,0.049669,-0.20444,2.0013,0.044086,0.064698,2.0406,0.09795,0.25056,2.0233,-0.054581,0.010628,2.006,-0.12699,-0.16842,1.9132,-0.20663,-0.17847,1.7563,-0.22636,-0.14527,1.7069,0.15581,0.010332,2.1966,0.17809,-0.21449,2.2449,0.21459,-0.3679,2.3142,0.24801,-0.39657,2.345,0.040929,-0.31731,1.9644,0.11128,-0.57736,1.7673,0.033908,-0.87905,1.8355,0.039762,-0.90874,1.761,0.089325,-0.34259,1.9458,0.15757,-0.63552,1.6504,0.13442,-0.79128,1.4231,0.14028,-0.82097,1.3487
0.037018,-0.22857,1.9571,0.027273,-0.17933,1.9856,0.041191,0.10024,2.0289,0.098325,0.26811,2.013,-0.04846,0.007241,1.9924,-0.11068,-0.17818,1.8963,-0.20727,-0.15259,1.7121,-0.21959,-0.12496,1.6814,0.14832,0.012162,2.1879,0.17344,-0.21325,2.2434,0.19896,-0.38393,2.3472,0.24059,-0.39969,2.3859,0.014514,-0.29786,1.9647,0.085547,-0.55434,1.7535,0.033133,-0.85864,1.8264,0.073414,-0.96771,1.673,0.051715,-0.31074,1.9175,0.12526,-0.57846,1.606,0.079103,-0.68951,1.3742,0.081659,-0.71954,1.2997
0.051972,-0.20989,1.9532,0.040255,-0.15991,1.9849,0.0374,0.12924,2.0265,0.097668,0.28628,2.0037,-0.047624,0.0081129,1.9836,-0.13898,-0.13696,1.8918,-0.20444,-0.1326,1.6974,-0.21279,-0.081451,1.655,0.11979,0.031584,2.1137,0.14222,-0.1922,2.1745,0.17846,-0.36647,2.2824,0.20892,-0.38051,2.3308,0.043181,-0.28348,1.9702,0.044008,-0.54128,1.7697,0.03145,-0.82594,1.8217,-0.05018,-0.95301,1.7623,0.063181,-0.2901,1.8988,0.090196,-0.50047,1.6428,0.036942,-0.62297,1.356,0.039654,-0.65279,1.2814
0.052719,-0.20882,1.948,0.039739,-0.15874,1.9802,0.036139,0.13188,2.0212,0.10167,0.28997,1.9785,-0.056869,0.017401,1.9678,-0.14684,-0.12363,1.8807,-0.2133,-0.081809,1.685,-0.22118,-0.048471,1.6539,0.12099,0.035406,2.1068,0.14343,-0.18838,2.1676,0.17966,-0.36265,2.2755,0.21012,-0.37669,2.3239,0.041814,-0.28541,1.9611,0.053081,-0.57373,1.7802,0.020091,-0.85929,1.8241,-0.057928,-0.94529,1.7716,0.070194,-0.2819,1.8968,0.093285,-0.47463,1.562,0.00037709,-0.55328,1.3647,0.024871,-0.5824,1.2962
0.061654,-0.24079,1.9176,0.047711,-0.18468,1.9537,0.034908,0.13676,2.0143,0.096986,0.29557,1.9722,-0.063425,0.022568,1.9588,-0.15726,-0.11839,1.8789,-0.23247,-0.026436,1.6868,-0.24944,0.013145,1.6719,0.1234,0.05418,2.0852,0.098879,-0.10081,2.1381,0.18207,-0.34387,2.2539,0.21253,-0.35791,2.3024,0.019439,-0.29021,1.9046,0.039168,-0.57659,1.7723,0.021192,-0.9009,1.81,0.030975,-0.93043,1.7359,0.1128,-0.28937,1.9034,0.11371,-0.42394,1.5841,-0.012032,-0.52894,1.3334,0.010633,-0.55785,1.2634
0.061308,-0.23495,1.9044,0.047799,-0.17918,1.9435,0.032921,0.14641,2.0086,0.087875,0.30488,1.9652,-0.066315,0.026876,1.9553,-0.17543,-0.10656,1.887,-0.28806,0.0076403,1.7253,-0.29259,0.058466,1.7146,0.12128,0.062254,2.0671,0.14372,-0.16154,2.128,0.17995,-0.3358,2.2358,0.2104,-0.34983,2.2843,0.023681,-0.28449,1.8946,0.037612,-0.61985,1.7725,0.021744,-0.9017,1.8136,0.03093,-0.93124,1.7395,0.10725,-0.28023,1.8784,0.085227,-0.4324,1.561,-0.024731,-0.52125,1.3337,-0.0045231,-0.55019,1.2626
0.051414,-0.21808,1.8948,0.040189,-0.16494,1.9354,0.030702,0.15304,2.0041,0.077976,0.31644,1.9607,-0.074034,0.03443,1.9522,-0.1933,-0.10057,1.9134,-0.3115,0.0465,1.7752,-0.3271,0.069161,1.7713,0.12988,0.089526,2.0691,0.1546,-0.1082,2.1487,0.19019,-0.27605,2.2541,0.22064,-0.29009,2.3026,0.0057068,-0.2616,1.8776,0.045265,-0.61285,1.7679,0.028215,-0.88579,1.8056,0.03931,-0.91532,1.7316,0.10162,-0.26897,1.8721,0.09118,-0.42228,1.5607,-0.028434,-0.52135,1.3255,-0.0092653,-0.55034,1.2537
0.053895,-0.18828,1.8851,0.041761,-0.13785,1.9266,0.026672,0.16683,2.0001,0.070992,0.32911,1.9477,-0.07896,0.038226,1.952,-0.22912,-0.095689,1.9222,-0.35315,0.049022,1.8268,-0.36503,0.071544,1.8244,0.13091,0.091562,2.0633,0.17799,-0.12712,2.1078,0.1927,-0.27883,2.251,0.22315,-0.29286,2.2995,0.0048702,-0.23484,1.8607,0.030906,-0.65764,1.7887,0.023059,-0.85501,1.8227,0.09671,-0.9529,1.6552,0.11048,-0.24216,1.873,0.087933,-0.42053,1.5595,-0.029713,-0.52851,1.3201,-0.018922,-0.57295,1.2271
0.04783,-0.17774,1.8761,0.038507,-0.12964,1.9195,0.026218,0.17184,1.9968,0.057516,0.33594,1.9441,-0.087338,0.041739,1.9548,-0.23133,-0.093671,1.9529,-0.37375,0.018379,1.8837,-0.39535,0.0532,1.8744,0.13411,0.093392,2.0477,0.17732,-0.11963,2.1268,0.216,-0.30274,2.2395,0.24645,-0.31678,2.288,-0.0031498,-0.2282,1.8535,-0.065382,-0.53247,1.765,0.020657,-0.84945,1.8234,-0.10385,-0.75404,1.6783,0.10523,-0.23157,1.8596,-0.0010674,-0.4509,1.6479,-0.020064,-0.55028,1.3723,-0.031074,-0.58143,1.3094
0.035934,-0.1777,1.8631,0.03185,-0.12895,1.9086,0.024153,0.17548,1.9906,0.039056,0.34369,1.9459,-0.093169,0.043239,1.9558,-0.2316,-0.097045,1.9658,-0.4031,-0.0012257,1.9245,-0.43148,0.023156,1.9278,0.1257,0.075454,1.9947,0.20257,-0.13074,2.0681,0.26245,-0.30157,2.0936,0.29285,-0.35174,2.0885,-0.014602,-0.22705,1.8446,0.043164,-0.3958,1.5825,-0.014192,-0.70686,1.7952,-0.036778,-0.56026,1.6749,0.086164,-0.23106,1.8388,0.071757,-0.46687,1.5334,-0.017098,-0.57677,1.3887,-0.023419,-0.61967,1.3343
0.020469,-0.18074,1.8554,0.022126,-0.1342,1.901,0.019716,0.15191,1.9722,0.030104,0.34088,1.9451,-0.094782,0.043661,1.9559,-0.2507,-0.087005,1.9822,-0.4218,-0.031989,1.9486,-0.44837,-0.012631,1.9594,0.14312,0.06874,1.9453,0.22483,-0.13413,2.0339,0.31943,-0.28392,2.0123,0.3457,-0.32496,1.9936,-0.036441,-0.22959,1.8359,0.021127,-0.46831,1.6876,-0.018215,-0.71495,1.7991,-0.022931,-0.72818,1.7176,0.071513,-0.23735,1.8316,-0.016537,-0.50901,1.6436,-0.012824,-0.58831,1.4272,-0.029992,-0.63415,1.3783
0.021467,-0.16358,1.851,0.024823,-0.118,1.8987,0.023667,0.18104,1.9805,0.024951,0.348,1.944,-0.099983,0.04464,1.9578,-0.24932,-0.09956,1.991,-0.43244,-0.087389,1.9689,-0.48637,-0.058998,1.9753,0.13392,0.075619,1.973,0.14735,-0.099842,1.9051,0.30208,-0.21877,1.888,0.39559,-0.28308,1.8973,-0.038437,-0.21765,1.8293,0.019381,-0.46553,1.6941,-0.020037,-0.71295,1.802,-0.023433,-0.7271,1.7209,0.075639,-0.22566,1.8256,-0.0069624,-0.49713,1.6631,-0.011252,-0.59836,1.4638,-0.026729,-0.64691,1.4219
0.014856,-0.16556,1.8441,0.019103,-0.11982,1.8942,0.02456,0.18236,1.9781,0.017007,0.34839,1.9447,-0.10195,0.045257,1.9574,-0.22166,-0.11319,1.9979,-0.41159,-0.14443,1.9597,-0.4417,-0.1287,1.964,0.18821,0.070423,1.9415,0.17022,-0.092995,1.8754,0.34139,-0.18019,1.8283,0.36601,-0.20617,1.787,-0.045976,-0.22007,1.828,0.016175,-0.48241,1.7061,-0.021695,-0.73111,1.8081,-0.018128,-0.74463,1.726,0.066972,-0.22866,1.8061,-0.0089665,-0.50464,1.6652,-0.023496,-0.64127,1.487,-0.029103,-0.67166,1.4131
0.01235,-0.16196,1.8423,0.018209,-0.1176,1.8927,0.025065,0.18342,1.9756,0.012201,0.34867,1.945,-0.10348,0.045679,1.9571,-0.21538,-0.11845,1.9917,-0.37841,-0.18681,1.9512,-0.42841,-0.1855,1.9515,0.19995,0.073499,1.9298,0.3525,-0.070001,1.8575,0.46021,-0.16186,1.7448,0.49936,-0.18551,1.6968,-0.052538,-0.2202,1.8253,0.013515,-0.54025,1.7072,-0.031457,-0.71722,1.8348,-0.02652,-0.73463,1.753,0.068379,-0.23019,1.8024,-0.020981,-0.53061,1.6774,-0.027394,-0.68675,1.5101,-0.026636,-0.58308,1.5374
0.0079849,-0.15763,1.8379,0.015614,-0.11419,1.889,0.025408,0.18506,1.9708,0.0097295,0.3494,1.9456,-0.10386,0.049048,1.9554,-0.19726,-0.13455,1.9798,-0.35125,-0.24251,1.9323,-0.39398,-0.25316,1.9232,0.19934,0.072224,1.9168,0.34419,-0.043148,1.8063,0.45048,-0.11182,1.674,0.47683,-0.13026,1.6335,-0.061022,-0.21855,1.8215,0.0091681,-0.54122,1.7191,-0.038311,-0.72124,1.8433,-0.035068,-0.73827,1.7615,0.065891,-0.2283,1.7966,0.041845,-0.57669,1.6034,-0.062663,-0.80281,1.5864,-0.030103,-0.6698,1.5463
0.0024638,-0.16128,1.832,0.01433,-0.1166,1.8838,0.028227,0.18686,1.9645,0.0078612,0.35025,1.9468,-0.10446,0.050385,1.9542,-0.181,-0.16217,1.962,-0.30248,-0.28822,1.9115,-0.35098,-0.31828,1.9023,0.18713,0.072134,1.8929,0.32975,-0.023261,1.7705,0.42687,-0.066587,1.6231,0.4626,-0.080896,1.5673,-0.063795,-0.22148,1.8218,0.0030785,-0.62208,1.808,-0.040048,-0.72515,1.8424,-0.0076696,-0.88898,1.7746,0.054554,-0.22947,1.7856,-0.043951,-0.56014,1.708,-0.051279,-0.81908,1.5884,-0.042959,-0.69769,1.6055
-0.00022609,-0.16051,1.8272,0.014949,-0.11698,1.8777,0.029041,0.16847,1.945,0.0063837,0.35109,1.9477,-0.10434,0.053553,1.9529,-0.16579,-0.17977,1.9393,-0.26273,-0.32941,1.9044,-0.30318,-0.36903,1.9074,0.16767,0.076053,1.8707,0.31278,-0.01075,1.7449,0.39109,-0.030123,1.5795,0.42411,-0.033437,1.507,-0.064387,-0.22516,1.8237,0.010516,-0.56004,1.7474,0.012608,-0.86239,1.8297,-0.039316,-0.75543,1.7816,0.045429,-0.21541,1.7677,0.0037822,-0.61693,1.718,-0.046617,-0.70863,1.6242,-0.06077,-0.70674,1.6352
-0.013158,-0.16943,1.8255,0.010145,-0.12436,1.8729,0.029782,0.16721,1.9416,0.0053534,0.35111,1.9483,-0.10574,0.055768,1.9584,-0.10543,-0.19041,1.9312,-0.2103,-0.36514,1.9036,-0.24451,-0.40773,1.9204,0.11542,0.074577,1.8533,0.28297,-0.005924,1.7179,0.3604,-0.0054369,1.5418,0.38274,0.0072151,1.4671,-0.071591,-0.23103,1.8285,0.01203,-0.5693,1.7591,0.012171,-0.86947,1.831,-0.026669,-0.90106,1.7681,0.028299,-0.21886,1.7701,-0.036539,-0.58361,1.6948,-0.073176,-0.84268,1.6068,-0.060732,-0.7881,1.6459
-0.021238,-0.17247,1.8325,0.0058925,-0.12705,1.8764,0.031986,0.16968,1.9378,0.0049988,0.35241,1.9492,-0.099931,0.068349,1.9661,-0.20282,-0.14658,1.9565,-0.17661,-0.39044,1.9288,-0.21448,-0.41801,1.9536,0.11174,0.078532,1.8461,0.2675,0.0040456,1.7041,0.31252,0.0092945,1.521,0.33383,0.033302,1.4279,-0.082225,-0.233,1.8498,-0.01137,-0.62957,1.8065,0.011094,-0.86552,1.8344,-0.03054,-0.89669,1.7731,0.016283,-0.22182,1.78,-0.019352,-0.59204,1.7153,-0.061599,-0.82117,1.6212,-0.097838,-0.79198,1.6712
-0.021531,-0.17245,1.8321,0.0068281,-0.12701,1.8758,0.032772,0.17125,1.9336,0.0052374,0.35359,1.9497,-0.095462,0.072897,1.9665,-0.19637,-0.13909,1.956,-0.0862,-0.39899,1.9599,-0.079241,-0.43451,2.0026,0.10792,0.07964,1.8404,0.24302,0.0079011,1.685,0.2728,0.011137,1.4983,0.27431,0.051976,1.3914,-0.080201,-0.23349,1.849,-0.0063449,-0.57568,1.7606,0.011182,-0.86675,1.834,-0.059997,-0.76827,1.8012,0.014095,-0.22172,1.7788,-0.021634,-0.60984,1.7049,-0.062177,-0.82234,1.6214,-0.092528,-0.78907,1.6728
-0.02399,-0.17371,1.8332,0.0071741,-0.12623,1.8769,0.039617,0.20192,1.9343,0.0050558,0.35823,1.9513,-0.092028,0.075909,1.9713,-0.10509,-0.14638,1.8912,-0.061827,-0.39805,1.9915,-0.11793,-0.39973,1.928,0.1052,0.080378,1.8363,0.21105,-6.7203e-05,1.6505,0.22084,0.0096919,1.4637,0.222,0.054772,1.3728,-0.079159,-0.2329,1.8519,-0.0076227,-0.57511,1.7609,0.010011,-0.86672,1.8343,-0.061899,-0.76787,1.8023,0.0092085,-0.22224,1.7823,-0.020869,-0.61099,1.7056,-0.059166,-0.81929,1.6228,-0.10554,-0.8028,1.6702
-0.023227,-0.17553,1.8376,0.0090183,-0.12789,1.8802,0.04183,0.18222,1.9267,0.0068974,0.3574,1.9541,-0.087088,0.081657,1.9772,-0.10141,-0.14248,1.9026,-0.063158,-0.37706,2.0176,-0.046203,-0.4247,2.0416,0.10356,0.081777,1.8354,0.19145,0.011969,1.6621,0.17076,0.021576,1.4402,0.17084,0.039644,1.3592,-0.074741,-0.23546,1.8597,-0.0081379,-0.57688,1.7604,0.012133,-0.86437,1.8544,-0.062159,-0.76694,1.8133,0.0070145,-0.2231,1.7865,-0.018188,-0.61301,1.7067,-0.057481,-0.81761,1.6234,-0.10937,-0.8144,1.6677
-0.023228,-0.17858,1.8438,0.01019,-0.13036,1.885,0.042087,0.18122,1.928,0.0068153,0.35841,1.958,-0.040019,0.055122,2.0098,-0.1014,-0.14323,1.9176,-0.070435,-0.35207,2.0462,-0.072809,-0.39867,2.0771,0.10089,0.083592,1.8359,0.15878,0.012371,1.6507,0.11308,0.003249,1.4296,0.1103,0.0096558,1.3556,-0.072481,-0.24003,1.8678,-0.0068397,-0.57957,1.7655,0.014313,-0.87163,1.8521,-0.061078,-0.77154,1.8138,0.0045471,-0.225,1.792,-0.0079217,-0.56906,1.716,-0.051325,-0.81502,1.6217,-0.10435,-0.82797,1.6628
-0.02244,-0.17885,1.8491,0.013253,-0.13022,1.8883,0.044323,0.18332,1.931,0.0067775,0.35937,1.9631,-0.081777,0.079215,2.0006,-0.10046,-0.14314,1.9431,-0.1279,-0.34797,1.9537,-0.083983,-0.40498,2.0902,0.10015,0.087471,1.8382,0.16484,-0.0066082,1.679,0.065805,-0.020921,1.5243,0.053182,-0.032766,1.4458,-0.071685,-0.24092,1.8749,0.0036747,-0.57455,1.7666,0.010156,-0.87522,1.8372,-0.06396,-0.79068,1.7727,0.0049701,-0.22476,1.7973,-0.052098,-0.55629,1.7566,-0.045771,-0.81228,1.6178,-0.083367,-0.84213,1.6664
-0.019263,-0.17497,1.8643,0.017448,-0.12592,1.9022,0.049448,0.19514,1.9481,0.0062262,0.36341,1.9697,-0.030632,0.053454,2.0437,-0.095001,-0.11927,1.9689,-0.094885,-0.33985,2.111,-0.10159,-0.34527,2.1205,0.099479,0.093475,1.8448,0.13717,-0.017191,1.6861,0.042777,-0.061859,1.5309,0.014387,-0.067584,1.4617,-0.066861,-0.2349,1.888,0.0020654,-0.56641,1.7711,0.0070227,-0.8713,1.8398,-0.066243,-0.78718,1.7738,0.0071147,-0.21991,1.8188,-0.052642,-0.5556,1.7489,-0.033755,-0.8206,1.6008,-0.051107,-0.72019,1.6482
-0.014391,-0.16913,1.8805,0.022419,-0.11854,1.9171,0.054283,0.20978,1.9564,0.0059162,0.36401,1.9777,-0.025601,0.054661,2.0605,-0.046185,-0.14124,2.0955,-0.10623,-0.30695,2.1206,-0.12228,-0.33337,2.1494,0.10055,0.098873,1.8538,0.10427,-0.020574,1.6918,-0.0054154,-0.10402,1.5382,-0.040495,-0.11993,1.4853,-0.061607,-0.2298,1.9022,-0.0064977,-0.56439,1.7826,0.0049391,-0.87142,1.8426,-0.05358,-0.90302,1.7975,0.012813,-0.21373,1.8371,-0.056972,-0.54203,1.7585,-0.017683,-0.80956,1.5941,-0.036139,-0.73881,1.6307
-0.0079645,-0.16964,1.8959,0.028437,-0.11664,1.9308,0.053705,0.21115,1.96,0.0040975,0.36471,1.9855,-0.022198,0.061318,2.0775,-0.046397,-0.1334,2.1035,-0.12245,-0.28968,2.142,-0.15719,-0.34237,2.1839,0.099572,0.10003,1.8595,0.073837,-0.035595,1.6897,-0.04189,-0.14416,1.5721,-0.10221,-0.16034,1.5258,-0.055993,-0.23065,1.9183,0.006611,-0.5484,1.7844,0.0011569,-0.87176,1.8453,-0.08035,-0.76215,1.783,0.022721,-0.21542,1.855,-0.06153,-0.52855,1.7735,-0.022918,-0.73042,1.6109,-0.051186,-0.71305,1.5971
-0.0092441,-0.17588,1.9184,0.028766,-0.12402,1.9503,0.050672,0.18622,1.9681,0.00092833,0.35527,2.0001,-0.018201,0.06426,2.1028,-0.041548,-0.13452,2.1223,-0.14367,-0.27123,2.1745,-0.16833,-0.31477,2.2109,0.09685,0.10231,1.8711,0.065415,-0.035848,1.7094,-0.055389,-0.16114,1.6264,-0.12377,-0.18895,1.5868,-0.057845,-0.24034,1.9438,0.0019601,-0.53608,1.7923,-0.0015505,-0.87101,1.8526,-0.084331,-0.75835,1.7894,0.020096,-0.22119,1.8782,-0.070577,-0.51962,1.7901,-0.0071196,-0.6854,1.6332,-0.036827,-0.73401,1.6045
0.0030927,-0.1752,1.9243,0.038038,-0.12276,1.9569,0.052578,0.1888,1.9736,0.0019066,0.3551,2.0074,-0.015063,0.067098,2.1099,-0.042069,-0.12946,2.1429,-0.15175,-0.26302,2.1897,-0.17804,-0.30002,2.2324,0.093852,0.10128,1.8808,0.06561,-0.041444,1.7304,-0.057213,-0.17302,1.6759,-0.11483,-0.20193,1.6597,-0.043056,-0.23864,1.9472,0.00019692,-0.53694,1.7949,-0.0082942,-0.85819,1.8598,-0.086836,-0.75572,1.7899,0.037856,-0.21712,1.8849,-0.068248,-0.50802,1.7975,0.0033676,-0.71189,1.6557,-0.023141,-0.7613,1.6338
0.0014729,-0.17263,1.9387,0.037368,-0.12033,1.9704,0.050082,0.19105,1.9857,0.00054741,0.35539,2.0225,-0.012139,0.066837,2.1283,-0.041545,-0.12962,2.1566,-0.16579,-0.2457,2.2131,-0.18973,-0.28053,2.2531,0.092486,0.10104,1.8906,0.067058,-0.046735,1.7536,-0.058514,-0.17599,1.7207,-0.12244,-0.21404,1.7252,-0.043643,-0.23619,1.9644,-0.020465,-0.53365,1.8108,-0.007904,-0.85674,1.8631,-0.098736,-0.73849,1.828,0.033346,-0.21639,1.8969,-0.063655,-0.52436,1.8113,0.012924,-0.71839,1.6894,-0.0090776,-0.76542,1.6805
0.0015248,-0.17005,1.9536,0.037802,-0.11955,1.9834,0.045919,0.17588,1.9957,-0.0014095,0.35558,2.0372,-0.0094458,0.065578,2.1386,-0.043068,-0.12768,2.1693,-0.17295,-0.21059,2.191,-0.19927,-0.26301,2.29,0.090126,0.10527,1.9042,0.072922,-0.044634,1.775,-0.052998,-0.17572,1.7584,-0.11411,-0.21664,1.782,-0.042562,-0.23358,1.9798,-0.020269,-0.52994,1.817,0.036316,-0.87817,1.843,-0.022597,-0.75324,1.8258,0.031017,-0.21335,1.9136,0.01598,-0.55304,1.763,-0.0015155,-0.64092,1.7034,0.098134,-0.92706,1.7573
0.0020072,-0.16909,1.9661,0.038958,-0.11782,1.9963,0.048318,0.19392,2.0125,-0.0022044,0.35503,2.0502,-0.0075083,0.065382,2.1487,-0.045409,-0.11923,2.1915,-0.1715,-0.20706,2.2078,-0.20028,-0.25824,2.3029,0.089711,0.10484,1.9135,0.062315,-0.048819,1.7994,-0.062555,-0.18292,1.7994,-0.1217,-0.22655,1.8229,-0.041355,-0.23363,1.9937,-0.011694,-0.54023,1.8274,0.040151,-0.8917,1.8641,-0.0027303,-0.77219,1.855,0.030748,-0.21256,1.9231,0.01561,-0.60057,1.8295,0.058324,-0.71526,1.725,-0.0074596,-0.955,1.8068
0.0001432,-0.16988,1.981,0.037638,-0.11776,2.0116,0.048162,0.19495,2.0237,-0.0041242,0.3531,2.0668,-0.0061946,0.064614,2.1622,-0.046524,-0.1118,2.2176,-0.16974,-0.20232,2.2295,-0.19087,-0.24896,2.3462,0.089113,0.10411,1.926,0.062481,-0.046197,1.81,-0.062777,-0.1764,1.8353,-0.11755,-0.21594,1.8735,-0.043921,-0.23397,2.0085,-0.00327,-0.53805,1.8357,0.0022329,-0.85852,1.892,-0.063119,-0.89036,1.8577,0.028782,-0.21347,1.9382,-0.1152,-0.50353,1.9342,0.024228,-0.86125,1.8922,-0.041124,-0.89309,1.858
0.0013977,-0.17223,1.9941,0.038602,-0.12229,2.0247,0.045698,0.1707,2.0391,-0.0037365,0.35162,2.0799,-0.0063258,0.062588,2.1771,-0.096604,-0.11735,2.1119,-0.14464,-0.22472,2.3307,-0.17687,-0.25169,2.3723,0.088369,0.10298,1.9397,0.065892,-0.044363,1.8228,-0.063451,-0.16898,1.8528,-0.12072,-0.20439,1.8911,-0.042005,-0.23255,2.021,0.030738,-0.53425,1.86,0.025453,-0.8804,1.9434,-0.00035023,-0.92339,1.8658,0.029617,-0.2184,1.9528,0.018437,-0.61643,1.8495,0.075366,-0.77364,1.9004,0.012566,-0.89808,1.9984
0.0025054,-0.17577,2.008,0.040234,-0.1243,2.0392,0.05135,0.19308,2.0592,-0.0035486,0.35104,2.0945,-0.0081813,0.062025,2.1892,-0.043524,-0.12187,2.2732,-0.14658,-0.24028,2.3548,-0.16226,-0.25571,2.3922,0.089488,0.099773,1.9533,0.069089,-0.045898,1.8313,-0.06737,-0.16004,1.8736,-0.11859,-0.18874,1.906,-0.041581,-0.23509,2.0349,0.043345,-0.53655,1.8772,-0.026057,-0.84519,1.895,-0.0036575,-0.92843,1.8618,0.031409,-0.22316,1.9654,-0.0099435,-0.56536,1.9136,-0.018704,-0.86925,1.8836,-0.083862,-0.90107,1.849
0.0047225,-0.17711,2.0268,0.042393,-0.12486,2.0577,0.052097,0.19018,2.0706,-0.0018175,0.34816,2.1116,-0.0074405,0.05707,2.2184,-0.043012,-0.12313,2.2826,-0.10823,-0.23975,2.3937,-0.14075,-0.26719,2.4269,0.090726,0.097287,1.9729,0.075671,-0.040507,1.8418,-0.068402,-0.15629,1.8832,-0.12452,-0.17825,1.9274,-0.039821,-0.23667,2.0573,0.0085669,-0.61426,1.9326,-0.026731,-0.84408,1.896,-0.0047078,-0.9274,1.8627,0.033917,-0.22585,1.9806,0.017049,-0.6096,1.9475,0.03578,-0.86261,2.006,-0.085593,-0.89972,1.8521
0.0058548,-0.17863,2.0447,0.043636,-0.1264,2.0758,0.053769,0.18678,2.0866,0.00053133,0.34408,2.1291,-0.0079218,0.055115,2.2323,-0.035085,-0.12566,2.3093,-0.10601,-0.25318,2.4055,-0.12701,-0.29866,2.4623,0.094516,0.097213,1.9928,0.077604,-0.0369,1.8557,-0.063567,-0.14808,1.8846,-0.12084,-0.16946,1.9251,-0.039443,-0.2387,2.0751,0.0016615,-0.57,1.9685,-0.045002,-0.7836,1.9264,-0.022959,-0.86602,1.8909,0.035383,-0.22787,1.9989,0.010305,-0.58067,1.9627,0.037853,-0.86038,2.0118,-0.086709,-0.90498,1.8539
0.0046244,-0.17966,2.0808,0.043784,-0.12868,2.1087,0.057146,0.17857,2.1087,0.0036314,0.33999,2.1472,-0.0087057,0.052469,2.2533,-0.032452,-0.12551,2.3203,-0.095133,-0.25876,2.4141,-0.11905,-0.30559,2.4686,0.097158,0.091508,2.0111,0.088622,-0.04096,1.8736,-0.063482,-0.14557,1.8856,-0.1227,-0.16587,1.9237,-0.043298,-0.24086,2.1152,0.11694,-0.50081,2.0086,-0.022084,-0.79841,1.9257,-0.013625,-0.88188,1.887,0.033886,-0.23035,2.0345,0.033251,-0.59727,2.0083,0.042541,-0.8585,2.0381,-0.011513,-0.88987,1.9902
0.0062599,-0.18481,2.1013,0.044596,-0.13356,2.1312,0.060251,0.17326,2.1282,0.0060888,0.33667,2.1679,-0.0090138,0.048106,2.2652,-0.019368,-0.16184,2.3569,-0.075538,-0.29468,2.4544,-0.077879,-0.29555,2.4647,0.099514,0.087248,2.0394,0.096772,-0.039421,1.8889,-0.060853,-0.14182,1.8847,-0.12382,-0.16044,1.9211,-0.040409,-0.24465,2.1348,0.036413,-0.54126,2.0231,-0.015174,-0.7819,1.9402,-0.077671,-0.81355,1.9009,0.03442,-0.23503,2.0569,0.03208,-0.61321,2.0473,0.047108,-0.86441,2.0711,-0.090897,-0.89311,1.8735
0.010662,-0.18413,2.1363,0.048755,-0.13278,2.163,0.061992,0.16916,2.1507,0.0098139,0.33405,2.186,-0.0043046,0.043911,2.3001,-0.015352,-0.16131,2.3615,-0.068803,-0.29646,2.4574,-0.085234,-0.35077,2.5075,0.10565,0.080431,2.0587,0.10912,-0.04954,1.9007,-0.061884,-0.14169,1.8859,-0.12487,-0.15603,1.9153,-0.035524,-0.2444,2.1699,0.057289,-0.56084,2.0819,-0.017333,-0.81386,1.9546,-0.081073,-0.84573,1.9175,0.039288,-0.23339,2.0965,0.039173,-0.61834,2.1012,0.048822,-0.86204,2.0892,-0.0041123,-0.89366,2.0404
0.014676,-0.19213,2.1619,0.053145,-0.1362,2.1868,0.067817,0.18679,2.173,0.017022,0.3384,2.2063,-0.0034893,0.035873,2.3137,-0.0079647,-0.1676,2.3743,-0.05985,-0.30708,2.465,-0.074708,-0.36568,2.5107,0.10871,0.069049,2.0806,0.12306,-0.066274,1.9203,-0.061934,-0.14435,1.8876,-0.12508,-0.15564,1.9132,-0.030941,-0.25103,2.1979,0.015408,-0.57195,2.0942,-0.01354,-0.83477,1.9599,-0.075792,-0.8668,1.9204,0.043546,-0.24236,2.1224,0.037877,-0.60124,2.1275,0.049052,-0.86708,2.1058,-0.0044045,-0.89887,2.0568
0.020619,-0.19086,2.196,0.056134,-0.13438,2.2197,0.069643,0.17918,2.1871,0.017872,0.33315,2.2218,-0.004158,0.032059,2.3339,-0.0012592,-0.17595,2.3884,-0.052981,-0.32196,2.4694,-0.052728,-0.33409,2.4834,0.12161,0.06728,2.1039,0.146,-0.066148,1.9728,-0.022517,-0.14435,1.8941,-0.09205,-0.15385,1.9028,-0.027185,-0.25087,2.2371,0.13316,-0.56055,2.1449,0.0003469,-0.83577,1.9942,-0.0048305,-0.894,1.9226,0.051411,-0.24442,2.1563,0.039951,-0.62929,2.1411,0.053844,-0.8699,2.1258,0.0033381,-0.90238,2.074
0.024432,-0.19514,2.2209,0.058106,-0.13759,2.2423,0.071652,0.17362,2.2069,0.02059,0.32633,2.2407,-0.0042518,0.031714,2.3432,0.0016711,-0.17721,2.3995,-0.047063,-0.32826,2.4733,-0.045311,-0.3392,2.4871,0.12202,0.057506,2.1252,0.1452,-0.075217,1.993,-0.032791,-0.15836,1.905,-0.081058,-0.15885,1.9019,-0.023274,-0.25392,2.2591,0.064234,-0.59692,2.1374,0.022639,-0.80405,2.0353,-0.035801,-0.83697,1.991,0.055778,-0.24848,2.1842,0.032504,-0.63057,2.1483,0.054266,-0.87588,2.1359,-0.0027703,-0.92547,1.9312
0.026703,-0.20026,2.2484,0.059655,-0.14592,2.2681,0.068605,0.14478,2.2393,0.022853,0.31195,2.2594,0.00088762,0.034044,2.378,0.0013092,-0.18063,2.4086,-0.042265,-0.33367,2.4811,-0.039539,-0.34624,2.4933,0.12219,0.052074,2.1437,0.15099,-0.087097,2.0161,-0.021706,-0.16411,1.9121,-0.077283,-0.16726,1.9013,-0.020128,-0.25902,2.2903,0.02747,-0.60703,2.145,0.0021913,-0.83665,2.0463,-0.05808,-0.86954,2.0046,0.058488,-0.25318,2.2087,0.039635,-0.63433,2.1744,0.053436,-0.89575,2.1578,0.00077811,-0.92849,2.1081
0.028477,-0.19738,2.2712,0.058086,-0.14167,2.288,0.066563,0.14984,2.2516,0.018032,0.31359,2.2737,-0.00014231,0.043314,2.3888,0.00027955,-0.18265,2.4344,-0.032729,-0.34356,2.4948,-0.054877,-0.392,2.512,0.12305,0.053655,2.1642,0.167,-0.097915,2.0356,0.0045152,-0.183,1.9259,-0.049216,-0.18903,1.9064,-0.017752,-0.25651,2.3088,0.0014868,-0.6315,2.1584,-0.023656,-0.87395,2.0817,0.0056876,-0.95254,2.0429,0.06161,-0.24868,2.238,0.039842,-0.63731,2.195,0.095193,-0.90921,2.2932,0.081487,-0.8964,2.2662
0.032346,-0.19193,2.29,0.058908,-0.13554,2.3059,0.064638,0.15678,2.2705,0.019311,0.32207,2.2967,-0.0048365,0.061519,2.4131,-0.004621,-0.17208,2.4464,-0.035902,-0.3378,2.4951,-0.049852,-0.38842,2.5146,0.12466,0.065904,2.1912,0.17909,-0.08873,2.0986,0.055793,-0.17852,1.9669,0.014293,-0.19909,1.9403,-0.013105,-0.2527,2.3276,0.020736,-0.56167,2.1915,-0.014369,-0.88916,2.1496,-0.072109,-0.92297,2.1051,0.066327,-0.24212,2.2556,0.034482,-0.63577,2.2185,0.097763,-0.90903,2.3075,0.072372,-0.89542,2.2706
0.032716,-0.18792,2.3104,0.056776,-0.1313,2.3239,0.062297,0.15853,2.2875,0.017808,0.32536,2.3115,-0.007469,0.066235,2.4215,-0.0088023,-0.14533,2.4621,-0.039461,-0.31679,2.4994,-0.048618,-0.36623,2.5241,0.12304,0.071204,2.2055,0.18647,-0.092492,2.1129,0.089097,-0.19625,1.995,0.051546,-0.20748,1.9728,-0.01218,-0.25022,2.3483,0.010336,-0.5882,2.2227,-0.039914,-0.86835,2.1947,-0.096768,-0.90286,2.1496,0.066966,-0.23656,2.2776,0.043736,-0.55218,2.2536,0.11517,-0.86609,2.3066,0.073648,-0.89953,2.2468
0.039132,-0.16816,2.3333,0.060263,-0.10701,2.3447,0.05983,0.20286,2.3086,0.015246,0.35192,2.3309,-0.01341,0.069938,2.4328,-0.016837,-0.13635,2.4692,-0.066147,-0.30723,2.4089,-0.053965,-0.35302,2.5389,0.12152,0.079769,2.2235,0.20711,-0.097292,2.1308,0.098837,-0.20555,2.0189,0.058427,-0.21601,1.9913,-0.0067493,-0.22443,2.3726,0.01968,-0.54836,2.2547,-0.035408,-0.84725,2.2539,-0.084605,-0.88198,2.2016,0.076607,-0.22247,2.2981,0.073481,-0.57475,2.269,0.11192,-0.87976,2.3152,0.058095,-0.9271,2.2723
0.042664,-0.16355,2.342,0.060504,-0.10205,2.3534,0.05806,0.20806,2.3207,0.014861,0.35818,2.345,-0.023392,0.076948,2.4535,-0.028263,-0.13662,2.4769,-0.066953,-0.29859,2.5324,-0.076344,-0.34672,2.5594,0.12619,0.090859,2.2452,0.2226,-0.072211,2.1874,0.15165,-0.20662,2.0858,0.1063,-0.23134,2.0527,-0.0033921,-0.22051,2.3805,0.010953,-0.56636,2.2802,-0.030954,-0.87667,2.3168,-0.077992,-0.91149,2.2624,0.082667,-0.21915,2.3067,0.11435,-0.5599,2.304,0.11611,-0.87413,2.3237,0.060148,-0.92144,2.29
0.045917,-0.16061,2.3543,0.062047,-0.098823,2.3652,0.05984,0.21324,2.3362,0.012647,0.36231,2.3628,-0.027001,0.07875,2.4589,-0.042,-0.13624,2.4895,-0.087989,-0.29678,2.5446,-0.093845,-0.3261,2.5709,0.12437,0.096966,2.2624,0.23497,-0.068888,2.2121,0.17134,-0.21381,2.1227,0.12899,-0.24601,2.095,-0.00079764,-0.21778,2.3903,-0.0031372,-0.57594,2.3131,-0.037142,-0.8906,2.3919,-0.083064,-0.92528,2.3367,0.087264,-0.21499,2.3218,0.1054,-0.5466,2.3272,0.12099,-0.86068,2.3389,0.075064,-0.89537,2.2837
0.045753,-0.1634,2.3694,0.060408,-0.1012,2.3795,0.057343,0.21258,2.3524,0.006103,0.36559,2.3801,-0.058616,0.09368,2.4429,-0.055483,-0.13081,2.5194,-0.10458,-0.29644,2.5573,-0.14681,-0.35266,2.5856,0.12942,0.095282,2.2786,0.26006,-0.060163,2.2593,0.1965,-0.20627,2.1715,0.14949,-0.24525,2.1447,-0.00098152,-0.22,2.4046,-0.0096559,-0.57717,2.3514,-0.036632,-0.88854,2.4591,-0.082971,-0.92329,2.4039,0.087416,-0.21821,2.3363,0.11128,-0.55076,2.3407,0.12522,-0.86728,2.3429,0.078881,-0.90203,2.2877
0.046929,-0.16328,2.3828,0.060188,-0.10071,2.3941,0.058522,0.21691,2.3731,0.0036771,0.36555,2.391,-0.063606,0.093647,2.452,-0.074467,-0.12905,2.5262,-0.13074,-0.26364,2.5401,-0.15838,-0.30488,2.5604,0.13382,0.09654,2.2987,0.26314,-0.059385,2.2748,0.20121,-0.21889,2.2074,0.16233,-0.25725,2.1829,-0.00073397,-0.22137,2.4176,-0.028227,-0.5776,2.3983,-0.033846,-0.89507,2.5266,-0.076786,-0.92935,2.4685,0.089576,-0.21883,2.3496,0.11221,-0.5609,2.3571,0.12701,-0.87093,2.3465,0.084072,-0.90521,2.2884
0.047533,-0.16125,2.3985,0.060017,-0.098952,2.4098,0.056556,0.21659,2.3918,-0.002673,0.36378,2.4099,-0.084452,0.072359,2.507,-0.10302,-0.14183,2.5546,-0.15334,-0.30401,2.5917,-0.17706,-0.34986,2.6112,0.13983,0.095219,2.3224,0.26838,-0.059311,2.3108,0.21666,-0.22517,2.254,0.1796,-0.27705,2.2331,-0.0041704,-0.22691,2.437,-0.026335,-0.57534,2.438,-0.029987,-0.8894,2.5793,-0.075115,-0.92375,2.5227,0.093532,-0.21865,2.3604,0.11382,-0.5597,2.3656,0.12746,-0.86949,2.3479,0.082328,-0.90384,2.2913
0.04326,-0.16307,2.4171,0.053659,-0.10056,2.4278,0.048647,0.21446,2.4085,-0.0035456,0.36547,2.4345,-0.089229,0.070032,2.5142,-0.1165,-0.14477,2.5693,-0.1795,-0.30698,2.5903,-0.20789,-0.32931,2.604,0.14016,0.096641,2.3478,0.27477,-0.061127,2.34,0.22195,-0.22772,2.2883,0.19521,-0.2749,2.2704,-0.0098484,-0.23353,2.455,-0.025746,-0.58251,2.4856,-0.024891,-0.89265,2.6344,-0.066481,-0.9272,2.5752,0.092392,-0.22047,2.3801,0.11716,-0.56066,2.3712,0.1279,-0.86951,2.3496,0.086308,-0.90407,2.2905
0.039784,-0.1682,2.4351,0.048629,-0.10575,2.446,0.0418,0.20858,2.4301,-0.0080441,0.36269,2.4491,-0.09487,0.068656,2.5263,-0.12324,-0.14597,2.5764,-0.20157,-0.30448,2.5887,-0.22658,-0.34374,2.6022,0.1402,0.09317,2.3686,0.27446,-0.060984,2.3697,0.22854,-0.23048,2.322,0.19897,-0.27836,2.2865,-0.013692,-0.23863,2.4671,-0.020133,-0.58841,2.5314,-0.018143,-0.89549,2.6714,-0.057614,-0.92993,2.6107,0.091421,-0.22413,2.4037,0.11517,-0.56127,2.3782,0.12744,-0.87153,2.3507,0.08797,-0.90597,2.29
0.035154,-0.17076,2.4539,0.042688,-0.10858,2.4653,0.03502,0.20398,2.4517,-0.011908,0.36273,2.4655,-0.1012,0.063881,2.5419,-0.13417,-0.1504,2.5821,-0.22226,-0.3049,2.586,-0.25725,-0.34601,2.5881,0.137,0.086892,2.3979,0.26744,-0.080755,2.4107,0.22177,-0.24943,2.3486,0.20391,-0.29202,2.3189,-0.019,-0.24147,2.4839,-0.015287,-0.59294,2.5736,-0.015019,-0.91502,2.6977,-0.051681,-0.94931,2.6352,0.088061,-0.22453,2.4216,0.1132,-0.55787,2.3858,0.12546,-0.87274,2.3525,0.0888,-0.90703,2.29
0.02885,-0.17391,2.4764,0.036455,-0.1114,2.4873,0.030688,0.20436,2.4751,-0.018856,0.36185,2.4982,-0.10873,0.060017,2.562,-0.1452,-0.15083,2.5922,-0.23523,-0.30481,2.5806,-0.28139,-0.36704,2.5824,0.1345,0.087029,2.4158,0.27072,-0.08533,2.4375,0.21888,-0.24747,2.3764,0.20272,-0.27515,2.3452,-0.026654,-0.24473,2.5032,-0.017861,-0.59799,2.6132,-0.007542,-0.90465,2.7199,-0.044111,-0.93881,2.6572,0.082462,-0.22768,2.4475,0.11138,-0.55819,2.391,0.12422,-0.87312,2.3534,0.087649,-0.90727,2.2907
0.02665,-0.17376,2.498,0.032726,-0.11198,2.51,0.021716,0.19944,2.5014,-0.030009,0.34936,2.5116,-0.11562,0.056203,2.5851,-0.15096,-0.15318,2.5954,-0.25117,-0.30067,2.5729,-0.29392,-0.35591,2.5697,0.1331,0.087799,2.4497,0.26722,-0.087562,2.4629,0.21126,-0.24944,2.4079,0.20555,-0.26389,2.3725,-0.029346,-0.24689,2.5213,-0.016957,-0.61459,2.647,-0.0054142,-0.90599,2.7231,-0.039379,-0.94004,2.6589,0.082645,-0.22689,2.4714,0.10212,-0.561,2.4218,0.12407,-0.87184,2.3604,0.090108,-0.90589,2.2962
0.016015,-0.17906,2.5314,0.021793,-0.11674,2.5411,0.015766,0.19593,2.5203,-0.036808,0.34587,2.5289,-0.11831,0.053252,2.5985,-0.1556,-0.15302,2.6012,-0.25537,-0.30019,2.571,-0.29422,-0.34613,2.5606,0.12926,0.084501,2.4675,0.24926,-0.096466,2.4994,0.19244,-0.24718,2.4209,0.1972,-0.28152,2.3819,-0.040912,-0.25149,2.5562,-0.011735,-0.61519,2.672,-0.0047978,-0.90578,2.7279,-0.037667,-0.9406,2.6635,0.072232,-0.23428,2.5052,0.10337,-0.56362,2.4381,0.12391,-0.8731,2.3652,0.091038,-0.90792,2.3009
0.015824,-0.1761,2.5456,0.020914,-0.11445,2.5554,0.010167,0.19604,2.5459,-0.043,0.34708,2.5477,-0.12956,0.051885,2.6306,-0.16172,-0.15358,2.6118,-0.2608,-0.29511,2.5588,-0.29672,-0.33995,2.5465,0.12803,0.087662,2.4909,0.25014,-0.09607,2.5161,0.19117,-0.24807,2.4402,0.19531,-0.27739,2.4135,-0.041221,-0.25001,2.5691,-0.010418,-0.61895,2.6911,-0.0058791,-0.9134,2.7328,-0.039623,-0.94763,2.6686,0.073505,-0.23161,2.5197,0.10418,-0.56436,2.4511,0.1236,-0.87038,2.3789,0.089857,-0.90461,2.3147
0.012777,-0.17826,2.5681,0.015925,-0.11658,2.5782,0.0019296,0.19367,2.5691,-0.051977,0.34302,2.5667,-0.13231,0.050918,2.6422,-0.16853,-0.1509,2.6407,-0.25697,-0.28616,2.555,-0.29573,-0.32964,2.5346,0.12381,0.086409,2.5219,0.23959,-0.10396,2.5346,0.18496,-0.2536,2.4497,0.18441,-0.28111,2.4204,-0.043809,-0.25172,2.5882,-0.012749,-0.60545,2.7019,-0.0066234,-0.916,2.7384,-0.025342,-0.96499,2.6938,0.071869,-0.23324,2.544,0.10853,-0.5725,2.4679,0.13082,-0.87184,2.4004,0.10085,-0.9061,2.3343
0.0097323,-0.17565,2.5847,0.01314,-0.11394,2.5946,-0.0022255,0.19658,2.5894,-0.060568,0.34736,2.5869,-0.14306,0.052699,2.6773,-0.16696,-0.1511,2.6521,-0.25621,-0.27943,2.5574,-0.29618,-0.33666,2.5247,0.1149,0.090226,2.5378,0.23229,-0.09849,2.5526,0.17291,-0.25026,2.4627,0.17102,-0.27383,2.4365,-0.045818,-0.25111,2.6116,-0.013709,-0.60277,2.7078,-0.0075603,-0.91502,2.7408,-0.041294,-0.94919,2.6765,0.068491,-0.23014,2.5545,0.11278,-0.57496,2.489,0.13384,-0.87741,2.4145,0.1001,-0.91158,2.3502
