-0.43137,-0.14429,2.5057,-0.42594,-0.084274,2.5201,-0.44629,0.2199,2.5247,-0.48436,0.37128,2.4876,-0.55974,0.095711,2.614,-0.69527,-0.033621,2.5533,-0.72554,0.15053,2.4728,-0.7405,0.21171,2.4697,-0.31894,0.13902,2.4627,-0.1628,0.028067,2.429,-0.19678,-0.15785,2.3758,-0.20955,-0.19935,2.3542,-0.4874,-0.2165,2.5411,-0.42611,-0.58499,2.6027,-0.39786,-0.94765,2.6681,-0.41526,-0.97819,2.6221,-0.37154,-0.20549,2.4598,-0.42298,-0.54501,2.3587,-0.40891,-0.87242,2.3383,-0.44945,-0.90766,2.2727
-0.43408,-0.13534,2.4902,-0.42748,-0.075692,2.5059,-0.44919,0.22855,2.5115,-0.49752,0.38409,2.4692,-0.56269,0.10596,2.6084,-0.69901,-0.024892,2.5512,-0.72855,0.18381,2.5024,-0.73757,0.23999,2.5005,-0.32296,0.15542,2.4448,-0.16178,0.044483,2.4095,-0.19453,-0.13491,2.3479,-0.20952,-0.17962,2.332,-0.48916,-0.21028,2.5277,-0.45784,-0.58222,2.589,-0.41464,-0.94003,2.6679,-0.44354,-0.95234,2.5895,-0.3745,-0.19322,2.4398,-0.42635,-0.54336,2.349,-0.42102,-0.86975,2.3161,-0.46412,-0.90499,2.2521
-0.43768,-0.13309,2.4718,-0.42921,-0.073372,2.4877,-0.44916,0.23187,2.4915,-0.50099,0.38569,2.4622,-0.56346,0.11091,2.6019,-0.71387,-0.0096641,2.551,-0.72562,0.18021,2.525,-0.73355,0.25726,2.5244,-0.326,0.16101,2.4255,-0.16105,0.06007,2.3742,-0.19288,-0.11961,2.3117,-0.21091,-0.17768,2.2908,-0.49168,-0.21162,2.5113,-0.50759,-0.54796,2.4796,-0.45487,-0.86516,2.6204,-0.4809,-0.89459,2.544,-0.3811,-0.19028,2.4189,-0.42682,-0.54424,2.3454,-0.42776,-0.85268,2.2923,-0.47325,-0.88798,2.2301
-0.44811,-0.14362,2.4501,-0.4358,-0.08356,2.4667,-0.44719,0.22487,2.4695,-0.50429,0.37534,2.4525,-0.56411,0.10681,2.5949,-0.704,-0.028219,2.5737,-0.72097,0.17853,2.5392,-0.72855,0.26264,2.5376,-0.33047,0.15211,2.4044,-0.16208,0.055224,2.3385,-0.19277,-0.12304,2.2699,-0.20873,-0.17642,2.252,-0.50065,-0.22236,2.4917,-0.55518,-0.57291,2.4624,-0.47092,-0.87392,2.6175,-0.53463,-0.96716,2.5834,-0.39907,-0.20445,2.3952,-0.42877,-0.54924,2.3395,-0.42764,-0.85468,2.2903,-0.47588,-0.8896,2.2301
-0.45709,-0.1615,2.4252,-0.44155,-0.1025,2.4442,-0.44998,0.20698,2.4542,-0.50846,0.35659,2.4433,-0.57157,0.084127,2.5834,-0.6783,-0.041482,2.5787,-0.71768,0.18162,2.5584,-0.73723,0.23632,2.539,-0.33638,0.12529,2.3718,-0.16278,0.033063,2.3004,-0.19441,-0.14937,2.2217,-0.21213,-0.19938,2.2013,-0.51311,-0.24432,2.4645,-0.5813,-0.59507,2.4341,-0.53763,-0.89804,2.5133,-0.50758,-0.92186,2.4952,-0.40675,-0.22429,2.3675,-0.43029,-0.58092,2.3206,-0.42106,-0.86978,2.2885,-0.47256,-0.90413,2.2305
-0.46289,-0.17843,2.4099,-0.44418,-0.12053,2.4301,-0.4488,0.18602,2.4418,-0.51289,0.33117,2.4282,-0.52935,0.056239,2.5535,-0.68744,-0.077795,2.62,-0.71019,0.16539,2.565,-0.67479,0.22329,2.5494,-0.34244,0.096732,2.3513,-0.16846,-0.0016718,2.2567,-0.19527,-0.18516,2.1776,-0.21146,-0.24165,2.1557,-0.517,-0.26209,2.4559,-0.59317,-0.60751,2.3999,-0.58329,-0.89631,2.4199,-0.58233,-0.93127,2.4526,-0.41924,-0.24838,2.3384,-0.45652,-0.60866,2.3031,-0.4237,-0.87288,2.2806,-0.4983,-0.89393,2.1974
-0.46706,-0.19114,2.3961,-0.44528,-0.13389,2.4187,-0.44936,0.17348,2.4368,-0.51632,0.31886,2.4217,-0.58031,0.01906,2.5781,-0.61165,-0.12206,2.6051,-0.69195,0.11744,2.5633,-0.67485,0.16625,2.5439,-0.34656,0.075702,2.3349,-0.18785,-0.04385,2.2144,-0.20709,-0.21907,2.1335,-0.2233,-0.27925,2.1082,-0.52232,-0.28183,2.442,-0.60384,-0.60494,2.3507,-0.58326,-0.90932,2.399,-0.63963,-0.94305,2.3453,-0.42233,-0.26197,2.3229,-0.48406,-0.62129,2.2813,-0.42786,-0.87901,2.2728,-0.46791,-0.92733,2.2606
-0.46309,-0.22542,2.3678,-0.44055,-0.16621,2.3919,-0.45,0.16048,2.4272,-0.51714,0.31114,2.4139,-0.51653,0.022005,2.5593,-0.56328,-0.15445,2.5965,-0.68776,0.044451,2.5589,-0.70566,0.10572,2.5493,-0.35271,0.054321,2.3195,-0.22556,-0.086648,2.1828,-0.2429,-0.25879,2.0926,-0.25166,-0.32432,2.0716,-0.51806,-0.30101,2.4006,-0.60219,-0.63794,2.3102,-0.60985,-0.90291,2.3103,-0.58536,-0.9194,2.2924,-0.41615,-0.28532,2.3112,-0.48267,-0.63153,2.2593,-0.42795,-0.88915,2.2688,-0.48928,-0.92471,2.2548
-0.47432,-0.24776,2.3545,-0.44936,-0.19079,2.3781,-0.45175,0.12318,2.4103,-0.51999,0.2912,2.4025,-0.50612,0.015014,2.5485,-0.51275,-0.1657,2.5853,-0.68756,-0.018644,2.5553,-0.71603,0.024198,2.5409,-0.36386,0.041329,2.3072,-0.26116,-0.11116,2.1611,-0.29038,-0.2834,2.0712,-0.30979,-0.34836,2.0461,-0.52542,-0.32912,2.3871,-0.6125,-0.66737,2.2726,-0.59946,-1.0188,2.307,-0.65305,-1.0514,2.2527,-0.43563,-0.30463,2.297,-0.47732,-0.65758,2.2412,-0.43595,-0.88686,2.2447,-0.46476,-0.95282,2.2279
-0.476,-0.25158,2.3497,-0.44968,-0.19428,2.3729,-0.45379,0.12086,2.4066,-0.52173,0.28755,2.3953,-0.49849,0.018056,2.5435,-0.52104,-0.16818,2.5471,-0.70174,-0.060027,2.5285,-0.70674,-0.044059,2.5251,-0.37327,0.033017,2.2977,-0.30991,-0.14862,2.1497,-0.37213,-0.31148,2.064,-0.39843,-0.36953,2.0404,-0.5238,-0.33136,2.3819,-0.61922,-0.614,2.2594,-0.60718,-1.0067,2.2108,-0.66188,-1.0394,2.1576,-0.43955,-0.30854,2.2925,-0.49143,-0.67372,2.249,-0.44243,-0.86721,2.2414,-0.4354,-0.93023,2.2715
-0.47798,-0.25451,2.3479,-0.45062,-0.19654,2.3701,-0.45737,0.11977,2.4006,-0.52354,0.2873,2.3915,-0.48976,0.018371,2.5267,-0.717,-0.17137,2.6807,-0.69862,-0.089195,2.5164,-0.64273,-0.13518,2.5182,-0.38448,0.030517,2.2928,-0.3522,-0.1525,2.1513,-0.43849,-0.31305,2.084,-0.46788,-0.35652,2.0544,-0.52358,-0.33101,2.382,-0.62289,-0.60457,2.2442,-0.62741,-0.98052,2.1163,-0.68263,-1.0134,2.0638,-0.44371,-0.3118,2.2905,-0.48044,-0.66854,2.233,-0.41336,-0.90402,2.244,-0.46771,-1.0158,2.2572
-0.47473,-0.25959,2.3358,-0.44829,-0.2053,2.3583,-0.46268,0.086128,2.3846,-0.52323,0.26778,2.383,-0.49631,0.033927,2.4795,-0.72365,-0.23924,2.6522,-0.68704,-0.10823,2.5831,-0.71086,-0.050529,2.4703,-0.3955,0.029131,2.2895,-0.38873,-0.15346,2.1592,-0.50625,-0.3081,2.1025,-0.54955,-0.35677,2.0754,-0.51065,-0.34371,2.3605,-0.6321,-0.59872,2.2031,-0.64692,-0.77194,2.0182,-0.62308,-0.79812,1.9533,-0.44149,-0.31161,2.2806,-0.4588,-0.66531,2.2504,-0.41232,-0.98504,2.3095,-0.46568,-1.018,2.2551
-0.4746,-0.26018,2.3318,-0.44741,-0.20541,2.3537,-0.46587,0.088311,2.3812,-0.52427,0.26978,2.382,-0.49601,0.033935,2.4792,-0.72562,-0.23695,2.6502,-0.64382,-0.12161,2.5102,-0.61655,-0.083167,2.4678,-0.40957,0.028095,2.2855,-0.43701,-0.15446,2.166,-0.57263,-0.29781,2.1157,-0.62182,-0.35138,2.107,-0.50664,-0.33819,2.3571,-0.61671,-0.57666,2.1818,-0.65302,-0.71691,2.0222,-0.71802,-0.98279,1.9233,-0.44323,-0.3119,2.2776,-0.45814,-0.66607,2.2503,-0.4121,-0.98678,2.3088,-0.39057,-0.81098,2.1716
-0.47634,-0.2609,2.3259,-0.44831,-0.20526,2.3475,-0.46918,0.092907,2.3777,-0.5251,0.27533,2.3804,-0.49621,0.032628,2.4746,-0.67862,-0.22259,2.6684,-0.63157,-0.037482,2.5876,-0.59984,-0.073156,2.4664,-0.42382,0.028285,2.2834,-0.49557,-0.15968,2.1734,-0.63081,-0.29169,2.1423,-0.68503,-0.34327,2.1466,-0.50374,-0.3344,2.3527,-0.62191,-0.6979,2.1137,-0.65109,-0.70196,2.0061,-0.79861,-0.95277,1.9135,-0.44879,-0.31164,2.2716,-0.5293,-0.60815,2.1958,-0.62793,-0.73971,1.9466,-0.70213,-0.77582,1.9192
-0.47834,-0.26576,2.3263,-0.44902,-0.20592,2.3465,-0.47175,0.13073,2.3807,-0.52536,0.28905,2.3807,-0.49579,0.033696,2.4742,-0.4022,-0.0678,2.5662,-0.626,-0.031653,2.5864,-0.20534,-0.0049129,2.556,-0.43691,0.028568,2.2814,-0.5443,-0.16488,2.1719,-0.69026,-0.28754,2.1743,-0.7346,-0.34476,2.1755,-0.51474,-0.33045,2.3212,-0.61924,-0.69098,2.1057,-0.7599,-0.90426,1.9026,-0.64216,-0.73149,1.9306,-0.45282,-0.33171,2.3155,-0.53732,-0.61922,2.1749,-0.62156,-0.77393,1.9204,-0.65555,-0.75823,1.8567
-0.48494,-0.26937,2.3189,-0.45424,-0.20789,2.3399,-0.47384,0.13247,2.3799,-0.52556,0.29047,2.3807,-0.65411,-0.057251,2.5348,-0.40304,-0.067448,2.566,-0.60631,-0.018724,2.5882,-0.65989,-0.0047738,2.5952,-0.44471,0.029004,2.2827,-0.58448,-0.15228,2.189,-0.72039,-0.28306,2.2041,-0.77392,-0.32269,2.2246,-0.51963,-0.33376,2.3081,-0.53814,-0.5847,2.1392,-0.70039,-0.59893,2.0313,-0.66335,-0.67191,1.9738,-0.46099,-0.32998,2.3096,-0.53755,-0.61303,2.1783,-0.39812,-0.99918,2.3212,-0.61155,-0.78437,1.8578
-0.48629,-0.2686,2.3151,-0.45511,-0.20593,2.3356,-0.47606,0.13557,2.379,-0.52528,0.29298,2.3805,-0.4932,0.034861,2.4752,-0.40549,-0.097641,2.5591,-0.60771,-0.013766,2.5794,-0.65999,0.0050111,2.5847,-0.45411,0.033257,2.2829,-0.59799,-0.14215,2.2015,-0.7469,-0.25555,2.2501,-0.79624,-0.29879,2.2677,-0.51641,-0.32623,2.3084,-0.62338,-0.61637,2.1306,-0.67969,-0.62952,2.0189,-0.64298,-0.69944,1.9575,-0.46681,-0.31832,2.2855,-0.54926,-0.59689,2.1683,-0.60437,-0.75518,1.9248,-0.62619,-0.79097,1.864
-0.48642,-0.26383,2.3138,-0.45506,-0.20102,2.3335,-0.47683,0.13955,2.3794,-0.51698,0.32082,2.3905,-0.65511,-0.056175,2.5346,-0.40589,-0.098008,2.559,-0.64074,0.0099878,2.5408,-0.63202,-0.014545,2.5525,-0.45842,0.037757,2.2844,-0.62208,-0.13023,2.2247,-0.76595,-0.23826,2.28,-0.80185,-0.274,2.302,-0.51435,-0.31659,2.31,-0.53233,-0.5787,2.141,-0.65751,-0.88704,1.8618,-0.63412,-0.70813,1.9548,-0.46653,-0.31269,2.2859,-0.48159,-0.63552,2.2285,-0.60098,-0.75007,1.93,-0.62306,-0.79089,1.8725
-0.48405,-0.26248,2.3026,-0.45325,-0.19866,2.325,-0.47741,0.14324,2.3797,-0.51616,0.32396,2.3905,-0.48993,0.040506,2.4776,-0.40621,-0.09833,2.5587,-0.63851,0.015793,2.5458,-0.6413,0.0005934,2.553,-0.4622,0.042859,2.2841,-0.62537,-0.11948,2.2319,-0.76793,-0.21985,2.3152,-0.80577,-0.25447,2.3377,-0.50795,-0.32025,2.2988,-0.53236,-0.57994,2.1398,-0.69526,-0.60807,2.0516,-0.65677,-0.67712,1.9904,-0.46485,-0.30888,2.2732,-0.42507,-0.67441,2.2587,-0.59186,-0.75321,1.9496,-0.61965,-0.7852,1.889
-0.482,-0.2609,2.2999,-0.45144,-0.19645,2.322,-0.4782,0.14626,2.379,-0.51316,0.32766,2.3912,-0.48953,0.057197,2.4818,-0.40658,-0.09819,2.5583,-0.64353,0.021766,2.5427,-0.64732,0.0098393,2.5486,-0.46525,0.046455,2.2848,-0.62672,-0.10571,2.2385,-0.76787,-0.2109,2.3321,-0.80495,-0.24302,2.3715,-0.50485,-0.31849,2.2986,-0.5148,-0.62515,2.1767,-0.6524,-0.89737,1.8869,-0.63487,-0.73907,2.0363,-0.46111,-0.30502,2.2708,-0.51512,-0.60965,2.1975,-0.60661,-0.75356,1.9645,-0.68425,-0.7909,1.9526
-0.48078,-0.2588,2.2983,-0.45022,-0.19389,2.3205,-0.4789,0.15296,2.3798,-0.5124,0.32897,2.3919,-0.49337,0.043296,2.496,-0.51401,-0.12019,2.569,-0.64414,0.020241,2.5345,-0.65735,0.016571,2.5388,-0.46831,0.049625,2.2849,-0.61348,-0.082795,2.2367,-0.7414,-0.18398,2.3223,-0.78578,-0.21928,2.3605,-0.50361,-0.31812,2.3016,-0.51504,-0.62927,2.1799,-0.64,-0.91667,1.9202,-0.63574,-0.75461,2.0418,-0.45681,-0.29663,2.2626,-0.51562,-0.60977,2.1994,-0.61219,-0.76978,1.9902,-0.68985,-0.80716,1.9786
-0.47979,-0.25761,2.2979,-0.44949,-0.19264,2.3212,-0.47957,0.15504,2.3797,-0.51305,0.33275,2.3945,-0.5191,-0.004694,2.5351,-0.49752,-0.17566,2.5837,-0.62752,-0.012242,2.529,-0.66712,0.020871,2.5293,-0.46986,0.050609,2.2851,-0.62685,-0.10641,2.249,-0.75044,-0.18681,2.3593,-0.76318,-0.20383,2.3936,-0.50322,-0.32079,2.3053,-0.62116,-0.6207,2.1467,-0.62097,-0.94331,1.9732,-0.63331,-0.76145,2.0475,-0.45573,-0.29553,2.2608,-0.54377,-0.58563,2.1904,-0.61167,-0.78033,2.0059,-0.68874,-0.81737,1.9901
-0.48265,-0.23765,2.306,-0.45194,-0.17716,2.3272,-0.48027,0.15635,2.3797,-0.48591,0.34047,2.4114,-0.60849,0.010707,2.5574,-0.53021,-0.18108,2.5654,-0.64372,-0.014364,2.5141,-0.67906,0.015666,2.5162,-0.47017,0.051194,2.2851,-0.62004,-0.10982,2.2503,-0.71308,-0.1814,2.3426,-0.74482,-0.20827,2.3912,-0.50904,-0.29974,2.3312,-0.61903,-0.63666,2.17,-0.64265,-0.90355,1.9947,-0.64991,-0.7192,2.1271,-0.45752,-0.28439,2.2607,-0.51979,-0.61598,2.2109,-0.61082,-0.80357,2.037,-0.61016,-0.84688,1.9771
-0.48384,-0.23405,2.3082,-0.45371,-0.16774,2.3296,-0.48506,0.18964,2.3888,-0.48501,0.34707,2.4151,-0.49408,0.047876,2.5257,-0.71084,-0.10502,2.558,-0.67831,-0.00052626,2.4863,-0.68976,0.0037304,2.4966,-0.47059,0.051865,2.2855,-0.61175,-0.11664,2.2532,-0.69862,-0.19875,2.342,-0.728,-0.22699,2.3825,-0.51135,-0.29675,2.3291,-0.62004,-0.64029,2.1824,-0.63469,-0.9226,2.0416,-0.6402,-0.75827,2.1125,-0.45781,-0.27929,2.268,-0.52322,-0.60855,2.2137,-0.39979,-0.95703,2.3058,-0.45762,-0.99031,2.2565
-0.48488,-0.23803,2.3084,-0.45513,-0.16956,2.3307,-0.48619,0.19074,2.3888,-0.48522,0.34745,2.416,-0.60885,0.017186,2.5377,-0.69319,-0.19631,2.5806,-0.69159,-0.018903,2.4616,-0.69896,-0.019763,2.4679,-0.47148,0.052491,2.2858,-0.59233,-0.12114,2.2429,-0.68026,-0.23542,2.3337,-0.70689,-0.26395,2.37,-0.51465,-0.30652,2.3237,-0.52524,-0.65183,2.2499,-0.60089,-0.94412,2.0639,-0.63458,-0.79322,2.125,-0.45734,-0.28612,2.2702,-0.52322,-0.6078,2.2256,-0.62309,-0.81818,2.0987,-0.70077,-0.85603,2.089
-0.4855,-0.23762,2.3095,-0.45576,-0.16902,2.3318,-0.48803,0.19172,2.3889,-0.48717,0.34828,2.4178,-0.60427,0.011434,2.5319,-0.72026,-0.20976,2.5836,-0.69149,-0.042835,2.4349,-0.70333,-0.043976,2.4381,-0.47214,0.053228,2.2861,-0.57001,-0.14544,2.2313,-0.6877,-0.26035,2.3366,-0.70205,-0.30233,2.3586,-0.51244,-0.30736,2.3317,-0.63142,-0.61504,2.238,-0.6005,-0.95987,2.1177,-0.63495,-0.81201,2.1636,-0.45649,-0.28096,2.2621,-0.42716,-0.62728,2.2535,-0.61221,-0.83686,2.1433,-0.68979,-0.87469,2.1328
-0.486,-0.24349,2.3103,-0.45687,-0.1725,2.333,-0.49038,0.19301,2.3896,-0.48878,0.34948,2.4205,-0.60148,0.0065394,2.5198,-0.69441,-0.22528,2.5375,-0.69765,-0.068317,2.4077,-0.70694,-0.064076,2.4111,-0.47305,0.054377,2.287,-0.55863,-0.1455,2.2289,-0.65594,-0.3257,2.3054,-0.71885,-0.26432,2.3593,-0.51468,-0.31303,2.3223,-0.63095,-0.62587,2.2621,-0.58127,-0.98428,2.1733,-0.63368,-1.0171,2.1179,-0.45595,-0.29428,2.2767,-0.53247,-0.59784,2.2552,-0.39524,-0.97964,2.3217,-0.70014,-0.87373,2.1753
-0.49052,-0.23907,2.3219,-0.45997,-0.1726,2.3419,-0.4967,0.15213,2.3867,-0.49371,0.33394,2.4251,-0.59557,-0.021836,2.5046,-0.76966,-0.25671,2.5184,-0.70786,-0.10101,2.4015,-0.70562,-0.10648,2.3767,-0.47374,0.055299,2.2885,-0.54814,-0.16803,2.2261,-0.60893,-0.35877,2.2603,-0.69976,-0.28987,2.3574,-0.5148,-0.32078,2.3703,-0.62912,-0.62995,2.2856,-0.63933,-0.82806,2.2235,-0.5991,-0.88955,2.2315,-0.46952,-0.28479,2.2604,-0.52803,-0.62754,2.2651,-0.39677,-0.96862,2.3112,-0.42963,-0.91774,2.2682
-0.49323,-0.2442,2.3288,-0.46295,-0.18125,2.349,-0.5006,0.14933,2.3894,-0.49664,0.33122,2.4291,-0.59117,-0.03976,2.509,-0.75371,-0.28926,2.5219,-0.72463,-0.11305,2.4256,-0.70213,-0.14793,2.3397,-0.47434,0.056854,2.2897,-0.52258,-0.16731,2.2149,-0.56754,-0.33232,2.2158,-0.58685,-0.37732,2.1891,-0.51499,-0.32455,2.3659,-0.6299,-0.6412,2.3173,-0.63581,-0.86385,2.2765,-0.71289,-0.9018,2.2631,-0.47132,-0.29063,2.2731,-0.42593,-0.61209,2.253,-0.41976,-0.86352,2.2513,-0.49684,-0.90147,2.2379
-0.49172,-0.254,2.3355,-0.46321,-0.18651,2.3568,-0.50366,0.1514,2.396,-0.50226,0.33316,2.437,-0.52123,0.040397,2.542,-0.75219,-0.28375,2.5258,-0.6853,-0.16074,2.3661,-0.68275,-0.16042,2.3379,-0.47486,0.058388,2.2928,-0.50187,-0.17715,2.2106,-0.56074,-0.35935,2.1867,-0.53473,-0.4089,2.1447,-0.51404,-0.33265,2.3442,-0.61368,-0.62337,2.3314,-0.57538,-0.86702,2.342,-0.6522,-0.90482,2.3268,-0.46178,-0.3069,2.304,-0.4256,-0.61644,2.2541,-0.41918,-0.85464,2.2528,-0.496,-0.89244,2.2376
-0.4745,-0.26677,2.3299,-0.44823,-0.19997,2.3539,-0.50468,0.15077,2.4012,-0.50614,0.3329,2.4463,-0.52707,0.040627,2.5458,-0.75057,-0.28698,2.528,-0.68497,-0.17535,2.376,-0.66311,-0.13814,2.3296,-0.47573,0.061134,2.2986,-0.47458,-0.17123,2.1928,-0.51598,-0.35282,2.1456,-0.53465,-0.41429,2.1308,-0.49983,-0.3397,2.3503,-0.61666,-0.61403,2.3527,-0.55407,-0.90735,2.4047,-0.6189,-0.94332,2.3694,-0.44453,-0.31414,2.2853,-0.4258,-0.62444,2.2596,-0.41948,-0.85301,2.2542,-0.49614,-0.89043,2.2374
-0.47468,-0.24328,2.3444,-0.44889,-0.18061,2.3675,-0.50676,0.15141,2.408,-0.50963,0.33333,2.4543,-0.53464,0.041188,2.5529,-0.74982,-0.28615,2.5346,-0.67848,-0.19487,2.3711,-0.6547,-0.16444,2.3209,-0.47579,0.063065,2.3037,-0.45664,-0.16022,2.1848,-0.48604,-0.33417,2.1059,-0.49351,-0.38465,2.0903,-0.49682,-0.31964,2.3679,-0.6019,-0.60985,2.3747,-0.53686,-0.9311,2.4606,-0.56514,-0.99582,2.4704,-0.44432,-0.28649,2.2969,-0.42483,-0.63968,2.279,-0.41962,-0.85825,2.2552,-0.49573,-0.89567,2.2361
-0.47754,-0.22797,2.3593,-0.4516,-0.16677,2.3836,-0.51064,0.15347,2.4181,-0.51492,0.33602,2.4667,-0.54639,0.045888,2.5635,-0.75114,-0.28377,2.542,-0.65768,-0.24697,2.3594,-0.62652,-0.2347,2.3028,-0.47558,0.067099,2.3127,-0.43858,-0.1471,2.1764,-0.46604,-0.3185,2.0894,-0.46836,-0.36151,2.0733,-0.49891,-0.3052,2.3857,-0.5898,-0.63166,2.4074,-0.52839,-0.92962,2.5048,-0.58755,-0.98738,2.5067,-0.44617,-0.27296,2.3091,-0.42746,-0.63985,2.2851,-0.40489,-0.90523,2.2811,-0.45284,-0.89054,2.2648
-0.48033,-0.22887,2.3707,-0.45462,-0.16666,2.395,-0.5142,0.15459,2.4285,-0.52101,0.33546,2.4777,-0.55905,0.042765,2.5866,-0.75278,-0.28194,2.5504,-0.65803,-0.24683,2.361,-0.62644,-0.23513,2.3021,-0.47563,0.069829,2.3205,-0.41975,-0.12559,2.1882,-0.42194,-0.27971,2.0688,-0.4286,-0.32373,2.0442,-0.50393,-0.31172,2.4011,-0.58271,-0.63131,2.426,-0.5234,-0.94923,2.541,-0.58617,-0.99922,2.5435,-0.44698,-0.27408,2.3165,-0.43078,-0.60566,2.2875,-0.41037,-0.87154,2.2797,-0.47356,-0.90795,2.24
-0.52036,-0.22924,2.4036,-0.49094,-0.1601,2.4275,-0.53125,0.19961,2.4536,-0.52545,0.35403,2.4911,-0.56817,0.040693,2.5948,-0.59098,-0.17021,2.5442,-0.68629,-0.1583,2.3991,-0.65447,-0.14724,2.3387,-0.47464,0.070932,2.3295,-0.39514,-0.087318,2.1915,-0.40565,-0.24554,2.0776,-0.40715,-0.29078,2.0437,-0.5531,-0.30141,2.4403,-0.57269,-0.63521,2.4535,-0.52321,-0.92369,2.557,-0.57417,-0.98565,2.5563,-0.48565,-0.28263,2.3492,-0.4342,-0.60736,2.2936,-0.42321,-0.86008,2.2599,-0.49627,-0.89733,2.231
-0.52202,-0.22949,2.4128,-0.49369,-0.16234,2.438,-0.53609,0.16904,2.4611,-0.53135,0.35059,2.5062,-0.58172,0.041036,2.6,-0.59439,-0.17024,2.552,-0.68951,-0.21749,2.4002,-0.6577,-0.20643,2.3398,-0.47433,0.071535,2.3401,-0.38119,-0.07722,2.1988,-0.39258,-0.23456,2.0768,-0.38851,-0.28174,2.0374,-0.55718,-0.30979,2.4562,-0.57025,-0.62193,2.4675,-0.51817,-0.91233,2.5376,-0.5894,-0.94948,2.5044,-0.48448,-0.28233,2.3574,-0.43906,-0.60837,2.3042,-0.42831,-0.85793,2.2627,-0.49954,-0.89508,2.2294
-0.52757,-0.22203,2.4317,-0.50014,-0.15492,2.4572,-0.54302,0.19733,2.4819,-0.53783,0.35234,2.526,-0.59568,0.042962,2.6064,-0.60943,-0.1703,2.5703,-0.69598,-0.15894,2.43,-0.66417,-0.14788,2.3696,-0.47577,0.072262,2.355,-0.3749,-0.069973,2.2111,-0.36976,-0.21837,2.0836,-0.37733,-0.27661,2.0354,-0.56342,-0.29952,2.4711,-0.56753,-0.61354,2.4949,-0.49808,-0.92406,2.5584,-0.56716,-0.96111,2.5207,-0.48815,-0.27608,2.3755,-0.44783,-0.60874,2.3155,-0.41654,-0.87503,2.2892,-0.46583,-0.92533,2.2664
-0.53221,-0.22328,2.4494,-0.50607,-0.15528,2.4737,-0.54746,0.1965,2.4894,-0.54255,0.35252,2.5393,-0.60948,0.048101,2.6285,-0.63401,-0.14723,2.606,-0.66282,-0.30479,2.4716,-0.66504,-0.14806,2.3723,-0.47661,0.073086,2.3683,-0.36892,-0.067112,2.2246,-0.36944,-0.21048,2.0909,-0.37253,-0.26738,2.0407,-0.57122,-0.30094,2.4884,-0.5644,-0.61647,2.5057,-0.49924,-0.92025,2.5595,-0.56718,-0.95754,2.52,-0.48938,-0.27684,2.3947,-0.45199,-0.60478,2.3323,-0.41945,-0.87256,2.2931,-0.4801,-0.90849,2.2468
-0.53438,-0.22227,2.4634,-0.50969,-0.15426,2.4889,-0.55479,0.1956,2.5023,-0.5481,0.35302,2.5566,-0.61623,0.047692,2.6351,-0.63894,-0.14537,2.6167,-0.6637,-0.30046,2.4852,-0.62928,-0.32584,2.535,-0.48147,0.072174,2.3866,-0.36601,-0.066543,2.2517,-0.36711,-0.20493,2.1122,-0.36926,-0.25893,2.0588,-0.57327,-0.30137,2.5022,-0.56158,-0.61339,2.5304,-0.49833,-0.9141,2.5635,-0.56528,-0.95148,2.5225,-0.49038,-0.27434,2.4098,-0.45488,-0.59891,2.3585,-0.41959,-0.86971,2.2989,-0.47897,-0.90581,2.2511
-0.5338,-0.22394,2.4763,-0.51071,-0.15513,2.502,-0.56043,0.19569,2.5131,-0.55214,0.35329,2.5671,-0.62205,0.048466,2.6446,-0.65084,-0.13858,2.6311,-0.68817,-0.28421,2.5074,-0.6836,-0.32855,2.4719,-0.48439,0.07144,2.3986,-0.36664,-0.07479,2.2715,-0.36875,-0.21584,2.1349,-0.37057,-0.26427,2.0925,-0.57159,-0.30433,2.514,-0.55898,-0.61212,2.5524,-0.49884,-0.91417,2.566,-0.56539,-0.95181,2.5246,-0.48888,-0.27458,2.4249,-0.45064,-0.596,2.3757,-0.42119,-0.86663,2.3066,-0.47966,-0.90306,2.258
-0.53496,-0.2206,2.4914,-0.51291,-0.15162,2.517,-0.5655,0.19799,2.527,-0.55561,0.35734,2.5824,-0.62703,0.051583,2.6534,-0.66012,-0.13431,2.6526,-0.6955,-0.27315,2.5133,-0.70073,-0.29644,2.4787,-0.48862,0.071509,2.4115,-0.37213,-0.08679,2.2945,-0.38697,-0.23925,2.1725,-0.38618,-0.2943,2.1204,-0.57425,-0.29731,2.5284,-0.55752,-0.60466,2.5656,-0.4994,-0.91396,2.5666,-0.56557,-0.95199,2.5249,-0.48777,-0.27249,2.4413,-0.45026,-0.59706,2.3861,-0.42175,-0.86681,2.3134,-0.48013,-0.90348,2.2648
-0.53628,-0.2213,2.5056,-0.51455,-0.15171,2.5308,-0.56658,0.2003,2.5388,-0.55854,0.35729,2.5945,-0.63383,0.049299,2.6747,-0.66505,-0.13615,2.6793,-0.71411,-0.25202,2.5281,-0.71644,-0.27051,2.5025,-0.49312,0.069839,2.4263,-0.38088,-0.10899,2.3129,-0.39794,-0.27223,2.2084,-0.40287,-0.33124,2.161,-0.57689,-0.29705,2.5412,-0.55703,-0.6042,2.5819,-0.50028,-0.91313,2.5685,-0.56653,-0.95121,2.527,-0.4881,-0.27268,2.4578,-0.45035,-0.58996,2.4058,-0.42322,-0.86703,2.3239,-0.48167,-0.90377,2.2755
-0.53212,-0.22649,2.5168,-0.51249,-0.15544,2.5421,-0.56809,0.20046,2.5493,-0.55987,0.35717,2.6061,-0.63805,0.050614,2.6853,-0.66808,-0.13593,2.6798,-0.72206,-0.24304,2.5262,-0.72054,-0.27101,2.4923,-0.4953,0.067422,2.4391,-0.40231,-0.13692,2.3491,-0.42049,-0.30242,2.2485,-0.41866,-0.35337,2.2263,-0.57556,-0.3005,2.5479,-0.55768,-0.60631,2.5857,-0.50122,-0.91162,2.57,-0.56711,-0.94956,2.5278,-0.47931,-0.2763,2.4756,-0.45147,-0.59434,2.4086,-0.42036,-0.87086,2.3404,-0.4779,-0.90783,2.2911
-0.53356,-0.22654,2.5265,-0.51443,-0.15572,2.5533,-0.57046,0.20155,2.5628,-0.56088,0.35776,2.6149,-0.63903,0.05894,2.6886,-0.70214,-0.17021,2.6962,-0.76017,-0.21764,2.5156,-0.77166,-0.24495,2.4796,-0.49507,0.067154,2.4565,-0.41555,-0.14713,2.3658,-0.44628,-0.32734,2.3051,-0.4491,-0.36939,2.2873,-0.57732,-0.29931,2.5552,-0.55992,-0.60605,2.5914,-0.50271,-0.90897,2.5719,-0.55521,-0.94271,2.6207,-0.48089,-0.27598,2.4859,-0.45651,-0.60176,2.4107,-0.41687,-0.88298,2.3639,-0.45162,-0.94036,2.358
-0.5415,-0.216,2.5393,-0.52107,-0.14898,2.5648,-0.57084,0.19975,2.5689,-0.56023,0.35761,2.6205,-0.64011,0.060992,2.6905,-0.68105,-0.12322,2.6964,-0.78583,-0.24502,2.5319,-0.78747,-0.24649,2.4886,-0.49379,0.065693,2.4693,-0.44162,-0.1643,2.3961,-0.46656,-0.34828,2.3358,-0.47907,-0.3972,2.3115,-0.58551,-0.28779,2.5709,-0.56136,-0.59763,2.5893,-0.50293,-0.90847,2.5732,-0.55286,-0.94037,2.6199,-0.48974,-0.26831,2.4952,-0.45856,-0.60987,2.417,-0.41337,-0.89699,2.3862,-0.44725,-0.95125,2.3797
-0.53928,-0.22167,2.544,-0.52045,-0.15258,2.5708,-0.5701,0.19846,2.5766,-0.55984,0.35973,2.6243,-0.6422,0.06755,2.6945,-0.70837,-0.16923,2.6977,-0.81409,-0.2133,2.5438,-0.80399,-0.24119,2.5065,-0.49248,0.06449,2.4838,-0.45767,-0.1705,2.4109,-0.50995,-0.35831,2.3794,-0.4959,-0.41724,2.3395,-0.58399,-0.2933,2.5734,-0.56846,-0.60169,2.5993,-0.50408,-0.91251,2.5778,-0.54594,-0.94122,2.6122,-0.48769,-0.27125,2.502,-0.46515,-0.61004,2.4281,-0.39881,-0.91695,2.4288,-0.40988,-0.98697,2.4296
-0.53943,-0.22135,2.5454,-0.52019,-0.15276,2.5736,-0.56824,0.19862,2.5845,-0.55781,0.36283,2.6321,-0.64283,0.070226,2.6968,-0.71056,-0.16784,2.7075,-0.82365,-0.21683,2.562,-0.83248,-0.25296,2.5265,-0.4903,0.065249,2.493,-0.46511,-0.16722,2.4234,-0.52631,-0.39004,2.4068,-0.52729,-0.43678,2.375,-0.58461,-0.29277,2.5745,-0.56861,-0.60204,2.5965,-0.50287,-0.92642,2.6063,-0.54184,-0.9876,2.6007,-0.48776,-0.27091,2.5035,-0.46966,-0.60983,2.4419,-0.39668,-0.92269,2.4415,-0.44169,-0.97585,2.4441
-0.54157,-0.22005,2.5515,-0.5214,-0.15198,2.581,-0.56643,0.19972,2.5923,-0.5549,0.36405,2.6364,-0.64351,0.073598,2.7006,-0.71291,-0.16693,2.7061,-0.82634,-0.23576,2.5696,-0.82801,-0.2749,2.5404,-0.48963,0.065318,2.5018,-0.47392,-0.16892,2.4364,-0.56901,-0.3664,2.4246,-0.59687,-0.41481,2.4156,-0.58755,-0.29125,2.5816,-0.56894,-0.60224,2.5961,-0.50077,-0.93682,2.6072,-0.55452,-0.97242,2.5525,-0.48993,-0.26969,2.509,-0.47026,-0.61373,2.4571,-0.40049,-0.93383,2.4756,-0.43127,-0.98563,2.4403
-0.54288,-0.21964,2.5565,-0.52142,-0.15192,2.5866,-0.56451,0.19978,2.5973,-0.55279,0.36312,2.6384,-0.64323,0.07439,2.7058,-0.71889,-0.16684,2.7022,-0.83778,-0.27452,2.5907,-0.82912,-0.29093,2.552,-0.48933,0.064257,2.5069,-0.47956,-0.16855,2.4417,-0.60728,-0.33655,2.4476,-0.63449,-0.38329,2.45,-0.58911,-0.29096,2.5886,-0.57119,-0.6021,2.5996,-0.50074,-0.93564,2.6083,-0.54276,-0.99448,2.6053,-0.49162,-0.26967,2.5119,-0.47606,-0.61637,2.4787,-0.40724,-0.93747,2.5236,-0.40614,-0.99588,2.4992
-0.54203,-0.22144,2.5618,-0.51989,-0.15378,2.5927,-0.56286,0.19849,2.6033,-0.54914,0.36305,2.6405,-0.64326,0.07487,2.7072,-0.72555,-0.17262,2.699,-0.83626,-0.29509,2.5948,-0.82801,-0.31905,2.5633,-0.48767,0.062075,2.5101,-0.47956,-0.15903,2.4469,-0.61765,-0.3208,2.4565,-0.65669,-0.35894,2.4662,-0.58893,-0.29196,2.5915,-0.53509,-0.62908,2.5829,-0.50031,-0.93727,2.6088,-0.54285,-0.99705,2.6031,-0.4905,-0.27154,2.5187,-0.4821,-0.62281,2.5038,-0.40636,-0.9521,2.5465,-0.41909,-1.0215,2.5619
-0.54251,-0.22181,2.5678,-0.5197,-0.15445,2.5992,-0.56104,0.19734,2.609,-0.54585,0.36227,2.641,-0.64361,0.074434,2.7073,-0.73029,-0.17391,2.7098,-0.81981,-0.30573,2.5973,-0.83884,-0.37844,2.5899,-0.48444,0.060354,2.514,-0.48528,-0.15635,2.448,-0.62995,-0.30686,2.4637,-0.66511,-0.34759,2.4718,-0.59059,-0.29421,2.6003,-0.55992,-0.63852,2.6067,-0.51171,-0.93023,2.5831,-0.49534,-1.0191,2.619,-0.49046,-0.27263,2.5221,-0.47172,-0.62947,2.5266,-0.40012,-0.98254,2.6036,-0.4337,-1.0193,2.5636
-0.51682,-0.21947,2.5764,-0.49936,-0.15116,2.6086,-0.55739,0.19735,2.6153,-0.54147,0.36158,2.6451,-0.64364,0.074393,2.7074,-0.73022,-0.17615,2.7069,-0.79783,-0.34092,2.6291,-0.81401,-0.4005,2.6128,-0.48017,0.060467,2.5186,-0.49299,-0.15647,2.45,-0.64916,-0.29586,2.471,-0.67829,-0.34377,2.4741,-0.5582,-0.29502,2.6043,-0.56245,-0.63504,2.6077,-0.5078,-0.93037,2.5866,-0.47128,-0.99403,2.5587,-0.46621,-0.2662,2.5324,-0.47051,-0.62972,2.529,-0.40237,-0.97886,2.6209,-0.44857,-1.0193,2.6036
-0.54225,-0.22703,2.5852,-0.51687,-0.15858,2.6175,-0.55316,0.19698,2.6199,-0.53607,0.36122,2.6504,-0.66107,0.06954,2.6971,-0.72146,-0.15605,2.7018,-0.78144,-0.33019,2.6386,-0.78649,-0.38334,2.6353,-0.4747,0.061679,2.523,-0.49442,-0.15535,2.4511,-0.64737,-0.28391,2.47,-0.6785,-0.32979,2.4701,-0.58759,-0.28884,2.6123,-0.5932,-0.58565,2.6159,-0.50338,-0.91567,2.5843,-0.5055,-0.98522,2.5595,-0.49601,-0.27668,2.5448,-0.49012,-0.63682,2.5472,-0.40054,-0.98895,2.636,-0.4584,-1.017,2.6111
-0.51525,-0.21946,2.5863,-0.50003,-0.15248,2.6202,-0.55025,0.197,2.6219,-0.53418,0.36146,2.6518,-0.66142,0.076381,2.7005,-0.71605,-0.15285,2.6972,-0.76239,-0.33626,2.6447,-0.76597,-0.39051,2.6433,-0.46607,0.062946,2.53,-0.49516,-0.15147,2.4531,-0.64542,-0.27452,2.4645,-0.67754,-0.31956,2.47,-0.55435,-0.28929,2.6148,-0.58959,-0.58214,2.6142,-0.50283,-0.91493,2.5854,-0.51044,-1.0067,2.6221,-0.46931,-0.26663,2.5439,-0.48996,-0.6363,2.5544,-0.40725,-0.98538,2.6521,-0.46866,-1.0154,2.6169
-0.5176,-0.21913,2.5898,-0.50003,-0.15252,2.6232,-0.54767,0.19639,2.6247,-0.53696,0.36175,2.6504,-0.66682,0.073018,2.7091,-0.71385,-0.16008,2.701,-0.73567,-0.32311,2.6355,-0.74533,-0.41101,2.6449,-0.45931,0.063639,2.5357,-0.49894,-0.15905,2.4592,-0.64829,-0.27921,2.4575,-0.68413,-0.32231,2.459,-0.56204,-0.28869,2.6192,-0.58107,-0.59383,2.6149,-0.50245,-0.91459,2.5866,-0.5372,-0.9764,2.5591,-0.46939,-0.26763,2.5475,-0.49071,-0.6362,2.5642,-0.40407,-0.9867,2.6646,-0.46143,-1.0203,2.6394
-0.51786,-0.21926,2.5933,-0.50164,-0.15313,2.6283,-0.54389,0.19502,2.6281,-0.53429,0.3625,2.6511,-0.66553,0.074469,2.7038,-0.7032,-0.16464,2.7035,-0.71298,-0.3305,2.6425,-0.72412,-0.41333,2.6418,-0.44507,0.06933,2.5488,-0.48639,-0.16729,2.4709,-0.63906,-0.27684,2.4302,-0.65333,-0.29721,2.4259,-0.56251,-0.28862,2.6216,-0.57828,-0.5929,2.6141,-0.49054,-0.94105,2.6193,-0.53378,-0.97614,2.5552,-0.46878,-0.26855,2.553,-0.48857,-0.63588,2.5705,-0.40228,-0.98805,2.6728,-0.46773,-1.0183,2.6379
-0.51752,-0.21946,2.5962,-0.50228,-0.1533,2.6319,-0.54157,0.1952,2.6295,-0.53267,0.36431,2.6502,-0.66449,0.076804,2.6992,-0.68164,-0.14985,2.6985,-0.69796,-0.33143,2.6426,-0.71957,-0.36826,2.6476,-0.43613,0.070329,2.5549,-0.47037,-0.16394,2.4776,-0.61793,-0.2723,2.4144,-0.64245,-0.29977,2.3925,-0.56319,-0.28877,2.6242,-0.57649,-0.5896,2.6123,-0.49271,-0.93872,2.6193,-0.53284,-0.97361,2.5531,-0.46737,-0.27034,2.5568,-0.48368,-0.63619,2.5777,-0.40094,-0.99215,2.6787,-0.46386,-1.0227,2.6489
-0.51475,-0.21856,2.598,-0.50178,-0.15284,2.6356,-0.53812,0.1948,2.6318,-0.53009,0.36503,2.6513,-0.66282,0.076542,2.6935,-0.67372,-0.15301,2.6994,-0.73171,-0.29625,2.6679,-0.72046,-0.36909,2.6472,-0.42159,0.071175,2.5654,-0.46315,-0.15686,2.4814,-0.58949,-0.27575,2.395,-0.61842,-0.30605,2.3659,-0.56177,-0.2865,2.6233,-0.57727,-0.59565,2.6333,-0.48601,-0.93533,2.6215,-0.52116,-0.96982,2.5524,-0.4601,-0.27137,2.5643,-0.4739,-0.63466,2.5839,-0.38717,-0.98045,2.6865,-0.44331,-1.0025,2.6117
-0.51114,-0.21827,2.6,-0.50036,-0.15303,2.6391,-0.53363,0.19414,2.6342,-0.52601,0.36573,2.6514,-0.65864,0.078126,2.6861,-0.67,-0.15616,2.6965,-0.67986,-0.33684,2.6366,-0.7138,-0.36486,2.596,-0.40892,0.069161,2.5746,-0.45087,-0.16574,2.4848,-0.56052,-0.28235,2.373,-0.60321,-0.32667,2.3287,-0.56013,-0.28495,2.6218,-0.54775,-0.59747,2.6084,-0.48636,-0.9383,2.6204,-0.51061,-0.98797,2.5723,-0.45272,-0.27301,2.571,-0.44529,-0.64242,2.5891,-0.40298,-0.95106,2.6639,-0.42064,-1.0029,2.6175
-0.50111,-0.21814,2.6021,-0.49357,-0.1526,2.642,-0.53029,0.19447,2.6357,-0.52068,0.36561,2.6483,-0.65582,0.078793,2.6808,-0.65983,-0.14515,2.6899,-0.67626,-0.33901,2.6361,-0.69684,-0.31592,2.5595,-0.39785,0.068187,2.5831,-0.43426,-0.1762,2.4953,-0.50826,-0.28876,2.3569,-0.54045,-0.33517,2.306,-0.55022,-0.28314,2.6176,-0.53148,-0.61446,2.614,-0.48847,-0.94105,2.6202,-0.47642,-1.0119,2.6284,-0.44146,-0.27383,2.577,-0.43348,-0.643,2.5916,-0.39504,-0.9522,2.669,-0.37728,-0.99097,2.6358
-0.49884,-0.21854,2.6042,-0.49258,-0.15293,2.6442,-0.52709,0.19507,2.6374,-0.51948,0.36587,2.6481,-0.65189,0.077333,2.6743,-0.67877,-0.15741,2.6845,-0.67807,-0.34643,2.6223,-0.6924,-0.37156,2.6016,-0.39357,0.068561,2.5865,-0.37623,-0.15051,2.5235,-0.44159,-0.26908,2.383,-0.46882,-0.31422,2.333,-0.54942,-0.28264,2.6182,-0.52914,-0.61627,2.6146,-0.4896,-0.93822,2.6206,-0.48517,-0.9939,2.6032,-0.43917,-0.27498,2.5804,-0.41496,-0.64795,2.5931,-0.35055,-0.94556,2.6974,-0.33711,-1.0133,2.6723
-0.49496,-0.21803,2.6064,-0.48912,-0.15302,2.6465,-0.51916,0.19364,2.6403,-0.51648,0.36555,2.6481,-0.6515,0.077142,2.6744,-0.6769,-0.16667,2.6792,-0.67724,-0.3578,2.6251,-0.65737,-0.38096,2.5912,-0.386,0.068477,2.5914,-0.36247,-0.15151,2.5243,-0.39117,-0.28499,2.3892,-0.40871,-0.33539,2.3355,-0.54799,-0.28239,2.6185,-0.52856,-0.61648,2.6153,-0.49104,-0.93482,2.6212,-0.51309,-0.96864,2.5465,-0.43457,-0.27547,2.5833,-0.38488,-0.63788,2.5874,-0.32323,-0.93955,2.6932,-0.32354,-1.0118,2.6789
-0.49015,-0.21715,2.6075,-0.4847,-0.15271,2.6486,-0.51009,0.19524,2.6468,-0.50881,0.36656,2.6483,-0.64921,0.07613,2.6745,-0.68168,-0.15919,2.6722,-0.6821,-0.33977,2.6065,-0.68735,-0.39817,2.601,-0.3748,0.068369,2.5955,-0.33424,-0.14852,2.5315,-0.33902,-0.29941,2.4108,-0.34351,-0.35178,2.3571,-0.54477,-0.28233,2.618,-0.5263,-0.61838,2.6169,-0.49114,-0.93418,2.6211,-0.51157,-0.96756,2.5459,-0.42772,-0.27562,2.5849,-0.37584,-0.62579,2.5864,-0.29943,-0.93631,2.6839,-0.27972,-1.009,2.6714
-0.48618,-0.21599,2.6078,-0.4803,-0.15204,2.6497,-0.50361,0.19545,2.6502,-0.50264,0.36808,2.6524,-0.64358,0.075082,2.676,-0.6859,-0.15473,2.6607,-0.68659,-0.33406,2.5918,-0.69018,-0.38878,2.5891,-0.36673,0.068904,2.598,-0.32089,-0.14764,2.5326,-0.2891,-0.30239,2.4105,-0.28483,-0.34481,2.37,-0.54217,-0.28144,2.6169,-0.52562,-0.61875,2.6168,-0.49081,-0.9338,2.6213,-0.51097,-0.96695,2.546,-0.42328,-0.27516,2.585,-0.3601,-0.63038,2.5866,-0.28405,-0.93424,2.6781,-0.28032,-0.98438,2.6313
-0.48015,-0.21455,2.6082,-0.47308,-0.15155,2.6516,-0.49327,0.19497,2.6562,-0.49798,0.36748,2.6528,-0.63758,0.074718,2.6812,-0.68521,-0.15072,2.6553,-0.69124,-0.32668,2.576,-0.6977,-0.3759,2.558,-0.35619,0.0702,2.6006,-0.30228,-0.15106,2.5358,-0.23909,-0.29821,2.4287,-0.22227,-0.34693,2.396,-0.53819,-0.28106,2.616,-0.52435,-0.61909,2.6167,-0.49082,-0.93255,2.6213,-0.51131,-0.96533,2.5457,-0.41704,-0.27443,2.5846,-0.33332,-0.65489,2.6026,-0.2686,-0.9247,2.6641,-0.23388,-1.0025,2.6403
-0.47228,-0.21369,2.609,-0.46407,-0.15128,2.6537,-0.48643,0.19519,2.6624,-0.49132,0.36801,2.6601,-0.63033,0.073094,2.6861,-0.68012,-0.14489,2.6487,-0.69581,-0.31094,2.5485,-0.69788,-0.36485,2.5349,-0.35177,0.070929,2.5993,-0.27036,-0.1554,2.5458,-0.20191,-0.30288,2.4442,-0.18111,-0.34768,2.4264,-0.53113,-0.28134,2.6158,-0.52087,-0.61777,2.6151,-0.49032,-0.93213,2.6211,-0.5126,-0.96473,2.546,-0.40907,-0.27343,2.5836,-0.33061,-0.65403,2.6016,-0.25214,-0.92291,2.6598,-0.24974,-0.9796,2.6125
-0.46456,-0.21212,2.6086,-0.45534,-0.15008,2.6545,-0.47926,0.19749,2.6667,-0.48136,0.36964,2.6628,-0.62227,0.069622,2.6917,-0.67491,-0.13787,2.6435,-0.6945,-0.2996,2.5362,-0.69931,-0.35256,2.5126,-0.34388,0.072742,2.5992,-0.25525,-0.15006,2.5493,-0.17861,-0.29928,2.4563,-0.14916,-0.35643,2.4389,-0.52325,-0.28053,2.6149,-0.51587,-0.61668,2.613,-0.49029,-0.93137,2.6206,-0.51417,-0.96384,2.5459,-0.40139,-0.27148,2.5816,-0.31883,-0.65121,2.597,-0.2365,-0.92671,2.6482,-0.24369,-0.98404,2.5868
-0.45692,-0.21259,2.6085,-0.44574,-0.151,2.6552,-0.46638,0.19801,2.6708,-0.474,0.37051,2.6652,-0.60954,0.068303,2.6956,-0.66646,-0.13181,2.6423,-0.69209,-0.28274,2.52,-0.69432,-0.33902,2.483,-0.33569,0.073924,2.5979,-0.23384,-0.1458,2.5579,-0.1561,-0.30274,2.4812,-0.11271,-0.36301,2.4675,-0.51513,-0.28091,2.6158,-0.51205,-0.61579,2.6112,-0.4895,-0.9319,2.6199,-0.51502,-0.96419,2.5457,-0.39576,-0.27176,2.5796,-0.3088,-0.65195,2.594,-0.22628,-0.92187,2.6376,-0.21355,-1.0025,2.6037
-0.44761,-0.21347,2.6082,-0.43589,-0.15196,2.6558,-0.45823,0.19814,2.6734,-0.46066,0.37142,2.6748,-0.59824,0.066023,2.6977,-0.65734,-0.12665,2.6462,-0.68772,-0.26212,2.5062,-0.69025,-0.31985,2.4573,-0.32612,0.075481,2.5977,-0.21206,-0.14365,2.5723,-0.13769,-0.30423,2.5004,-0.10619,-0.36106,2.4767,-0.50483,-0.28168,2.616,-0.5066,-0.61428,2.6087,-0.48844,-0.93193,2.6197,-0.51485,-0.96416,2.5458,-0.38758,-0.27223,2.5776,-0.30118,-0.6552,2.595,-0.2182,-0.92175,2.6313,-0.21037,-1.0057,2.6023
-0.43768,-0.21393,2.6084,-0.42512,-0.15247,2.6568,-0.44608,0.1999,2.6768,-0.45011,0.37062,2.6803,-0.58532,0.064118,2.7021,-0.64852,-0.12477,2.6485,-0.68002,-0.25249,2.501,-0.68283,-0.30502,2.4463,-0.31379,0.077814,2.6013,-0.20301,-0.14271,2.5812,-0.12893,-0.30227,2.5066,-0.099617,-0.35952,2.4832,-0.49564,-0.28175,2.6157,-0.50305,-0.615,2.6082,-0.48677,-0.93278,2.6188,-0.51363,-0.96489,2.5449,-0.37793,-0.27252,2.5772,-0.29415,-0.65505,2.5929,-0.21636,-0.92275,2.6303,-0.20988,-1.0051,2.6033
-0.42374,-0.21344,2.6081,-0.41088,-0.15196,2.6567,-0.43252,0.19966,2.675,-0.43395,0.37216,2.6836,-0.57379,0.062933,2.7056,-0.62725,-0.12057,2.6545,-0.66449,-0.23639,2.4982,-0.66886,-0.27492,2.4444,-0.29624,0.078341,2.6017,-0.19441,-0.14423,2.5877,-0.1206,-0.30461,2.5144,-0.10077,-0.34765,2.4949,-0.48333,-0.2824,2.6155,-0.49259,-0.61834,2.6094,-0.48654,-0.93277,2.6187,-0.51368,-0.96496,2.545,-0.36241,-0.27277,2.5767,-0.2875,-0.65451,2.5923,-0.2136,-0.92318,2.632,-0.2097,-1.005,2.6062
