-0.30103,-0.26849,3.2217,-0.29211,-0.20967,3.2709,-0.30265,0.12624,3.2755,-0.32111,0.29057,3.2422,-0.43631,-0.0058158,3.2726,-0.49069,-0.23337,3.2884,-0.51433,-0.41085,3.239,-0.55558,-0.45133,3.225,-0.18202,0.013817,3.2187,-0.10293,-0.21548,3.213,-0.066259,-0.41628,3.1601,-0.072242,-0.46008,3.154,-0.35975,-0.32987,3.2264,-0.33448,-0.67377,3.25,-0.35529,-0.95595,3.2527,-0.35026,-1.01,3.2043,-0.24334,-0.32697,3.1987,-0.24757,-0.68366,3.2473,-0.21277,-0.95078,3.238,-0.2317,-1.0028,3.2067
-0.3017,-0.26858,3.2228,-0.29415,-0.20955,3.2722,-0.3049,0.12734,3.2766,-0.32411,0.28916,3.2429,-0.43532,-0.0048362,3.2662,-0.49062,-0.23209,3.2891,-0.5157,-0.40902,3.2395,-0.55867,-0.46148,3.2202,-0.18365,0.014317,3.2187,-0.10391,-0.21429,3.2155,-0.068238,-0.4136,3.1663,-0.070126,-0.46255,3.1572,-0.35947,-0.32883,3.2261,-0.33477,-0.67011,3.2486,-0.35488,-0.95532,3.2503,-0.34724,-1.0073,3.2051,-0.24361,-0.3265,3.201,-0.24745,-0.68182,3.2475,-0.21382,-0.95049,3.2375,-0.22892,-0.99827,3.2001
-0.30312,-0.26832,3.2233,-0.29527,-0.2088,3.2724,-0.30851,0.12661,3.2722,-0.32476,0.28772,3.2428,-0.43829,-0.0041604,3.2659,-0.49319,-0.23149,3.2923,-0.51772,-0.40815,3.2428,-0.55955,-0.46074,3.221,-0.18618,0.012521,3.2149,-0.10426,-0.21502,3.2157,-0.071193,-0.41331,3.1678,-0.07049,-0.48621,3.1567,-0.36145,-0.32855,3.2271,-0.33283,-0.66795,3.247,-0.34991,-0.95475,3.245,-0.36323,-0.98461,3.1752,-0.24463,-0.32614,3.2018,-0.24755,-0.67848,3.2469,-0.22082,-0.95615,3.2343,-0.23775,-1.0048,3.1956
-0.30708,-0.26602,3.2273,-0.29812,-0.20629,3.2751,-0.31454,0.12616,3.2705,-0.3259,0.28894,3.2406,-0.45018,0.0015052,3.2765,-0.49612,-0.22683,3.2999,-0.51268,-0.40466,3.2515,-0.55938,-0.46946,3.2184,-0.18671,0.012353,3.2145,-0.11146,-0.21316,3.2104,-0.073261,-0.4102,3.1698,-0.072295,-0.48043,3.1585,-0.36713,-0.32664,3.2334,-0.3325,-0.66371,3.2439,-0.3507,-0.95188,3.241,-0.33084,-0.99863,3.196,-0.24688,-0.32538,3.2051,-0.24746,-0.67677,3.246,-0.21859,-0.95316,3.2352,-0.23544,-1.0016,3.1966
-0.30887,-0.26489,3.2299,-0.30107,-0.20371,3.2758,-0.328,0.12917,3.2637,-0.32691,0.28973,3.24,-0.45537,0.0032025,3.2723,-0.49988,-0.2202,3.3081,-0.50878,-0.39979,3.2621,-0.55732,-0.4623,3.2226,-0.19024,0.014456,3.2097,-0.1283,-0.21019,3.1952,-0.1062,-0.41755,3.1446,-0.16328,-0.46547,3.1207,-0.3686,-0.32536,3.2371,-0.33172,-0.66352,3.2438,-0.34879,-0.95463,3.2413,-0.34396,-1.0093,3.1924,-0.24747,-0.3248,3.2093,-0.18956,-0.69433,3.2882,-0.20961,-0.94967,3.2415,-0.21612,-1.019,3.2181
-0.31221,-0.26417,3.2333,-0.30473,-0.20146,3.2751,-0.33515,0.12935,3.2541,-0.33048,0.28854,3.2372,-0.46746,0.013084,3.2721,-0.50637,-0.21085,3.3201,-0.50344,-0.42128,3.2753,-0.47327,-0.49209,3.2983,-0.19844,0.014468,3.2037,-0.14873,-0.21979,3.1701,-0.11754,-0.42683,3.142,-0.12563,-0.46677,3.1329,-0.37202,-0.32502,3.2428,-0.3318,-0.6658,3.2461,-0.34908,-0.95474,3.2445,-0.34221,-1.0078,3.1923,-0.25013,-0.32513,3.2147,-0.24625,-0.67691,3.2534,-0.20653,-0.94923,3.244,-0.20972,-1.0027,3.188
-0.31762,-0.26621,3.2404,-0.31118,-0.2012,3.2758,-0.34081,0.12991,3.2482,-0.34419,0.28555,3.2318,-0.47341,0.011585,3.2564,-0.5409,-0.21907,3.3093,-0.50834,-0.40782,3.2904,-0.57718,-0.46659,3.2549,-0.21375,0.016182,3.1906,-0.16363,-0.21584,3.1554,-0.16097,-0.41444,3.1105,-0.16354,-0.46919,3.1274,-0.37727,-0.32545,3.253,-0.33117,-0.66454,3.2494,-0.33383,-0.93423,3.2485,-0.35283,-0.98643,3.2415,-0.25525,-0.32779,3.2248,-0.19059,-0.69707,3.2996,-0.20288,-0.94849,3.2474,-0.1911,-0.99945,3.1992
-0.32318,-0.26911,3.2431,-0.31788,-0.20324,3.2731,-0.35276,0.12324,3.2381,-0.35894,0.27972,3.2231,-0.47953,0.0058069,3.2574,-0.54755,-0.22618,3.3169,-0.51469,-0.41835,3.3169,-0.5629,-0.49701,3.2672,-0.22223,0.01128,3.1806,-0.1783,-0.22445,3.1457,-0.21032,-0.41868,3.0913,-0.21144,-0.47091,3.0808,-0.38226,-0.32938,3.2591,-0.33226,-0.6727,3.2574,-0.32831,-0.95314,3.2552,-0.34698,-0.9868,3.1884,-0.25976,-0.33103,3.2264,-0.25061,-0.67893,3.2683,-0.2005,-0.94825,3.2508,-0.18189,-0.99776,3.2111
-0.32544,-0.27048,3.2438,-0.32177,-0.20473,3.2702,-0.35597,0.12147,3.2382,-0.36449,0.27531,3.2186,-0.48343,0.0012267,3.2513,-0.55159,-0.22959,3.3244,-0.52345,-0.4226,3.332,-0.57982,-0.48352,3.3276,-0.22828,0.009564,3.1751,-0.19173,-0.22545,3.1342,-0.24775,-0.40041,3.0616,-0.25056,-0.46061,3.0587,-0.38352,-0.3302,3.2591,-0.33317,-0.67374,3.2608,-0.35683,-0.94479,3.246,-0.30412,-1.0152,3.2483,-0.26177,-0.33258,3.2279,-0.23723,-0.67898,3.2803,-0.18306,-0.94403,3.2872,-0.17102,-0.99078,3.2487
-0.33217,-0.27302,3.2455,-0.32877,-0.20669,3.2679,-0.36078,0.11937,3.234,-0.36975,0.27348,3.2175,-0.48421,-0.0013623,3.2452,-0.54793,-0.22832,3.3555,-0.56488,-0.42371,3.3656,-0.57527,-0.43679,3.3297,-0.2337,0.0085825,3.171,-0.22599,-0.20882,3.109,-0.27047,-0.40188,3.0502,-0.30437,-0.45076,3.0376,-0.3893,-0.3313,3.2608,-0.33543,-0.67472,3.2627,-0.35859,-0.94597,3.2488,-0.37684,-0.98014,3.1822,-0.27004,-0.33416,3.2314,-0.22583,-0.67917,3.2813,-0.17749,-0.94574,3.3056,-0.16003,-0.99557,3.2848
-0.33303,-0.27279,3.2458,-0.33043,-0.20639,3.2651,-0.36182,0.11954,3.2327,-0.37303,0.27388,3.2179,-0.48922,-0.00044898,3.2462,-0.548,-0.22729,3.3578,-0.52195,-0.41247,3.3774,-0.58462,-0.47618,3.3484,-0.24033,0.0080427,3.1675,-0.23856,-0.21682,3.1017,-0.31908,-0.36315,3.0183,-0.35301,-0.43251,3.0059,-0.38763,-0.33213,3.2648,-0.33925,-0.67257,3.2589,-0.35853,-0.94729,3.2497,-0.37778,-0.98167,3.1836,-0.27121,-0.33411,3.2295,-0.20187,-0.67931,3.2748,-0.16874,-0.94868,3.3402,-0.14685,-0.99786,3.3089
-0.33285,-0.27435,3.2405,-0.33124,-0.20794,3.2591,-0.36284,0.11917,3.2317,-0.37206,0.27644,3.2202,-0.49059,0.0011339,3.2452,-0.54924,-0.22486,3.3607,-0.56875,-0.42029,3.3689,-0.57902,-0.47819,3.3705,-0.24617,0.0080831,3.1638,-0.24259,-0.20827,3.0965,-0.33498,-0.36012,3.013,-0.38744,-0.40881,2.9809,-0.38598,-0.3341,3.2577,-0.34391,-0.66865,3.2527,-0.35848,-0.94881,3.2493,-0.37863,-0.98297,3.1834,-0.27204,-0.33368,3.2227,-0.18134,-0.67636,3.2665,-0.15687,-0.953,3.3656,-0.11179,-1.0272,3.369
-0.33457,-0.27355,3.2369,-0.33321,-0.20673,3.2545,-0.36396,0.12211,3.2312,-0.3723,0.28012,3.2208,-0.48811,0.0032757,3.2438,-0.54979,-0.22309,3.3611,-0.56858,-0.41862,3.3687,-0.57024,-0.47559,3.3833,-0.24911,0.0088925,3.1626,-0.26446,-0.21349,3.0904,-0.3521,-0.35007,3.0057,-0.40365,-0.39613,2.9689,-0.38951,-0.33137,3.2531,-0.34719,-0.66664,3.25,-0.35827,-0.94968,3.2458,-0.37866,-0.98365,3.1799,-0.27199,-0.32995,3.2175,-0.18064,-0.66789,3.2437,-0.15573,-0.94895,3.3436,-0.10449,-1.0175,3.3346
-0.33768,-0.2709,3.2338,-0.336,-0.20479,3.251,-0.36528,0.12495,3.2311,-0.36836,0.28565,3.2249,-0.48533,0.0081407,3.2426,-0.55708,-0.21964,3.3452,-0.5681,-0.41302,3.3712,-0.5783,-0.47095,3.3708,-0.2504,0.010728,3.1621,-0.26522,-0.2068,3.0837,-0.364,-0.33147,2.9781,-0.41495,-0.3777,2.9408,-0.39364,-0.32651,3.2482,-0.35158,-0.66639,3.2446,-0.35113,-0.95122,3.246,-0.37174,-0.98493,3.18,-0.27688,-0.32593,3.2135,-0.18693,-0.65882,3.2212,-0.16494,-0.95352,3.2784,-0.15357,-0.99688,3.2483
-0.33965,-0.26919,3.2303,-0.33772,-0.2034,3.2472,-0.36603,0.12703,3.2311,-0.3686,0.28844,3.2249,-0.48392,0.01355,3.2439,-0.55852,-0.21457,3.3418,-0.58828,-0.40812,3.359,-0.5874,-0.43958,3.3576,-0.25193,0.011717,3.1603,-0.26297,-0.20241,3.0831,-0.35952,-0.3214,2.9683,-0.40939,-0.36782,2.93,-0.39638,-0.32408,3.2432,-0.35858,-0.65994,3.2375,-0.35136,-0.95182,3.245,-0.32824,-0.99518,3.2195,-0.27812,-0.32422,3.2106,-0.19405,-0.6603,3.18,-0.18921,-0.92895,3.2062,-0.14052,-1.0028,3.2049
-0.34125,-0.26488,3.2253,-0.33898,-0.20025,3.2431,-0.36552,0.12971,3.2336,-0.37254,0.29128,3.2264,-0.48545,0.014691,3.2463,-0.56053,-0.21563,3.333,-0.60437,-0.40819,3.3396,-0.60175,-0.44069,3.3414,-0.25166,0.012504,3.1604,-0.24438,-0.2005,3.0841,-0.34536,-0.32437,2.9572,-0.38786,-0.36889,2.929,-0.39754,-0.32239,3.2385,-0.36194,-0.65959,3.2347,-0.35198,-0.94846,3.2446,-0.2154,-1.0126,3.2785,-0.2792,-0.31995,3.2041,-0.20448,-0.65439,3.1343,-0.20292,-0.95242,3.1355,-0.1909,-1.0007,3.0994
-0.35208,-0.26332,3.2299,-0.34819,-0.19837,3.2456,-0.36841,0.13131,3.2361,-0.37882,0.28912,3.2357,-0.49603,0.0094212,3.2613,-0.56462,-0.21863,3.3292,-0.60747,-0.41202,3.3199,-0.62047,-0.45309,3.3012,-0.25095,0.018449,3.1649,-0.22672,-0.19402,3.0846,-0.30875,-0.32235,2.9708,-0.35135,-0.37429,2.9344,-0.41161,-0.32235,3.2477,-0.33126,-0.66788,3.2086,-0.42192,-0.93297,3.1844,-0.37714,-0.97661,3.1698,-0.29075,-0.32151,3.2071,-0.22325,-0.64648,3.1102,-0.23238,-0.93395,3.0495,-0.19002,-0.99759,3.0238
-0.35305,-0.26616,3.2271,-0.34947,-0.2006,3.2433,-0.36892,0.13033,3.2375,-0.37917,0.2882,3.2366,-0.49201,0.0059874,3.2562,-0.53613,-0.21784,3.3159,-0.57571,-0.42128,3.3083,-0.576,-0.48369,3.3231,-0.25105,0.018745,3.1653,-0.20374,-0.19375,3.0923,-0.26554,-0.33152,2.9747,-0.29566,-0.38077,2.9301,-0.41052,-0.32489,3.2448,-0.36796,-0.66943,3.2283,-0.4219,-0.9358,3.1842,-0.3665,-0.97242,3.1832,-0.29365,-0.32232,3.2024,-0.25431,-0.64975,3.0764,-0.26026,-0.92049,2.9769,-0.22642,-0.97803,2.9276
-0.35375,-0.2708,3.2201,-0.34999,-0.20474,3.2388,-0.36841,0.12866,3.2393,-0.38121,0.28599,3.2356,-0.4911,0.0024074,3.2565,-0.53595,-0.21991,3.3138,-0.58728,-0.41879,3.2913,-0.60068,-0.47642,3.2732,-0.25241,0.017249,3.165,-0.19229,-0.19894,3.0944,-0.22668,-0.3419,2.9736,-0.24898,-0.39173,2.9467,-0.40863,-0.33209,3.2394,-0.42852,-0.64868,3.1804,-0.42247,-0.93595,3.1838,-0.37244,-0.98208,3.1765,-0.2969,-0.32624,3.1877,-0.28672,-0.65634,3.0661,-0.28371,-0.88892,2.909,-0.30768,-0.92096,2.843
-0.35649,-0.26832,3.2157,-0.35156,-0.20393,3.2363,-0.36714,0.1275,3.2414,-0.38151,0.28328,3.2344,-0.49195,0.001957,3.258,-0.54067,-0.21929,3.3023,-0.60364,-0.41102,3.2451,-0.61563,-0.47457,3.2409,-0.25127,0.016296,3.1655,-0.17856,-0.19554,3.1028,-0.1853,-0.35112,2.9956,-0.19265,-0.41832,2.9609,-0.41283,-0.32935,3.2351,-0.38057,-0.67436,3.1949,-0.42303,-0.93486,3.1839,-0.38755,-0.96325,3.1464,-0.29926,-0.32591,3.1835,-0.34886,-0.62771,2.962,-0.31476,-0.85118,2.8706,-0.33893,-0.88274,2.8045
-0.35521,-0.2686,3.2138,-0.34976,-0.20445,3.2353,-0.3656,0.12659,3.2421,-0.38196,0.28038,3.2327,-0.49174,-0.00052627,3.2621,-0.54192,-0.22039,3.2946,-0.60811,-0.39547,3.2322,-0.6248,-0.46285,3.2124,-0.25095,0.015205,3.1648,-0.16545,-0.1905,3.1083,-0.15372,-0.3612,3.0145,-0.14716,-0.41724,2.9761,-0.41114,-0.32989,3.2318,-0.43097,-0.65145,3.1765,-0.42389,-0.93317,3.1835,-0.39613,-0.95442,3.1454,-0.29776,-0.32542,3.1817,-0.31678,-0.63327,2.9845,-0.35147,-0.83676,2.8241,-0.35348,-0.879,2.757
-0.35373,-0.26453,3.2127,-0.34783,-0.20153,3.2353,-0.36247,0.12656,3.2432,-0.38205,0.28013,3.2322,-0.49082,-0.0016472,3.2627,-0.54151,-0.21925,3.2944,-0.61977,-0.36942,3.2093,-0.6361,-0.44135,3.2097,-0.24853,0.015657,3.1651,-0.15459,-0.18649,3.1082,-0.12555,-0.36159,3.0253,-0.11214,-0.42664,3.0111,-0.41004,-0.32671,3.2304,-0.4324,-0.65072,3.1746,-0.42317,-0.93556,3.1863,-0.40046,-0.95092,3.1435,-0.29636,-0.3213,3.181,-0.31698,-0.59909,2.9749,-0.36283,-0.80971,2.8298,-0.3696,-0.85194,2.7617
-0.35194,-0.26236,3.2117,-0.34621,-0.1999,3.2355,-0.36135,0.12633,3.2442,-0.38081,0.27932,3.2305,-0.48595,-0.0049741,3.2565,-0.54135,-0.21787,3.2893,-0.6224,-0.3597,3.1828,-0.64119,-0.41074,3.1524,-0.24569,0.015515,3.1645,-0.1511,-0.18734,3.1167,-0.10989,-0.36908,3.0342,-0.098438,-0.4339,3.0171,-0.40725,-0.32298,3.228,-0.43257,-0.65091,3.1745,-0.35031,-0.9516,3.2351,-0.36578,-0.96032,3.1581,-0.2945,-0.31935,3.1807,-0.32014,-0.59335,2.9685,-0.41617,-0.80702,2.7971,-0.37394,-0.86462,2.7376
-0.34949,-0.25976,3.211,-0.34314,-0.19766,3.2355,-0.35849,0.12752,3.2436,-0.38038,0.28093,3.2277,-0.48415,-0.0045207,3.2569,-0.53996,-0.21636,3.2892,-0.62194,-0.34714,3.1805,-0.64728,-0.39753,3.1271,-0.24403,0.016425,3.1612,-0.14393,-0.19141,3.1231,-0.10366,-0.37269,3.037,-0.089449,-0.43224,3.0318,-0.4051,-0.32111,3.2279,-0.43238,-0.65078,3.1741,-0.35368,-0.94951,3.2283,-0.37025,-0.95791,3.1516,-0.29187,-0.3167,3.1797,-0.32226,-0.58986,2.9592,-0.37839,-0.81718,2.8191,-0.39111,-0.85902,2.7507
-0.34376,-0.25589,3.2079,-0.33724,-0.19452,3.2341,-0.35525,0.1292,3.2438,-0.37768,0.28111,3.2273,-0.47975,-0.0030408,3.2559,-0.53502,-0.21178,3.2929,-0.61052,-0.33615,3.1686,-0.63789,-0.38032,3.1273,-0.24111,0.015934,3.1565,-0.14099,-0.19346,3.1249,-0.079508,-0.37314,3.08,-0.079597,-0.42937,3.0492,-0.39727,-0.31713,3.2244,-0.43079,-0.65127,3.1745,-0.35809,-0.94386,3.229,-0.37608,-0.95346,3.1526,-0.28692,-0.31308,3.176,-0.32566,-0.58648,2.9546,-0.38345,-0.82567,2.853,-0.38165,-0.88276,2.7858
-0.34103,-0.25394,3.2067,-0.33353,-0.19249,3.2338,-0.34948,0.13314,3.2427,-0.36451,0.28419,3.236,-0.46886,0.0036026,3.2491,-0.53066,-0.20841,3.2895,-0.61118,-0.32962,3.1648,-0.63469,-0.3711,3.1277,-0.2376,0.01609,3.1523,-0.13907,-0.19597,3.1295,-0.075184,-0.37939,3.0804,-0.078668,-0.43448,3.0512,-0.39472,-0.31486,3.2221,-0.425,-0.65191,3.1724,-0.35421,-0.95136,3.2322,-0.37275,-0.96102,3.1558,-0.28432,-0.31109,3.1754,-0.32523,-0.58614,2.9527,-0.37008,-0.85864,2.8844,-0.36912,-0.91793,2.8215
-0.33539,-0.25116,3.2016,-0.32779,-0.19013,3.2308,-0.34485,0.1368,3.2423,-0.36217,0.28695,3.2365,-0.46324,0.006883,3.2443,-0.52565,-0.19978,3.2965,-0.60457,-0.32288,3.1726,-0.62599,-0.36164,3.1433,-0.23555,0.017444,3.151,-0.1391,-0.1964,3.13,-0.079264,-0.38387,3.0767,-0.081581,-0.43505,3.055,-0.38948,-0.31269,3.2175,-0.42395,-0.65252,3.1722,-0.42056,-0.94183,3.1777,-0.36601,-0.9687,3.1584,-0.2781,-0.30629,3.1682,-0.32453,-0.58935,2.9535,-0.34741,-0.87293,2.9288,-0.36362,-0.9147,2.8607
-0.32424,-0.24658,3.1961,-0.317,-0.18677,3.2268,-0.33777,0.13596,3.2393,-0.35971,0.28774,3.2349,-0.4606,0.0064081,3.2426,-0.51788,-0.19631,3.3012,-0.5985,-0.32312,3.1826,-0.61734,-0.36588,3.1649,-0.22979,0.018955,3.1504,-0.13719,-0.20232,3.1321,-0.10072,-0.38816,3.0566,-0.087545,-0.44844,3.051,-0.37743,-0.30858,3.2106,-0.4208,-0.653,3.1748,-0.4161,-0.94828,3.179,-0.26617,-0.96453,3.2012,-0.26754,-0.30127,3.1642,-0.31774,-0.59209,2.9651,-0.3157,-0.90291,2.9852,-0.30064,-0.97176,2.9403
-0.32222,-0.2463,3.1938,-0.31402,-0.18638,3.2257,-0.3291,0.1383,3.2362,-0.33952,0.30264,3.2214,-0.45194,0.0070251,3.2355,-0.51386,-0.19479,3.2993,-0.59197,-0.33312,3.1939,-0.60758,-0.37472,3.1701,-0.22299,0.021008,3.1458,-0.139,-0.20805,3.1271,-0.10445,-0.39746,3.0542,-0.10796,-0.44011,3.0487,-0.37555,-0.30789,3.2073,-0.41777,-0.65295,3.1752,-0.41459,-0.94864,3.1801,-0.25257,-0.97814,3.2041,-0.26647,-0.30058,3.1625,-0.30472,-0.60982,2.9911,-0.27851,-0.91746,3.0236,-0.27151,-0.9686,2.9825
-0.31723,-0.24687,3.1896,-0.30732,-0.18669,3.2224,-0.32167,0.13986,3.2331,-0.31753,0.30363,3.218,-0.44625,0.0058525,3.2344,-0.50838,-0.19689,3.3056,-0.57644,-0.35785,3.2362,-0.59516,-0.40934,3.2083,-0.2159,0.017994,3.14,-0.13856,-0.21271,3.122,-0.12864,-0.40524,3.0409,-0.14507,-0.4551,3.0262,-0.37151,-0.30761,3.203,-0.38355,-0.67177,3.1843,-0.41426,-0.94718,3.1792,-0.28683,-1.0028,3.1269,-0.26192,-0.30147,3.1593,-0.29122,-0.61867,3.0046,-0.23987,-0.93174,3.0742,-0.26511,-0.96234,3.0084
-0.30892,-0.25301,3.183,-0.29871,-0.19079,3.2182,-0.31401,0.14232,3.231,-0.3128,0.30422,3.2159,-0.43014,0.013082,3.2288,-0.49795,-0.19823,3.3095,-0.5636,-0.36418,3.2582,-0.57819,-0.41693,3.2407,-0.21186,0.019563,3.1378,-0.14082,-0.21564,3.1136,-0.13321,-0.40931,3.0365,-0.15895,-0.46092,3.0148,-0.36333,-0.31111,3.1933,-0.3691,-0.67575,3.2044,-0.33408,-0.95744,3.2221,-0.28419,-1.0017,3.1739,-0.2546,-0.30477,3.1564,-0.26567,-0.63827,3.0371,-0.20186,-0.94478,3.108,-0.20034,-0.99524,3.0607
-0.30219,-0.25539,3.1784,-0.291,-0.19338,3.2147,-0.30033,0.14281,3.2259,-0.29982,0.30367,3.2105,-0.4208,0.0093508,3.2237,-0.48462,-0.19678,3.3178,-0.54311,-0.3773,3.2867,-0.55209,-0.42741,3.2774,-0.19689,0.019099,3.1355,-0.13989,-0.21995,3.1074,-0.14315,-0.40849,3.0256,-0.16597,-0.46071,3.008,-0.35937,-0.31249,3.1888,-0.36156,-0.66708,3.1947,-0.33585,-0.9562,3.2297,-0.31957,-0.99729,3.1785,-0.246,-0.3107,3.1513,-0.24475,-0.65907,3.0744,-0.18513,-0.95293,3.1336,-0.20908,-0.98324,3.0673
-0.29671,-0.2631,3.1756,-0.28481,-0.19989,3.2128,-0.29299,0.14216,3.2225,-0.29342,0.30238,3.2065,-0.41469,0.005529,3.2178,-0.47569,-0.19847,3.3133,-0.52644,-0.38123,3.303,-0.53375,-0.42623,3.2918,-0.19131,0.017438,3.1312,-0.13882,-0.22148,3.0987,-0.16262,-0.40548,3.009,-0.1759,-0.46065,2.9941,-0.35402,-0.31913,3.1865,-0.35303,-0.66815,3.1914,-0.33671,-0.95271,3.2325,-0.36033,-0.98306,3.166,-0.2417,-0.31747,3.1487,-0.23117,-0.6675,3.0956,-0.17562,-0.95328,3.1441,-0.20064,-0.99897,3.1236
-0.28338,-0.26892,3.167,-0.27264,-0.20546,3.2061,-0.27836,0.14083,3.218,-0.28471,0.30052,3.2046,-0.38986,0.0030628,3.1972,-0.44711,-0.19016,3.3002,-0.49561,-0.38677,3.3399,-0.50253,-0.42997,3.3308,-0.1803,0.013724,3.1236,-0.13106,-0.22114,3.086,-0.16571,-0.40249,2.9995,-0.19291,-0.45773,2.9577,-0.3382,-0.32415,3.1769,-0.33333,-0.67158,3.1839,-0.33832,-0.95402,3.2293,-0.3577,-0.98404,3.162,-0.23178,-0.32075,3.1413,-0.22068,-0.67529,3.1204,-0.16751,-0.95029,3.1555,-0.18688,-0.98031,3.0883
-0.27787,-0.27179,3.1649,-0.26482,-0.2089,3.2037,-0.26298,0.13274,3.2085,-0.27425,0.29646,3.2024,-0.38137,0.0023466,3.1931,-0.43457,-0.18763,3.2979,-0.47953,-0.38449,3.3492,-0.48215,-0.42748,3.336,-0.16438,0.011077,3.114,-0.12316,-0.22807,3.0769,-0.16672,-0.39449,2.9789,-0.19295,-0.44204,2.9485,-0.33282,-0.32605,3.1761,-0.32753,-0.66991,3.1778,-0.33809,-0.95145,3.2219,-0.35883,-0.98169,3.1552,-0.22656,-0.32463,3.1387,-0.20877,-0.67376,3.1434,-0.16241,-0.94567,3.1604,-0.18315,-0.97591,3.0937
-0.25831,-0.28529,3.1602,-0.24773,-0.21956,3.2004,-0.25786,0.13245,3.2061,-0.26572,0.29868,3.1997,-0.37392,0.0053096,3.1932,-0.45936,-0.21424,3.2988,-0.45923,-0.38294,3.3679,-0.47363,-0.42887,3.3717,-0.15683,0.011544,3.1146,-0.11547,-0.22648,3.0712,-0.157,-0.37953,2.9692,-0.18029,-0.41641,2.955,-0.31261,-0.34116,3.1576,-0.32088,-0.67268,3.176,-0.33634,-0.95126,3.219,-0.35773,-0.98157,3.152,-0.20354,-0.33736,3.1473,-0.19477,-0.67723,3.162,-0.16007,-0.94675,3.1632,-0.18147,-0.97707,3.0962
-0.25337,-0.27357,3.1568,-0.24267,-0.21244,3.1985,-0.25131,0.13405,3.206,-0.25451,0.30152,3.1977,-0.3699,0.0049206,3.1901,-0.45508,-0.21413,3.2971,-0.44795,-0.38569,3.3646,-0.47072,-0.42908,3.3606,-0.14822,0.014378,3.1173,-0.10661,-0.22103,3.0706,-0.15367,-0.37321,2.9692,-0.16886,-0.41305,2.9483,-0.3076,-0.32595,3.1607,-0.31355,-0.67293,3.1767,-0.33435,-0.9488,3.2188,-0.35396,-0.97882,3.1513,-0.2011,-0.32749,3.1365,-0.18468,-0.67445,3.1722,-0.14947,-0.94904,3.1781,-0.16966,-0.99851,3.1408
-0.2486,-0.27272,3.1568,-0.23907,-0.21051,3.1992,-0.24115,0.13726,3.205,-0.24463,0.30575,3.1983,-0.35631,0.0044515,3.1762,-0.44908,-0.21666,3.2984,-0.43604,-0.38544,3.3601,-0.45821,-0.42279,3.3322,-0.14133,0.015257,3.1168,-0.094736,-0.21648,3.0704,-0.12316,-0.36845,2.965,-0.14844,-0.42776,2.9202,-0.30154,-0.3232,3.1615,-0.30714,-0.67084,3.177,-0.33475,-0.94315,3.217,-0.35045,-0.97308,3.1489,-0.19721,-0.32707,3.1366,-0.1706,-0.67428,3.1847,-0.14739,-0.94881,3.1801,-0.16308,-0.97874,3.1121
-0.24018,-0.27224,3.1553,-0.23297,-0.20942,3.1981,-0.23542,0.13804,3.1998,-0.23053,0.30718,3.1895,-0.35356,0.0051843,3.1742,-0.44233,-0.22275,3.2967,-0.46102,-0.41771,3.31,-0.46477,-0.47539,3.321,-0.11133,0.012791,3.1227,-0.084081,-0.21624,3.071,-0.11507,-0.36817,2.9643,-0.13961,-0.4274,2.9195,-0.29397,-0.32395,3.1599,-0.30001,-0.67075,3.1787,-0.33462,-0.94675,3.2217,-0.34626,-0.97677,3.1525,-0.18704,-0.32768,3.1361,-0.16827,-0.67237,3.1862,-0.1462,-0.949,3.1824,-0.163,-0.99925,3.1412
-0.23637,-0.26985,3.1543,-0.22923,-0.20746,3.1973,-0.23045,0.13749,3.1978,-0.22891,0.30676,3.1884,-0.34702,0.0053962,3.1707,-0.39872,-0.19724,3.2753,-0.42588,-0.38812,3.3363,-0.45845,-0.47789,3.3136,-0.1093,0.014692,3.1228,-0.063003,-0.21113,3.0738,-0.074673,-0.36753,2.9729,-0.098508,-0.42884,2.9336,-0.29057,-0.3221,3.1591,-0.29663,-0.67058,3.1801,-0.33424,-0.94694,3.225,-0.345,-0.97695,3.1559,-0.18403,-0.3252,3.1353,-0.16609,-0.67244,3.1883,-0.14401,-0.9412,3.1856,-0.15477,-0.97121,3.1165
-0.23123,-0.26658,3.155,-0.22427,-0.2047,3.1981,-0.22336,0.13624,3.195,-0.22551,0.30532,3.1884,-0.34469,0.0052012,3.1699,-0.39647,-0.20345,3.2598,-0.43336,-0.39238,3.301,-0.47976,-0.48809,3.2349,-0.10049,0.016562,3.1259,-0.047028,-0.20858,3.0774,-0.05761,-0.36627,2.9766,-0.081873,-0.42758,2.9343,-0.28609,-0.31963,3.1615,-0.29386,-0.66949,3.1816,-0.33371,-0.94629,3.2258,-0.34347,-0.97638,3.1565,-0.17957,-0.32396,3.1344,-0.16402,-0.67069,3.189,-0.14363,-0.94081,3.1867,-0.15339,-0.97091,3.1174
-0.22706,-0.26585,3.1559,-0.21973,-0.20418,3.1997,-0.2188,0.13627,3.1969,-0.22178,0.3055,3.1891,-0.34296,0.0038752,3.1729,-0.39695,-0.20731,3.2515,-0.42522,-0.38444,3.2379,-0.47755,-0.47542,3.2105,-0.089216,0.016998,3.1277,-0.01907,-0.1989,3.0943,-0.034486,-0.35543,2.9891,-0.042106,-0.41237,2.9647,-0.28399,-0.32041,3.1618,-0.29287,-0.66924,3.1813,-0.33332,-0.94758,3.2254,-0.34353,-0.97763,3.156,-0.17241,-0.32413,3.1354,-0.16337,-0.67013,3.1888,-0.14361,-0.94578,3.1876,-0.15382,-0.97582,3.1182
-0.22112,-0.26658,3.1574,-0.21424,-0.20479,3.2013,-0.21488,0.13611,3.1977,-0.22145,0.30516,3.1889,-0.33952,0.0047197,3.1746,-0.3874,-0.21579,3.2363,-0.42367,-0.39009,3.2305,-0.47248,-0.47844,3.1529,-0.086516,0.017204,3.1298,-0.014011,-0.1993,3.0942,-0.014773,-0.36269,2.9972,-0.012942,-0.41468,2.9765,-0.27725,-0.32198,3.1633,-0.29207,-0.66965,3.1816,-0.33266,-0.948,3.2254,-0.34297,-0.97809,3.1559,-0.16739,-0.32397,3.1373,-0.16133,-0.67063,3.1898,-0.14377,-0.95316,3.1968,-0.15999,-1.0024,3.1544
-0.21722,-0.26896,3.1579,-0.21003,-0.20681,3.2023,-0.21049,0.13656,3.1999,-0.22161,0.30459,3.1878,-0.33636,0.0059803,3.1756,-0.38662,-0.21602,3.225,-0.42664,-0.40426,3.1873,-0.45025,-0.45036,3.1189,-0.087839,0.017121,3.1292,-0.0081879,-0.19962,3.094,0.018667,-0.3775,3.0178,0.0069914,-0.42897,2.9896,-0.27109,-0.32455,3.165,-0.29054,-0.66959,3.183,-0.33111,-0.94389,3.2258,-0.34206,-0.97396,3.1563,-0.16538,-0.32464,3.1371,-0.16057,-0.66943,3.1892,-0.1421,-0.9428,3.1963,-0.15305,-0.97287,3.1268
-0.21256,-0.2683,3.1576,-0.20477,-0.20629,3.2023,-0.20711,0.13697,3.2002,-0.2196,0.30417,3.1867,-0.33683,0.0061917,3.1788,-0.38496,-0.21323,3.2146,-0.42201,-0.40436,3.1361,-0.42099,-0.46037,3.11,-0.085355,0.017324,3.1288,0.011298,-0.20196,3.1138,0.027259,-0.37975,3.0232,0.044637,-0.43763,3.0324,-0.26747,-0.32477,3.1638,-0.28719,-0.67195,3.1841,-0.32947,-0.94408,3.2255,-0.34149,-0.97418,3.1561,-0.15971,-0.32439,3.1367,-0.15749,-0.66992,3.1888,-0.14197,-0.94318,3.1967,-0.15518,-0.99243,3.1502
-0.20964,-0.26731,3.1559,-0.20161,-0.20538,3.2011,-0.204,0.13814,3.1995,-0.21711,0.30404,3.1861,-0.33188,0.0081141,3.1811,-0.38503,-0.21809,3.191,-0.42408,-0.3846,3.1132,-0.41966,-0.44243,3.1003,-0.081652,0.017895,3.1301,0.01383,-0.20124,3.1162,0.051512,-0.38569,3.0495,0.061763,-0.45192,3.043,-0.26545,-0.32437,3.1625,-0.28644,-0.67259,3.1859,-0.32811,-0.94632,3.2241,-0.34034,-0.9764,3.1548,-0.15576,-0.32325,3.1339,-0.15677,-0.67176,3.189,-0.1412,-0.9429,3.1977,-0.15564,-0.99248,3.1506
-0.20528,-0.25927,3.1534,-0.19794,-0.19963,3.1997,-0.20114,0.13871,3.2006,-0.21176,0.30517,3.1903,-0.32896,0.010375,3.181,-0.38661,-0.21036,3.198,-0.42289,-0.37294,3.1045,-0.41651,-0.41498,3.0629,-0.076961,0.018847,3.133,0.016873,-0.20008,3.1187,0.069012,-0.38619,3.068,0.082465,-0.44206,3.0646,-0.26176,-0.31722,3.1589,-0.28362,-0.67138,3.1863,-0.32214,-0.94671,3.2273,-0.33344,-0.97655,3.1578,-0.15117,-0.31559,3.1311,-0.15604,-0.67078,3.1885,-0.1395,-0.94828,3.2001,-0.15748,-1.0065,3.1566
-0.20255,-0.26257,3.1524,-0.19531,-0.20179,3.1991,-0.20026,0.13857,3.2006,-0.21184,0.30478,3.1895,-0.32383,0.0079612,3.1807,-0.38439,-0.20864,3.1972,-0.42304,-0.36175,3.0701,-0.41537,-0.4009,3.046,-0.079248,0.018546,3.1324,0.014865,-0.19797,3.1187,0.077287,-0.38764,3.0887,0.10402,-0.45455,3.0902,-0.25802,-0.31894,3.158,-0.28284,-0.67013,3.1868,-0.32227,-0.94717,3.2273,-0.33405,-0.97701,3.1579,-0.14944,-0.31654,3.1302,-0.15398,-0.66665,3.1859,-0.13984,-0.9406,3.1951,-0.15162,-0.97044,3.1256
-0.20138,-0.26308,3.1522,-0.19363,-0.20233,3.199,-0.19966,0.13806,3.2003,-0.2108,0.30489,3.1912,-0.32342,0.0072909,3.1839,-0.38527,-0.20656,3.1876,-0.42162,-0.35418,3.0666,-0.41353,-0.39229,3.0374,-0.078299,0.018624,3.1326,0.016921,-0.20053,3.1242,0.078851,-0.38754,3.0941,0.1019,-0.45885,3.1009,-0.25681,-0.3204,3.1583,-0.28086,-0.66932,3.1877,-0.3205,-0.94721,3.2284,-0.3332,-0.97708,3.1591,-0.14705,-0.31766,3.1293,-0.15348,-0.6658,3.1853,-0.13908,-0.94441,3.1948,-0.15177,-0.97428,3.1255
-0.20016,-0.26182,3.1519,-0.19129,-0.20155,3.1988,-0.19619,0.13797,3.201,-0.21137,0.30411,3.1915,-0.32423,0.0066649,3.1883,-0.38655,-0.2074,3.1846,-0.42654,-0.3383,3.0508,-0.4163,-0.37369,3.0275,-0.079196,0.018778,3.1324,0.017287,-0.19968,3.1279,0.083835,-0.38605,3.105,0.094821,-0.44251,3.1075,-0.25596,-0.31964,3.1589,-0.28031,-0.66921,3.1881,-0.32056,-0.94864,3.2287,-0.33464,-0.97846,3.1595,-0.14603,-0.31565,3.1273,-0.15251,-0.66446,3.1846,-0.13925,-0.94741,3.1953,-0.15333,-0.97723,3.126
-0.20005,-0.26238,3.1519,-0.19122,-0.20231,3.1991,-0.19574,0.13653,3.2023,-0.20999,0.30154,3.1972,-0.32331,0.006271,3.1878,-0.38653,-0.20705,3.1841,-0.42438,-0.33822,3.05,-0.41481,-0.36513,3.0242,-0.078678,0.018706,3.1328,0.016844,-0.201,3.1324,0.083631,-0.38652,3.1197,0.091355,-0.44561,3.1157,-0.25603,-0.32037,3.1588,-0.28065,-0.66854,3.1904,-0.32103,-0.94724,3.2293,-0.33488,-0.97697,3.1599,-0.14566,-0.31632,3.1273,-0.15303,-0.66494,3.1852,-0.13898,-0.94768,3.1971,-0.15556,-0.99839,3.1548
