	J1s	J1e	J2s	J2e	J3s	J3e
227	47	68	165	176	260	279
226	60	77	288	305	427	442
225	39	68	212	240	298	322
229	54	79	175	201	282	306
228	45	74	192	211	301	319
230	61	87	190	217	306	333
233	60	78	153	178	246	274
231	0	0	0	0	0	0
232	38	59	86	99 	118	141
234	50	78	189	216	355	382
221	61	87	186	209	287	315
235	35	52	180	200	346	372	
236	60	74	179	207	305	333
238	51	73	200	230	323	349
237	30	61	171	201	304	323
239	43	70	176	204	285	313
241	47	88	155	208	252	296
240	41	58	140	166	241	267
242	72	110	239	265	383	411
244	49	71	184	201	276	303
243	47	65	169	198	284	299
247	84	108	208	227	313	330	
254	46	64	146	172	234	259
246	40	105	174	200	290	312
250	53	81	181	208	296	308
248	0	0	0	0	0	0
249	88	113	196	219	290	320
253	49	77	179	200	277	304
252	56	83	212	239	312	338
251	45	75	160	189	259	278
255	141	178	225	253	300	323
256	52	77	168	196	291	319
254	58	76	193	205	302	329