2012.09.11 18:05 B c:\Users\Jon\Documents\Visual Studio 2010\Projects\Playback\Playback\Properties\AssemblyInfo.cs --> ftp.hpeu.com.au /htdocs/kinect/Playback/Playback/Properties AssemblyInfo.cs
2012.09.11 18:05 B c:\Users\Jon\Documents\Visual Studio 2010\Projects\Playback\Playback\Properties\Resources.Designer.cs --> ftp.hpeu.com.au /htdocs/kinect/Playback/Playback/Properties Resources.Designer.cs
2012.09.11 18:05 B c:\Users\Jon\Documents\Visual Studio 2010\Projects\Playback\Playback\Properties\Resources.resx --> ftp.hpeu.com.au /htdocs/kinect/Playback/Playback/Properties Resources.resx
2012.09.11 18:05 B c:\Users\Jon\Documents\Visual Studio 2010\Projects\Playback\Playback\Properties\Settings.Designer.cs --> ftp.hpeu.com.au /htdocs/kinect/Playback/Playback/Properties Settings.Designer.cs
2012.09.11 18:05 B c:\Users\Jon\Documents\Visual Studio 2010\Projects\Playback\Playback\Properties\Settings.settings --> ftp.hpeu.com.au /htdocs/kinect/Playback/Playback/Properties Settings.settings
