-0.2004,0.21994,2.0701,-0.19804,0.26299,2.0893,-0.19451,0.50184,2.1112,-0.16676,0.64029,2.1253,-0.34699,0.52426,2.1968,-0.48619,0.65106,2.2449,-0.57901,0.82323,2.2503,-0.6014,0.84966,2.2499,0.0091323,0.50735,2.1637,0.062694,0.6555,2.1336,0.17195,0.85965,2.1521,0.24541,0.94245,2.175,-0.26656,0.15462,2.0669,-0.3506,-0.23404,2.1241,-0.40511,-0.46522,2.3047,-0.41058,-0.49379,2.2343,-0.14221,0.14387,2.047,-0.045658,-0.26084,2.1022,0.099018,-0.52701,2.1325,0.093552,-0.55557,2.0622
-0.20229,0.2221,2.06,-0.20069,0.26603,2.0845,-0.1929,0.51962,2.1117,-0.16555,0.65895,2.1272,-0.32786,0.51101,2.1665,-0.48058,0.63978,2.2403,-0.60317,0.80306,2.2844,-0.63505,0.8379,2.291,-0.056269,0.50347,2.1547,0.059129,0.65946,2.1371,0.19996,0.85696,2.1752,0.16034,0.87862,2.1524,-0.26667,0.15926,2.0531,-0.36399,-0.23231,2.1071,-0.43607,-0.44463,2.3025,-0.43567,-0.47285,2.2319,-0.14529,0.14687,2.037,-0.046847,-0.26075,2.0688,0.10303,-0.52149,2.1112,0.10342,-0.54972,2.0406
-0.2076,0.21781,2.0432,-0.20674,0.26593,2.0691,-0.20421,0.52733,2.0924,-0.1693,0.67515,2.1284,-0.34432,0.4894,2.1714,-0.50621,0.63217,2.2439,-0.64278,0.76817,2.291,-0.67085,0.84799,2.3045,-0.0017889,0.51845,2.16,0.064237,0.661,2.1435,0.22263,0.82626,2.1896,0.23725,0.87743,2.1792,-0.2695,0.15051,2.0308,-0.37403,-0.22266,2.0692,-0.46701,-0.42618,2.266,-0.44007,-0.45818,2.1917,-0.15164,0.14502,2.0273,-0.045319,-0.26162,2.0476,0.11002,-0.52277,2.0709,0.10638,-0.55137,2.0006
-0.21461,0.20399,2.0272,-0.21207,0.25128,2.0574,-0.2028,0.513,2.0874,-0.17441,0.66068,2.1231,-0.34302,0.46921,2.1524,-0.5346,0.59466,2.2423,-0.70614,0.72274,2.3055,-0.72886,0.80008,2.3225,-0.021522,0.48545,2.1371,0.14486,0.64245,2.1737,0.26873,0.79274,2.195,0.30113,0.84176,2.1928,-0.27589,0.14022,2.0181,-0.38463,-0.23094,2.0647,-0.49672,-0.43783,2.2488,-0.50036,-0.46585,2.1781,-0.16072,0.13062,2.0037,-0.044079,-0.27279,2.0251,0.11222,-0.53488,2.0399,0.10858,-0.5629,1.9692
-0.22423,0.173,2.0118,-0.22111,0.22073,2.0433,-0.21405,0.49423,2.0733,-0.19867,0.64399,2.1004,-0.36078,0.44225,2.1474,-0.57026,0.54025,2.2346,-0.72352,0.62229,2.2926,-0.72853,0.72489,2.2996,-0.029393,0.46145,2.1177,0.09867,0.59816,2.1422,0.30819,0.70144,2.2063,0.27856,0.77788,2.1828,-0.28201,0.10731,2.0139,-0.41754,-0.28109,2.0772,-0.53385,-0.50405,2.2406,-0.54076,-0.53214,2.1703,-0.17252,0.10662,1.9799,-0.045745,-0.29399,1.9993,0.10206,-0.5623,2.0046,0.09514,-0.5904,1.9343
-0.23249,0.14906,2.0028,-0.22856,0.19774,2.0354,-0.22674,0.46674,2.0539,-0.2107,0.61783,2.0939,-0.37039,0.41075,2.1281,-0.58614,0.45504,2.2155,-0.75252,0.50865,2.2711,-0.80536,0.61612,2.3071,-0.039388,0.41788,2.0836,0.12695,0.54318,2.1307,0.25519,0.66828,2.1675,0.289,0.71528,2.1677,-0.29327,0.078411,2.0062,-0.43067,-0.31547,2.0642,-0.54051,-0.56388,2.1971,-0.54935,-0.5923,2.127,-0.17707,0.080466,1.9716,-0.052064,-0.32157,1.9744,0.077896,-0.59966,1.9748,0.069059,-0.62808,1.9047
-0.23739,0.10555,1.9957,-0.23376,0.15135,2.0263,-0.23834,0.40665,2.0285,-0.23763,0.56643,2.0492,-0.38939,0.35862,2.111,-0.58738,0.34135,2.1901,-0.77276,0.37699,2.2433,-0.82346,0.48692,2.2819,-0.042435,0.37258,2.0554,0.12778,0.4588,2.1009,0.29879,0.56414,2.1464,0.3326,0.61114,2.1466,-0.29958,0.032746,2.0001,-0.43723,-0.36424,2.0376,-0.52237,-0.63799,2.1399,-0.5333,-0.66728,2.0705,-0.17782,0.029853,1.9692,-0.062258,-0.37524,1.9516,0.035681,-0.66706,1.9401,0.024751,-0.69635,1.8708
-0.2436,0.050931,1.9829,-0.23783,0.099668,2.0132,-0.2412,0.36929,2.0121,-0.24008,0.53201,2.0103,-0.39747,0.29761,2.0892,-0.56701,0.22696,2.1618,-0.74222,0.19753,2.2115,-0.82634,0.31776,2.2465,-0.064161,0.30958,2.0166,0.11981,0.36454,2.0721,0.29799,0.43153,2.1122,0.3318,0.47854,2.1124,-0.30896,-0.020713,1.9883,-0.43801,-0.42325,1.9957,-0.49643,-0.708,2.0868,-0.51109,-0.73771,2.0184,-0.18055,-0.023392,1.9598,-0.08735,-0.43208,1.9191,-0.013078,-0.73099,1.9126,-0.027739,-0.76069,1.8441
-0.24495,0.0014828,1.9705,-0.23939,0.049992,2.0005,-0.2446,0.30904,1.9917,-0.24789,0.47907,1.9784,-0.40108,0.22939,2.0611,-0.55804,0.086397,2.1367,-0.76419,0.03125,2.2005,-0.82485,0.080712,2.204,-0.071264,0.26668,1.9948,0.12644,0.17056,2.0375,0.27648,-0.047224,2.0478,0.29112,-0.11102,2.0409,-0.31085,-0.075627,1.9843,-0.41616,-0.46698,1.9529,-0.46065,-0.75349,2.0078,-0.47423,-0.7837,1.9393,-0.17983,-0.072692,1.9418,-0.11613,-0.47459,1.9013,-0.057296,-0.77569,1.8974,-0.070873,-0.8059,1.8289
-0.24804,-0.070593,1.9565,-0.24127,-0.020101,1.986,-0.24478,0.24943,1.9757,-0.24983,0.42466,1.9587,-0.39531,0.1549,2.0418,-0.51664,-0.041447,2.1032,-0.6303,-0.20187,2.1167,-0.6841,-0.22217,2.1131,-0.074209,0.19197,1.9682,0.091183,0.026115,2.0074,0.22661,-0.13049,2.015,0.24819,-0.17855,2.0131,-0.31262,-0.14356,1.9715,-0.39908,-0.49095,1.9332,-0.42986,-0.75811,1.9454,-0.44527,-0.78848,1.8774,-0.18615,-0.14328,1.9282,-0.14109,-0.51305,1.8856,-0.095794,-0.78466,1.8891,-0.11121,-0.81503,1.8211
-0.24929,-0.14874,1.9373,-0.23807,-0.09744,1.9669,-0.23681,0.18089,1.9621,-0.2552,0.35389,1.9423,-0.38499,0.07235,2.0282,-0.47535,-0.1534,2.0725,-0.56313,-0.35411,2.069,-0.59159,-0.41489,2.0635,-0.10041,0.12023,1.9397,0.025648,-0.084155,1.9692,0.11355,-0.28905,1.966,0.15472,-0.33283,1.9658,-0.31545,-0.22083,1.9486,-0.38494,-0.57371,1.9055,-0.41397,-0.78802,1.9012,-0.42798,-0.82058,1.828,-0.18932,-0.21702,1.9114,-0.15174,-0.55645,1.8617,-0.12085,-0.87629,1.9105,-0.14982,-0.90392,1.8519
-0.25455,-0.23514,1.9311,-0.2417,-0.17935,1.9623,-0.23362,0.12387,1.9614,-0.25525,0.30346,1.9335,-0.36661,0.018916,2.0061,-0.43167,-0.21297,2.0478,-0.5043,-0.42522,2.0255,-0.52404,-0.49654,2.0212,-0.12487,0.037812,1.9262,-0.007773,-0.14991,1.96,0.021508,-0.40302,1.9286,0.030007,-0.46619,1.9171,-0.31448,-0.29496,1.9447,-0.37818,-0.61748,1.8822,-0.4355,-0.86105,1.8912,-0.45307,-0.89335,1.8186,-0.20221,-0.29305,1.9045,-0.15042,-0.61079,1.8196,-0.12289,-0.88715,1.9114,-0.14891,-0.9146,1.8514
-0.25329,-0.27159,1.9364,-0.24066,-0.2149,1.968,-0.23692,0.090267,1.9654,-0.25792,0.27695,1.9363,-0.36865,-0.018966,2.0065,-0.41759,-0.25655,2.0364,-0.45363,-0.44354,1.9962,-0.46121,-0.51438,1.9895,-0.12976,-0.0014666,1.9231,-0.053839,-0.22726,1.9611,-0.032262,-0.43304,1.9207,-0.030395,-0.5108,1.9112,-0.31183,-0.33087,1.9488,-0.3789,-0.62924,1.8741,-0.4508,-0.8988,1.8313,-0.47709,-0.94458,1.7586,-0.20079,-0.32749,1.9117,-0.14794,-0.62629,1.7908,-0.12106,-0.89305,1.9134,-0.14569,-0.92075,1.8529
-0.25198,-0.27949,1.9382,-0.23943,-0.2221,1.9697,-0.23743,0.085215,1.9647,-0.25691,0.27125,1.9367,-0.36963,-0.0261,2.0009,-0.41018,-0.26506,2.0227,-0.43393,-0.44918,1.9837,-0.42763,-0.50271,1.9589,-0.13556,-0.014212,1.9181,-0.073777,-0.24987,1.9578,-0.062558,-0.43454,1.927,-0.07362,-0.51084,1.9129,-0.30854,-0.33772,1.9507,-0.38109,-0.63151,1.8636,-0.49019,-0.81739,1.6776,-0.51436,-0.84714,1.5992,-0.20059,-0.33397,1.9149,-0.14826,-0.62238,1.7847,-0.11523,-0.89714,1.9152,-0.095517,-0.9539,1.9098
-0.25076,-0.28249,1.9388,-0.23849,-0.22495,1.9703,-0.23745,0.082525,1.9636,-0.25491,0.26796,1.9383,-0.37142,-0.030111,1.9978,-0.41217,-0.26884,2.0251,-0.44053,-0.45347,1.9886,-0.44859,-0.51981,1.9758,-0.13626,-0.018137,1.9162,-0.077249,-0.25701,1.9559,-0.064354,-0.44131,1.9227,-0.0734,-0.51815,1.9102,-0.3069,-0.34051,1.9515,-0.38417,-0.62993,1.8537,-0.54894,-0.75528,1.6612,-0.56887,-0.77263,1.5903,-0.19932,-0.33703,1.9157,-0.14868,-0.61797,1.7815,-0.11249,-0.89656,1.9108,-0.13794,-0.92451,1.8508
-0.24981,-0.28227,1.9388,-0.23804,-0.22521,1.9705,-0.23848,0.081131,1.9632,-0.25209,0.26612,1.9388,-0.37202,-0.030373,1.9971,-0.41732,-0.26834,2.0261,-0.45299,-0.45317,1.9915,-0.46909,-0.50453,1.9802,-0.13424,-0.02055,1.9151,-0.074653,-0.25902,1.9548,-0.042163,-0.42761,1.9277,-0.063107,-0.51987,1.9063,-0.30646,-0.34095,1.9513,-0.38758,-0.62822,1.8502,-0.55395,-0.70376,1.6505,-0.57344,-0.73649,1.5786,-0.19733,-0.33747,1.9159,-0.14735,-0.61748,1.7795,-0.11082,-0.90025,1.9126,-0.091278,-0.77564,1.4395
-0.24887,-0.28167,1.9382,-0.23724,-0.22479,1.9703,-0.23904,0.081254,1.9634,-0.24999,0.26644,1.9431,-0.37343,-0.029953,1.9981,-0.42245,-0.26317,2.0288,-0.48265,-0.45152,2.0005,-0.50311,-0.50229,1.9767,-0.13384,-0.020892,1.9143,-0.064195,-0.25698,1.9502,-0.0093494,-0.42271,1.9203,0.0046434,-0.48003,1.9052,-0.30594,-0.3412,1.9509,-0.38809,-0.62755,1.8476,-0.57023,-0.70522,1.6606,-0.58974,-0.73789,1.5887,-0.19521,-0.33711,1.9139,-0.14671,-0.6184,1.78,-0.10965,-0.90723,1.9206,-0.13488,-0.93523,1.8605
-0.2466,-0.27663,1.9371,-0.2357,-0.22043,1.9701,-0.24017,0.083476,1.964,-0.24968,0.26918,1.9491,-0.37409,-0.028955,1.9995,-0.42812,-0.25929,2.0328,-0.4912,-0.44599,2.0017,-0.51776,-0.50366,1.9918,-0.12626,-0.015399,1.9146,-0.048114,-0.25092,1.9457,0.019806,-0.41375,1.921,0.026516,-0.47644,1.907,-0.30441,-0.3385,1.9509,-0.38681,-0.62499,1.8482,-0.57382,-0.7066,1.6636,-0.59385,-0.7391,1.5918,-0.19179,-0.33302,1.91,-0.14635,-0.61842,1.7849,-0.1099,-0.90933,1.9232,-0.15916,-0.69374,1.6776
