0.0097291,-0.236,2.305,0.0089531,-0.16525,2.3102,-0.0305,0.14223,2.1963,-0.046942,0.30189,2.1639,-0.16131,0.044336,2.2647,-0.20067,-0.16713,2.4058,-0.21676,-0.37863,2.4108,-0.22668,-0.43772,2.4034,0.11893,0.041424,2.1919,0.20009,-0.19131,2.2683,0.19585,-0.39875,2.2109,0.21139,-0.44548,2.183,-0.046512,-0.29528,2.3352,-0.12444,-0.6069,2.2769,-0.11832,-0.89535,2.3303,-0.13665,-0.94545,2.2575,0.077021,-0.29731,2.3039,0.04809,-0.60831,2.1981,0.10462,-0.86636,2.2308,0.086292,-0.91645,2.1581
0.0072611,-0.27554,2.3023,0.0038064,-0.20578,2.3027,-0.037469,0.10325,2.1821,-0.050587,0.26807,2.15,-0.1636,0.0021633,2.2394,-0.19103,-0.21915,2.3958,-0.20851,-0.43246,2.4159,-0.22097,-0.47979,2.4062,0.11776,-0.0051676,2.1801,0.18912,-0.24972,2.2624,0.20621,-0.45909,2.2218,0.22355,-0.48553,2.2096,-0.047457,-0.33743,2.3372,-0.13857,-0.63825,2.255,-0.1254,-0.89344,2.3192,-0.14065,-0.94479,2.2467,0.074475,-0.33671,2.302,0.036302,-0.62317,2.1842,0.10347,-0.87699,2.2262,0.085681,-0.93866,2.1975
0.0039637,-0.31574,2.3006,0.0017559,-0.24562,2.297,-0.034514,0.060242,2.1725,-0.051678,0.21674,2.1347,-0.16692,-0.042182,2.2392,-0.187,-0.27349,2.3865,-0.20176,-0.48203,2.3733,-0.22217,-0.52246,2.3681,0.11349,-0.05217,2.1728,0.188,-0.28603,2.2555,0.21638,-0.49553,2.2291,0.2432,-0.55666,2.2101,-0.05344,-0.37483,2.3403,-0.14311,-0.65004,2.245,-0.12596,-0.89928,2.3149,-0.14319,-0.95154,2.2435,0.070891,-0.37767,2.299,0.028203,-0.64309,2.1661,0.092915,-0.90838,2.2213,0.071526,-0.96145,2.1493
0.0054835,-0.34333,2.2917,0.0020438,-0.27467,2.2867,-0.035906,0.034289,2.1677,-0.056428,0.19759,2.1291,-0.16653,-0.073891,2.2324,-0.18161,-0.31544,2.3642,-0.21571,-0.52826,2.3392,-0.22754,-0.60765,2.3061,0.11781,-0.085031,2.1673,0.18317,-0.32393,2.2427,0.21338,-0.53118,2.2302,0.22504,-0.56658,2.1789,-0.051479,-0.40573,2.3295,-0.14838,-0.66604,2.2294,-0.12739,-0.91153,2.3078,-0.15534,-0.97599,2.2267,0.07524,-0.40507,2.2895,0.019309,-0.66241,2.1501,0.089802,-0.9117,2.2166,0.069892,-0.96409,2.1436
-0.0011531,-0.37139,2.2828,-0.0039405,-0.30324,2.2771,-0.038694,0.0060587,2.1644,-0.056946,0.16525,2.1252,-0.17003,-0.1045,2.233,-0.18473,-0.36202,2.3215,-0.20274,-0.57699,2.2107,-0.23535,-0.60978,2.2386,0.11251,-0.11153,2.1607,0.17876,-0.36274,2.2064,0.18641,-0.56944,2.1472,0.19033,-0.58786,2.1277,-0.06188,-0.43647,2.3161,-0.16041,-0.69422,2.2127,-0.13471,-0.93896,2.2914,-0.12357,-0.99179,2.3445,0.070116,-0.4321,2.2833,0.013537,-0.68296,2.1323,0.090955,-0.92075,2.1938,0.063489,-0.98681,2.1326
-0.00258,-0.38074,2.279,-0.0058607,-0.31342,2.2725,-0.040812,-0.0046656,2.1659,-0.056927,0.158,2.127,-0.16964,-0.1203,2.2296,-0.18768,-0.3784,2.2838,-0.21526,-0.55231,2.1524,-0.2543,-0.60806,2.0861,0.10818,-0.11845,2.1552,0.17359,-0.34608,2.1692,0.14935,-0.53466,2.0631,0.14142,-0.58262,2.0039,-0.062309,-0.4435,2.312,-0.15795,-0.72544,2.1937,-0.12699,-0.95464,2.3,-0.14257,-0.99097,2.206,0.067932,-0.44126,2.2788,0.012328,-0.69204,2.1266,0.079736,-0.93877,2.2019,0.13227,-0.98597,2.2355
-0.0042596,-0.38775,2.2777,-0.0074129,-0.32124,2.2707,-0.039079,-0.014191,2.1704,-0.054978,0.15134,2.1321,-0.16823,-0.12795,2.2253,-0.21683,-0.34757,2.2077,-0.2077,-0.545,2.0922,-0.22627,-0.59131,2.0399,0.10548,-0.12346,2.1535,0.16247,-0.32246,2.1001,0.11226,-0.4732,1.945,0.094701,-0.52382,1.9073,-0.063569,-0.4497,2.3077,-0.15797,-0.72354,2.1894,-0.13022,-0.95551,2.2924,-0.14435,-0.9977,2.2,0.064413,-0.44726,2.2785,0.011352,-0.69709,2.123,0.072041,-0.94435,2.1974,0.12049,-0.99743,2.1845
-0.0030027,-0.38733,2.2788,-0.0065248,-0.3215,2.2707,-0.037166,-0.014042,2.1746,-0.052882,0.15045,2.1401,-0.16726,-0.12799,2.2216,-0.23734,-0.3218,2.1432,-0.20476,-0.46021,2.0651,-0.19746,-0.48417,2.0582,0.10269,-0.11911,2.1495,0.16915,-0.28415,2.0186,0.057656,-0.38612,1.8549,0.038162,-0.41806,1.8215,-0.060636,-0.44847,2.308,-0.15206,-0.71453,2.1849,-0.13447,-0.94899,2.2861,-0.14643,-0.99542,2.1971,0.064135,-0.44621,2.2795,0.0073092,-0.71476,2.1296,0.092451,-0.96199,2.2284,0.12265,-0.99926,2.1777
0.0027571,-0.37888,2.2804,-0.0012508,-0.31294,2.2727,-0.027333,0.0044004,2.1866,-0.041943,0.16576,2.1565,-0.1593,-0.10701,2.2064,-0.26268,-0.27607,2.1148,-0.20865,-0.34831,2.0409,-0.25518,-0.19128,1.8096,0.10055,-0.097077,2.146,0.16983,-0.23025,1.9792,0.013435,-0.22041,1.832,-0.0048348,-0.23147,1.7825,-0.051839,-0.4356,2.3084,-0.14019,-0.69729,2.1839,-0.13492,-0.93371,2.2828,-0.15946,-0.98472,2.2158,0.066378,-0.43465,2.2796,0.015116,-0.71291,2.135,0.065408,-0.93563,2.1928,0.048642,-0.98349,2.1161
0.0032665,-0.33538,2.2755,0.0007525,-0.26952,2.2698,-0.019413,0.049214,2.1964,-0.029401,0.2078,2.1686,-0.15207,-0.040341,2.2003,-0.26867,-0.16704,2.0503,-0.21843,-0.21506,2.0254,-0.23766,-0.036243,1.8408,0.10448,-0.039416,2.1446,0.16901,-0.13956,1.9361,0.077061,-0.090244,1.8285,0.061834,-0.10787,1.8205,-0.050533,-0.3909,2.3021,-0.1181,-0.66788,2.1818,-0.13187,-0.90772,2.277,-0.13761,-0.95443,2.2052,0.062957,-0.38984,2.2687,0.019253,-0.70557,2.1393,0.07029,-0.92155,2.2007,0.053432,-0.96809,2.1231
-0.0029124,-0.26212,2.2625,-0.0055966,-0.19885,2.2581,-0.026068,0.10884,2.1966,-0.015385,0.26665,2.1862,-0.1546,0.029212,2.2029,-0.28777,-0.060383,2.0273,-0.21392,-0.097904,2.0225,-0.19042,0.14575,1.8316,0.10608,0.034543,2.1418,0.17611,-0.068028,1.9243,0.082624,0.021006,1.8178,0.041707,0.037324,1.7757,-0.058748,-0.31846,2.2864,-0.1194,-0.63254,2.1951,-0.12911,-0.89322,2.2793,-0.16019,-0.94861,2.1987,0.05883,-0.32128,2.2554,0.030869,-0.67133,2.1525,0.072535,-0.90845,2.1995,0.050037,-0.9537,2.1227
-0.0037974,-0.20191,2.2564,-0.0059771,-0.13499,2.2529,-0.021655,0.19372,2.2002,0.0002285,0.34093,2.2025,-0.13586,0.068712,2.1998,-0.30364,0.04215,2.0451,-0.19483,0.18445,1.9368,-0.15938,0.24361,1.9012,0.11047,0.10045,2.1463,0.16254,0.050959,1.9133,0.013278,0.17862,1.8157,-0.035743,0.21467,1.794,-0.061551,-0.25777,2.274,-0.12265,-0.59506,2.2194,-0.12709,-0.90968,2.3092,-0.14227,-0.95301,2.2317,0.057924,-0.26097,2.2519,0.058546,-0.62828,2.1697,0.095582,-0.90833,2.211,0.07595,-0.89555,2.1617
-0.0044641,-0.10858,2.2398,-0.0051403,-0.042314,2.2406,-0.013641,0.28729,2.2143,-0.0070134,0.43423,2.2148,-0.14635,0.20097,2.2178,-0.31194,0.11416,2.0832,-0.1732,0.23433,1.9943,-0.13776,0.29348,1.9586,0.12565,0.19106,2.1534,0.16235,0.13634,1.9303,-0.0039732,0.25341,1.8477,-0.013543,0.26682,1.845,-0.069372,-0.1718,2.2558,-0.12327,-0.54897,2.2585,-0.13509,-0.89604,2.3133,-0.15479,-0.95182,2.2683,0.062049,-0.17252,2.2283,0.062523,-0.53626,2.1826,0.10182,-0.8584,2.2101,0.084106,-0.89862,2.1316
-0.0070078,-0.045003,2.2259,-0.0048371,0.025853,2.234,0.00048667,0.38306,2.2356,0.003353,0.52494,2.2366,-0.14799,0.25839,2.2185,-0.32286,0.15183,2.1245,-0.11553,0.2419,2.0554,-0.14026,0.33958,1.9966,0.1378,0.27559,2.1618,0.17667,0.15619,1.9725,0.002874,0.25696,1.886,-0.037223,0.28382,1.851,-0.073199,-0.10846,2.2327,-0.11275,-0.49834,2.3002,-0.15136,-0.8565,2.3002,-0.16665,-0.89353,2.2194,0.055721,-0.10763,2.2129,0.09089,-0.4989,2.2182,0.1236,-0.83448,2.2051,0.11113,-0.88706,2.1477
-0.010698,0.029262,2.2146,-0.0070161,0.097274,2.231,0.0044119,0.44667,2.2511,0.014632,0.5914,2.2587,-0.14815,0.33024,2.2289,-0.31391,0.18998,2.1879,-0.05279,0.27988,2.0548,-0.13504,0.35476,2.0617,0.16288,0.32476,2.179,0.19957,0.17338,2.0534,0.011119,0.23138,1.902,0.045314,0.21278,1.8986,-0.08156,-0.038901,2.2186,-0.11189,-0.42687,2.2986,-0.1434,-0.7852,2.3099,-0.15547,-0.82032,2.2277,0.053684,-0.041479,2.1946,0.10265,-0.43485,2.2309,0.14209,-0.80805,2.2173,0.13286,-0.87145,2.1559
-0.012325,0.085566,2.211,-0.0058434,0.15216,2.2332,0.010734,0.50105,2.2628,0.013318,0.64667,2.2776,-0.16195,0.38458,2.2751,-0.28385,0.20869,2.2194,-0.15555,0.33329,2.1402,-0.0097404,0.26526,2.0402,0.15964,0.35716,2.2,0.19015,0.19358,2.0843,0.0084421,0.18165,1.8992,-0.012351,0.1648,1.8515,-0.083898,0.014664,2.2134,-0.11243,-0.3747,2.2875,-0.13388,-0.73107,2.3221,-0.15068,-0.76535,2.2403,0.049779,0.01104,2.1867,0.10475,-0.38171,2.2215,0.15233,-0.73567,2.2428,0.13554,-0.76996,2.161
-0.01562,0.12189,2.2096,-0.0058184,0.18848,2.2373,0.019101,0.54907,2.2812,0.024909,0.69622,2.2897,-0.15698,0.4069,2.2922,-0.26651,0.22158,2.2481,-0.10867,0.22238,2.0741,-0.13265,0.22741,2.0267,0.14046,0.40122,2.2108,0.15218,0.18947,2.1128,0.036788,0.12032,1.9124,-0.00027836,0.097268,1.8494,-0.086095,0.058333,2.2105,-0.11173,-0.33131,2.2846,-0.14343,-0.71982,2.3139,-0.14932,-0.77179,2.2575,0.041674,0.052502,2.1817,0.11328,-0.33809,2.2106,0.15667,-0.68884,2.2576,0.13576,-0.72242,2.1768
-0.011155,0.13981,2.21,-0.0027179,0.20197,2.2413,0.016761,0.55242,2.2861,0.025435,0.72522,2.2876,-0.13964,0.44372,2.2965,-0.22311,0.2446,2.2659,-0.12952,0.18057,2.0452,-0.13952,0.17636,1.9671,0.14278,0.46404,2.2293,0.16584,0.21975,2.1495,0.10041,0.071315,2.0035,0.066604,0.038663,1.9427,-0.074009,0.082209,2.209,-0.10582,-0.30698,2.2841,-0.1536,-0.6823,2.2915,-0.17321,-0.7157,2.2101,0.0435,0.077231,2.1837,0.1145,-0.3139,2.2084,0.16571,-0.67479,2.2483,0.14611,-0.70819,2.1669
-0.0076684,0.14906,2.2072,-0.00038737,0.21284,2.2423,0.016054,0.56954,2.2894,0.024879,0.74557,2.2913,-0.10897,0.46961,2.2699,-0.20139,0.24965,2.2682,-0.14295,0.1345,2.0406,-0.15362,0.14436,1.9689,0.1362,0.48285,2.2288,0.15837,0.23002,2.164,-0.0084834,0.11134,2.0439,-0.064965,0.083265,2.0098,-0.065788,0.095503,2.2054,-0.10378,-0.29186,2.2859,-0.15861,-0.6564,2.2784,-0.17228,-0.68961,2.1961,0.04531,0.095095,2.1811,0.11977,-0.29493,2.2102,0.17117,-0.64925,2.226,0.15749,-0.68246,2.1437
-0.0071004,0.15725,2.2042,0.0021519,0.2211,2.2415,0.015984,0.59892,2.2929,0.025507,0.77391,2.2988,-0.11001,0.47747,2.2697,-0.19123,0.25772,2.2831,-0.16063,0.10366,2.0848,-0.16388,0.1104,2.0285,0.11977,0.48836,2.2143,0.1543,0.25727,2.2137,-0.013225,0.088477,2.0776,-0.073639,0.059424,2.0538,-0.064208,0.10355,2.2053,-0.10309,-0.28435,2.283,-0.15937,-0.6459,2.2758,-0.18589,-0.69648,2.2169,0.042484,0.10402,2.1748,0.12411,-0.27497,2.2128,0.17112,-0.63154,2.2095,0.15147,-0.66483,2.129
-0.0060972,0.15887,2.2027,0.0035057,0.22472,2.242,0.018239,0.62627,2.2921,0.025372,0.78015,2.2986,-0.10831,0.48119,2.2652,-0.18522,0.25111,2.2864,-0.19613,0.087464,2.0997,-0.17007,0.089652,2.0415,0.11965,0.49125,2.2133,0.15671,0.25845,2.2177,0.018098,0.053433,2.1296,0.10392,0.0090814,2.0699,-0.060924,0.10608,2.2065,-0.10123,-0.28309,2.2776,-0.16001,-0.63377,2.2784,-0.20236,-0.72295,2.2484,0.042972,0.10683,2.1722,0.1267,-0.27459,2.2119,0.17177,-0.6318,2.2017,0.17265,-0.69158,2.1333
-0.0042226,0.16,2.2021,0.0054774,0.22675,2.2436,0.018902,0.62747,2.2916,0.025591,0.78048,2.2943,-0.10846,0.48169,2.264,-0.17738,0.24613,2.2947,-0.19866,0.03478,2.1413,-0.1928,-0.022253,2.1493,0.12292,0.49895,2.2158,0.16458,0.25967,2.2318,0.040498,0.058997,2.1468,0.13502,0.022039,2.1063,-0.058152,0.10721,2.2071,-0.1002,-0.28265,2.2736,-0.16024,-0.63373,2.2771,-0.20334,-0.72249,2.2471,0.045076,0.10905,2.1716,0.13244,-0.27734,2.2066,0.17337,-0.63118,2.1956,0.17249,-0.69173,2.1282
-0.0015987,0.15629,2.2012,0.0070649,0.22461,2.2446,0.017831,0.61965,2.2863,0.024154,0.77695,2.292,-0.10872,0.47674,2.2619,-0.1738,0.23933,2.304,-0.18179,0.033682,2.2087,-0.19462,-0.030744,2.1527,0.12466,0.49799,2.2171,0.17027,0.25533,2.2426,0.050131,0.038535,2.1461,0.0089887,-0.011672,2.1323,-0.054747,0.1029,2.2076,-0.098882,-0.28801,2.2676,-0.15645,-0.64602,2.2689,-0.18403,-0.70117,2.2099,0.047972,0.10547,2.1714,0.13498,-0.28225,2.1956,0.17982,-0.64948,2.1724,0.17567,-0.70937,2.1017
0.0071841,0.13225,2.2027,0.013979,0.20231,2.2473,0.02103,0.5894,2.2827,0.027068,0.73816,2.2739,-0.10913,0.43933,2.2591,-0.16584,0.19125,2.3059,-0.18199,-0.0096764,2.2119,-0.19346,-0.085868,2.2092,0.13624,0.48352,2.226,0.18289,0.2026,2.2561,0.062615,0.027583,2.1492,0.02842,-0.027905,2.1406,-0.044467,0.075384,2.2077,-0.092658,-0.31749,2.254,-0.15235,-0.6964,2.2664,-0.19559,-0.78161,2.2262,0.056166,0.080672,2.1771,0.13842,-0.30909,2.1868,0.18043,-0.66706,2.1647,0.17804,-0.73055,2.1
0.013575,0.090347,2.2012,0.020008,0.15763,2.2466,0.023659,0.54166,2.2789,0.029115,0.69822,2.276,-0.1083,0.39854,2.2603,-0.16599,0.15226,2.3034,-0.18673,-0.051296,2.2256,-0.19898,-0.12598,2.214,0.14191,0.42665,2.2282,0.19083,0.14703,2.2537,0.069372,-0.037317,2.1472,0.034445,-0.076625,2.143,-0.042111,0.036089,2.2015,-0.092261,-0.35682,2.2478,-0.13918,-0.71995,2.2629,-0.17826,-0.80573,2.2223,0.066942,0.035484,2.1799,0.14104,-0.35671,2.1782,0.18952,-0.73442,2.1624,0.18366,-0.78933,2.0857
0.020688,0.041043,2.1982,0.026536,0.10672,2.2451,0.025368,0.48143,2.2786,0.034427,0.64798,2.2756,-0.10998,0.35224,2.264,-0.16021,0.082862,2.2941,-0.19017,-0.1211,2.2357,-0.20374,-0.19558,2.2237,0.13113,0.37081,2.2489,0.19935,0.088683,2.2594,0.079418,-0.10109,2.1476,-0.12412,-0.1539,2.1368,-0.037364,-0.019012,2.1948,-0.086894,-0.41334,2.2305,-0.13099,-0.8002,2.2693,-0.16481,-0.88609,2.2266,0.076883,-0.012139,2.1781,0.14376,-0.40595,2.168,0.19586,-0.7883,2.1554,0.18908,-0.84588,2.0857
