-0.27697,-0.32192,2.229,-0.28168,-0.26108,2.2363,-0.32143,0.039673,2.2204,-0.34222,0.21262,2.2189,-0.43543,-0.086319,2.2669,-0.45329,-0.32277,2.2607,-0.4645,-0.50483,2.1674,-0.45907,-0.56592,2.1277,-0.1785,-0.066658,2.1863,-0.11842,-0.30032,2.1551,-0.14253,-0.49596,2.0693,-0.15979,-0.56449,2.0324,-0.32898,-0.38797,2.2504,-0.34006,-0.71204,2.0954,-0.3349,-0.94311,2.1855,-0.25412,-1.0068,2.1565,-0.21204,-0.37727,2.206,-0.24207,-0.70776,2.0771,-0.24061,-0.93492,2.1326,-0.042235,-0.9736,2.0316
-0.27745,-0.32327,2.2302,-0.2826,-0.26222,2.2359,-0.32354,0.038778,2.2188,-0.34429,0.2118,2.2165,-0.43631,-0.086116,2.2649,-0.46257,-0.31843,2.2588,-0.48748,-0.49746,2.1493,-0.44897,-0.5958,2.0989,-0.18127,-0.067135,2.1837,-0.11622,-0.28625,2.141,-0.14404,-0.48501,2.0453,-0.16718,-0.55746,2.0137,-0.32882,-0.38963,2.2535,-0.3416,-0.70598,2.0866,-0.28993,-0.94909,2.1675,-0.25841,-0.97552,2.1528,-0.21258,-0.37806,2.2071,-0.24471,-0.70843,2.0789,-0.22851,-0.93695,2.1326,-0.044871,-0.97416,2.0338
-0.27798,-0.32433,2.2333,-0.28372,-0.26298,2.2371,-0.32543,0.038469,2.218,-0.34567,0.21157,2.2154,-0.43695,-0.086354,2.2633,-0.4874,-0.30323,2.2568,-0.52289,-0.47227,2.1267,-0.51433,-0.52918,2.0651,-0.1827,-0.067122,2.1819,-0.10809,-0.26388,2.1207,-0.14135,-0.44443,1.997,-0.16402,-0.51212,1.9768,-0.3291,-0.39069,2.2575,-0.32983,-0.7059,2.0855,-0.33431,-0.94849,2.1937,-0.28555,-0.97952,2.1645,-0.21276,-0.37835,2.2111,-0.24684,-0.70907,2.0801,-0.02242,-0.93298,2.1122,-0.046051,-0.97306,2.0352
-0.27853,-0.31107,2.2375,-0.28483,-0.25186,2.2394,-0.32652,0.042253,2.2182,-0.3443,0.21361,2.2108,-0.43983,-0.076115,2.2609,-0.53213,-0.2601,2.2462,-0.55829,-0.41328,2.1186,-0.54856,-0.46625,2.0469,-0.18337,-0.062833,2.1783,-0.083426,-0.22089,2.0915,-0.13499,-0.39058,1.973,-0.16441,-0.46112,1.9472,-0.33081,-0.37987,2.2613,-0.31418,-0.69036,2.094,-0.30743,-0.94414,2.1856,-0.21995,-0.97864,2.1568,-0.21013,-0.36523,2.2172,-0.24859,-0.70743,2.0832,-0.21885,-0.90814,2.1182,-0.046593,-0.96872,2.0381
-0.28047,-0.29404,2.2372,-0.2877,-0.2349,2.2389,-0.3319,0.059768,2.2219,-0.34666,0.22552,2.2155,-0.45115,-0.063132,2.261,-0.57406,-0.22357,2.2428,-0.59318,-0.3494,2.0848,-0.5758,-0.40091,2.019,-0.1855,-0.040668,2.1736,-0.063972,-0.17086,2.0731,-0.13875,-0.32937,1.9522,-0.16913,-0.39178,1.9287,-0.33365,-0.3642,2.2611,-0.29935,-0.69802,2.1051,-0.30552,-0.94912,2.187,-0.30756,-0.96783,2.1556,-0.20958,-0.34974,2.2158,-0.25014,-0.69881,2.0872,-0.23951,-0.89697,2.1135,-0.052448,-0.96892,2.0339
-0.28498,-0.24299,2.2414,-0.29247,-0.18589,2.2429,-0.33703,0.097988,2.2274,-0.34627,0.26975,2.2241,-0.47221,-0.025505,2.2669,-0.61897,-0.16056,2.2409,-0.60558,-0.27051,2.0711,-0.58018,-0.30029,2.0333,-0.18298,-0.0010557,2.1732,-0.04922,-0.11436,2.0674,-0.14014,-0.25606,1.9503,-0.18143,-0.31854,1.9247,-0.34227,-0.31961,2.2635,-0.28784,-0.66514,2.1162,-0.29846,-0.94694,2.186,-0.24854,-0.81105,2.1289,-0.20794,-0.30462,2.2197,-0.2576,-0.64778,2.1012,-0.059345,-0.93987,2.0905,-0.084767,-0.98165,2.015
-0.29629,-0.18688,2.2418,-0.30275,-0.12989,2.2443,-0.34133,0.15426,2.237,-0.34572,0.30948,2.2362,-0.49214,0.027222,2.2734,-0.65069,-0.089251,2.2505,-0.59982,-0.18108,2.0795,-0.58134,-0.20948,2.0504,-0.17745,0.061631,2.1704,-0.047333,-0.046765,2.0653,-0.16269,-0.1851,1.9684,-0.18956,-0.23342,1.948,-0.35663,-0.26789,2.2639,-0.29466,-0.65517,2.1239,-0.29505,-0.92531,2.1827,-0.36305,-1.01,2.0462,-0.21809,-0.25114,2.2171,-0.25216,-0.63749,2.1075,-0.19978,-0.8216,2.0712,-0.14927,-0.99068,2.0272
-0.30225,-0.12638,2.2405,-0.30793,-0.069101,2.2448,-0.34179,0.21779,2.249,-0.35053,0.36879,2.2435,-0.50082,0.10187,2.2787,-0.66801,-0.0023917,2.2534,-0.58223,-0.10276,2.1025,-0.55386,-0.14135,2.0612,-0.18349,0.1303,2.1752,-0.040055,0.02814,2.0833,-0.15755,-0.11215,2.0011,-0.18778,-0.14763,1.9849,-0.36404,-0.20761,2.257,-0.30333,-0.60035,2.1486,-0.29963,-0.89332,2.1943,-0.33072,-0.96795,2.0348,-0.22528,-0.19141,2.216,-0.21852,-0.60677,2.1286,-0.17656,-0.85299,2.1021,-0.17756,-0.96146,2.0147
-0.30979,-0.051592,2.2379,-0.31505,0.0050778,2.2444,-0.34753,0.28991,2.2559,-0.34262,0.44522,2.261,-0.51226,0.17235,2.2899,-0.67179,0.056101,2.2796,-0.5613,-0.034256,2.1448,-0.52896,-0.069954,2.1039,-0.17427,0.19835,2.1828,-0.022037,0.087431,2.1121,-0.164,-0.059897,2.0482,-0.17652,-0.044109,2.0659,-0.37299,-0.13573,2.2543,-0.30842,-0.56098,2.1734,-0.30122,-0.82466,2.1699,-0.25852,-0.89748,2.1679,-0.2313,-0.12288,2.2092,-0.2148,-0.55545,2.1557,-0.19185,-0.82577,2.1399,-0.12984,-0.87607,2.1444
-0.31711,0.001421,2.2367,-0.3208,0.061479,2.2468,-0.34783,0.36534,2.2667,-0.33529,0.52124,2.2724,-0.50816,0.23965,2.297,-0.65523,0.10952,2.3103,-0.55294,-0.0050984,2.1916,-0.53895,-0.027289,2.1428,-0.17904,0.26702,2.1988,-0.027729,0.14831,2.1622,-0.13014,-0.008577,2.108,-0.15976,-0.045271,2.0693,-0.37876,-0.079884,2.2492,-0.31146,-0.52862,2.1971,-0.29959,-0.81892,2.1994,-0.28356,-0.8779,2.1507,-0.24454,-0.067605,2.208,-0.21113,-0.52211,2.1754,-0.19208,-0.80406,2.1622,-0.19321,-0.85151,2.104
-0.32396,0.04459,2.237,-0.32589,0.10781,2.2504,-0.34698,0.42627,2.2735,-0.34466,0.5808,2.2769,-0.50051,0.30784,2.3029,-0.63943,0.17103,2.3585,-0.57571,0.020705,2.2517,-0.58688,-0.024806,2.2494,-0.1908,0.32211,2.2112,-0.029877,0.1777,2.2254,-0.10386,0.0082169,2.1553,-0.12456,-0.044484,2.1093,-0.38358,-0.029059,2.2463,-0.31467,-0.49359,2.2274,-0.31878,-0.79771,2.2042,-0.34038,-0.83266,2.1268,-0.258,-0.019381,2.2106,-0.21806,-0.48786,2.2054,-0.19357,-0.7879,2.171,-0.21518,-0.82285,2.0936
-0.32507,0.082,2.2365,-0.32666,0.14563,2.2534,-0.35065,0.47325,2.2784,-0.35344,0.6283,2.2792,-0.49839,0.35468,2.3088,-0.60511,0.18315,2.3726,-0.58483,0.00073441,2.3263,-0.57648,-0.069145,2.2795,-0.19812,0.3578,2.2237,-0.042475,0.19557,2.2557,-0.082464,-0.014674,2.192,-0.082131,-0.077729,2.157,-0.38411,0.0075813,2.2436,-0.31807,-0.4574,2.2445,-0.33077,-0.7806,2.2206,-0.36564,-0.82722,2.1742,-0.2586,0.01897,2.2111,-0.22352,-0.44974,2.2182,-0.18476,-0.84542,2.1777,-0.18595,-0.88764,2.1111
-0.32186,0.11625,2.2395,-0.32503,0.18025,2.2584,-0.35803,0.50998,2.2811,-0.35673,0.67098,2.2705,-0.49335,0.37602,2.3064,-0.57121,0.18234,2.3638,-0.57595,-0.035468,2.3656,-0.57978,-0.11447,2.3466,-0.21048,0.38743,2.2306,-0.063919,0.17163,2.2684,-0.083547,-0.035815,2.2242,-0.067477,-0.10087,2.1912,-0.37803,0.049343,2.2466,-0.32937,-0.4176,2.2437,-0.3309,-0.75629,2.2566,-0.35072,-0.79112,2.179,-0.25428,0.057708,2.2159,-0.22251,-0.4113,2.2137,-0.19732,-0.74254,2.1921,-0.21715,-0.77738,2.1145
-0.33019,0.13907,2.2474,-0.33126,0.20199,2.2655,-0.35559,0.53152,2.2807,-0.3623,0.68759,2.2627,-0.48385,0.40506,2.3045,-0.55902,0.18972,2.3596,-0.56561,-0.048721,2.3903,-0.55218,-0.1306,2.4046,-0.21661,0.40652,2.2332,-0.11059,0.15081,2.2554,-0.093038,-0.0016478,2.2487,-0.046817,-0.12625,2.2499,-0.38719,0.071818,2.2574,-0.35763,-0.39664,2.2298,-0.32871,-0.69105,2.2957,-0.34817,-0.72624,2.2184,-0.26651,0.081891,2.224,-0.22663,-0.38521,2.1897,-0.21001,-0.7268,2.2183,-0.22946,-0.76199,2.141
-0.33308,0.14834,2.2543,-0.33376,0.21044,2.2698,-0.35725,0.53412,2.2745,-0.36863,0.6899,2.2511,-0.47543,0.4296,2.3016,-0.55057,0.19192,2.3597,-0.54804,-0.020221,2.405,-0.53063,-0.10239,2.4139,-0.2211,0.41218,2.2328,-0.14361,0.18754,2.2591,-0.098133,-0.0029686,2.2668,-0.062278,-0.10389,2.2675,-0.38949,0.090322,2.2725,-0.38456,-0.36201,2.2002,-0.34019,-0.63741,2.3108,-0.33417,-0.70013,2.2575,-0.27131,0.091802,2.2323,-0.23044,-0.34608,2.1666,-0.22229,-0.65858,2.24,-0.25967,-0.70662,2.2011
-0.33431,0.15105,2.2618,-0.3357,0.21286,2.2733,-0.3601,0.52629,2.262,-0.37438,0.68707,2.2324,-0.47554,0.4227,2.2938,-0.5497,0.19085,2.3654,-0.53999,-0.016992,2.4227,-0.51218,-0.094579,2.4274,-0.22181,0.41411,2.2334,-0.13902,0.17998,2.2787,-0.11486,-0.01766,2.2774,-0.099319,-0.12052,2.2818,-0.38888,0.09237,2.2796,-0.39662,-0.32033,2.1887,-0.34915,-0.57575,2.3341,-0.30494,-0.63723,2.2891,-0.27473,0.094914,2.2463,-0.24195,-0.28895,2.1233,-0.24886,-0.56514,2.2422,-0.2654,-0.60262,2.1653
-0.34124,0.14562,2.2682,-0.34351,0.2065,2.2747,-0.36225,0.5045,2.2432,-0.37484,0.66159,2.2022,-0.48113,0.38604,2.281,-0.54487,0.17992,2.373,-0.52914,-0.030872,2.4575,-0.51589,-0.11119,2.4438,-0.22311,0.39261,2.2284,-0.13795,0.17673,2.2831,-0.12126,-0.019095,2.2867,-0.11705,-0.13142,2.2873,-0.39785,0.086873,2.2876,-0.43876,-0.23898,2.1516,-0.38056,-0.47279,2.3225,-0.32536,-0.5475,2.2834,-0.28041,0.087025,2.2577,-0.24664,-0.24299,2.101,-0.26247,-0.50127,2.2508,-0.25516,-0.62802,2.2808
-0.32544,0.11238,2.289,-0.33133,0.17413,2.2876,-0.36859,0.46588,2.2234,-0.38006,0.62456,2.1874,-0.4815,0.35727,2.2804,-0.54211,0.15621,2.3805,-0.51847,-0.05502,2.4718,-0.51517,-0.16688,2.483,-0.22747,0.37235,2.2245,-0.14324,0.15094,2.2833,-0.13215,-0.051129,2.2864,-0.14264,-0.13913,2.2895,-0.3728,0.051227,2.3129,-0.44409,-0.24825,2.1464,-0.39316,-0.47528,2.3282,-0.37094,-0.51786,2.2623,-0.26594,0.05738,2.2855,-0.25512,-0.23879,2.0935,-0.26945,-0.48575,2.2582,-0.29091,-0.54552,2.2221
-0.31296,0.095559,2.3037,-0.32283,0.15552,2.2975,-0.36846,0.44165,2.2229,-0.38305,0.59685,2.1773,-0.48273,0.32713,2.2787,-0.53726,0.11554,2.4016,-0.51556,-0.090558,2.4841,-0.51734,-0.18357,2.4986,-0.22616,0.31844,2.2203,-0.14665,0.12419,2.2873,-0.15948,-0.07069,2.2881,-0.15967,-0.14119,2.308,-0.36575,0.032667,2.3289,-0.4391,-0.30546,2.1705,-0.38354,-0.5507,2.3249,-0.39055,-0.6222,2.2802,-0.23957,0.041448,2.304,-0.26727,-0.24369,2.0876,-0.27798,-0.50221,2.2359,-0.29376,-0.54988,2.1655
-0.34335,0.046028,2.2996,-0.34758,0.10754,2.2939,-0.37368,0.40524,2.2221,-0.38123,0.56269,2.1688,-0.48619,0.30525,2.2776,-0.53813,0.096208,2.4067,-0.5225,-0.1234,2.49,-0.50976,-0.20278,2.5087,-0.22446,0.29801,2.2231,-0.14135,0.10723,2.2727,-0.15652,-0.11307,2.302,-0.14913,-0.2319,2.3199,-0.39842,-0.012492,2.3236,-0.43926,-0.37105,2.1688,-0.39204,-0.63325,2.3007,-0.40388,-0.71802,2.2976,-0.27889,-0.01382,2.2979,-0.29023,-0.35483,2.1537,-0.31068,-0.62386,2.2621,-0.31299,-0.67522,2.2054
-0.34512,0.012141,2.2952,-0.34991,0.075586,2.2899,-0.37645,0.37931,2.2226,-0.38049,0.54816,2.169,-0.48959,0.27173,2.2725,-0.5405,0.085678,2.3754,-0.51678,-0.15085,2.4833,-0.50401,-0.22916,2.5062,-0.22261,0.27118,2.2252,-0.16483,0.061491,2.2661,-0.16009,-0.18002,2.3109,-0.15536,-0.26729,2.326,-0.40038,-0.044935,2.3191,-0.43934,-0.44268,2.1844,-0.4143,-0.726,2.2783,-0.42654,-0.82391,2.267,-0.28152,-0.048682,2.2917,-0.30176,-0.47264,2.1739,-0.30572,-0.76652,2.2486,-0.31548,-0.82111,2.1942
-0.3553,-0.037386,2.2929,-0.35833,0.025639,2.2874,-0.37812,0.33167,2.2257,-0.38066,0.5042,2.1711,-0.49997,0.22072,2.2854,-0.53856,0.026428,2.4003,-0.5167,-0.22112,2.4857,-0.5057,-0.30071,2.4911,-0.2299,0.23629,2.2223,-0.16418,0.018773,2.2727,-0.16264,-0.20321,2.3101,-0.16274,-0.29092,2.3232,-0.4111,-0.10022,2.3166,-0.43938,-0.53334,2.2009,-0.42253,-0.8241,2.2774,-0.44754,-0.89333,2.2299,-0.29359,-0.097006,2.2885,-0.30559,-0.54635,2.1825,-0.31147,-0.84,2.2605,-0.32101,-0.89705,2.213
