-0.2145,-0.28345,2.1967,-0.2256,-0.22254,2.1766,-0.29557,0.031603,2.0068,-0.29585,0.20425,1.9511,-0.39933,-0.022992,2.0972,-0.4523,0.035202,2.3454,-0.44217,0.081722,2.5286,-0.43651,-0.25941,2.4973,-0.14069,-0.012893,2.0275,0.044615,0.016631,2.2422,-0.064848,-0.02194,2.3088,0.18447,-0.008007,2.4452,-0.25711,-0.33708,2.2409,-0.32036,-0.63048,2.1301,-0.33713,-0.89236,2.1752,-0.31127,-0.95666,2.1765,-0.14788,-0.3342,2.2078,-0.15625,-0.63249,2.1389,-0.16413,-0.90117,2.1657,-0.18803,-0.95968,2.1142
-0.20976,-0.31213,2.1977,-0.22289,-0.25148,2.1733,-0.29755,0.0017118,1.9953,-0.30212,0.15882,1.9363,-0.40149,-0.059387,2.0861,-0.41521,0.04243,2.3213,-0.40755,0.11805,2.4986,-0.44047,-0.28978,2.4848,-0.14446,-0.047149,2.0215,0.01627,0.044357,2.1934,-0.098215,-0.036919,2.2587,0.14872,0.019619,2.4075,-0.2439,-0.3671,2.2519,-0.31639,-0.64646,2.1252,-0.33816,-0.90435,2.1789,-0.29867,-0.96038,2.1892,-0.14693,-0.36848,2.2057,-0.17818,-0.65892,2.1247,-0.17603,-0.90849,2.1629,-0.19851,-0.97388,2.1678
-0.21439,-0.33952,2.1987,-0.22775,-0.28459,2.1703,-0.29785,-0.055993,1.9835,-0.31099,0.11406,1.9315,-0.40403,-0.095834,2.0702,-0.40854,0.028495,2.302,-0.4159,-0.33599,2.4112,-0.41371,-0.37816,2.4486,-0.1487,-0.090705,2.0082,0.0068874,0.024037,2.2384,-0.078541,-0.024115,2.3006,0.14899,0.037032,2.4399,-0.24888,-0.39372,2.2499,-0.30229,-0.68006,2.103,-0.34258,-0.9194,2.1856,-0.28976,-0.9642,2.1829,-0.15109,-0.39068,2.2165,-0.22208,-0.70183,2.099,-0.16948,-0.95355,2.1729,-0.12614,-1.0076,2.1726
-0.21596,-0.37566,2.1959,-0.22864,-0.32161,2.1653,-0.29701,-0.095416,1.9755,-0.31314,0.066072,1.9164,-0.39934,-0.14469,2.0666,-0.38855,-0.0014153,2.295,-0.41139,-0.3703,2.4048,-0.40921,-0.41247,2.4422,-0.15081,-0.13546,2.0032,-0.025048,0.024282,2.1935,-0.23399,-0.10349,2.2182,0.10316,0.068459,2.4454,-0.24838,-0.42402,2.2553,-0.31733,-0.70586,2.0974,-0.34196,-0.95618,2.2023,-0.27677,-0.94531,2.1814,-0.15594,-0.42533,2.2102,-0.22532,-0.75466,2.1118,-0.1784,-0.92241,2.1528,-0.20555,-0.98468,2.1077
-0.21529,-0.39531,2.1887,-0.22775,-0.34709,2.156,-0.29957,-0.14988,1.9698,-0.31586,0.027638,1.9101,-0.403,-0.16034,2.0896,-0.36474,-0.0066478,2.35,-0.41808,-0.40913,2.3937,-0.4159,-0.4513,2.4311,-0.15061,-0.17457,1.9982,-0.035265,-0.0040261,2.2279,-0.23977,-0.1697,2.1998,0.090353,0.0505,2.4551,-0.24623,-0.4455,2.2559,-0.31205,-0.69356,2.0639,-0.33967,-0.90817,2.1764,-0.29726,-0.9596,2.1954,-0.15143,-0.45453,2.2,-0.23107,-0.75706,2.1032,-0.18422,-0.92306,2.1469,-0.14995,-0.98281,2.1392
-0.21875,-0.44396,2.1714,-0.23186,-0.39328,2.1413,-0.30035,-0.16692,1.9654,-0.31913,-0.0065349,1.9078,-0.40413,-0.21467,2.0711,-0.35874,-0.09028,2.3338,-0.4098,-0.45906,2.3853,-0.40762,-0.50123,2.4227,-0.15142,-0.20095,1.9982,-0.033917,-0.036094,2.2261,0.047436,0.015149,2.4242,0.089008,0.0080115,2.4616,-0.24309,-0.49777,2.2475,-0.32694,-0.69979,2.0358,-0.34067,-0.90355,2.1697,-0.31903,-0.9642,2.1953,-0.16015,-0.50265,2.1776,-0.24347,-0.74735,2.067,-0.18772,-0.93018,2.147,-0.22113,-0.99014,2.103
-0.22151,-0.48763,2.1677,-0.23413,-0.43552,2.1373,-0.29922,-0.19924,1.9614,-0.32419,-0.03991,1.9059,-0.4007,-0.25266,2.0527,-0.36342,-0.1993,2.3229,-0.41063,-0.48314,2.3801,-0.40845,-0.52531,2.4175,-0.15315,-0.23598,1.9992,-0.053887,-0.20421,2.191,0.0078889,-0.15143,2.3658,0.049458,-0.15857,2.4032,-0.25783,-0.5453,2.2285,-0.3245,-0.72043,1.9968,-0.3397,-0.90539,2.1649,-0.32868,-0.97001,2.1874,-0.159,-0.53474,2.1787,-0.23234,-0.81475,2.0853,-0.19048,-0.93762,2.1427,-0.21616,-0.99553,2.0914
-0.21693,-0.49993,2.1591,-0.231,-0.44747,2.1306,-0.30261,-0.21031,1.9632,-0.32285,-0.040177,1.9067,-0.39939,-0.27642,2.0622,-0.37537,-0.31672,2.305,-0.41494,-0.49615,2.3901,-0.41276,-0.53832,2.4275,-0.1542,-0.25195,1.9939,-0.079155,-0.31868,2.1767,0.0032722,-0.25906,2.4129,0.04484,-0.2662,2.4503,-0.25736,-0.55498,2.2059,-0.2741,-0.72138,1.9578,-0.29029,-0.9042,2.1493,-0.32111,-0.95908,2.1687,-0.14637,-0.55027,2.1614,-0.21293,-0.78843,2.0352,-0.19107,-0.93932,2.1424,-0.13286,-0.98531,2.1259
-0.21764,-0.49946,2.1503,-0.23131,-0.44605,2.124,-0.29949,-0.19787,1.969,-0.32035,-0.027642,1.9143,-0.4014,-0.27253,2.06,-0.36736,-0.45868,2.2526,-0.4096,-0.53068,2.3853,-0.40741,-0.57284,2.4227,-0.15002,-0.2577,1.9925,-0.051464,-0.42251,2.145,0.046467,-0.50546,2.374,0.088035,-0.5126,2.4114,-0.27137,-0.55191,2.1877,-0.28033,-0.73241,1.9368,-0.28945,-0.90802,2.128,-0.32319,-0.94916,2.1617,-0.14352,-0.54911,2.1565,-0.27235,-0.78135,2.0521,-0.19109,-0.94589,2.1424,-0.11126,-0.9913,2.1235
-0.22105,-0.47858,2.1428,-0.23235,-0.42319,2.1194,-0.29027,-0.15845,1.9882,-0.31488,0.0063625,1.9369,-0.40452,-0.24868,2.0597,-0.40101,-0.46805,2.1411,-0.42756,-0.52723,2.43,-0.42538,-0.56939,2.4674,-0.13451,-0.24295,1.9969,-0.051432,-0.42426,2.0622,-0.0035538,-0.62582,2.094,-0.0074191,-0.66387,2.0589,-0.27749,-0.53589,2.1857,-0.34474,-0.73037,1.9411,-0.40766,-0.91134,2.064,-0.33367,-0.93881,2.1474,-0.14681,-0.53174,2.1519,-0.22708,-0.79933,2.0349,-0.19861,-0.93849,2.1266,-0.11921,-0.98622,2.1121
-0.24774,-0.45285,2.1335,-0.25124,-0.39411,2.1182,-0.28235,-0.10674,2.019,-0.31153,0.076404,1.9749,-0.40227,-0.21885,2.0716,-0.40435,-0.46048,2.106,-0.42546,-0.57947,2.3564,-0.42328,-0.62164,2.3938,-0.13869,-0.18704,1.9969,-0.078531,-0.40985,1.9573,-0.078045,-0.58156,1.8462,-0.086429,-0.62082,1.8073,-0.30419,-0.50972,2.1724,-0.3064,-0.71173,1.9756,-0.34963,-0.9106,2.1163,-0.25761,-0.94823,2.1256,-0.18112,-0.50939,2.1283,-0.28645,-0.77245,1.9976,-0.20338,-0.93743,2.122,-0.12313,-0.98417,2.109
-0.24197,-0.43062,2.1334,-0.24605,-0.368,2.1199,-0.27102,-0.054417,2.0415,-0.30503,0.1233,2.0143,-0.39771,-0.15707,2.0715,-0.40758,-0.3967,2.0731,-0.47303,-0.38835,1.9097,-0.48858,-0.64009,1.8876,-0.13481,-0.13536,2.0019,-0.11536,-0.30544,1.8814,-0.14429,-0.47505,1.6837,-0.10177,-0.61581,1.7583,-0.29826,-0.49082,2.1659,-0.30342,-0.68924,1.9945,-0.34624,-0.99338,2.0169,-0.24282,-0.96677,2.1402,-0.17549,-0.4809,2.1273,-0.22796,-0.78843,2.0534,-0.20118,-0.93792,2.1201,-0.11888,-0.98133,2.1317
-0.23131,-0.38372,2.1352,-0.23748,-0.31909,2.1248,-0.26949,-0.0016405,2.0619,-0.3062,0.17285,2.0479,-0.39175,-0.12185,2.0699,-0.41037,-0.33547,2.0426,-0.53713,-0.42768,1.7051,-0.55637,-0.45553,1.6461,-0.14316,-0.076375,2.0086,-0.15517,-0.066873,1.7722,-0.22345,-0.12226,1.581,-0.25383,-0.11687,1.5037,-0.28492,-0.44406,2.1569,-0.31535,-0.65505,2.0162,-0.28281,-0.91232,2.1201,-0.19926,-0.95413,2.112,-0.16746,-0.4371,2.1325,-0.23261,-0.70731,2.0035,-0.19966,-0.93499,2.1204,-0.11753,-0.97967,2.1275
-0.22718,-0.29704,2.1362,-0.23204,-0.23638,2.1244,-0.256,0.06224,2.056,-0.30852,0.23409,2.0693,-0.38087,-0.032022,2.063,-0.49654,-0.14179,1.8385,-0.5581,-0.11345,1.6047,-0.58058,-0.16628,1.5544,-0.14367,0.014388,2.0053,-0.15613,0.12605,1.7821,-0.24262,0.22536,1.6187,-0.27256,0.26164,1.579,-0.28716,-0.35835,2.1559,-0.34021,-0.65742,2.0634,-0.30726,-0.85665,2.0996,-0.32853,-0.89803,2.0326,-0.15927,-0.35135,2.1388,-0.23193,-0.66719,2.0237,-0.18575,-0.92413,2.1151,-0.10867,-0.97689,2.1234
-0.23216,-0.15246,2.0995,-0.24074,-0.091179,2.0876,-0.28374,0.21085,2.0216,-0.32789,0.33559,2.0755,-0.37423,0.13382,2.0539,-0.51195,0.08216,1.903,-0.50974,0.2435,1.7004,-0.56861,0.10597,1.5905,-0.13952,0.11782,1.9966,-0.15728,0.28325,1.797,-0.2444,0.48785,1.6932,-0.14145,-0.34741,1.7846,-0.28725,-0.20863,2.1221,-0.35061,-0.56492,2.0699,-0.30566,-0.86228,2.1106,-0.33284,-0.9051,2.0467,-0.16269,-0.20606,2.0971,-0.20635,-0.58775,2.0185,-0.17299,-0.88753,2.1086,-0.13231,-0.96782,2.1108
-0.24461,0.013901,2.0741,-0.24892,0.070644,2.0658,-0.26738,0.35182,2.0189,-0.32991,0.5152,2.0003,-0.447,0.28925,2.0176,-0.50317,0.3375,1.8211,-0.4303,0.52741,1.7854,-0.51119,0.49562,1.6985,-0.13498,0.30828,1.9859,-0.15539,0.51802,1.8039,-0.23211,0.70491,1.7952,-0.24716,0.76139,1.776,-0.30802,-0.054818,2.0988,-0.33157,-0.43614,2.0933,-0.31475,-0.7633,2.1174,-0.3028,-0.8109,2.0992,-0.17444,-0.049805,2.0667,-0.17206,-0.43981,2.0289,-0.14995,-0.73984,2.0565,-0.15621,-0.78016,1.9846
-0.26376,0.12077,2.0575,-0.26845,0.17124,2.0546,-0.29122,0.42238,2.0366,-0.37388,0.73449,1.9876,-0.41573,0.39494,2.0511,-0.48096,0.5596,1.9335,-0.42034,0.69512,1.8258,-0.45348,0.73313,1.8234,-0.1417,0.51634,1.995,-0.13148,0.080056,2.0008,-0.19554,0.80326,1.9746,-0.22795,0.84719,2.0124,-0.3269,0.052494,2.0786,-0.32767,-0.3454,2.1052,-0.3181,-0.72259,2.1359,-0.33599,-0.76066,2.0649,-0.19472,0.062829,2.0432,-0.16078,-0.33558,2.0387,-0.13403,-0.69185,2.0492,-0.15192,-0.72991,1.9781
-0.25429,0.18403,2.0381,-0.25634,0.23904,2.0344,-0.2624,0.52117,2.0103,-0.29278,0.72005,2.0225,-0.3869,0.49511,2.0594,-0.50313,0.67858,2.0177,-0.40968,0.76022,1.9391,-0.35635,0.80209,1.9337,-0.16729,0.51942,2.0136,-0.14942,0.23717,2.0165,-0.13509,0.0071984,1.859,-0.14672,-0.031935,1.8136,-0.31387,0.11892,2.0428,-0.32038,-0.27479,2.1031,-0.31027,-0.6128,2.1732,-0.32535,-0.65037,2.1015,-0.19221,0.12417,2.0388,-0.15356,-0.27377,2.0433,-0.12316,-0.61949,2.0658,-0.13824,-0.65706,1.9942
-0.25387,0.23507,2.0323,-0.25577,0.28195,2.0339,-0.26275,0.53311,2.0297,-0.26149,0.73077,2.0644,-0.402,0.5483,2.0391,-0.4882,0.70698,2.0757,-0.40092,0.85221,2.0643,-0.35663,0.9032,2.0723,-0.1626,0.53352,2.0514,-0.13892,0.23628,2.071,-0.12459,0.0063016,1.9135,-0.13623,-0.032832,1.8681,-0.31442,0.16777,2.0215,-0.31872,-0.22331,2.0959,-0.30228,-0.54853,2.2018,-0.31445,-0.58388,2.13,-0.18838,0.16713,2.0331,-0.14567,-0.22974,2.039,-0.11848,-0.57527,2.0656,-0.13065,-0.61062,1.9937
-0.2417,0.2962,2.0332,-0.23898,0.34847,2.0422,-0.22575,0.60482,2.0646,-0.2306,0.80066,2.1031,-0.37607,0.62103,2.1054,-0.52008,0.76547,2.0802,-0.43531,0.94791,2.1017,-0.40705,1.0087,2.113,-0.10316,0.59793,2.08,-0.1253,0.34276,2.0892,-0.11097,0.11278,1.9317,-0.12261,0.073649,1.8863,-0.30586,0.22827,2.0249,-0.31856,-0.1654,2.0876,-0.28776,-0.47112,2.2326,-0.29286,-0.50301,2.1567,-0.18454,0.22335,2.0228,-0.14542,-0.17452,2.0204,-0.10975,-0.51821,2.0542,-0.11486,-0.5501,1.9783
-0.23604,0.35542,2.0342,-0.23463,0.40346,2.0477,-0.23251,0.6491,2.0734,-0.2272,0.81708,2.1149,-0.38539,0.63976,2.1302,-0.44424,0.80002,2.1599,-0.41213,0.86588,2.0966,-0.3488,0.89007,2.0912,-0.10643,0.64206,2.0876,-0.14086,0.34287,2.0861,-0.12654,0.1129,1.9286,-0.13817,0.073764,1.8832,-0.30772,0.25968,2.0211,-0.32031,-0.13494,2.077,-0.28628,-0.42699,2.2439,-0.29728,-0.45846,2.1688,-0.1686,0.26313,2.0181,-0.14161,-0.1336,2.0093,-0.099542,-0.47642,2.0431,-0.11054,-0.50789,1.968
-0.23768,0.37311,2.0356,-0.2366,0.41761,2.0523,-0.24647,0.66008,2.0784,-0.23931,0.85836,2.1418,-0.4635,0.70387,2.1618,-0.546,0.82318,1.9937,-0.42138,0.85168,2.1401,-0.37985,0.86119,2.1931,-0.16416,0.57886,2.073,-0.14387,0.35596,2.0922,-0.12954,0.12598,1.9346,-0.14117,0.086851,1.8892,-0.30611,0.27044,2.0181,-0.31902,-0.1245,2.0704,-0.28327,-0.40576,2.2533,-0.30152,-0.43712,2.1791,-0.16708,0.27498,2.0148,-0.14045,-0.12078,1.9899,-0.098506,-0.46296,2.0275,-0.11675,-0.49432,1.9533
-0.23911,0.39457,2.0362,-0.2372,0.43635,2.0561,-0.24523,0.66754,2.0798,-0.25552,0.86098,2.1391,-0.45738,0.7237,2.1737,-0.54687,0.85757,2.0238,-0.40938,0.86587,2.1617,-0.36355,0.86864,2.2119,-0.14833,0.58377,2.0841,-0.23424,0.35765,1.9265,-0.2286,0.12382,1.7674,-0.2398,0.066826,1.7108,-0.31033,0.28697,2.021,-0.31877,-0.11027,2.0543,-0.2833,-0.38542,2.2455,-0.30097,-0.41655,2.1711,-0.16815,0.29262,2.0091,-0.14028,-0.10313,1.9765,-0.097431,-0.44778,1.9953,-0.1151,-0.47892,1.9209
-0.23911,0.4083,2.0382,-0.23642,0.44898,2.0611,-0.24744,0.67829,2.0853,-0.25649,0.86157,2.1393,-0.44819,0.73636,2.1864,-0.50299,0.93125,2.1367,-0.3284,0.98867,2.2126,-0.2702,1.0078,2.2421,-0.1536,0.66906,2.0927,-0.23583,0.43986,1.9381,-0.22565,0.20624,1.7789,-0.23698,0.16004,1.7291,-0.30747,0.29865,2.0266,-0.32067,-0.098919,2.0359,-0.28539,-0.3737,2.2279,-0.30539,-0.40473,2.1539,-0.1679,0.31085,2.0028,-0.13857,-0.082927,1.9482,-0.10038,-0.428,1.9695,-0.12038,-0.45902,1.8956
-0.2393,0.409,2.0378,-0.23323,0.4494,2.0621,-0.24818,0.68123,2.087,-0.25829,0.86191,2.1393,-0.44851,0.73936,2.1887,-0.51302,0.93285,2.1614,-0.42559,1.1125,2.1898,-0.39645,1.1724,2.2035,-0.21797,0.66765,2.035,-0.26956,0.47876,1.9532,-0.24752,0.27704,1.8042,-0.25915,0.2379,1.7588,-0.30553,0.29997,2.0264,-0.32029,-0.098785,2.0268,-0.28332,-0.38094,2.2084,-0.31305,-0.41233,2.1386,-0.16895,0.31254,2.0007,-0.13686,-0.079413,1.9344,-0.10428,-0.42705,1.9374,-0.13401,-0.45845,1.8675
-0.23205,0.36818,2.0186,-0.22568,0.41602,2.048,-0.2477,0.6821,2.087,-0.26436,0.85933,2.1401,-0.44518,0.73048,2.1936,-0.51055,0.93219,2.168,-0.44491,1.122,2.1909,-0.42303,1.1853,2.2027,-0.21787,0.66756,2.0348,-0.23318,0.42115,1.9079,-0.21885,0.19118,1.7503,-0.23048,0.15204,1.7049,-0.29675,0.28564,1.9845,-0.31543,-0.1114,2.0249,-0.27751,-0.40479,2.1884,-0.30799,-0.43602,2.1189,-0.16212,0.28698,2.0108,-0.1323,-0.10068,1.912,-0.10414,-0.4495,1.9006,-0.13462,-0.48073,1.8311
-0.23268,0.34717,2.0172,-0.22486,0.39278,2.0478,-0.24412,0.65108,2.0827,-0.25589,0.80672,2.1382,-0.43861,0.74036,2.1967,-0.42016,0.74922,2.1969,-0.4555,1.1446,2.1981,-0.43362,1.2079,2.2099,-0.21724,0.66614,2.0334,-0.23182,0.40815,1.9118,-0.22145,0.17067,1.7591,-0.23154,0.096271,1.6928,-0.2867,0.27734,1.9948,-0.31188,-0.12236,2.0026,-0.27972,-0.4284,2.1458,-0.31095,-0.45966,2.0767,-0.17598,0.27957,2.0036,-0.13738,-0.10611,1.895,-0.11219,-0.45545,1.8681,-0.14342,-0.48671,1.799
-0.2304,0.28103,1.9978,-0.22107,0.33468,2.0331,-0.24425,0.64207,2.0824,-0.26437,0.79029,2.1386,-0.31073,0.46425,2.1619,-0.42029,0.70989,2.2012,-0.45524,1.1427,2.1984,-0.43336,1.2059,2.2103,-0.2172,0.66351,2.0329,-0.22931,0.40488,1.9127,-0.21866,0.16722,1.7603,-0.22867,0.091814,1.6936,-0.26581,0.21729,1.9977,-0.30444,-0.18006,2.0046,-0.271,-0.50031,2.1193,-0.30555,-0.53167,2.0515,-0.19172,0.23186,1.9668,-0.1376,-0.15357,1.8626,-0.11847,-0.50346,1.8345,-0.15302,-0.53482,1.7667
-0.22655,0.26627,1.9989,-0.21419,0.31134,2.0333,-0.22946,0.58204,2.0678,-0.21704,0.76322,2.1229,-0.37289,0.58852,2.189,-0.48729,0.79882,2.2161,-0.45527,1.0481,2.2356,-0.43339,1.1114,2.2475,-0.20204,0.57772,2.0094,-0.23013,0.35424,1.9016,-0.21581,0.12427,1.7441,-0.22744,0.085133,1.6987,-0.26325,0.19074,1.9885,-0.29901,-0.20611,1.9955,-0.26651,-0.53686,2.0817,-0.30136,-0.56839,2.0149,-0.18599,0.20629,1.9783,-0.13841,-0.1731,1.8507,-0.12551,-0.52335,1.8181,-0.16037,-0.55488,1.7513
-0.217,0.25895,2.0014,-0.21117,0.30683,2.0365,-0.23702,0.55952,2.0619,-0.22033,0.74869,2.1226,-0.42335,0.61487,2.1949,-0.49676,0.75371,2.2187,-0.51509,0.84761,2.2252,-0.44113,1.1068,2.2532,-0.16553,0.55026,2.0451,-0.19187,0.31726,1.9447,-0.17754,0.087288,1.7871,-0.18917,0.048154,1.7417,-0.27054,0.18376,1.9616,-0.29655,-0.21588,1.9656,-0.26521,-0.5516,2.0359,-0.29386,-0.58289,1.9652,-0.14649,0.17593,2.0087,-0.13116,-0.19356,1.844,-0.12046,-0.54383,1.8086,-0.14911,-0.57513,1.7379
-0.20161,0.22737,2.0035,-0.18984,0.26111,2.039,-0.20711,0.4889,2.0584,-0.20056,0.68954,2.1036,-0.36658,0.4575,2.1907,-0.5292,0.65084,2.2286,-0.59948,0.74753,2.2322,-0.60035,0.78914,2.2287,-0.12807,0.56261,2.0893,-0.15441,0.32961,1.9889,-0.24901,0.25162,1.8133,-0.2518,0.21978,1.7831,-0.26757,0.13036,1.9534,-0.29138,-0.26997,1.9429,-0.2601,-0.6085,2.003,-0.28896,-0.63951,1.9322,-0.12579,0.12279,2.0062,-0.1313,-0.23971,1.8248,-0.11655,-0.58982,1.7952,-0.14542,-0.62083,1.7244
