-0.2694,-0.3206,2.8668,-0.27577,-0.26308,2.8547,-0.31035,0.017303,2.7788,-0.31692,0.15957,2.7635,-0.41979,-0.047504,2.7946,-0.50176,0.070435,2.5901,-0.4969,0.2296,2.4797,-0.49528,0.28266,2.4469,-0.2211,-0.026753,2.7405,-0.2363,-0.08993,2.6584,-0.3391,0.24432,2.4273,-0.33257,0.29855,2.4141,-0.30822,-0.37375,2.9117,-0.26942,-0.66508,2.7664,-0.34641,-0.95634,2.8122,-0.37124,-0.99754,2.7517,-0.21752,-0.36869,2.8454,-0.29696,-0.65615,2.772,-0.25623,-0.95838,2.8256,-0.28666,-1.0263,2.8515
-0.29161,-0.14292,2.8528,-0.29843,-0.080981,2.846,-0.33507,0.22471,2.7991,-0.42309,0.37829,2.7257,-0.46957,0.15304,2.7974,-0.52361,0.22956,2.6643,-0.50343,0.3158,2.6436,-0.49151,0.48229,2.5889,-0.20902,0.14762,2.7276,-0.21841,0.25658,2.5758,-0.27161,0.42145,2.5077,-0.26484,0.47721,2.5098,-0.34122,-0.20005,2.8765,-0.32047,-0.53466,2.7901,-0.34359,-0.95858,2.8101,-0.33588,-1.0155,2.7782,-0.23005,-0.19726,2.8422,-0.29273,-0.58467,2.7992,-0.25427,-0.89785,2.829,-0.27516,-0.9646,2.7979
-0.27713,-0.075805,2.8548,-0.28017,-0.02227,2.8492,-0.2986,0.25869,2.8137,-0.42027,0.3906,2.7953,-0.41682,0.21464,2.8549,-0.54936,0.36781,2.7606,-0.55215,0.54085,2.6772,-0.55798,0.59717,2.6752,-0.15123,0.26905,2.7564,-0.16601,0.32101,2.6484,-0.17002,0.52785,2.536,-0.15317,0.58096,2.5434,-0.32263,-0.13057,2.872,-0.30475,-0.52225,2.8445,-0.36795,-0.89241,2.7891,-0.34818,-0.91349,2.7615,-0.22649,-0.13475,2.8469,-0.26986,-0.52593,2.8333,-0.25299,-0.84632,2.8179,-0.27977,-0.88592,2.7505
-0.28997,-0.0094795,2.863,-0.287,0.041835,2.862,-0.27594,0.29814,2.8461,-0.28458,0.47134,2.8886,-0.43917,0.29083,2.8993,-0.58665,0.45447,2.8653,-0.63555,0.6138,2.7747,-0.62117,0.66088,2.7529,-0.17,0.28408,2.8008,-0.080239,0.45238,2.6627,-0.048665,0.60717,2.5572,-0.055169,0.6566,2.5384,-0.34355,-0.066091,2.8754,-0.28678,-0.45372,2.8723,-0.34577,-0.75141,2.7944,-0.32398,-0.84926,2.7692,-0.24368,-0.077012,2.8535,-0.29258,-0.46234,2.8477,-0.26725,-0.78721,2.8,-0.24411,-0.84198,2.7523
-0.29555,0.079492,2.8572,-0.29509,0.13474,2.8591,-0.29996,0.41157,2.8539,-0.29312,0.56654,2.8977,-0.45056,0.38844,2.9402,-0.6285,0.50793,2.9553,-0.72106,0.66404,2.9052,-0.74433,0.71281,2.8993,-0.15373,0.37486,2.8149,0.0071512,0.48812,2.7204,0.082489,0.6316,2.588,0.091436,0.67825,2.5615,-0.35439,0.0077417,2.8672,-0.29239,-0.37918,2.8732,-0.36064,-0.68427,2.8121,-0.32431,-0.79539,2.7906,-0.23614,0.012237,2.844,-0.26104,-0.37894,2.8693,-0.26118,-0.69702,2.8148,-0.28891,-0.73243,2.7453
-0.29761,0.12542,2.8578,-0.29721,0.1873,2.8625,-0.30356,0.48658,2.8645,-0.31526,0.63249,2.8956,-0.44598,0.45166,2.9464,-0.63315,0.50696,3.0343,-0.78167,0.61859,3.0431,-0.79593,0.65247,3.0489,-0.16055,0.41748,2.826,0.060645,0.4946,2.7539,0.19692,0.58397,2.6659,0.19306,0.64673,2.627,-0.35325,0.062692,2.8697,-0.31394,-0.32681,2.8902,-0.32365,-0.6459,2.8429,-0.35112,-0.68065,2.7729,-0.24088,0.061782,2.8405,-0.26056,-0.32885,2.8742,-0.25217,-0.69213,2.828,-0.27893,-0.75382,2.778
-0.29309,0.14293,2.8595,-0.29226,0.20529,2.8656,-0.29338,0.52506,2.8674,-0.32625,0.67911,2.8918,-0.42006,0.446,2.9085,-0.58679,0.46716,3.0642,-0.74335,0.49923,3.1596,-0.7964,0.51506,3.187,-0.16054,0.47204,2.8287,0.05006,0.46919,2.7994,0.21446,0.49567,2.7296,0.24819,0.5878,2.6533,-0.34593,0.080946,2.8709,-0.30144,-0.30751,2.8967,-0.31204,-0.66644,2.8574,-0.32093,-0.71156,2.797,-0.24035,0.090695,2.8439,-0.27996,-0.28804,2.8658,-0.26277,-0.62025,2.8268,-0.28293,-0.65461,2.7544
-0.29549,0.17743,2.8676,-0.29584,0.23864,2.8727,-0.30179,0.55838,2.87,-0.30449,0.71748,2.9014,-0.4164,0.47965,2.8997,-0.55106,0.41804,3.0826,-0.6827,0.36603,3.2097,-0.736,0.37115,3.243,-0.16063,0.48891,2.8312,0.044378,0.43149,2.8262,0.20698,0.36111,2.8175,0.32019,0.35349,2.79,-0.3468,0.11816,2.8766,-0.31082,-0.27176,2.8961,-0.31331,-0.62435,2.8545,-0.31581,-0.66394,2.7876,-0.24265,0.12177,2.8558,-0.23527,-0.29868,2.8935,-0.26923,-0.58996,2.827,-0.28647,-0.62476,2.7541
-0.30703,0.22801,2.8788,-0.30521,0.28444,2.8836,-0.30101,0.567,2.875,-0.30903,0.73405,2.9047,-0.42031,0.49964,2.9179,-0.52676,0.37704,3.0872,-0.6185,0.25472,3.2026,-0.64733,0.20828,3.2237,-0.15391,0.51518,2.8391,0.010555,0.38546,2.8421,0.15202,0.2744,2.8378,0.18318,0.25412,2.8135,-0.35911,0.16741,2.8966,-0.32059,-0.22364,2.8985,-0.33488,-0.49924,2.8403,-0.39499,-0.54816,2.7715,-0.25765,0.16331,2.8569,-0.28528,-0.19144,2.8486,-0.27298,-0.55742,2.8269,-0.28798,-0.60799,2.7673
-0.30219,0.2383,2.8817,-0.30074,0.29673,2.8868,-0.29889,0.59445,2.8811,-0.3,0.77541,2.9147,-0.42115,0.53439,2.9309,-0.51328,0.33418,3.0556,-0.5579,0.16197,3.1256,-0.57638,0.097139,3.1346,-0.15346,0.52557,2.8426,-0.029571,0.33712,2.8334,0.055257,0.17047,2.8036,0.084719,0.11669,2.7996,-0.3554,0.17816,2.8981,-0.33846,-0.18625,2.8954,-0.29948,-0.48081,2.8352,-0.35976,-0.52335,2.7666,-0.24788,0.17469,2.8634,-0.26444,-0.23713,2.8925,-0.28735,-0.52662,2.8148,-0.3089,-0.56148,2.743
-0.30357,0.23569,2.8865,-0.30217,0.29587,2.8919,-0.30021,0.59869,2.8873,-0.29658,0.78952,2.9245,-0.40848,0.51379,2.9123,-0.49907,0.30108,2.9948,-0.5264,0.1191,3.0256,-0.54911,0.033801,3.0128,-0.16065,0.5321,2.8462,-0.097094,0.30257,2.8053,-0.072182,0.12163,2.7656,-0.059977,0.069999,2.7365,-0.35547,0.1785,2.9007,-0.34053,-0.1833,2.8964,-0.35104,-0.47882,2.8086,-0.3452,-0.53524,2.748,-0.25243,0.17509,2.8706,-0.2731,-0.20024,2.8682,-0.27398,-0.5172,2.7923,-0.29669,-0.56226,2.7377
-0.29949,0.22552,2.8909,-0.2995,0.29224,2.8972,-0.30102,0.63449,2.9059,-0.29363,0.79231,2.9328,-0.40417,0.50602,2.9068,-0.46889,0.26846,2.9287,-0.52051,0.077776,2.9192,-0.53467,0.022272,2.9096,-0.17283,0.52959,2.8509,-0.16723,0.30045,2.7946,-0.17983,0.10127,2.7634,-0.2051,0.051012,2.7301,-0.35127,0.17136,2.9035,-0.3394,-0.19544,2.8957,-0.3953,-0.51899,2.8053,-0.34741,-0.60129,2.7468,-0.24906,0.17179,2.8736,-0.26921,-0.24293,2.8921,-0.27448,-0.57601,2.7957,-0.31162,-0.57193,2.7468
-0.28694,0.21015,2.8971,-0.28671,0.27602,2.9059,-0.29418,0.60744,2.9093,-0.29023,0.79095,2.951,-0.3991,0.51516,2.9067,-0.47524,0.27719,2.8751,-0.51466,0.10289,2.8175,-0.53501,0.049202,2.7913,-0.21117,0.52699,2.8547,-0.22079,0.30946,2.777,-0.20134,0.15725,2.7609,-0.3171,0.15833,2.6074,-0.33278,0.16167,2.9015,-0.33956,-0.20689,2.8934,-0.38534,-0.49508,2.7925,-0.38594,-0.54107,2.7177,-0.24095,0.16644,2.8865,-0.27035,-0.24495,2.8908,-0.28955,-0.55817,2.789,-0.3297,-0.56497,2.738
-0.28238,0.18547,2.9061,-0.28238,0.25339,2.9164,-0.29041,0.59667,2.9171,-0.27752,0.77091,2.9707,-0.37087,0.5146,2.8933,-0.47675,0.3128,2.8418,-0.54087,0.1639,2.712,-0.56148,0.11371,2.6726,-0.2252,0.51738,2.8587,-0.256,0.31965,2.7262,-0.24433,0.2039,2.7329,-0.41355,0.20544,2.5631,-0.3228,0.14699,2.9025,-0.27772,-0.26254,2.9102,-0.40227,-0.52687,2.7951,-0.38613,-0.54601,2.7204,-0.24327,0.14998,2.904,-0.28645,-0.21474,2.878,-0.3055,-0.52763,2.77,-0.35512,-0.58833,2.7235
-0.27291,0.13722,2.9125,-0.27279,0.2066,2.9294,-0.28212,0.56098,2.9451,-0.27416,0.74735,2.993,-0.36376,0.4663,2.8855,-0.44039,0.30979,2.8152,-0.54349,0.21801,2.6404,-0.57789,0.20437,2.6401,-0.24346,0.48298,2.8592,-0.33988,0.31622,2.6824,-0.52868,0.18811,2.6303,-0.56809,0.14496,2.595,-0.3069,0.10581,2.9112,-0.30453,-0.28774,2.8925,-0.41749,-0.56382,2.7906,-0.39899,-0.59758,2.7111,-0.23974,0.10577,2.9098,-0.23513,-0.29411,2.8794,-0.303,-0.60949,2.7807,-0.36031,-0.63319,2.7226
-0.27649,0.11016,2.9147,-0.27503,0.17829,2.9361,-0.27992,0.53136,2.9595,-0.2594,0.69452,3.0145,-0.35901,0.45589,2.891,-0.49165,0.29261,2.7381,-0.59535,0.22156,2.5361,-0.60497,0.22909,2.5783,-0.24023,0.45724,2.8663,-0.32068,0.3198,2.6948,-0.47679,0.32967,2.5738,-0.51619,0.28653,2.5385,-0.31026,0.078364,2.9116,-0.34952,-0.28853,2.8907,-0.42577,-0.63776,2.7853,-0.3956,-0.67263,2.7336,-0.24238,0.081112,2.9108,-0.24015,-0.32997,2.876,-0.27862,-0.65236,2.7868,-0.33997,-0.69391,2.735
-0.28062,0.058829,2.9118,-0.27669,0.12775,2.9408,-0.27675,0.49985,2.9825,-0.25082,0.66395,3.0188,-0.35727,0.3957,2.9093,-0.51987,0.28076,2.739,-0.60218,0.28153,2.5513,-0.61523,0.28014,2.5374,-0.22386,0.38721,2.8756,-0.32173,0.31854,2.6814,-0.45204,0.36652,2.6051,-0.59202,0.35849,2.4974,-0.31822,0.021729,2.9085,-0.3499,-0.32708,2.8888,-0.36747,-0.73584,2.7905,-0.36688,-0.78584,2.7206,-0.2452,0.028297,2.9025,-0.25495,-0.39533,2.8828,-0.28351,-0.66252,2.7935,-0.29701,-0.69366,2.7204
-0.28521,-0.01302,2.9055,-0.27918,0.057859,2.9369,-0.26743,0.4372,2.9774,-0.27423,0.58961,3.0351,-0.34296,0.31974,2.9051,-0.54342,0.28639,2.7768,-0.61181,0.33602,2.6015,-0.62862,0.35378,2.5615,-0.21242,0.31048,2.8775,-0.32733,0.33093,2.6758,-0.46525,0.42716,2.5852,-0.52816,0.46764,2.5606,-0.32292,-0.053682,2.9098,-0.31081,-0.43208,2.8892,-0.34471,-0.74908,2.8199,-0.35634,-0.78015,2.7447,-0.25091,-0.042699,2.8885,-0.26781,-0.36781,2.8292,-0.25815,-0.76589,2.8134,-0.29683,-0.7751,2.7501
