-0.20241,-0.26539,2.7353,-0.20696,-0.19392,2.7364,-0.27092,0.11487,2.6183,-0.29275,0.29317,2.6074,-0.38727,0.012037,2.706,-0.47579,-0.10396,2.9234,-0.53059,-0.26563,3.0467,-0.53623,-0.32268,3.0665,-0.12066,0.041179,2.6079,0.075619,-0.10608,2.7219,0.1708,-0.29101,2.7555,0.19203,-0.33615,2.7645,-0.24807,-0.32786,2.7716,-0.34966,-0.62399,2.697,-0.32657,-0.93666,2.7683,-0.34765,-0.98605,2.7014,-0.13737,-0.31686,2.7296,-0.1103,-0.63735,2.6352,-0.09422,-0.9211,2.6944,-0.1153,-0.97049,2.6276
-0.2052,-0.29841,2.7379,-0.21125,-0.22815,2.7331,-0.27882,0.072812,2.6015,-0.29664,0.2468,2.592,-0.39331,-0.019209,2.692,-0.47098,-0.11508,2.9263,-0.52051,-0.26502,3.0609,-0.52989,-0.31381,3.0895,-0.12632,-0.0072334,2.5953,0.10325,-0.10544,2.7368,0.17889,-0.28414,2.791,0.20641,-0.34016,2.7951,-0.2505,-0.36116,2.7739,-0.35904,-0.64447,2.6865,-0.32926,-0.93654,2.7674,-0.35042,-0.98846,2.7026,-0.13933,-0.3524,2.7391,-0.114,-0.65169,2.6158,-0.093887,-0.92575,2.6924,-0.11505,-0.97767,2.6276
-0.20627,-0.34044,2.7351,-0.21574,-0.2722,2.7257,-0.29057,0.022249,2.5852,-0.30754,0.19799,2.5813,-0.39932,-0.070168,2.6841,-0.46322,-0.15041,2.9303,-0.50072,-0.31745,3.0915,-0.50919,-0.36,3.1076,-0.13488,-0.039253,2.5885,0.057573,-0.14708,2.7444,0.19583,-0.32974,2.8267,0.23361,-0.35602,2.8143,-0.24965,-0.40403,2.7708,-0.3671,-0.6649,2.669,-0.33443,-0.94142,2.7604,-0.35312,-0.99524,2.6964,-0.13852,-0.38526,2.741,-0.11529,-0.66614,2.5982,-0.095208,-0.93142,2.6856,-0.11389,-0.98524,2.6215
-0.21303,-0.37875,2.734,-0.22258,-0.31105,2.7215,-0.29496,-0.019959,2.5777,-0.31019,0.14465,2.5744,-0.40293,-0.10523,2.6738,-0.45493,-0.19487,2.923,-0.48805,-0.35083,3.0803,-0.48848,-0.41037,3.0972,-0.14199,-0.091843,2.5848,0.042627,-0.19796,2.7515,0.17261,-0.36557,2.8398,0.19683,-0.41358,2.8183,-0.25758,-0.43971,2.7657,-0.37914,-0.68557,2.656,-0.34129,-0.96303,2.752,-0.36022,-1.0177,2.6887,-0.14423,-0.4327,2.7477,-0.11611,-0.69107,2.5828,-0.096569,-0.9539,2.6745,-0.067741,-1.014,2.6372
-0.22324,-0.41136,2.7275,-0.23289,-0.34559,2.7145,-0.30184,-0.056062,2.5771,-0.30969,0.12973,2.5735,-0.41073,-0.13522,2.6748,-0.4463,-0.26037,2.9125,-0.47373,-0.44393,3.0451,-0.51163,-0.48942,2.9933,-0.14341,-0.12258,2.5854,0.024244,-0.26599,2.7412,0.13975,-0.43761,2.8135,0.17155,-0.50025,2.8198,-0.27069,-0.47705,2.7566,-0.39671,-0.71331,2.6311,-0.34718,-0.97557,2.74,-0.36624,-1.0296,2.6762,-0.15213,-0.46162,2.7428,-0.12234,-0.70374,2.571,-0.10285,-0.96874,2.6582,-0.073245,-1.0213,2.626
-0.22194,-0.43572,2.7274,-0.23167,-0.36837,2.7135,-0.30334,-0.069833,2.5808,-0.31433,0.094628,2.5766,-0.41399,-0.18282,2.6979,-0.45085,-0.34758,2.9127,-0.47822,-0.54783,2.9734,-0.51756,-0.60269,2.9074,-0.1463,-0.16126,2.5888,0.0047106,-0.34911,2.7197,0.083807,-0.55846,2.7441,0.13539,-0.61125,2.7438,-0.2703,-0.50359,2.7598,-0.40288,-0.72491,2.6183,-0.33679,-0.96517,2.7536,-0.36651,-1.025,2.7219,-0.14735,-0.48814,2.7385,-0.13226,-0.72101,2.554,-0.1105,-0.96265,2.669,-0.092366,-1.0073,2.7393
-0.22722,-0.4489,2.7258,-0.23591,-0.38141,2.7117,-0.30166,-0.076865,2.5835,-0.31417,0.091158,2.5798,-0.41397,-0.18619,2.6977,-0.44803,-0.40383,2.8617,-0.49282,-0.61089,2.8433,-0.53782,-0.64093,2.7577,-0.14392,-0.16772,2.5916,-0.029926,-0.40529,2.6818,-0.0034104,-0.61401,2.6302,0.045365,-0.69828,2.6301,-0.27768,-0.51632,2.762,-0.3959,-0.70078,2.6208,-0.35147,-0.95165,2.7306,-0.37368,-1.0042,2.6667,-0.15511,-0.50415,2.7307,-0.1321,-0.73305,2.5421,-0.11265,-0.96995,2.6568,-0.13485,-1.0225,2.5929
-0.23383,-0.45079,2.7254,-0.23996,-0.38387,2.7121,-0.29316,-0.075003,2.6054,-0.31174,0.097459,2.5974,-0.4135,-0.18969,2.7016,-0.4507,-0.4285,2.8017,-0.50532,-0.58789,2.6553,-0.55964,-0.61419,2.5913,-0.14395,-0.16887,2.5944,-0.075901,-0.42973,2.6184,-0.10809,-0.605,2.4887,-0.045548,-0.68729,2.5236,-0.28681,-0.51668,2.7614,-0.39989,-0.69981,2.6166,-0.35168,-0.95119,2.7294,-0.37496,-1.0009,2.6636,-0.16684,-0.50833,2.7248,-0.1524,-0.71803,2.5132,-0.11653,-0.95731,2.6502,-0.1353,-1.0073,2.6606
-0.23661,-0.44518,2.7265,-0.24269,-0.37798,2.7153,-0.28775,-0.049274,2.6354,-0.30859,0.11515,2.619,-0.41529,-0.17779,2.714,-0.465,-0.39065,2.7311,-0.51999,-0.49966,2.534,-0.53501,-0.52774,2.4523,-0.14591,-0.15502,2.605,-0.10261,-0.36379,2.5623,-0.15971,-0.5086,2.4014,-0.10481,-0.59029,2.4253,-0.29119,-0.50947,2.7611,-0.40793,-0.72979,2.6017,-0.35927,-0.98691,2.7177,-0.38419,-1.0329,2.6497,-0.16928,-0.50214,2.7228,-0.162,-0.72623,2.5288,-0.12027,-0.97253,2.6479,-0.096581,-1.0185,2.5856
-0.24362,-0.41117,2.7302,-0.24909,-0.34408,2.725,-0.28722,-0.019736,2.6615,-0.30126,0.1579,2.6532,-0.41952,-0.15535,2.7114,-0.49395,-0.35459,2.6472,-0.51573,-0.33556,2.4069,-0.53111,-0.3948,2.3307,-0.14546,-0.12195,2.6174,-0.11303,-0.29901,2.4834,-0.18265,-0.37415,2.4573,-0.083438,-0.63309,2.5734,-0.29667,-0.48103,2.7622,-0.40216,-0.71665,2.614,-0.35692,-0.97876,2.7232,-0.42154,-0.98296,2.6385,-0.17771,-0.47102,2.718,-0.1669,-0.71185,2.5437,-0.12257,-0.95953,2.6591,-0.099056,-1.0033,2.5962
-0.24422,-0.36439,2.7391,-0.24978,-0.29761,2.7343,-0.28717,0.026334,2.6746,-0.29911,0.19781,2.6672,-0.41258,-0.080658,2.7031,-0.51304,-0.23958,2.573,-0.51864,-0.16284,2.3728,-0.49191,-0.21721,2.3265,-0.15272,-0.064083,2.6239,-0.084428,-0.21294,2.4645,-0.22619,-0.29062,2.3684,-0.11566,-0.56149,2.4748,-0.297,-0.42525,2.7684,-0.39855,-0.6902,2.6279,-0.35285,-0.95498,2.7307,-0.3727,-0.99801,2.6593,-0.17941,-0.42075,2.7268,-0.17201,-0.70103,2.5537,-0.12403,-0.95296,2.6609,-0.1381,-0.99837,2.6516
-0.24769,-0.30587,2.736,-0.25301,-0.23963,2.7317,-0.28373,0.084285,2.6785,-0.29339,0.25904,2.6823,-0.40396,-0.021738,2.6835,-0.45135,-0.21598,2.6402,-0.51317,0.082963,2.3679,-0.43774,0.092198,2.3243,-0.15978,0.0039482,2.6326,-0.20007,0.022487,2.3594,-0.2476,-0.17239,2.4146,-0.1347,-0.56885,2.5361,-0.30026,-0.36091,2.7606,-0.38862,-0.65808,2.6536,-0.35411,-0.94512,2.7307,-0.34511,-1.0007,2.7253,-0.18476,-0.35457,2.7232,-0.17245,-0.67259,2.578,-0.12582,-0.94268,2.6614,-0.1398,-0.98456,2.5881
-0.26747,-0.21541,2.7284,-0.27352,-0.14726,2.7252,-0.30877,0.18904,2.6828,-0.33033,0.33509,2.6996,-0.40368,0.063878,2.6923,-0.5515,0.042285,2.4914,-0.4959,0.25712,2.4248,-0.42048,0.26635,2.3812,-0.17174,0.079813,2.6343,-0.18357,0.16921,2.3825,-0.32579,0.33075,2.3588,-0.16442,-0.51347,2.5373,-0.31767,-0.26911,2.7473,-0.37881,-0.60667,2.6811,-0.34714,-0.94575,2.7487,-0.36414,-0.98656,2.6752,-0.2066,-0.26905,2.7186,-0.16824,-0.61954,2.6202,-0.12455,-0.92788,2.6699,-0.14156,-0.96869,2.5965
-0.26608,-0.10876,2.7065,-0.26908,-0.039669,2.7053,-0.28751,0.30372,2.6765,-0.30864,0.42188,2.7005,-0.44687,0.16434,2.722,-0.58956,0.094121,2.5448,-0.52587,0.25202,2.5156,-0.47506,0.3983,2.4782,-0.15745,0.18219,2.6416,-0.15518,0.29859,2.4151,-0.32569,0.44222,2.3999,-0.38671,0.45617,2.3711,-0.32208,-0.16751,2.7232,-0.36761,-0.55719,2.7122,-0.34867,-0.92399,2.759,-0.36465,-0.96291,2.6843,-0.20524,-0.16495,2.6953,-0.16055,-0.55838,2.6615,-0.12061,-0.93181,2.6825,-0.1366,-0.97072,2.6078
-0.26743,-0.021265,2.6996,-0.26947,0.042887,2.706,-0.28502,0.36573,2.7098,-0.29939,0.51538,2.7197,-0.42394,0.25208,2.729,-0.59986,0.21989,2.5777,-0.52153,0.4406,2.4738,-0.47848,0.46135,2.4939,-0.1493,0.2901,2.6625,-0.11153,0.37075,2.4465,-0.28878,0.49602,2.4041,-0.35838,0.5273,2.3613,-0.33168,-0.088886,2.706,-0.35262,-0.48222,2.7476,-0.35824,-0.87054,2.7485,-0.37587,-0.90621,2.6726,-0.19862,-0.083006,2.6861,-0.16218,-0.47748,2.6983,-0.12321,-0.90463,2.6793,-0.14084,-0.94029,2.6033
-0.27025,0.04004,2.6988,-0.27202,0.10455,2.7099,-0.2882,0.43201,2.7251,-0.29282,0.58758,2.7349,-0.43588,0.31606,2.7538,-0.61308,0.27322,2.5929,-0.54797,0.44353,2.4715,-0.52517,0.49109,2.4473,-0.14011,0.36355,2.691,-0.10039,0.43991,2.4662,-0.27381,0.55303,2.3862,-0.3528,0.58942,2.3637,-0.33403,-0.033299,2.703,-0.34183,-0.42303,2.7694,-0.35978,-0.8212,2.7582,-0.38005,-0.87628,2.6987,-0.2017,-0.023126,2.6813,-0.16516,-0.41626,2.7103,-0.14031,-0.82675,2.6739,-0.14567,-0.88138,2.6146
-0.26958,0.072053,2.7013,-0.27052,0.13984,2.7183,-0.2874,0.48571,2.748,-0.28092,0.66293,2.727,-0.41802,0.37087,2.7602,-0.61331,0.29698,2.6311,-0.5871,0.4363,2.4598,-0.53552,0.48689,2.4053,-0.14155,0.41358,2.702,-0.053392,0.45057,2.4916,-0.23514,0.54227,2.382,-0.28844,0.57472,2.355,-0.33066,0.0095953,2.7007,-0.34166,-0.37928,2.7712,-0.34081,-0.79577,2.7779,-0.35499,-0.84689,2.7283,-0.20291,0.015781,2.6841,-0.17577,-0.37887,2.707,-0.15973,-0.81056,2.6998,-0.16046,-0.88202,2.6662
-0.27421,0.13495,2.7106,-0.27401,0.1993,2.7308,-0.29114,0.53206,2.7542,-0.30974,0.69115,2.7272,-0.43636,0.41691,2.7814,-0.61424,0.29632,2.6685,-0.61307,0.40874,2.4521,-0.59279,0.445,2.3805,-0.14079,0.45832,2.7104,-0.034193,0.45321,2.5056,-0.17234,0.52821,2.3442,-0.23157,0.55075,2.3106,-0.33842,0.062632,2.7138,-0.34776,-0.32921,2.7689,-0.32352,-0.75232,2.7915,-0.3419,-0.78582,2.7147,-0.20576,0.073196,2.6887,-0.18755,-0.32349,2.6924,-0.1768,-0.72593,2.7202,-0.19518,-0.75943,2.6434
-0.28376,0.17249,2.7189,-0.28416,0.23624,2.741,-0.31084,0.56911,2.7602,-0.32027,0.72682,2.7276,-0.45536,0.47944,2.8003,-0.59643,0.32112,2.7214,-0.6397,0.37341,2.4465,-0.6325,0.3955,2.3888,-0.14321,0.48178,2.716,0.0052467,0.44438,2.5176,-0.14272,0.49605,2.287,-0.15751,0.50372,2.2548,-0.34577,0.10006,2.7234,-0.35757,-0.29341,2.7673,-0.30962,-0.67366,2.8076,-0.32887,-0.70751,2.7313,-0.2131,0.10442,2.6953,-0.18833,-0.29213,2.6814,-0.16476,-0.68563,2.7375,-0.1869,-0.74592,2.6792
-0.2888,0.18896,2.7232,-0.28838,0.25406,2.7477,-0.31235,0.59489,2.7649,-0.32623,0.75943,2.7335,-0.4577,0.49047,2.8048,-0.59286,0.32178,2.7556,-0.65209,0.31909,2.5324,-0.66092,0.33205,2.4404,-0.14604,0.50423,2.7243,-0.0044775,0.42075,2.5605,-0.059611,0.42542,2.2933,-0.1108,0.43387,2.2499,-0.35129,0.11566,2.7306,-0.36428,-0.27873,2.7684,-0.31511,-0.70508,2.8199,-0.33133,-0.77753,2.7936,-0.22036,0.12445,2.6978,-0.19128,-0.27121,2.6668,-0.16648,-0.64196,2.7413,-0.16845,-0.72745,2.7091
-0.2917,0.20409,2.7256,-0.29071,0.26832,2.7516,-0.31611,0.60629,2.7668,-0.32888,0.76955,2.7333,-0.46005,0.4949,2.8055,-0.58861,0.31881,2.7768,-0.63383,0.29213,2.5726,-0.65803,0.2886,2.4873,-0.14815,0.51684,2.7244,-0.0064373,0.41289,2.5875,0.005247,0.3506,2.3779,-0.031635,0.34014,2.2756,-0.35442,0.12764,2.7331,-0.38288,-0.26682,2.7648,-0.3149,-0.64419,2.8321,-0.3379,-0.73045,2.8081,-0.22185,0.13862,2.6999,-0.19188,-0.25685,2.665,-0.16817,-0.60323,2.765,-0.15587,-0.68847,2.7216
-0.29506,0.21295,2.7268,-0.29295,0.27682,2.7535,-0.31856,0.61206,2.7651,-0.33854,0.77965,2.7328,-0.46529,0.50502,2.8152,-0.57873,0.32168,2.8204,-0.63974,0.262,2.5964,-0.64754,0.23728,2.5154,-0.15039,0.5224,2.7243,0.0010444,0.40707,2.6227,0.0012264,0.30508,2.4015,-0.015802,0.27754,2.3253,-0.35767,0.13607,2.7362,-0.38649,-0.25892,2.7625,-0.31212,-0.63458,2.8392,-0.33892,-0.71696,2.8171,-0.22572,0.14814,2.6999,-0.19182,-0.24652,2.6587,-0.16452,-0.59908,2.7714,-0.14679,-0.6778,2.7401
-0.29756,0.21371,2.7272,-0.29502,0.27771,2.7547,-0.32396,0.61336,2.7638,-0.34795,0.78304,2.7311,-0.46655,0.50432,2.8205,-0.56626,0.3217,2.8604,-0.62791,0.22491,2.6338,-0.63525,0.19158,2.5593,-0.1545,0.52322,2.7241,-0.0016934,0.39816,2.63,0.016202,0.24772,2.4663,0.0040151,0.20169,2.3923,-0.35939,0.13674,2.7382,-0.39197,-0.25838,2.7606,-0.31213,-0.63536,2.8443,-0.33996,-0.71636,2.8182,-0.22932,0.14972,2.6992,-0.19223,-0.2438,2.6488,-0.15385,-0.58468,2.788,-0.14627,-0.66893,2.7491
-0.29976,0.21075,2.7273,-0.29704,0.27455,2.7549,-0.32801,0.60518,2.7601,-0.35722,0.77343,2.726,-0.46696,0.49673,2.8243,-0.55829,0.31035,2.8796,-0.61606,0.17207,2.6771,-0.62427,0.13045,2.6195,-0.15763,0.52081,2.7248,-0.013979,0.36223,2.6817,0.010281,0.19756,2.522,0.0083125,0.13787,2.4663,-0.36097,0.13362,2.7399,-0.39983,-0.26136,2.7569,-0.31411,-0.63458,2.8449,-0.3403,-0.71765,2.8175,-0.2315,0.14765,2.6988,-0.19312,-0.24493,2.6412,-0.14745,-0.58773,2.7937,-0.1441,-0.66962,2.7549
-0.3048,0.18624,2.7288,-0.30276,0.25012,2.7539,-0.33607,0.57554,2.7496,-0.37354,0.74018,2.7109,-0.46427,0.46775,2.8264,-0.54838,0.27767,2.8985,-0.59859,0.11069,2.7094,-0.59851,0.052852,2.6631,-0.16212,0.50215,2.7254,-0.01677,0.31254,2.695,0.0089959,0.12993,2.5656,0.0010655,0.064269,2.5229,-0.36494,0.10596,2.7473,-0.40784,-0.2893,2.7542,-0.32528,-0.65444,2.8312,-0.35039,-0.74188,2.804,-0.23613,0.12588,2.699,-0.19893,-0.26555,2.6314,-0.144,-0.60921,2.7903,-0.1426,-0.69188,2.741
-0.30826,0.14746,2.73,-0.306,0.21087,2.7544,-0.33974,0.53721,2.7514,-0.38631,0.68634,2.6963,-0.46843,0.41741,2.8354,-0.54037,0.23733,2.9221,-0.57534,0.051873,2.7621,-0.57426,-0.0097514,2.7191,-0.16417,0.45541,2.7278,-0.020854,0.25629,2.7125,-0.007679,0.058693,2.6086,-0.016142,-0.0079115,2.579,-0.3691,0.066253,2.7501,-0.41021,-0.32934,2.7533,-0.33155,-0.71036,2.8263,-0.36248,-0.79078,2.7865,-0.23757,0.081605,2.6975,-0.20152,-0.31009,2.6301,-0.14826,-0.65931,2.7685,-0.13736,-0.74769,2.7273
-0.31198,0.09577,2.7308,-0.30954,0.1589,2.7526,-0.34333,0.4793,2.7442,-0.38532,0.6555,2.6916,-0.47545,0.37494,2.8431,-0.53035,0.17754,2.932,-0.56131,-0.016177,2.7917,-0.55526,-0.091398,2.7631,-0.16506,0.41327,2.7243,-0.025301,0.19434,2.7387,-0.013685,-0.010619,2.648,-0.022606,-0.083148,2.6327,-0.37201,0.011898,2.7545,-0.40163,-0.38444,2.7622,-0.35206,-0.78437,2.798,-0.38807,-0.85783,2.7582,-0.24143,0.030894,2.6972,-0.20331,-0.36125,2.6357,-0.13991,-0.72827,2.753,-0.13747,-0.80955,2.6983
-0.31054,0.03682,2.73,-0.30906,0.10022,2.7494,-0.34653,0.41914,2.7385,-0.39375,0.58532,2.6823,-0.47634,0.32153,2.8453,-0.52355,0.10074,2.9449,-0.53591,-0.093467,2.8259,-0.52723,-0.15998,2.7984,-0.17223,0.34852,2.7196,-0.033016,0.12003,2.7449,-0.030605,-0.099737,2.6861,-0.03251,-0.16353,2.6781,-0.36947,-0.045325,2.7555,-0.40165,-0.44173,2.755,-0.36564,-0.84224,2.7757,-0.40071,-0.89727,2.7228,-0.23924,-0.02991,2.6965,-0.19885,-0.42322,2.6462,-0.14145,-0.82395,2.7274,-0.13706,-0.89766,2.6624
