-0.22701,-0.35543,2.5833,-0.22638,-0.29098,2.5893,-0.25573,0.0051085,2.5091,-0.25657,0.17496,2.4895,-0.39402,-0.10191,2.5764,-0.43043,-0.32201,2.6747,-0.48341,-0.49944,2.6881,-0.49658,-0.54889,2.691,-0.11056,-0.10216,2.4909,-0.027005,-0.32424,2.5182,0.016626,-0.50442,2.4464,0.024828,-0.56248,2.4252,-0.28502,-0.42109,2.615,-0.3676,-0.69481,2.5204,-0.36098,-0.94955,2.5744,-0.38011,-0.99124,2.5078,-0.16048,-0.41821,2.5727,-0.14578,-0.70349,2.4646,-0.097155,-0.95921,2.5045,-0.071139,-1.014,2.5473
-0.22425,-0.39115,2.5851,-0.22522,-0.32742,2.5863,-0.25769,-0.036294,2.4953,-0.24653,0.12805,2.4773,-0.39429,-0.12742,2.567,-0.4312,-0.349,2.664,-0.48136,-0.52534,2.688,-0.49607,-0.56892,2.6828,-0.10384,-0.1409,2.4848,-0.024117,-0.35145,2.5159,0.023637,-0.52994,2.4389,0.031889,-0.58425,2.4294,-0.28057,-0.45636,2.619,-0.37578,-0.71122,2.5045,-0.36369,-0.95653,2.5689,-0.38211,-1.0001,2.5033,-0.15766,-0.45448,2.5793,-0.15025,-0.7249,2.4399,-0.10049,-0.97256,2.496,-0.090071,-1.0009,2.4753
-0.22558,-0.42415,2.5815,-0.22621,-0.36041,2.579,-0.2543,-0.069646,2.4822,-0.25458,0.090503,2.4576,-0.38858,-0.14704,2.5562,-0.43074,-0.36574,2.6554,-0.4825,-0.5448,2.6791,-0.50027,-0.59594,2.6845,-0.10603,-0.17355,2.4758,-0.015209,-0.38728,2.5078,0.031114,-0.57715,2.439,0.038446,-0.63146,2.4316,-0.28067,-0.47897,2.6177,-0.37826,-0.72449,2.49,-0.36806,-0.96818,2.556,-0.36305,-1.0118,2.5193,-0.16226,-0.48773,2.5754,-0.15853,-0.73635,2.3981,-0.10426,-0.969,2.4732,-0.091432,-1,2.4705
-0.22177,-0.46354,2.5795,-0.22356,-0.40119,2.5738,-0.25369,-0.11556,2.4712,-0.2568,0.066239,2.4513,-0.39118,-0.20778,2.5469,-0.42956,-0.42458,2.652,-0.48412,-0.59823,2.6782,-0.49716,-0.62177,2.6553,-0.10766,-0.22066,2.4673,-0.018173,-0.41802,2.4959,0.032266,-0.60117,2.4378,0.04217,-0.65456,2.4249,-0.27984,-0.52938,2.6154,-0.39387,-0.75376,2.4642,-0.38221,-0.99619,2.5336,-0.40031,-1.0418,2.4694,-0.15448,-0.52476,2.5774,-0.15315,-0.72272,2.4223,-0.10261,-0.94416,2.4955,-0.12071,-0.98981,2.4313
-0.22373,-0.48087,2.5741,-0.22634,-0.4196,2.5666,-0.25621,-0.13858,2.4638,-0.25818,0.029184,2.4385,-0.39224,-0.23748,2.5387,-0.42886,-0.45061,2.6509,-0.4874,-0.62341,2.6703,-0.49994,-0.65866,2.6597,-0.10827,-0.2403,2.4615,-0.018248,-0.45632,2.4941,0.027768,-0.63425,2.4346,0.050986,-0.68518,2.4228,-0.2822,-0.54242,2.6118,-0.39092,-0.74989,2.4371,-0.34799,-1.014,2.5512,-0.4336,-1.0231,2.3796,-0.1554,-0.54293,2.5721,-0.1532,-0.7308,2.4125,-0.10365,-0.94428,2.4905,-0.1206,-0.99038,2.4263
-0.22231,-0.51018,2.5673,-0.22506,-0.44993,2.5576,-0.25538,-0.173,2.4527,-0.26047,0.0037427,2.426,-0.38905,-0.26323,2.5322,-0.42432,-0.4856,2.6284,-0.49526,-0.64566,2.6693,-0.51234,-0.66308,2.6454,-0.10888,-0.26995,2.4508,-0.025991,-0.49787,2.474,0.030863,-0.67072,2.431,0.050595,-0.73957,2.4203,-0.28126,-0.5718,2.6065,-0.38224,-0.74728,2.4432,-0.37746,-0.96489,2.5082,-0.39151,-1.0197,2.5094,-0.15302,-0.56855,2.5654,-0.15484,-0.74362,2.3953,-0.10417,-0.94591,2.4872,-0.12237,-0.99269,2.4238
-0.22595,-0.52473,2.5569,-0.22806,-0.46442,2.5478,-0.25539,-0.18564,2.4489,-0.26196,-0.012237,2.4181,-0.38845,-0.2817,2.5277,-0.42531,-0.50318,2.6253,-0.49775,-0.67594,2.6584,-0.50474,-0.72205,2.668,-0.11057,-0.2801,2.4443,-0.050718,-0.51336,2.449,0.0041527,-0.69065,2.4067,0.032803,-0.75062,2.3926,-0.28668,-0.5848,2.5951,-0.38303,-0.75009,2.4159,-0.34132,-0.9397,2.5417,-0.44033,-1.0261,2.3758,-0.15734,-0.58732,2.552,-0.15901,-0.7623,2.3823,-0.13726,-0.92604,2.4495,-0.12432,-0.99617,2.4199
-0.22784,-0.53185,2.5505,-0.22979,-0.47158,2.5408,-0.25553,-0.18949,2.4467,-0.26171,-0.015704,2.4137,-0.3879,-0.28324,2.5271,-0.42526,-0.50745,2.6194,-0.49932,-0.67442,2.6507,-0.50897,-0.71578,2.6554,-0.11393,-0.28478,2.4374,-0.058083,-0.51741,2.4289,-0.045475,-0.69276,2.3559,-0.01054,-0.75519,2.3336,-0.28871,-0.59049,2.5899,-0.38224,-0.75083,2.4111,-0.34194,-0.9401,2.5323,-0.36049,-0.98557,2.4699,-0.1594,-0.59388,2.5436,-0.16008,-0.76059,2.3732,-0.13807,-0.92376,2.4447,-0.12626,-0.99618,2.4134
-0.22847,-0.52676,2.5443,-0.23032,-0.46664,2.5344,-0.25281,-0.17861,2.4451,-0.25957,-0.0090901,2.4108,-0.38723,-0.27593,2.5249,-0.42373,-0.50538,2.5965,-0.51685,-0.65568,2.6225,-0.54918,-0.70043,2.6365,-0.11758,-0.27688,2.4319,-0.082826,-0.49941,2.3895,-0.062012,-0.67345,2.3084,-0.04886,-0.73552,2.2754,-0.28852,-0.58531,2.5839,-0.38033,-0.75283,2.4077,-0.33519,-0.9786,2.5534,-0.3542,-1.0236,2.4908,-0.16215,-0.58797,2.5345,-0.15847,-0.76085,2.3705,-0.10715,-0.9487,2.4752,-0.12848,-0.99326,2.4112
-0.22993,-0.49821,2.5326,-0.23074,-0.43659,2.5226,-0.24565,-0.14157,2.4401,-0.25276,0.017352,2.4155,-0.38826,-0.24065,2.519,-0.44255,-0.45719,2.6082,-0.52742,-0.62234,2.5811,-0.55417,-0.6709,2.5839,-0.1179,-0.24554,2.4254,-0.092034,-0.45413,2.3674,-0.10222,-0.617,2.2668,-0.089345,-0.67201,2.2288,-0.28979,-0.55742,2.5706,-0.36899,-0.75251,2.4421,-0.34191,-0.93769,2.5193,-0.36198,-0.98133,2.4561,-0.16634,-0.56181,2.5229,-0.15731,-0.75605,2.3728,-0.10824,-0.94793,2.4724,-0.13012,-0.99127,2.4078
-0.23766,-0.4471,2.5282,-0.23603,-0.38609,2.5191,-0.23807,-0.087571,2.4456,-0.24118,0.080254,2.432,-0.38304,-0.18162,2.5121,-0.45532,-0.39446,2.5953,-0.54528,-0.55423,2.5637,-0.56514,-0.60457,2.5623,-0.11895,-0.19861,2.4183,-0.11251,-0.39401,2.3445,-0.12497,-0.54019,2.2197,-0.12324,-0.58076,2.1886,-0.29812,-0.50438,2.5671,-0.37132,-0.76289,2.4384,-0.36235,-0.99795,2.5255,-0.40887,-1.022,2.4507,-0.17898,-0.51006,2.5142,-0.16139,-0.74008,2.3885,-0.10671,-0.94759,2.4738,-0.12978,-0.9893,2.4085
-0.23782,-0.38486,2.5262,-0.23571,-0.32229,2.518,-0.23449,-0.015608,2.4527,-0.23849,0.13653,2.4504,-0.3873,-0.11944,2.515,-0.48121,-0.32426,2.5906,-0.57209,-0.48412,2.5406,-0.59876,-0.53102,2.526,-0.11566,-0.13273,2.4148,-0.1191,-0.31157,2.3406,-0.15516,-0.42877,2.1888,-0.15857,-0.4745,2.1407,-0.29895,-0.44174,2.5629,-0.37152,-0.71899,2.4606,-0.35795,-0.9616,2.529,-0.38172,-1.0021,2.4632,-0.17923,-0.45406,2.5112,-0.15744,-0.736,2.395,-0.10256,-0.96523,2.4771,-0.088222,-1.0063,2.4558
-0.23744,-0.31947,2.5165,-0.2356,-0.25543,2.5116,-0.23222,0.061263,2.4655,-0.2344,0.21102,2.4697,-0.38706,-0.041231,2.5074,-0.51312,-0.2399,2.5643,-0.59526,-0.40748,2.5333,-0.62505,-0.43739,2.5192,-0.10947,-0.052063,2.4248,-0.12172,-0.22869,2.3526,-0.1898,-0.24497,2.1669,-0.19121,-0.34786,2.1308,-0.29905,-0.37586,2.5505,-0.36397,-0.68284,2.4864,-0.35324,-0.94425,2.5423,-0.37289,-0.98262,2.4739,-0.17899,-0.39066,2.4968,-0.14946,-0.68328,2.4271,-0.099467,-0.94241,2.4866,-0.11912,-0.98077,2.4182
-0.23979,-0.23359,2.5092,-0.23732,-0.16883,2.5067,-0.22942,0.15332,2.4753,-0.22525,0.31141,2.4881,-0.38407,0.051269,2.5094,-0.5197,-0.15612,2.5426,-0.62883,-0.30985,2.5262,-0.66051,-0.34998,2.5309,-0.11016,0.046092,2.432,-0.11533,-0.18771,2.3961,-0.21844,-0.11084,2.1767,-0.24162,-0.12137,2.1266,-0.3016,-0.29408,2.5381,-0.35426,-0.62537,2.5174,-0.35434,-0.93996,2.5469,-0.38124,-0.98879,2.5116,-0.18248,-0.29871,2.4882,-0.14482,-0.62772,2.4569,-0.090892,-0.93982,2.4977,-0.10964,-0.97649,2.4281
-0.24274,-0.1516,2.5071,-0.24005,-0.086298,2.509,-0.23184,0.24065,2.4957,-0.22039,0.39525,2.5013,-0.38808,0.12601,2.5179,-0.51853,-0.063233,2.5273,-0.63618,-0.21171,2.5127,-0.67725,-0.2495,2.5154,-0.10823,0.12191,2.4401,-0.1244,-0.10445,2.3935,-0.25439,-0.013547,2.1998,-0.26632,-0.01264,2.1411,-0.3049,-0.21477,2.5317,-0.33187,-0.57298,2.5555,-0.36237,-0.91412,2.5494,-0.38901,-0.9704,2.5295,-0.185,-0.21776,2.4829,-0.13155,-0.57817,2.4999,-0.082469,-0.89517,2.4937,-0.10103,-0.93005,2.4231
-0.24388,-0.081986,2.5048,-0.24099,-0.016451,2.5123,-0.2338,0.31453,2.5148,-0.22377,0.46086,2.5199,-0.38792,0.20277,2.5256,-0.51774,0.017607,2.5228,-0.63182,-0.13346,2.5127,-0.67342,-0.18242,2.5114,-0.10591,0.20213,2.456,-0.12463,-0.012038,2.4047,-0.28689,0.056007,2.1509,-0.19569,-0.16214,2.1813,-0.30627,-0.14399,2.5221,-0.32844,-0.52135,2.5821,-0.36634,-0.87309,2.5603,-0.383,-0.90646,2.4885,-0.18557,-0.14717,2.4812,-0.12596,-0.52611,2.5323,-0.076363,-0.87568,2.4905,-0.093016,-0.90904,2.4187
-0.24428,-0.038308,2.506,-0.24087,0.029667,2.5175,-0.23493,0.37003,2.526,-0.22571,0.51531,2.5266,-0.38672,0.25402,2.5357,-0.51897,0.05421,2.5223,-0.6313,-0.09822,2.5043,-0.66712,-0.13764,2.5033,-0.10351,0.2504,2.4629,-0.13596,0.045851,2.4051,-0.28839,0.095345,2.1591,-0.26165,0.019393,2.1827,-0.30607,-0.10306,2.5223,-0.32857,-0.48473,2.5865,-0.35852,-0.84494,2.6037,-0.3748,-0.8951,2.5555,-0.18682,-0.10266,2.4801,-0.12255,-0.47383,2.538,-0.071914,-0.85028,2.5109,-0.089161,-0.88307,2.439
-0.24761,0.011357,2.5053,-0.24283,0.074962,2.5212,-0.23485,0.40567,2.5356,-0.22562,0.55614,2.5281,-0.38997,0.28726,2.5427,-0.50295,0.10921,2.5288,-0.60708,-0.047185,2.4971,-0.64989,-0.1094,2.4934,-0.10806,0.29357,2.4691,-0.13166,0.088055,2.41,-0.26826,0.10712,2.2175,-0.30808,0.10216,2.1701,-0.31067,-0.052011,2.5187,-0.33171,-0.43453,2.594,-0.34844,-0.79293,2.6369,-0.36625,-0.82506,2.5648,-0.18967,-0.053364,2.4783,-0.12507,-0.42009,2.5357,-0.074754,-0.79562,2.545,-0.09257,-0.82775,2.473
-0.24844,0.038908,2.5034,-0.24359,0.10359,2.5235,-0.23968,0.44144,2.5438,-0.22582,0.58982,2.5303,-0.38897,0.31604,2.5467,-0.49853,0.11911,2.5297,-0.60135,-0.040479,2.4928,-0.63758,-0.10459,2.4986,-0.11023,0.32829,2.4767,-0.16634,0.12421,2.3884,-0.28323,0.093723,2.1983,-0.29367,0.093757,2.1927,-0.31073,-0.026144,2.5137,-0.33054,-0.40595,2.5952,-0.33686,-0.76349,2.6574,-0.35532,-0.83282,2.6353,-0.19014,-0.022548,2.477,-0.1282,-0.38439,2.5386,-0.088987,-0.73081,2.5499,-0.10641,-0.76249,2.4775
-0.24821,0.057507,2.503,-0.24326,0.12174,2.5263,-0.24253,0.45842,2.5457,-0.23045,0.60924,2.5346,-0.39286,0.33951,2.5518,-0.48872,0.13745,2.5314,-0.58042,-0.026863,2.4994,-0.61278,-0.090098,2.502,-0.11341,0.34803,2.4828,-0.18076,0.14897,2.3858,-0.25777,0.071697,2.2296,-0.26099,0.044052,2.2094,-0.31044,-0.0095835,2.5119,-0.32951,-0.38819,2.6012,-0.33415,-0.73157,2.6494,-0.35115,-0.76314,2.5769,-0.18916,-0.0055266,2.4771,-0.12999,-0.37056,2.5388,-0.099866,-0.71319,2.5488,-0.10756,-0.77122,2.4976
-0.24957,0.066454,2.5034,-0.2445,0.13071,2.5296,-0.24683,0.47104,2.5489,-0.23608,0.62225,2.529,-0.3952,0.34502,2.5523,-0.48665,0.13786,2.534,-0.55505,-0.036449,2.5084,-0.58163,-0.094742,2.5129,-0.11502,0.35537,2.4844,-0.16146,0.14314,2.3891,-0.2259,0.0054501,2.2694,-0.22834,-0.010654,2.2329,-0.31248,-0.00031641,2.5104,-0.3281,-0.37547,2.6029,-0.33217,-0.72018,2.6446,-0.34896,-0.75166,2.5721,-0.18908,0.003452,2.4784,-0.13207,-0.3621,2.5401,-0.10334,-0.70833,2.5474,-0.11188,-0.76281,2.4957
-0.25126,0.070446,2.5037,-0.24601,0.13466,2.5318,-0.24965,0.47591,2.5462,-0.24177,0.63053,2.5258,-0.39771,0.34789,2.5515,-0.47677,0.1292,2.5416,-0.53316,-0.049579,2.5149,-0.55847,-0.12081,2.5256,-0.1154,0.35852,2.4858,-0.13569,0.13948,2.41,-0.19273,-0.0066479,2.3017,-0.20293,-0.04198,2.2794,-0.31525,0.0039692,2.5095,-0.32727,-0.37174,2.6042,-0.33206,-0.7172,2.6424,-0.34821,-0.74882,2.5697,-0.18962,0.0067335,2.4804,-0.13332,-0.35879,2.5398,-0.10669,-0.70639,2.5447,-0.11424,-0.75998,2.4951
-0.25194,0.070418,2.5039,-0.24688,0.1351,2.5334,-0.25615,0.47353,2.5381,-0.2539,0.63526,2.5058,-0.40061,0.34452,2.5489,-0.46435,0.11433,2.5474,-0.51409,-0.07142,2.5279,-0.52245,-0.14465,2.5357,-0.11675,0.35829,2.4859,-0.11288,0.14198,2.4414,-0.15148,-0.032162,2.3538,-0.13089,-0.077954,2.3292,-0.31611,0.0033669,2.5094,-0.32702,-0.37314,2.6025,-0.33435,-0.7203,2.6296,-0.35335,-0.77986,2.5819,-0.18913,0.0061164,2.4834,-0.13547,-0.35915,2.5366,-0.1095,-0.70744,2.5401,-0.11791,-0.76485,2.482
-0.25109,0.065275,2.5062,-0.2475,0.13031,2.5343,-0.26098,0.46095,2.5262,-0.26396,0.62312,2.4942,-0.40347,0.33287,2.5443,-0.45527,0.093001,2.5533,-0.48454,-0.10287,2.5493,-0.50356,-0.17462,2.5578,-0.1162,0.35426,2.4858,-0.097087,0.11739,2.4589,-0.11289,-0.079638,2.3952,-0.091777,-0.12862,2.3884,-0.31584,-0.0050338,2.5113,-0.32919,-0.38782,2.5969,-0.33724,-0.72633,2.6231,-0.35527,-0.78663,2.5763,-0.18436,-0.0025277,2.4913,-0.13692,-0.36521,2.5348,-0.11619,-0.71517,2.5179,-0.13032,-0.74804,2.4453
-0.24942,0.031272,2.5137,-0.24899,0.096759,2.5367,-0.27032,0.42642,2.5163,-0.27477,0.59326,2.4706,-0.40706,0.30296,2.5338,-0.44589,0.057483,2.5546,-0.47145,-0.14837,2.5628,-0.49126,-0.21763,2.5754,-0.11612,0.32118,2.4811,-0.086927,0.08401,2.4731,-0.073682,-0.12354,2.4348,-0.0688,-0.18299,2.4281,-0.31403,-0.041064,2.5208,-0.33509,-0.40982,2.589,-0.35024,-0.76917,2.5918,-0.37296,-0.82665,2.5391,-0.18016,-0.033465,2.5014,-0.13583,-0.4038,2.5299,-0.11509,-0.74022,2.5072,-0.12054,-0.79767,2.4479
-0.24979,-0.0066381,2.5215,-0.25036,0.059284,2.5378,-0.27189,0.38019,2.4991,-0.28188,0.55077,2.452,-0.41259,0.25527,2.5265,-0.44111,0.021667,2.5556,-0.46067,-0.18596,2.5862,-0.47511,-0.2547,2.6085,-0.11642,0.27589,2.4757,-0.078231,0.03369,2.4928,-0.069551,-0.1367,2.4652,-0.057061,-0.20937,2.4739,-0.31494,-0.083398,2.5296,-0.34039,-0.46083,2.5824,-0.36331,-0.80657,2.5696,-0.38281,-0.86186,2.5247,-0.17744,-0.078763,2.5193,-0.13232,-0.45799,2.5327,-0.1093,-0.80343,2.4713,-0.12045,-0.83958,2.3998
-0.25,-0.073521,2.5272,-0.25235,-0.005865,2.5366,-0.27556,0.31988,2.4778,-0.28237,0.49353,2.4312,-0.4132,0.19282,2.5115,-0.42928,-0.038684,2.5636,-0.46016,-0.20959,2.6135,-0.45811,-0.29419,2.6244,-0.1243,0.22356,2.4689,-0.074595,-0.0063954,2.5114,-0.076326,-0.1928,2.4862,-0.043002,-0.23057,2.5196,-0.31273,-0.1448,2.5398,-0.34112,-0.51518,2.58,-0.36779,-0.865,2.5568,-0.37661,-0.90348,2.4861,-0.1798,-0.13791,2.528,-0.12658,-0.50837,2.5259,-0.093659,-0.85374,2.4694,-0.10248,-0.89221,2.3988
-0.24658,-0.1342,2.5265,-0.25097,-0.06773,2.532,-0.27759,0.24998,2.4655,-0.28457,0.41993,2.4137,-0.40971,0.13128,2.495,-0.42919,-0.073028,2.5583,-0.43055,-0.2677,2.6125,-0.42832,-0.40847,2.6633,-0.12021,0.15285,2.4667,-0.087618,-0.042049,2.5321,-0.050349,-0.22988,2.5396,-0.023688,-0.30015,2.5547,-0.30734,-0.20368,2.5403,-0.33643,-0.56802,2.5757,-0.36724,-0.91406,2.5595,-0.37268,-0.95367,2.4892,-0.17641,-0.19773,2.5302,-0.12512,-0.54469,2.5229,-0.077923,-0.89097,2.4915,-0.083366,-0.93058,2.4211
