-0.12448,-0.38724,1.9732,-0.13143,-0.32561,1.96,-0.18354,-0.058514,1.8339,-0.17996,0.1257,1.8477,-0.28532,-0.17243,1.9095,-0.29138,-0.37102,1.9713,-0.32678,-0.37378,1.7235,-0.33289,-0.36556,1.6372,-0.033387,-0.16616,1.836,0.025504,-0.36668,1.8593,-0.033022,-0.47485,1.7122,-0.06258,-0.49004,1.6528,-0.17009,-0.44392,2.0111,-0.31212,-0.70783,1.9268,-0.3106,-0.90398,1.9147,-0.29292,-0.89394,2.0045,-0.062903,-0.43922,1.9814,0.0033185,-0.67731,1.8517,0.0083917,-0.92347,1.9668,0.055388,-0.99,1.9656
-0.13337,-0.39195,1.9631,-0.13718,-0.33151,1.9532,-0.18145,-0.060452,1.8384,-0.17665,0.12644,1.8521,-0.28678,-0.17116,1.9042,-0.28059,-0.36705,1.9437,-0.31865,-0.33276,1.727,-0.32648,-0.2637,1.631,-0.038517,-0.16554,1.8339,0.016129,-0.35083,1.8082,-0.058477,-0.39394,1.6418,-0.093272,-0.38968,1.5848,-0.17833,-0.45321,1.9932,-0.31845,-0.7195,1.9109,-0.18122,-0.62583,2.0157,-0.29287,-0.89392,2.0049,-0.081739,-0.43813,1.965,0.0094128,-0.70575,1.8356,0.007349,-0.92678,1.965,0.048369,-0.9863,1.9602
-0.14109,-0.38485,1.9635,-0.14454,-0.3244,1.9536,-0.17455,-0.038342,1.8508,-0.17147,0.14455,1.8722,-0.29277,-0.14595,1.8969,-0.29885,-0.31648,1.8681,-0.33553,-0.18671,1.6823,-0.3188,-0.12335,1.6691,-0.030164,-0.15261,1.8299,0.019229,-0.31595,1.7499,-0.053437,-0.30859,1.5952,-0.083049,-0.28627,1.5499,-0.19412,-0.44072,1.9973,-0.30684,-0.71982,1.9038,-0.32137,-0.93382,1.9896,-0.33996,-0.96886,1.7498,-0.082994,-0.43715,1.9633,0.011574,-0.70449,1.8329,0.0069535,-0.92812,1.959,0.047593,-0.98482,1.959
-0.14481,-0.33924,1.9541,-0.14657,-0.28186,1.948,-0.16484,-0.0051801,1.8704,-0.16375,0.16973,1.8821,-0.29668,-0.089473,1.8787,-0.33145,-0.26657,1.8358,-0.35991,-0.079147,1.641,-0.33894,-0.087633,1.6809,-0.030174,-0.11036,1.8202,0.034207,-0.23769,1.6883,-0.049848,-0.19322,1.5571,-0.085073,-0.16338,1.5099,-0.19761,-0.39844,1.9853,-0.30483,-0.68247,1.8901,-0.30822,-0.88998,1.9929,-0.3065,-0.81197,1.8553,-0.086415,-0.39788,1.9485,0.0038054,-0.67459,1.8373,0.0080895,-0.92877,1.9601,0.047958,-0.98436,1.9584
-0.14399,-0.29867,1.9384,-0.14334,-0.23969,1.9342,-0.14988,0.044557,1.8743,-0.14562,0.21937,1.8947,-0.28535,-0.061693,1.8812,-0.44689,-0.14595,1.7315,-0.37402,0.025209,1.6755,-0.36121,0.081076,1.672,-0.03485,-0.048425,1.8142,0.04421,-0.12709,1.6513,-0.031268,-0.061762,1.5151,-0.061015,-0.020819,1.4811,-0.20202,-0.35136,1.9604,-0.29916,-0.65507,1.892,-0.31008,-0.87012,1.9836,-0.32796,-0.9034,1.9237,-0.085083,-0.35547,1.9329,-0.001192,-0.64151,1.8444,0.009417,-0.91776,1.9511,0.044238,-0.9787,1.9514
-0.1612,-0.22458,1.9265,-0.15881,-0.16558,1.924,-0.15625,0.12458,1.8762,-0.18131,0.25833,1.8965,-0.29565,0.036448,1.8874,-0.47753,-0.0049604,1.7474,-0.38563,0.11197,1.7482,-0.35213,0.16931,1.7382,-0.046381,0.0088461,1.8192,0.038511,0.022482,1.6036,-0.075148,0.15711,1.5344,-0.11546,0.2025,1.5227,-0.21975,-0.27449,1.9519,-0.28639,-0.58655,1.8973,-0.31069,-0.86306,1.9804,-0.32809,-0.89543,1.9199,-0.10563,-0.2876,1.9135,-0.0054214,-0.59778,1.856,0.013152,-0.91672,1.9504,0.045384,-0.97662,1.9484
-0.17068,-0.10517,1.9071,-0.1693,-0.048311,1.9087,-0.17204,0.23436,1.8815,-0.19227,0.31789,1.8945,-0.35037,0.10451,1.8862,-0.47464,0.2041,1.7828,-0.37467,0.33058,1.6907,-0.35999,0.27761,1.6837,-0.029064,0.11688,1.8186,0.023587,0.18595,1.6037,-0.09914,0.30836,1.5346,-0.15045,0.36677,1.5251,-0.2262,-0.15877,1.9461,-0.27598,-0.52393,1.9133,-0.31452,-0.84569,1.9734,-0.33216,-0.87575,1.9117,-0.11542,-0.17848,1.8743,-0.019708,-0.53268,1.881,0.013095,-0.87631,1.9396,0.045092,-0.95042,1.9288
-0.17667,0.027129,1.8911,-0.17316,0.084578,1.8984,-0.16028,0.375,1.8913,-0.19333,0.45791,1.9042,-0.35727,0.29208,1.8849,-0.53988,0.22235,1.8072,-0.40602,0.37906,1.6737,-0.39963,0.43355,1.6507,-0.021991,0.24866,1.8161,-0.027206,0.27619,1.582,-0.089907,0.4177,1.5392,-0.13202,0.48008,1.5116,-0.24377,-0.031137,1.9183,-0.26365,-0.41586,1.9258,-0.30401,-0.72137,1.9483,-0.3006,-0.76334,1.9358,-0.11737,-0.05483,1.8602,-0.041054,-0.42645,1.8919,0.023477,-0.72359,1.8754,0.010352,-0.75553,1.8081
-0.18595,0.13185,1.8839,-0.17875,0.16666,1.8913,-0.15733,0.3447,1.8797,-0.1898,0.45818,1.9055,-0.35445,0.37512,1.9074,-0.5162,0.40531,1.8053,-0.4671,0.53923,1.6746,-0.47143,0.59466,1.6408,0.010806,0.39268,1.8295,0.0068555,0.43586,1.6443,-0.0726,0.56223,1.5143,-0.10979,0.58914,1.4999,-0.26327,0.070364,1.9058,-0.24837,-0.34843,1.9347,-0.31549,-0.64951,1.9576,-0.33207,-0.68056,1.8902,-0.13472,0.042903,1.8563,-0.055213,-0.36568,1.9067,0.01849,-0.66594,1.8776,0.0033103,-0.70107,1.8052
-0.18467,0.13867,1.8801,-0.17595,0.18224,1.8888,-0.15829,0.43808,1.8834,-0.10536,0.64046,1.91,-0.2947,0.43575,1.9116,-0.48667,0.53704,1.8136,-0.53654,0.69351,1.7153,-0.55442,0.72772,1.6728,-0.036698,0.40778,1.8265,0.006383,0.53721,1.6652,-0.062861,0.64192,1.517,0.045357,0.75013,1.5203,-0.24989,0.084771,1.8995,-0.26992,-0.33348,1.9382,-0.33134,-0.63504,1.9692,-0.352,-0.66612,1.9029,-0.1306,0.07747,1.8508,-0.054785,-0.33053,1.9082,0.017701,-0.63107,1.8981,-0.0029534,-0.66215,1.8318
-0.18373,0.14616,1.8745,-0.17693,0.20297,1.8835,-0.16843,0.50594,1.884,-0.14731,0.6548,1.914,-0.28451,0.4632,1.9126,-0.45208,0.5729,1.8416,-0.54437,0.7291,1.7915,-0.58807,0.76096,1.7723,-0.075022,0.47075,1.8479,0.0021626,0.60656,1.6927,0.08548,0.78603,1.634,0.10607,0.81957,1.5892,-0.23874,0.099542,1.8865,-0.27425,-0.31553,1.9414,-0.35356,-0.61083,1.9843,-0.37376,-0.64196,1.918,-0.13678,0.10391,1.8501,-0.053455,-0.30226,1.9079,0.02313,-0.6005,1.9154,0.002928,-0.63163,1.8491
-0.18194,0.17338,1.862,-0.17393,0.23226,1.8769,-0.16703,0.54818,1.8902,-0.1593,0.69686,1.9279,-0.28687,0.48685,1.9161,-0.44833,0.6358,1.8656,-0.57826,0.76786,1.8502,-0.62195,0.79972,1.8309,-0.084942,0.55184,1.8669,0.0495,0.68476,1.755,0.12763,0.8276,1.6701,-0.23173,0.74157,1.4492,-0.23502,0.12205,1.8722,-0.2815,-0.28958,1.941,-0.36819,-0.58258,1.985,-0.38977,-0.61283,1.9192,-0.13355,0.12453,1.8419,-0.047165,-0.27576,1.9059,0.028627,-0.57388,1.9184,0.0070469,-0.60414,1.8527
-0.17651,0.21769,1.8493,-0.17019,0.27531,1.8691,-0.16621,0.57561,1.8855,-0.16365,0.72173,1.9047,-0.28858,0.51361,1.9174,-0.45297,0.68333,1.9106,-0.59355,0.81599,1.8792,-0.63724,0.84785,1.8599,0.0021311,0.56793,1.8556,0.059356,0.72131,1.7688,0.13342,0.87408,1.7006,-0.23748,0.78154,1.4554,-0.2278,0.15974,1.8583,-0.28497,-0.24895,1.9339,-0.375,-0.54101,1.9794,-0.39323,-0.57057,1.912,-0.13045,0.16773,1.8274,-0.050664,-0.23767,1.8959,0.031939,-0.53307,1.9149,0.013703,-0.56262,1.8475
-0.17855,0.21914,1.8451,-0.17201,0.27802,1.8683,-0.17102,0.60066,1.8868,-0.1692,0.74994,1.9234,-0.28748,0.51059,1.9095,-0.45239,0.6838,1.9172,-0.61053,0.81101,1.9198,-0.65423,0.84287,1.9005,-0.00062981,0.57013,1.8532,0.062169,0.73128,1.7822,0.149,0.88451,1.7394,-0.25048,0.79838,1.4596,-0.22978,0.16248,1.8531,-0.28892,-0.24518,1.9321,-0.38241,-0.53574,1.9803,-0.39834,-0.56512,1.9125,-0.13263,0.1696,1.8217,-0.049571,-0.2348,1.8923,0.033639,-0.52979,1.9131,0.017714,-0.55917,1.8454
-0.18256,0.23828,1.8339,-0.17482,0.29629,1.8611,-0.17383,0.61032,1.886,-0.17033,0.75979,1.9203,-0.30096,0.52585,1.9197,-0.45477,0.68059,1.9241,-0.6262,0.81236,1.9417,-0.66989,0.84422,1.9225,-0.005707,0.56838,1.8476,0.064664,0.7399,1.7928,0.15163,0.88955,1.737,-0.25766,0.81061,1.4587,-0.23497,0.18205,1.8353,-0.29322,-0.22403,1.9236,-0.38772,-0.51388,1.9739,-0.40726,-0.54285,1.9068,-0.13599,0.18368,1.8097,-0.050841,-0.21988,1.883,0.036506,-0.51375,1.9029,0.016962,-0.54272,1.8357
-0.18867,0.22878,1.8275,-0.1796,0.29011,1.8583,-0.17342,0.61358,1.8833,-0.16345,0.76474,1.9211,-0.28879,0.52464,1.8943,-0.4642,0.67553,1.9335,-0.67538,0.79414,1.9521,-0.71906,0.826,1.9329,-0.0070718,0.56984,1.8438,0.077073,0.79504,1.7965,-0.20989,0.79136,1.5055,-0.25889,0.81734,1.4558,-0.23525,0.17601,1.8377,-0.29989,-0.23031,1.9207,-0.40006,-0.51844,1.9705,-0.41628,-0.54727,1.9021,-0.15017,0.17933,1.7968,-0.052904,-0.22064,1.8724,0.040133,-0.51331,1.8864,0.023917,-0.54214,1.8181
-0.18898,0.22806,1.8249,-0.18034,0.2877,1.8571,-0.17736,0.59104,1.8755,-0.16572,0.74244,1.9188,-0.29152,0.52324,1.8934,-0.47009,0.65043,1.9415,-0.61494,0.7687,1.9448,-0.72062,0.82366,1.9345,0.0025632,0.5884,1.8427,0.083968,0.80937,1.7946,-0.21364,0.79398,1.5036,-0.26263,0.81997,1.454,-0.23482,0.17405,1.8336,-0.30372,-0.23247,1.9118,-0.40803,-0.51966,1.9582,-0.42452,-0.54851,1.8899,-0.151,0.17899,1.7936,-0.051019,-0.22267,1.8572,0.043091,-0.51518,1.869,0.026603,-0.54403,1.8007
-0.19417,0.2242,1.816,-0.1839,0.28142,1.8497,-0.17893,0.5897,1.8723,-0.16106,0.74091,1.9074,-0.31428,0.50343,1.9037,-0.47553,0.64231,1.9375,-0.62666,0.74723,1.9545,-0.73443,0.80116,1.9715,5.0843e-05,0.56895,1.8342,0.080237,0.79632,1.7908,-0.21572,0.79116,1.501,-0.26472,0.81715,1.4514,-0.24429,0.16295,1.8274,-0.30951,-0.24514,1.897,-0.41584,-0.5313,1.9459,-0.43481,-0.55999,1.8784,-0.15704,0.17268,1.773,-0.056087,-0.2273,1.841,0.041653,-0.51879,1.8491,0.022687,-0.54748,1.7817
-0.20357,0.20046,1.7992,-0.19185,0.2524,1.8334,-0.17397,0.55284,1.8533,-0.17083,0.70118,1.89,-0.31757,0.46542,1.888,-0.47219,0.61105,1.9248,-0.61277,0.72924,1.9441,-0.65998,0.76324,1.9485,0.0079367,0.51686,1.8179,0.080975,0.74723,1.7759,-0.20172,0.75097,1.4802,-0.25071,0.77695,1.4306,-0.26131,0.1367,1.8135,-0.31371,-0.27478,1.8739,-0.42413,-0.55757,1.9302,-0.44229,-0.58633,1.8626,-0.15813,0.14744,1.7606,-0.062974,-0.25499,1.8232,0.040456,-0.54521,1.8173,0.022298,-0.57397,1.7496
-0.19313,0.17806,1.7918,-0.18289,0.22913,1.8267,-0.17689,0.51084,1.8359,-0.16527,0.65996,1.8745,-0.30939,0.42294,1.8707,-0.47757,0.57538,1.912,-0.60571,0.70549,1.9343,-0.64454,0.73118,1.9296,0.0067147,0.50457,1.8145,0.077321,0.68497,1.7472,0.14624,0.84736,1.7021,-0.24544,0.75021,1.418,-0.25226,0.11005,1.7862,-0.31631,-0.29863,1.8564,-0.42764,-0.58633,1.8921,-0.44501,-0.61514,1.8242,-0.13331,0.11002,1.7776,-0.054812,-0.30089,1.8124,0.053466,-0.58938,1.804,0.036093,-0.6182,1.7361
-0.20323,0.14375,1.7844,-0.19201,0.18829,1.8186,-0.18452,0.44207,1.8197,-0.17029,0.59373,1.8582,-0.35581,0.42806,1.8759,-0.52759,0.55176,1.9053,-0.64292,0.69547,1.912,-0.69061,0.75534,1.9372,-0.027766,0.38165,1.7795,0.070619,0.5997,1.7297,0.13295,0.76354,1.6785,-0.25932,0.68534,1.4011,-0.27452,0.071417,1.7949,-0.31148,-0.34321,1.8478,-0.42878,-0.63124,1.8689,-0.44749,-0.66019,1.8013,-0.15045,0.066893,1.7454,-0.059201,-0.33869,1.796,0.047723,-0.62805,1.7769,0.029009,-0.65699,1.7093
