-0.16685,-0.36716,2.6209,-0.178,-0.30853,2.6041,-0.25754,-0.072753,2.4461,-0.28634,0.062603,2.3941,-0.38145,-0.12202,2.5784,-0.40322,-0.12969,2.8501,-0.39041,-0.1987,3.0408,-0.39449,-0.22743,3.0947,-0.096729,-0.11041,2.4566,0.10299,-0.20394,2.64,0.14902,-0.36339,2.7588,0.165,-0.41243,2.7907,-0.21163,-0.43476,2.678,-0.2888,-0.70692,2.565,-0.25383,-0.96404,2.6511,-0.28917,-1.0272,2.6533,-0.086597,-0.42158,2.6298,-0.09002,-0.69293,2.4877,-0.059796,-0.96831,2.5481,-0.034093,-1.0224,2.5206
-0.16879,-0.41083,2.6187,-0.1802,-0.35088,2.6029,-0.25397,-0.1022,2.4531,-0.28816,-0.010227,2.3774,-0.38703,-0.20085,2.5755,-0.39454,-0.13207,2.8105,-0.36688,-0.15075,3.0514,-0.3596,-0.15066,3.1193,-0.069197,-0.19262,2.4717,0.10855,-0.2277,2.6443,0.1675,-0.37207,2.8176,0.18348,-0.42111,2.8494,-0.2234,-0.48874,2.6734,-0.28898,-0.72332,2.5515,-0.25811,-0.97197,2.6329,-0.25714,-1.0418,2.7285,-0.077801,-0.47622,2.6294,-0.096194,-0.70118,2.4788,-0.061773,-0.95649,2.5448,-0.029781,-1.0261,2.5315
-0.17446,-0.47221,2.6013,-0.18799,-0.41503,2.5843,-0.27183,-0.17179,2.441,-0.30132,-0.075544,2.3584,-0.37973,-0.24611,2.5831,-0.40737,-0.43796,2.7614,-0.42874,-0.50301,3.0234,-0.43586,-0.52469,3.1151,-0.074713,-0.24447,2.4712,0.10745,-0.25247,2.6811,0.028511,-0.49081,2.63,0.18664,-0.41928,2.8643,-0.22048,-0.54389,2.6734,-0.29741,-0.73293,2.5229,-0.25239,-0.95276,2.6408,-0.27002,-1.0273,2.6757,-0.085656,-0.53552,2.5984,-0.10399,-0.74906,2.4832,-0.062733,-0.95775,2.5559,-0.030634,-1.0513,2.5279
-0.1749,-0.53695,2.6079,-0.19046,-0.48172,2.5847,-0.28445,-0.25495,2.4195,-0.30144,-0.1293,2.3448,-0.37026,-0.3052,2.5309,-0.39766,-0.4977,2.7443,-0.3034,-0.1588,2.974,-0.42615,-0.58445,3.098,-0.11948,-0.2955,2.4299,0.050027,-0.30636,2.5794,0.011449,-0.49457,2.5862,0.16957,-0.3593,2.783,-0.21129,-0.58413,2.6731,-0.32856,-0.73608,2.4643,-0.22436,-0.99419,2.6766,-0.29547,-1.0381,2.6472,-0.10078,-0.58646,2.606,-0.072165,-0.80748,2.5124,-0.065193,-0.95792,2.5528,-0.10892,-1.0076,2.5567
-0.18161,-0.54517,2.6036,-0.19456,-0.49201,2.5782,-0.27809,-0.28194,2.4064,-0.30161,-0.14127,2.3373,-0.36737,-0.32901,2.5262,-0.39903,-0.51306,2.7401,-0.42039,-0.57813,3.0021,-0.42752,-0.59982,3.0938,-0.1249,-0.32045,2.4218,0.041444,-0.38074,2.5569,-0.16059,-0.67266,2.3837,0.16098,-0.43367,2.7605,-0.24247,-0.60103,2.6471,-0.32746,-0.76209,2.4044,-0.22033,-1.0002,2.6614,-0.29835,-1.0349,2.641,-0.10021,-0.59215,2.6208,-0.15445,-0.71837,2.3975,-0.051806,-0.93524,2.5583,-0.057324,-0.99837,2.532
-0.18175,-0.53675,2.6059,-0.19579,-0.48766,2.5791,-0.28052,-0.28828,2.4097,-0.29882,-0.14243,2.3362,-0.36888,-0.32901,2.522,-0.354,-0.35755,2.7828,-0.35319,-0.56724,2.5745,-0.42902,-0.59973,3.0918,-0.10815,-0.30686,2.4187,0.05671,-0.43506,2.602,-0.00047232,-0.60579,2.5627,0.15493,-0.63254,2.7715,-0.22663,-0.58231,2.663,-0.31428,-0.75584,2.4675,-0.22132,-0.9816,2.6534,-0.24385,-1.0214,2.6869,-0.1022,-0.58416,2.6202,-0.13316,-0.7867,2.4401,-0.083717,-0.9619,2.535,-0.053183,-1.0525,2.5178
-0.18009,-0.53148,2.5806,-0.19218,-0.48119,2.5581,-0.26572,-0.2572,2.3984,-0.2934,-0.11569,2.3348,-0.37248,-0.31994,2.5144,-0.35974,-0.44062,2.7186,-0.34586,-0.62057,2.4838,-0.43344,-0.58656,3.0815,-0.10643,-0.30027,2.4151,0.042438,-0.46022,2.5485,-0.024663,-0.64537,2.513,0.11848,-0.7189,2.6696,-0.23739,-0.59316,2.6249,-0.36328,-0.74566,2.4021,-0.22424,-0.96608,2.6428,-0.2343,-1.0378,2.6573,-0.095492,-0.57657,2.5959,-0.12942,-0.78602,2.4409,-0.081413,-0.96194,2.5352,-0.054883,-1.0478,2.513
-0.18036,-0.51065,2.554,-0.19113,-0.45745,2.5332,-0.2533,-0.21414,2.398,-0.28124,-0.061289,2.3474,-0.37503,-0.29749,2.5106,-0.37739,-0.50146,2.6885,-0.42635,-0.70449,2.7115,-0.44445,-0.75961,2.692,-0.10025,-0.28819,2.4101,-0.0099193,-0.49337,2.4606,-0.084084,-0.68393,2.4298,0.037869,-0.77377,2.5005,-0.23448,-0.57787,2.6106,-0.36653,-0.74805,2.4123,-0.25869,-0.95759,2.6109,-0.23549,-1.0359,2.6814,-0.10095,-0.56037,2.5498,-0.14157,-0.77867,2.4138,-0.11371,-0.93795,2.4979,-0.051547,-1.0348,2.5634
-0.20045,-0.49042,2.5528,-0.20654,-0.43187,2.5326,-0.25148,-0.15793,2.4057,-0.2809,-0.019573,2.3613,-0.38414,-0.24338,2.5028,-0.41304,-0.47111,2.6242,-0.4767,-0.66129,2.5476,-0.48601,-0.70769,2.5157,-0.0975,-0.2479,2.4018,-0.030621,-0.48182,2.3963,-0.052965,-0.68712,2.3322,-0.065118,-0.72474,2.2988,-0.25823,-0.55047,2.6095,-0.34016,-0.7841,2.4329,-0.25631,-0.95228,2.6109,-0.27606,-1.0161,2.5994,-0.12806,-0.55298,2.5469,-0.13187,-0.78396,2.4555,-0.081314,-0.96129,2.5349,-0.062401,-1.0425,2.5066
-0.19817,-0.42978,2.5488,-0.20574,-0.37135,2.531,-0.25184,-0.095916,2.4161,-0.28156,0.056577,2.3841,-0.39748,-0.19987,2.5009,-0.45783,-0.40216,2.5574,-0.52405,-0.52427,2.383,-0.52636,-0.57985,2.3712,-0.10633,-0.17753,2.3918,-0.064624,-0.3932,2.3363,-0.096948,-0.5654,2.206,-0.10615,-0.60752,2.1804,-0.25472,-0.49853,2.5972,-0.32893,-0.76182,2.4606,-0.26753,-0.97158,2.5959,-0.24661,-1.0192,2.5745,-0.12277,-0.49019,2.5464,-0.15276,-0.76153,2.4104,-0.084154,-0.98399,2.5292,-0.067614,-1.0429,2.5072
-0.19131,-0.3715,2.549,-0.20075,-0.31159,2.5316,-0.25562,-0.026273,2.4229,-0.27766,0.12294,2.4002,-0.40794,-0.13065,2.493,-0.498,-0.31683,2.5257,-0.52948,-0.40511,2.3012,-0.54831,-0.43966,2.2551,-0.10691,-0.11181,2.3773,-0.070651,-0.30989,2.285,-0.14668,-0.41459,2.1047,-0.17098,-0.43104,2.0674,-0.24127,-0.44008,2.5992,-0.31605,-0.71562,2.4898,-0.25812,-0.94569,2.6057,-0.28222,-1.0005,2.5369,-0.11833,-0.43449,2.5425,-0.14425,-0.72069,2.4261,-0.073409,-0.95598,2.5382,-0.097512,-1.0108,2.4693
-0.19698,-0.30013,2.5499,-0.20662,-0.23939,2.5334,-0.26239,0.052435,2.4329,-0.2809,0.19667,2.4163,-0.41456,-0.049835,2.4954,-0.51817,-0.23112,2.515,-0.52448,-0.20381,2.2551,-0.52705,-0.25792,2.228,-0.10871,-0.028457,2.3677,-0.041026,-0.20224,2.2495,-0.16977,-0.24792,2.0749,-0.22586,-0.26286,2.0296,-0.24465,-0.37233,2.5982,-0.31131,-0.67716,2.5021,-0.25791,-0.9412,2.6078,-0.28116,-1.0082,2.6006,-0.12562,-0.36433,2.5422,-0.12915,-0.67129,2.4366,-0.076846,-0.93712,2.5283,-0.10302,-0.99061,2.4591
-0.20893,-0.22041,2.5354,-0.21703,-0.15905,2.5213,-0.26535,0.13867,2.4355,-0.28375,0.28728,2.4299,-0.42114,0.046599,2.5021,-0.52578,-0.126,2.544,-0.51079,-0.056684,2.3246,-0.51142,-0.022188,2.2535,-0.11536,0.059789,2.3616,-0.019089,-0.096363,2.2396,-0.20229,-0.12999,2.1114,-0.24853,-0.15082,2.0806,-0.26073,-0.29747,2.5847,-0.30534,-0.62973,2.5184,-0.25791,-0.93539,2.6145,-0.28783,-0.98647,2.545,-0.13675,-0.28418,2.5209,-0.11989,-0.63248,2.4522,-0.074597,-0.93512,2.533,-0.10452,-0.9862,2.4635
-0.21867,-0.12136,2.516,-0.22541,-0.059445,2.506,-0.26629,0.24418,2.4438,-0.29288,0.39464,2.4458,-0.4284,0.1377,2.5294,-0.51169,-0.04035,2.5859,-0.47814,0.015856,2.3611,-0.4865,0.0019394,2.353,-0.11388,0.16103,2.3773,-0.01155,0.011144,2.2521,-0.18054,-0.064239,2.1314,-0.21325,-0.089385,2.1292,-0.2724,-0.19997,2.5633,-0.29965,-0.57064,2.5374,-0.26259,-0.92969,2.6171,-0.29275,-0.98703,2.5895,-0.14695,-0.19413,2.4938,-0.10161,-0.56973,2.4785,-0.068036,-0.93171,2.534,-0.10017,-0.97923,2.463
-0.2287,-0.049391,2.4995,-0.2343,0.011963,2.4934,-0.26877,0.31518,2.4534,-0.30072,0.48218,2.4639,-0.42384,0.22745,2.5492,-0.48951,0.060277,2.6427,-0.47258,0.025064,2.4155,-0.49603,0.024633,2.3617,-0.11128,0.25093,2.392,-0.010329,0.076949,2.3235,-0.15749,-0.041919,2.2034,-0.20282,-0.084483,2.1951,-0.28381,-0.13025,2.5404,-0.29031,-0.5223,2.5577,-0.30019,-0.89846,2.5964,-0.33465,-0.94299,2.5247,-0.1583,-0.1223,2.4733,-0.088675,-0.52008,2.5122,-0.042586,-0.90824,2.5217,-0.077047,-0.95278,2.45
-0.23693,-0.0013013,2.4837,-0.24144,0.060745,2.4817,-0.27032,0.37196,2.4646,-0.30158,0.53773,2.4721,-0.42305,0.30518,2.5727,-0.44831,0.12093,2.6544,-0.47137,0.014098,2.4603,-0.49768,-0.0083794,2.4103,-0.12695,0.31405,2.407,-0.059679,0.098839,2.3456,-0.16655,-0.068509,2.2539,-0.2127,-0.13519,2.2403,-0.29286,-0.074849,2.5114,-0.30174,-0.47149,2.5631,-0.31069,-0.84186,2.6001,-0.34952,-0.88361,2.5291,-0.16936,-0.070384,2.455,-0.090297,-0.46311,2.5138,-0.010341,-0.85636,2.5589,0.0028213,-0.93013,2.5279
-0.24531,0.034151,2.4684,-0.24834,0.1071,2.4711,-0.27087,0.47498,2.475,-0.30835,0.61416,2.4789,-0.40261,0.3656,2.5584,-0.39155,0.15814,2.6547,-0.47456,-0.0054471,2.5368,-0.50352,-0.04895,2.506,-0.13737,0.34743,2.414,-0.076641,0.1149,2.3684,-0.15873,-0.07636,2.311,-0.19425,-0.12708,2.3069,-0.30229,-0.034132,2.4915,-0.31922,-0.42962,2.5328,-0.30121,-0.79163,2.6253,-0.32745,-0.85256,2.5825,-0.18268,-0.027336,2.4389,-0.077382,-0.41373,2.4985,0.0051467,-0.75229,2.6302,0.026875,-0.83756,2.6189
-0.24415,0.07386,2.4622,-0.2468,0.14358,2.4696,-0.27395,0.49721,2.4825,-0.30876,0.65818,2.4851,-0.40042,0.39359,2.5639,-0.37833,0.16411,2.6591,-0.46313,-0.022753,2.5987,-0.48951,-0.055715,2.5795,-0.15161,0.39557,2.4184,-0.072248,0.18295,2.4007,-0.18191,-0.0010233,2.3511,-0.20321,-0.037535,2.3489,-0.29648,0.0029538,2.4841,-0.34291,-0.35517,2.4732,-0.29229,-0.68611,2.6315,-0.33275,-0.72442,2.56,-0.18512,0.022231,2.4289,-0.090465,-0.34582,2.443,0.0021423,-0.62437,2.6604,-0.038323,-0.66268,2.5889
-0.24474,0.09432,2.4583,-0.24609,0.1656,2.4672,-0.27227,0.52382,2.481,-0.30867,0.67455,2.4871,-0.40024,0.40606,2.5628,-0.37515,0.16638,2.6602,-0.4503,-0.044966,2.6494,-0.44979,-0.069443,2.6501,-0.14881,0.40707,2.4146,-0.073135,0.18124,2.3997,-0.18506,-0.0044084,2.3484,-0.20637,-0.040929,2.3462,-0.29727,0.018548,2.4831,-0.3591,-0.29179,2.4275,-0.31701,-0.56511,2.5819,-0.35775,-0.60322,2.5104,-0.18496,0.038542,2.4233,-0.10985,-0.26755,2.3883,-0.016425,-0.4798,2.6659,-0.057165,-0.51791,2.5944
-0.24221,0.12123,2.4576,-0.24306,0.19131,2.4689,-0.27176,0.54686,2.4829,-0.30384,0.69785,2.4858,-0.4016,0.42081,2.5533,-0.37507,0.16793,2.6587,-0.40136,-0.042377,2.6791,-0.41267,-0.072309,2.7008,-0.14354,0.43832,2.4118,-0.074813,0.19446,2.3942,-0.1522,0.0067624,2.3168,-0.17591,-0.022077,2.3253,-0.29884,0.047175,2.477,-0.36912,-0.26082,2.4019,-0.3246,-0.54258,2.565,-0.36319,-0.58038,2.4924,-0.17741,0.069134,2.4273,-0.12418,-0.23983,2.371,-0.031144,-0.38613,2.676,-0.044368,-0.44253,2.6207
-0.25901,0.14918,2.4533,-0.25615,0.21788,2.4662,-0.27061,0.56312,2.4775,-0.30352,0.71166,2.4821,-0.40691,0.43019,2.5442,-0.3801,0.17783,2.6516,-0.40999,0.016312,2.6055,-0.36082,-0.053778,2.719,-0.14209,0.44384,2.4102,-0.074365,0.19899,2.3837,-0.17057,0.007178,2.2967,-0.18433,-0.022122,2.253,-0.32236,0.078027,2.48,-0.3713,-0.25424,2.3955,-0.32895,-0.55348,2.5373,-0.36538,-0.59075,2.4632,-0.19362,0.084343,2.4153,-0.13257,-0.22611,2.3593,-0.0051194,-0.34214,2.7037,-0.0011428,-0.40384,2.744
-0.26077,0.15374,2.4492,-0.25692,0.22274,2.464,-0.26978,0.57248,2.473,-0.30247,0.72038,2.481,-0.41016,0.43813,2.5361,-0.39014,0.20061,2.6274,-0.37506,0.0029534,2.6938,-0.36347,-0.027042,2.7085,-0.14484,0.45109,2.4059,-0.066702,0.23632,2.3682,-0.1605,0.047817,2.281,-0.17719,9.8579e-05,2.2497,-0.32552,0.083419,2.4739,-0.37277,-0.25597,2.391,-0.33492,-0.61068,2.5017,-0.37045,-0.6479,2.4272,-0.19537,0.089448,2.4126,-0.13906,-0.22221,2.3474,-0.051898,-0.29896,2.6486,-0.06304,-0.37116,2.659
-0.26444,0.15275,2.4444,-0.25958,0.22168,2.4611,-0.27176,0.57262,2.47,-0.30222,0.72107,2.4791,-0.41495,0.43834,2.5331,-0.39363,0.19977,2.6268,-0.37258,0.0019151,2.6906,-0.36489,-0.056925,2.7057,-0.14799,0.45141,2.4028,-0.071393,0.2242,2.3577,-0.15963,0.046279,2.2658,-0.19173,0.021668,2.2222,-0.3291,0.081423,2.4689,-0.37448,-0.27003,2.3827,-0.34202,-0.63289,2.4711,-0.37291,-0.70088,2.4243,-0.19936,0.089599,2.4077,-0.15024,-0.23237,2.3369,-0.061151,-0.44173,2.6175,-0.071371,-0.47287,2.5782
-0.27158,0.14414,2.4345,-0.26528,0.21352,2.4547,-0.27385,0.56933,2.4659,-0.30211,0.71974,2.4788,-0.42112,0.4331,2.5205,-0.39944,0.19568,2.6254,-0.37231,-0.0056436,2.6759,-0.36888,-0.065769,2.687,-0.14924,0.44915,2.4001,-0.073604,0.22435,2.3536,-0.15989,0.052044,2.2483,-0.19199,0.037412,2.2239,-0.33739,0.07228,2.4566,-0.37614,-0.3253,2.3752,-0.34642,-0.69219,2.4338,-0.36768,-0.78164,2.3991,-0.20681,0.081717,2.3988,-0.15349,-0.29104,2.3416,-0.063416,-0.54731,2.5842,-0.096402,-0.5838,2.5079
-0.27584,0.12292,2.4213,-0.27003,0.1909,2.4431,-0.28337,0.54264,2.4527,-0.30894,0.68321,2.4583,-0.42578,0.42448,2.5145,-0.4093,0.1747,2.619,-0.38707,-0.03581,2.6236,-0.3995,-0.056485,2.6233,-0.14919,0.43673,2.3943,-0.07485,0.21754,2.3462,-0.16213,0.052954,2.2289,-0.19892,0.030069,2.2003,-0.34099,0.048562,2.4432,-0.36864,-0.35431,2.3755,-0.35007,-0.73102,2.3987,-0.37781,-0.82091,2.3635,-0.21045,0.059318,2.3839,-0.15496,-0.34338,2.349,-0.071686,-0.65203,2.5311,-0.070575,-0.72293,2.4911
-0.28241,0.088096,2.4054,-0.27666,0.15483,2.4303,-0.29408,0.50176,2.4434,-0.31092,0.66508,2.4605,-0.43344,0.38898,2.4998,-0.41798,0.15316,2.6103,-0.40044,-0.057974,2.6151,-0.48759,-0.021098,2.3596,-0.159,0.39489,2.3809,-0.074897,0.18108,2.3318,-0.17693,0.033401,2.2034,-0.22369,-0.0060532,2.1662,-0.34684,0.016507,2.4255,-0.36505,-0.3884,2.3689,-0.35752,-0.78291,2.3798,-0.39056,-0.83994,2.3273,-0.21585,0.02464,2.3689,-0.16414,-0.37914,2.3482,-0.092917,-0.72174,2.4737,-0.079339,-0.82122,2.4436
-0.27999,0.039601,2.3904,-0.27768,0.10497,2.4193,-0.29401,0.45159,2.4367,-0.3179,0.6037,2.4418,-0.43476,0.32981,2.4872,-0.43817,0.13175,2.5934,-0.42238,-0.085291,2.5897,-0.42353,-0.13277,2.4441,-0.14978,0.37093,2.4093,-0.083591,0.13382,2.3258,-0.17524,-0.00681,2.1834,-0.23191,-0.044159,2.1371,-0.34467,-0.042013,2.403,-0.3639,-0.44776,2.3571,-0.36046,-0.83569,2.3734,-0.38874,-0.88891,2.3232,-0.21326,-0.014361,2.3593,-0.17227,-0.41959,2.3405,-0.10943,-0.81896,2.4018,-0.12852,-0.87059,2.345
