-0.02471,-0.21471,2.2162,-0.023383,-0.15783,2.2131,-0.070615,0.066237,2.0869,-0.063739,0.23533,2.0691,-0.19269,0.030932,2.2165,-0.25133,-0.052664,2.3381,-0.23692,-0.25549,2.2293,-0.24427,-0.31117,2.2182,0.078589,0.020192,2.0994,0.30276,0.0093837,2.1959,0.33268,-0.17251,2.2007,0.32877,-0.20395,2.1978,-0.076913,-0.27662,2.2551,-0.15666,-0.59085,2.2471,-0.20126,-0.88889,2.2774,-0.22526,-0.9371,2.224,0.04082,-0.27653,2.2211,0.13268,-0.57945,2.1935,0.20336,-0.85212,2.1876,0.20611,-0.91341,2.1424
-0.02209,-0.26866,2.2225,-0.025609,-0.2147,2.2084,-0.074464,0.0037676,2.0641,-0.070725,0.168,2.0414,-0.1697,-0.0238,2.1609,-0.22335,-0.091506,2.3192,-0.24637,-0.21672,2.2736,-0.22709,-0.37192,2.2288,0.079424,-0.035588,2.0824,0.29986,-0.014674,2.2099,0.33489,-0.19514,2.2192,0.33507,-0.25227,2.2227,-0.061436,-0.31993,2.2693,-0.17071,-0.62445,2.2516,-0.20499,-0.88462,2.2755,-0.22108,-0.93586,2.2244,0.035688,-0.32133,2.232,0.14249,-0.60717,2.1779,0.20144,-0.85408,2.1839,0.21372,-0.91533,2.1386
-0.01993,-0.30875,2.2154,-0.024106,-0.25969,2.1979,-0.072581,-0.057801,2.0498,-0.077275,0.11137,2.0249,-0.16322,-0.090804,2.1517,-0.2129,-0.19764,2.2554,-0.24948,-0.24025,2.288,-0.21853,-0.43559,2.2001,0.073745,-0.095955,2.0714,0.28574,-0.078722,2.2195,0.33322,-0.2543,2.2415,0.34383,-0.31051,2.2432,-0.051858,-0.36241,2.2752,-0.18462,-0.65317,2.2535,-0.20594,-0.88484,2.2751,-0.2206,-0.93785,2.2269,0.032823,-0.36439,2.2173,0.15624,-0.64028,2.163,0.19889,-0.85457,2.1759,0.21382,-0.91602,2.1329
-0.016967,-0.3704,2.2283,-0.022415,-0.31941,2.2064,-0.074377,-0.11212,2.046,-0.081035,0.067446,2.0113,-0.16002,-0.15496,2.1386,-0.202,-0.29081,2.2826,-0.21974,-0.44276,2.2536,-0.22761,-0.49834,2.2426,0.060996,-0.16004,2.0598,0.2696,-0.16375,2.2097,0.34274,-0.32914,2.2366,0.3388,-0.3837,2.2198,-0.052835,-0.41811,2.2779,-0.20605,-0.6849,2.2439,-0.2406,-0.94137,2.2837,-0.27519,-0.99155,2.2464,0.038571,-0.41604,2.2411,0.17426,-0.67632,2.1373,0.19454,-0.91485,2.1996,0.23149,-0.98471,2.1771
-0.012576,-0.3891,2.2291,-0.019861,-0.3404,2.2057,-0.072731,-0.15489,2.0399,-0.090628,0.015528,1.9956,-0.16713,-0.20295,2.1377,-0.20921,-0.36613,2.2563,-0.21829,-0.58057,2.188,-0.2259,-0.57162,2.2206,0.073215,-0.20194,2.0641,0.26992,-0.1992,2.2189,0.2806,-0.42093,2.1733,0.30408,-0.41185,2.1885,-0.049477,-0.44406,2.2736,-0.20852,-0.71509,2.219,-0.22727,-0.93231,2.2684,-0.21204,-0.95393,2.2856,0.046716,-0.43645,2.2498,0.16124,-0.69173,2.1119,0.20502,-0.87955,2.1648,0.20124,-0.89159,2.1629
-0.010123,-0.42448,2.2224,-0.017178,-0.37388,2.1994,-0.06981,-0.16409,2.0398,-0.091235,-0.0018245,1.9908,-0.16784,-0.21615,2.1375,-0.21453,-0.40977,2.2236,-0.2767,-0.51308,2.0788,-0.28146,-0.53719,2.0245,0.075343,-0.21863,2.0628,0.22795,-0.35337,2.1662,0.26493,-0.52106,2.0943,0.26904,-0.57038,2.0674,-0.045736,-0.46783,2.2794,-0.21611,-0.72456,2.2008,-0.23789,-0.94164,2.2521,-0.26772,-1.0108,2.2367,0.046851,-0.47883,2.2266,0.17152,-0.72435,2.0818,0.18841,-0.92058,2.1898,0.23682,-0.98616,2.1795
-0.0056131,-0.43907,2.2189,-0.01373,-0.38596,2.1957,-0.068172,-0.16328,2.0387,-0.086625,0.011315,1.9942,-0.16537,-0.2312,2.1428,-0.21213,-0.40986,2.2244,-0.25791,-0.47921,2.0506,-0.26476,-0.47872,1.9968,0.072332,-0.22749,2.0557,0.20936,-0.40094,2.1256,0.16875,-0.51323,1.9769,0.16155,-0.53807,1.9355,-0.038959,-0.48886,2.2672,-0.21802,-0.7326,2.1781,-0.2432,-0.9535,2.2713,-0.26872,-1.003,2.2264,0.049461,-0.48714,2.2252,0.162,-0.727,2.064,0.18423,-0.91978,2.1844,0.23833,-0.98163,2.1851
-0.0047004,-0.43682,2.2149,-0.012918,-0.38462,2.1923,-0.062649,-0.15293,2.0414,-0.073189,0.037084,2.0174,-0.16599,-0.22928,2.1328,-0.19783,-0.39578,2.1744,-0.24786,-0.44227,1.99,-0.25909,-0.40514,1.9393,0.072256,-0.22605,2.0496,0.17475,-0.37942,2.0714,0.11286,-0.45436,1.9071,0.071724,-0.46274,1.8398,-0.038696,-0.48558,2.2568,-0.21364,-0.73185,2.1683,-0.24636,-0.9577,2.265,-0.26979,-1.005,2.2168,0.049919,-0.48526,2.2207,0.14232,-0.72969,2.0542,0.18405,-0.91689,2.1756,0.21292,-0.98197,2.1649
-0.0088959,-0.41706,2.1978,-0.014837,-0.36603,2.1802,-0.053749,-0.12189,2.0523,-0.054725,0.066627,2.0455,-0.16805,-0.21347,2.114,-0.27278,-0.35578,2.0759,-0.24504,-0.33452,1.9221,-0.24751,-0.25734,1.8812,0.077244,-0.21209,2.0382,0.16332,-0.3677,1.9937,0.069584,-0.35744,1.8319,0.053941,-0.36348,1.7906,-0.048893,-0.46951,2.2406,-0.20343,-0.73089,2.1592,-0.23821,-0.94442,2.2625,-0.25805,-0.98839,2.2098,0.047218,-0.46743,2.1992,0.14251,-0.72818,2.0564,0.18341,-0.91794,2.1685,0.21602,-0.98358,2.1651
-0.0085378,-0.40497,2.1919,-0.013162,-0.34758,2.1742,-0.04343,-0.066975,2.0623,-0.037254,0.097954,2.0771,-0.16507,-0.16313,2.0913,-0.27151,-0.30631,2.0215,-0.25036,-0.22452,1.8978,-0.2468,-0.17579,1.8681,0.076414,-0.17712,2.0133,0.15886,-0.31316,1.9097,0.05317,-0.31531,1.7785,-0.0059362,-0.1797,1.7318,-0.04693,-0.44872,2.2301,-0.19788,-0.72509,2.154,-0.23712,-0.93935,2.2591,-0.25864,-0.98009,2.2045,0.043227,-0.45953,2.1925,0.14263,-0.72171,2.0568,0.18226,-0.91636,2.1645,0.21842,-0.98448,2.1648
-0.0050697,-0.36455,2.1775,-0.0067007,-0.31021,2.1636,-0.02898,-0.044873,2.0666,-0.012715,0.13063,2.0989,-0.14507,-0.10251,2.0778,-0.31145,-0.2597,1.9851,-0.24736,-0.09083,1.8848,-0.24051,-0.037598,1.865,0.069172,-0.13583,1.9983,0.16073,-0.22106,1.8496,0.027291,-0.21072,1.7308,0.023265,-0.039202,1.8114,-0.036482,-0.40845,2.2153,-0.18327,-0.69897,2.1471,-0.23725,-0.93922,2.2593,-0.26631,-0.97842,2.2071,0.031113,-0.41701,2.1691,0.13384,-0.69306,2.0688,0.18237,-0.91583,2.1635,0.15331,-0.95503,2.1113
-0.0063976,-0.33662,2.1696,-0.0077816,-0.27802,2.1548,-0.025597,0.017063,2.0604,-0.0192,0.16575,2.0717,-0.14064,-0.068314,2.0757,-0.32128,-0.16284,1.9891,-0.24586,0.027133,1.896,-0.23211,0.081749,1.8862,0.059233,-0.084834,1.9981,0.15676,-0.15096,1.8048,0.030983,0.031075,1.7807,0.050123,0.1232,1.8464,-0.03797,-0.38123,2.1989,-0.17985,-0.68021,2.1466,-0.23824,-0.94221,2.2633,-0.26386,-0.98095,2.209,0.03316,-0.38326,2.1653,0.12576,-0.66363,2.0711,0.18269,-0.91556,2.1637,0.15707,-0.9543,2.1094
-0.0098218,-0.25089,2.1485,-0.0089418,-0.19436,2.1382,-0.01351,0.081821,2.068,0.011404,0.23114,2.0969,-0.1436,0.011009,2.0817,-0.33199,-0.049106,1.9907,-0.23304,0.1381,1.9265,-0.21461,0.20069,1.9268,0.085856,0.029738,1.9913,0.1414,-0.0027124,1.7901,0.035801,0.16407,1.8149,0.057838,0.24748,1.8912,-0.047923,-0.29956,2.1764,-0.16036,-0.62125,2.1618,-0.23982,-0.92322,2.2592,-0.2667,-0.95929,2.2038,0.02822,-0.30228,2.1412,0.11406,-0.61373,2.084,0.18991,-0.91984,2.1696,0.16303,-0.95592,2.1142
-0.021121,-0.16346,2.1241,-0.020639,-0.10189,2.1169,-0.026536,0.20256,2.0652,0.0033051,0.3468,2.0857,-0.15257,0.094193,2.0847,-0.34869,0.075572,2.0004,-0.22402,0.24862,1.9565,-0.18588,0.30384,1.961,0.094229,0.14456,1.9941,0.15686,0.12512,1.8068,0.051992,0.27266,1.8364,0.089235,0.33873,1.9088,-0.066213,-0.21155,2.1528,-0.15422,-0.56806,2.1714,-0.22065,-0.84763,2.2124,-0.24655,-0.88482,2.1514,0.024074,-0.21832,2.1085,0.11609,-0.56817,2.0948,0.18562,-0.89261,2.1634,0.15976,-0.92508,2.1052
-0.013049,-0.036416,2.0995,-0.012493,0.017435,2.098,-0.01529,0.28447,2.0753,-0.092298,0.39309,2.0845,-0.16766,0.19943,2.0965,-0.32086,0.26063,2.0349,-0.2349,0.34417,1.9695,-0.19629,0.38974,1.9651,0.10622,0.26979,2.0102,0.18266,0.24601,1.8272,0.084591,0.39598,1.8454,0.11445,0.51031,1.8954,-0.062915,-0.096554,2.1232,-0.14373,-0.49602,2.1949,-0.231,-0.79361,2.2152,-0.25347,-0.8277,2.1511,0.036087,-0.095569,2.0795,0.10711,-0.47463,2.1218,0.18842,-0.77211,2.1252,0.16596,-0.8062,2.061
-0.016724,0.07693,2.0881,-0.013654,0.12534,2.0863,-0.0031409,0.36537,2.0628,-0.084349,0.51879,2.1045,-0.17587,0.35789,2.0743,-0.34755,0.40043,2.0492,-0.26169,0.45877,1.9733,-0.2522,0.50941,1.9485,0.14078,0.301,1.9751,0.22831,0.39846,1.8335,0.097711,0.53889,1.8436,0.11467,0.6701,1.8797,-0.077673,0.0071103,2.1194,-0.13813,-0.39826,2.2008,-0.24147,-0.69325,2.205,-0.26329,-0.72809,2.1414,0.032138,0.0086951,2.0705,0.11637,-0.39214,2.1333,0.18393,-0.69431,2.1152,0.16211,-0.72916,2.0517
-0.018702,0.12496,2.0793,-0.022462,0.16855,2.0768,-0.04812,0.39718,2.0591,0.052892,0.59135,2.0764,-0.1746,0.47577,2.0982,-0.3309,0.51749,2.0536,-0.25687,0.69576,1.9646,-0.26314,0.75542,1.931,0.12098,0.39759,2.0054,0.22463,0.5171,1.8833,0.21658,0.75955,1.8548,0.19569,0.81291,1.8382,-0.066361,0.064655,2.1035,-0.12816,-0.33694,2.2,-0.23853,-0.62522,2.2389,-0.24992,-0.65963,2.172,0.046497,0.055219,2.0604,0.12036,-0.34828,2.129,0.20072,-0.64721,2.1236,0.18933,-0.68163,2.0568
-0.015457,0.15805,2.0724,-0.022084,0.20205,2.0724,-0.056458,0.41815,2.0626,-0.027701,0.56711,2.0974,-0.17238,0.42998,2.1181,-0.27818,0.59628,2.0569,-0.32184,0.76688,1.9955,-0.33748,0.77727,1.9565,0.095493,0.47665,2.0268,0.22078,0.61978,1.9206,0.19116,0.77627,1.845,0.17053,0.81124,1.8321,-0.062852,0.093496,2.0906,-0.1286,-0.3034,2.1997,-0.24166,-0.58122,2.2723,-0.26257,-0.6155,2.2077,0.051317,0.10067,2.0526,0.13371,-0.30119,2.1245,0.21716,-0.59692,2.1438,0.19625,-0.6312,2.0792
-0.021453,0.23408,2.0594,-0.031921,0.28383,2.0615,-0.086022,0.53232,2.0645,-0.022952,0.66357,2.1072,-0.24945,0.53165,2.0877,-0.29096,0.70179,2.0518,-0.40641,0.8629,2.005,-0.43649,0.91,1.993,0.062749,0.51711,2.0413,0.19677,0.69593,1.9484,0.31273,0.89047,1.9432,0.33205,0.9501,1.9362,-0.070429,0.17308,2.0689,-0.12069,-0.22571,2.1794,-0.24844,-0.48996,2.271,-0.26641,-0.52332,2.2053,0.053343,0.1627,2.0443,0.13534,-0.24095,2.1116,0.22501,-0.53313,2.1416,0.20703,-0.56648,2.0759
0.0034454,0.24149,2.0528,0.0013275,0.29359,2.0566,-0.0090958,0.55736,2.0668,-0.018518,0.69172,2.1013,-0.15686,0.52081,2.0606,-0.28294,0.66579,2.0631,-0.37535,0.80472,2.0268,-0.40684,0.85191,2.0199,0.028869,0.53619,2.0408,0.18319,0.7229,1.971,0.32259,0.90933,1.9755,0.37972,0.98731,1.9753,-0.05379,0.18259,2.0621,-0.11698,-0.21394,2.1742,-0.24797,-0.47053,2.2794,-0.26901,-0.50222,2.2157,0.062672,0.17333,2.0385,0.14309,-0.23058,2.1046,0.24122,-0.519,2.1392,0.22018,-0.55069,2.0755
0.009349,0.24233,2.0477,0.0072161,0.29524,2.0538,-0.0023999,0.5645,2.0663,-0.011383,0.69635,2.0964,-0.12353,0.51563,2.083,-0.29117,0.63488,2.0784,-0.36035,0.80326,2.0391,-0.40886,0.84454,2.0348,0.16679,0.55444,2.0422,0.26323,0.75623,2.0062,0.332,0.92419,1.975,0.32437,0.98078,1.9578,-0.049391,0.18411,2.0572,-0.12578,-0.20746,2.1793,-0.25688,-0.46482,2.2832,-0.26814,-0.49557,2.2148,0.06985,0.17119,2.0269,0.1525,-0.23138,2.0993,0.25203,-0.51966,2.132,0.24077,-0.55041,2.0636
0.013311,0.23749,2.042,0.012869,0.29126,2.0485,0.0085089,0.56501,2.0543,-0.024598,0.69108,2.0959,-0.14864,0.48641,2.0983,-0.29874,0.62843,2.0772,-0.38607,0.78373,2.0228,-0.41812,0.83682,2.03,0.13623,0.52897,2.0261,0.21997,0.74427,1.9734,0.35084,0.90999,1.9476,0.35314,0.96311,1.9207,-0.045802,0.17112,2.0521,-0.13083,-0.21652,2.1803,-0.27021,-0.47175,2.28,-0.28633,-0.50289,2.2129,0.073841,0.16765,2.02,0.16213,-0.23388,2.0911,0.2716,-0.51999,2.1133,0.25547,-0.55113,2.0462
0.015497,0.22981,2.04,0.014139,0.28638,2.0479,0.0059898,0.56488,2.0524,-0.028206,0.693,2.0948,-0.14436,0.48275,2.0961,-0.31998,0.60726,2.0559,-0.42943,0.7456,1.9898,-0.46195,0.78216,1.9595,0.19704,0.55314,2.0384,0.31217,0.71642,1.9548,0.37642,0.88369,1.8844,0.3765,0.941,1.868,-0.040577,0.15844,2.0556,-0.12336,-0.23543,2.1634,-0.26998,-0.48453,2.2677,-0.28316,-0.51559,2.1997,0.077979,0.16314,2.0149,0.16946,-0.23885,2.0805,0.27777,-0.52689,2.0922,0.26459,-0.55795,2.0241
0.014904,0.19007,2.0353,0.0090494,0.24863,2.0408,-0.026444,0.54189,2.0393,-0.024908,0.69172,2.0929,-0.14003,0.46253,2.0896,-0.34153,0.55545,2.0308,-0.47555,0.68578,1.936,-0.48836,0.72453,1.9197,0.13779,0.49943,2.0149,0.26663,0.6788,1.9143,0.40832,0.78804,1.8129,0.43229,0.84498,1.7611,-0.034336,0.12669,2.054,-0.12514,-0.26654,2.1596,-0.27491,-0.52595,2.2336,-0.29214,-0.55844,2.1671,0.078882,0.13714,2.0122,0.17806,-0.26492,2.0684,0.28479,-0.55483,2.0654,0.26756,-0.58731,1.9989
0.018034,0.17065,2.0335,0.012442,0.22913,2.0381,-0.02204,0.52042,2.0335,-0.023616,0.67158,2.0819,-0.13774,0.42701,2.0812,-0.36114,0.48198,1.9938,-0.52044,0.60714,1.8869,-0.51177,0.66636,1.8772,0.14433,0.47499,2.0034,0.29123,0.61264,1.8595,0.43256,0.68501,1.7304,0.10447,0.83935,1.7652,-0.031947,0.10274,2.0528,-0.11856,-0.29673,2.1387,-0.2611,-0.56671,2.1907,-0.27846,-0.59944,2.1244,0.082105,0.11187,2.0106,0.18257,-0.29143,2.0576,0.28236,-0.58417,2.0287,0.26501,-0.6169,1.9624
0.018596,0.13054,2.035,0.013977,0.18797,2.0388,-0.016558,0.47508,2.033,-0.023111,0.63377,2.0595,-0.13356,0.40934,2.0748,-0.3545,0.3901,1.9705,-0.52183,0.46456,1.8645,-0.49823,0.45741,1.824,0.15333,0.41815,1.9794,0.29271,0.50254,1.8327,0.38863,0.61695,1.6887,0.45637,0.59621,1.6383,-0.030391,0.060978,2.0606,-0.1149,-0.34443,2.1224,-0.25338,-0.62219,2.1506,-0.27402,-0.6552,2.0853,0.07912,0.068267,2.0064,0.18768,-0.33493,2.0367,0.28216,-0.62906,1.9977,0.26152,-0.66207,1.9324
0.025549,0.057751,2.0303,0.022241,0.11384,2.0318,-0.0025013,0.3933,2.0189,-0.021333,0.57714,2.0383,-0.12174,0.32673,2.0553,-0.37914,0.32021,1.962,-0.5604,0.40745,1.8509,-0.56886,0.47447,1.8394,0.13228,0.35864,1.9577,0.28767,0.38037,1.8085,0.41247,0.43339,1.6424,0.43424,0.45823,1.6147,-0.018255,-0.0038008,2.0558,-0.11124,-0.40866,2.1095,-0.23692,-0.69474,2.1227,-0.26017,-0.72858,2.0588,0.07791,0.0009683,2.0052,0.19688,-0.39744,2.025,0.27669,-0.69371,1.9631,0.25344,-0.72755,1.8991
