0.15826,-0.015537,2.6809,0.15687,0.054751,2.6771,0.10117,0.37541,2.5686,0.075885,0.55102,2.5488,-0.016316,0.29685,2.6792,-0.069833,0.1513,2.8859,-0.13188,-0.050363,2.9874,-0.15597,-0.11222,2.9972,0.25487,0.29446,2.5459,0.44302,0.15533,2.66,0.55246,-0.021309,2.6882,0.58009,-0.092137,2.7004,0.10662,-0.082473,2.7199,0.088321,-0.55387,2.6522,0.10713,-0.9342,2.6804,0.10016,-1.0036,2.6541,0.22581,-0.07747,2.6668,0.23726,-0.56056,2.6635,0.23617,-0.94772,2.6777,0.2179,-1.0129,2.646
0.15962,-0.022732,2.6808,0.15479,0.046691,2.6714,0.083243,0.35506,2.5408,0.066573,0.52655,2.5205,-0.024632,0.28757,2.651,-0.07164,0.1608,2.8714,-0.1206,-0.014149,2.9842,-0.14939,-0.090264,3.0043,0.24016,0.27805,2.5304,0.43653,0.17168,2.6609,0.56339,0.0095476,2.7217,0.60371,-0.054901,2.7356,0.1103,-0.087214,2.722,0.096951,-0.53052,2.6454,0.11499,-0.92893,2.6811,0.10369,-0.99745,2.6555,0.22742,-0.08157,2.6708,0.22091,-0.57238,2.6542,0.23761,-0.94622,2.6763,0.22016,-1.0111,2.6476
0.16188,-0.031721,2.6813,0.15353,0.037501,2.6679,0.076623,0.34859,2.5332,0.061323,0.51519,2.5114,-0.033361,0.27032,2.6319,-0.073086,0.14821,2.8558,-0.11761,-0.016664,2.9857,-0.13732,-0.087818,3.0144,0.23524,0.26746,2.5198,0.42843,0.1661,2.6577,0.56946,0.0084198,2.7515,0.61177,-0.039595,2.745,0.11493,-0.095182,2.7243,0.1186,-0.56957,2.6424,0.12193,-0.92868,2.683,0.11883,-0.99946,2.6574,0.23154,-0.089111,2.6752,0.20814,-0.58294,2.6376,0.23908,-0.946,2.6761,0.21957,-1.0117,2.6489
0.16044,-0.048494,2.6804,0.14858,0.01743,2.6615,0.064337,0.31566,2.5136,0.056214,0.48373,2.495,-0.044155,0.24158,2.6236,-0.072557,0.10136,2.836,-0.094853,-0.053414,2.9819,-0.10739,-0.11892,3.0227,0.23208,0.25488,2.5112,0.43254,0.15132,2.6676,0.55643,-0.0079563,2.7524,0.59392,-0.053489,2.7664,0.11491,-0.11346,2.7263,0.13105,-0.58141,2.6263,0.12854,-0.93484,2.6816,0.13486,-1.0043,2.6665,0.23272,-0.10326,2.6789,0.18406,-0.57612,2.6072,0.24042,-0.94402,2.6741,0.21757,-1.0047,2.631
0.15834,-0.077718,2.6764,0.14559,-0.010582,2.655,0.06345,0.29767,2.5078,0.049284,0.45101,2.4813,-0.051911,0.20038,2.6134,-0.059989,0.030167,2.8081,-0.080264,-0.14616,2.9594,-0.089847,-0.20011,2.9934,0.21971,0.20958,2.4985,0.40665,0.089656,2.6629,0.51752,-0.068192,2.7478,0.54475,-0.1101,2.7595,0.11432,-0.13811,2.7257,0.11453,-0.55262,2.5914,0.12751,-0.92929,2.6738,0.13314,-0.99618,2.6626,0.23033,-0.13154,2.6751,0.17225,-0.55448,2.5801,0.23285,-0.94528,2.6595,0.23341,-1.0087,2.6636
0.15484,-0.1112,2.6686,0.14119,-0.046312,2.6467,0.063099,0.2557,2.5035,0.039925,0.42595,2.4791,-0.051971,0.15915,2.598,-0.052372,-0.032617,2.775,-0.059279,-0.22672,2.9073,-0.06924,-0.30062,2.9437,0.22544,0.18851,2.5002,0.35587,0.0089327,2.6365,0.47527,-0.1708,2.7094,0.51424,-0.22097,2.7252,0.1062,-0.17583,2.7167,0.098276,-0.57996,2.5599,0.18935,-0.97121,2.6738,0.14993,-1.013,2.6847,0.23055,-0.16882,2.6675,0.16444,-0.60597,2.5661,0.17191,-0.92589,2.6424,0.18477,-0.99682,2.6281
0.15968,-0.15157,2.6605,0.14465,-0.084623,2.6404,0.062781,0.22679,2.5074,0.042337,0.38707,2.4818,-0.05022,0.12122,2.6016,-0.040102,-0.10075,2.744,-0.048963,-0.32324,2.8257,-0.068917,-0.40418,2.8353,0.23138,0.13661,2.5116,0.35969,-0.048991,2.632,0.41816,-0.2572,2.6654,0.45106,-0.31526,2.6719,0.11095,-0.21751,2.7053,0.092125,-0.5951,2.5298,0.19201,-1.0113,2.6589,0.14051,-1.0192,2.6656,0.23841,-0.20855,2.6607,0.13493,-0.59342,2.5219,0.20237,-0.9759,2.6248,0.22274,-1.0231,2.667
0.15194,-0.17012,2.6528,0.13887,-0.10186,2.6349,0.06425,0.21633,2.514,0.042276,0.38023,2.4865,-0.049318,0.10916,2.6083,-0.04057,-0.13966,2.7074,-0.052415,-0.37173,2.708,-0.066181,-0.45237,2.6862,0.22986,0.13004,2.5132,0.33177,-0.099759,2.6005,0.36458,-0.33644,2.5749,0.38701,-0.40191,2.5532,0.10011,-0.23847,2.6935,0.086541,-0.60675,2.5075,0.18258,-0.9968,2.6752,0.14551,-1.0244,2.66,0.22939,-0.22877,2.6495,0.14325,-0.61768,2.5283,0.18677,-0.95743,2.6097,0.21107,-1.0243,2.6613
0.14581,-0.16794,2.6453,0.13569,-0.10118,2.631,0.070161,0.22082,2.5291,0.045567,0.3919,2.5204,-0.048845,0.10914,2.6155,-0.051632,-0.13922,2.6767,-0.051728,-0.3434,2.5961,-0.054246,-0.39997,2.5545,0.23,0.13315,2.5167,0.32646,-0.10481,2.5915,0.3098,-0.29827,2.4838,0.29675,-0.35375,2.4424,0.09016,-0.23504,2.6816,0.063073,-0.55607,2.5333,0.1161,-0.93441,2.6493,0.15794,-0.99617,2.6453,0.22062,-0.22712,2.6375,0.13954,-0.61898,2.5211,0.18109,-0.95684,2.6082,0.14483,-1.0058,2.5737
0.13245,-0.13516,2.636,0.12509,-0.070885,2.626,0.079778,0.25896,2.5591,0.05236,0.42686,2.5477,-0.048754,0.13926,2.6288,-0.074078,-0.065704,2.6538,-0.057815,-0.21861,2.4785,-0.0415,-0.27905,2.4131,0.23458,0.16861,2.5268,0.32538,-0.044354,2.5527,0.27424,-0.2068,2.4327,0.24253,-0.23489,2.3649,0.074712,-0.20411,2.6719,0.084123,-0.58408,2.5132,0.11685,-1.0005,2.605,0.13137,-0.98936,2.6331,0.20633,-0.19728,2.6228,0.13574,-0.59142,2.4967,0.20129,-0.9691,2.633,0.16286,-1.0164,2.5956
0.13365,-0.07574,2.637,0.12628,-0.0094517,2.6291,0.083241,0.31695,2.5735,0.068775,0.4961,2.5802,-0.050594,0.20907,2.6454,-0.088835,0.0082903,2.6494,-0.048653,-0.10857,2.3777,-0.018212,-0.1457,2.3311,0.23679,0.23305,2.5323,0.33195,0.041156,2.5315,0.27524,-0.098683,2.373,0.21296,-0.10601,2.3136,0.075377,-0.14908,2.6714,0.086674,-0.55323,2.5315,0.16045,-0.95256,2.6252,0.13554,-0.98755,2.6279,0.20797,-0.13923,2.6206,0.14862,-0.55822,2.5067,0.20174,-0.9462,2.6337,0.17391,-1.0242,2.6589
0.13248,-0.0066261,2.6355,0.12618,0.060669,2.6299,0.088332,0.3939,2.5894,0.065827,0.56619,2.5993,-0.048196,0.29749,2.6603,-0.096043,0.094889,2.6522,-0.042854,0.039736,2.4052,-0.03322,0.015817,2.3434,0.23863,0.30703,2.5364,0.35918,0.13284,2.5032,0.24327,0.041274,2.3431,0.19664,0.0053574,2.2765,0.075034,-0.080979,2.6669,0.09335,-0.5322,2.5551,0.16635,-0.92315,2.6427,0.12597,-0.97467,2.5955,0.20386,-0.072237,2.6159,0.17681,-0.5766,2.5516,0.20028,-0.91642,2.6318,0.16349,-0.95852,2.5804
0.12664,0.077943,2.6335,0.12228,0.14638,2.6306,0.092704,0.48697,2.6077,0.060934,0.65559,2.6197,-0.042568,0.38293,2.701,-0.098053,0.18418,2.6925,-0.04567,0.12075,2.4582,-0.032019,0.10582,2.4111,0.24043,0.39776,2.5445,0.364,0.23329,2.5042,0.24861,0.12685,2.3562,0.20104,0.081407,2.2956,0.072441,0.0018673,2.6674,0.10696,-0.53804,2.6188,0.12366,-0.93037,2.6353,0.095195,-0.99036,2.6118,0.19133,0.0093086,2.6044,0.20501,-0.54427,2.5955,0.19917,-0.88947,2.6132,0.16167,-0.93835,2.5733
0.12347,0.14688,2.6301,0.12013,0.21638,2.6309,0.096372,0.56388,2.6279,0.066563,0.72647,2.6268,-0.043788,0.4521,2.7201,-0.085748,0.24519,2.7113,-0.057326,0.14,2.4964,-0.045435,0.11973,2.4426,0.24936,0.48193,2.5558,0.38288,0.31977,2.5391,0.27765,0.17909,2.3866,0.24014,0.12463,2.33,0.06563,0.064318,2.6609,0.11262,-0.47942,2.6608,0.10543,-0.91997,2.6229,0.069663,-0.95728,2.556,0.18944,0.080293,2.5957,0.243,-0.47179,2.6235,0.22846,-0.85633,2.5713,0.19354,-0.90526,2.5281
0.11938,0.19979,2.6312,0.118,0.26094,2.6329,0.099765,0.59065,2.6333,0.071644,0.78279,2.6358,-0.033121,0.51502,2.7604,-0.080556,0.31482,2.7571,-0.064322,0.14725,2.5337,-0.063737,0.096168,2.4903,0.24775,0.53258,2.5689,0.37396,0.33415,2.5445,0.2847,0.1868,2.393,0.24919,0.12644,2.3369,0.061439,0.11716,2.6653,0.094131,-0.42745,2.6716,0.099395,-0.87233,2.6594,0.057815,-0.90934,2.5957,0.1819,0.12808,2.59,0.23848,-0.41337,2.6215,0.27494,-0.8867,2.6073,0.2439,-0.93794,2.5644
0.12143,0.23391,2.6305,0.12305,0.30107,2.6349,0.11405,0.6294,2.6441,0.070682,0.81942,2.6407,-0.012094,0.56462,2.7634,-0.054148,0.33606,2.7592,-0.083162,0.13583,2.5872,-0.092241,0.085775,2.532,0.24912,0.56126,2.5756,0.35806,0.33872,2.5452,0.2897,0.18196,2.3991,0.2751,0.10453,2.3589,0.06602,0.15963,2.663,0.079954,-0.3855,2.6739,0.1071,-0.81736,2.7006,0.063836,-0.85321,2.6375,0.17747,0.16805,2.5875,0.25435,-0.37033,2.6205,0.31623,-0.82975,2.6524,0.27297,-0.8656,2.5892
0.12337,0.26725,2.6326,0.12616,0.34002,2.6399,0.1176,0.69409,2.6515,0.062084,0.85842,2.6389,-0.00052938,0.59445,2.7568,-0.040919,0.33511,2.7599,-0.080926,0.13484,2.603,-0.086905,0.069516,2.5709,0.25123,0.60926,2.5834,0.33618,0.34868,2.545,0.29795,0.17084,2.4185,0.30256,0.086045,2.3905,0.069138,0.19314,2.6674,0.076571,-0.352,2.6796,0.076646,-0.78682,2.688,0.034335,-0.82249,2.624,0.17879,0.20329,2.5885,0.27343,-0.33194,2.6243,0.33675,-0.7887,2.6479,0.29444,-0.82437,2.584
0.1251,0.28442,2.6351,0.1297,0.35674,2.6444,0.12202,0.72897,2.6596,0.055774,0.88537,2.6359,0.0032516,0.60869,2.7649,-0.035864,0.34143,2.7572,-0.071432,0.10898,2.6231,-0.074923,0.047516,2.5934,0.25173,0.61836,2.5857,0.31181,0.35044,2.5394,0.29959,0.16353,2.4355,0.30458,0.07655,2.4147,0.07112,0.2112,2.6694,0.070388,-0.33398,2.6866,0.057634,-0.76412,2.6773,0.014814,-0.81036,2.6371,0.17922,0.21834,2.5896,0.28433,-0.31441,2.6289,0.36184,-0.75753,2.6238,0.33627,-0.80856,2.5803
0.12448,0.31618,2.6422,0.13226,0.38651,2.6527,0.12949,0.74548,2.6623,0.052267,0.8992,2.6279,0.008654,0.64121,2.7693,-0.027374,0.36967,2.7564,-0.071502,0.13898,2.6516,-0.094098,0.076345,2.6127,0.25391,0.62889,2.5832,0.30402,0.3582,2.5409,0.30963,0.15739,2.4652,0.30778,0.068524,2.4539,0.069757,0.2445,2.6781,0.063341,-0.30116,2.6871,0.040992,-0.75246,2.6698,0.011549,-0.80248,2.6227,0.17605,0.24697,2.5955,0.28936,-0.28483,2.627,0.36755,-0.72404,2.616,0.32258,-0.75938,2.5536
0.12512,0.31535,2.6428,0.13382,0.38646,2.6546,0.13242,0.75351,2.6628,0.050135,0.90608,2.6177,0.0098534,0.64424,2.7623,-0.023246,0.37185,2.7597,-0.068298,0.14259,2.6622,-0.072695,0.060778,2.6301,0.25227,0.63541,2.5793,0.30122,0.36412,2.5407,0.30533,0.15264,2.4754,0.30647,0.064668,2.4588,0.070117,0.24446,2.6784,0.05847,-0.30117,2.6881,0.024641,-0.73569,2.6647,-0.020234,-0.77098,2.6022,0.1767,0.24729,2.5971,0.29701,-0.28316,2.6249,0.37239,-0.72213,2.6135,0.32752,-0.75741,2.551
0.12587,0.3155,2.6442,0.13462,0.38715,2.6556,0.13153,0.7516,2.6514,0.048964,0.90769,2.6097,0.012093,0.64428,2.7579,-0.020016,0.3723,2.7634,-0.066679,0.13397,2.6819,-0.068904,0.055397,2.6414,0.25115,0.63675,2.5766,0.30021,0.3652,2.5426,0.29631,0.14473,2.4882,0.29788,0.066179,2.4656,0.07154,0.2453,2.6816,0.05503,-0.30033,2.6907,0.015555,-0.71369,2.6626,-0.029276,-0.74961,2.6005,0.17801,0.24794,2.6005,0.29894,-0.28267,2.624,0.37469,-0.72263,2.611,0.32986,-0.75855,2.5489
0.12931,0.30987,2.6489,0.13703,0.38236,2.6574,0.1314,0.74295,2.6452,0.049122,0.90042,2.5983,0.012584,0.64183,2.7582,-0.016747,0.36938,2.7747,-0.062614,0.12404,2.7044,-0.066042,0.049429,2.6617,0.25064,0.63197,2.5745,0.30024,0.36049,2.5456,0.29485,0.11945,2.4959,0.2952,0.039636,2.4795,0.075524,0.23712,2.6924,0.053893,-0.30873,2.6923,0.013701,-0.74278,2.6582,-0.020726,-0.80277,2.6051,0.18266,0.24125,2.6052,0.3021,-0.29001,2.6227,0.36636,-0.70187,2.6032,0.32109,-0.73852,2.5418
0.13402,0.29284,2.653,0.14032,0.36402,2.6579,0.12815,0.71344,2.6347,0.038784,0.87001,2.5816,0.014873,0.62297,2.7591,-0.0032113,0.34344,2.8011,-0.057545,0.080924,2.725,-0.066985,0.017085,2.6773,0.25023,0.61143,2.5699,0.30005,0.34013,2.5497,0.29693,0.1087,2.4998,0.28814,0.025632,2.4834,0.081897,0.21999,2.6987,0.052726,-0.32556,2.6936,0.022093,-0.77856,2.6593,-0.023982,-0.81642,2.5993,0.18723,0.2246,2.6097,0.29885,-0.30872,2.6202,0.36492,-0.78612,2.5913,0.33212,-0.84405,2.5451
0.14009,0.25149,2.6531,0.14463,0.32169,2.6551,0.12988,0.67261,2.6267,0.044108,0.82726,2.5717,0.023118,0.58149,2.7436,-0.0031228,0.31162,2.7823,-0.053418,0.067706,2.7306,-0.054023,-0.0070949,2.6933,0.25866,0.56318,2.563,0.30804,0.30376,2.5478,0.29499,0.07709,2.4994,0.28485,-0.0021482,2.4826,0.087784,0.18145,2.6989,0.064225,-0.36436,2.6915,0.037058,-0.84023,2.6579,-0.0071191,-0.87877,2.5972,0.19467,0.18195,2.6124,0.29318,-0.35436,2.6219,0.34299,-0.82737,2.5917,0.30673,-0.8841,2.5433
0.1384,0.19177,2.6567,0.14175,0.26436,2.6566,0.12552,0.62203,2.6229,0.048276,0.78292,2.5711,0.031436,0.51793,2.7734,0.001201,0.24764,2.8016,-0.04389,0.0039682,2.7403,-0.054073,-0.0558,2.6924,0.25521,0.50779,2.5616,0.31576,0.26076,2.5511,0.29978,0.023956,2.4943,0.27028,-0.072152,2.4765,0.084848,0.12424,2.7031,0.079203,-0.42211,2.6946,0.061488,-0.89377,2.6739,0.019395,-0.9556,2.662,0.19503,0.12268,2.6171,0.28247,-0.41344,2.6167,0.32693,-0.86124,2.5964,0.29004,-0.92271,2.549
