-0.40365,-0.33952,2.1942,-0.4129,-0.27984,2.176,-0.4591,-0.015199,2.025,-0.45993,0.13662,1.9787,-0.56286,-0.095094,2.0912,-0.56689,-0.19114,2.3228,-0.55322,-0.35357,2.4191,-0.55887,-0.41018,2.44,-0.31473,-0.074182,2.0547,-0.16495,-0.19513,2.1966,-0.061559,-0.32595,2.2525,-0.032519,-0.34581,2.2564,-0.44432,-0.39265,2.2285,-0.5219,-0.66062,2.122,-0.50103,-0.97522,2.2509,-0.49429,-1.018,2.1961,-0.34697,-0.38937,2.2081,-0.34747,-0.69654,2.104,-0.33239,-0.95327,2.1154,-0.2685,-1.011,2.1428
-0.4068,-0.36674,2.1893,-0.41627,-0.31032,2.1684,-0.46009,-0.06201,2.0129,-0.4529,0.085409,1.9588,-0.56141,-0.14231,2.0782,-0.57097,-0.20225,2.276,-0.55948,-0.38026,2.3818,-0.57208,-0.436,2.402,-0.31041,-0.12404,2.0481,-0.16178,-0.23603,2.1972,-0.062404,-0.37809,2.2528,-0.035878,-0.41372,2.2489,-0.45105,-0.41983,2.222,-0.53786,-0.68008,2.0979,-0.51453,-0.91686,2.1776,-0.51528,-0.84865,2.1724,-0.34684,-0.41547,2.209,-0.35351,-0.70736,2.0781,-0.33747,-0.95473,2.1015,-0.25849,-1.0302,2.1294
-0.4118,-0.40591,2.183,-0.42059,-0.35043,2.1601,-0.4595,-0.10577,2.0028,-0.45511,0.053455,1.9535,-0.56166,-0.18025,2.0723,-0.60069,-0.30225,2.2425,-0.56438,-0.47821,2.3628,-0.56937,-0.53842,2.3676,-0.30739,-0.14921,2.0432,-0.1702,-0.28031,2.1858,-0.065257,-0.42317,2.2355,-0.039498,-0.46191,2.2226,-0.45901,-0.4621,2.215,-0.55188,-0.71212,2.0759,-0.52044,-0.95544,2.1499,-0.51246,-1.0082,2.093,-0.35005,-0.45302,2.2077,-0.35961,-0.74021,2.0556,-0.25479,-0.98906,2.2142,-0.24681,-1.0418,2.1572
-0.41346,-0.43316,2.1758,-0.42169,-0.379,2.1526,-0.46069,-0.13752,1.9995,-0.45493,0.027183,1.9494,-0.56542,-0.20572,2.0659,-0.55925,-0.4029,2.2576,-0.59422,-0.58311,2.3167,-0.60459,-0.64221,2.3082,-0.3071,-0.20555,2.0416,-0.17342,-0.33962,2.1854,-0.08834,-0.49898,2.2205,-0.060878,-0.55119,2.2241,-0.45987,-0.4844,2.2082,-0.56438,-0.71905,2.0531,-0.52955,-0.97587,2.1316,-0.52442,-1.028,2.0738,-0.3534,-0.4848,2.1993,-0.37042,-0.74351,2.0363,-0.26866,-0.93627,2.1822,-0.32631,-0.87289,2.1555
-0.41242,-0.47196,2.1696,-0.42162,-0.41722,2.146,-0.46163,-0.17096,1.9943,-0.45846,-0.0067067,1.9445,-0.56337,-0.24688,2.0586,-0.55938,-0.46437,2.2079,-0.62303,-0.64556,2.2419,-0.64148,-0.69761,2.2169,-0.3064,-0.22707,2.0392,-0.18434,-0.38391,2.1673,-0.10693,-0.55311,2.1637,-0.084402,-0.59817,2.1388,-0.45985,-0.52874,2.1988,-0.58127,-0.73938,2.0209,-0.54922,-1.0071,2.0883,-0.54153,-1.0596,2.0311,-0.35045,-0.51216,2.1959,-0.37934,-0.75327,2.017,-0.27158,-0.95632,2.1549,-0.3255,-0.88521,2.1456
-0.41734,-0.49051,2.1642,-0.42384,-0.43457,2.1415,-0.45677,-0.18329,1.9955,-0.45405,-0.020798,1.95,-0.5667,-0.25826,2.0608,-0.57572,-0.47587,2.1848,-0.64512,-0.65553,2.1351,-0.66972,-0.70561,2.1115,-0.30184,-0.27062,2.0406,-0.21451,-0.44495,2.1447,-0.13256,-0.59895,2.0894,-0.11615,-0.63997,2.0575,-0.47029,-0.54637,2.1902,-0.58536,-0.75016,1.996,-0.55357,-0.99739,2.0705,-0.52403,-0.86724,2.1197,-0.35511,-0.54426,2.189,-0.37331,-0.73625,2.0334,-0.3385,-0.88672,2.0922,-0.35121,-0.93636,2.0363
-0.42274,-0.50127,2.1663,-0.42767,-0.44556,2.1435,-0.45467,-0.19326,1.9999,-0.45351,-0.032901,1.9548,-0.57362,-0.27238,2.0684,-0.60307,-0.46124,2.1856,-0.67241,-0.618,2.0399,-0.68904,-0.66733,1.9992,-0.30786,-0.27703,2.0346,-0.23445,-0.45879,2.0992,-0.17892,-0.61074,2.0141,-0.1688,-0.62288,1.9885,-0.47875,-0.55439,2.1982,-0.58139,-0.74664,1.9879,-0.54332,-0.98856,2.0646,-0.54382,-1.0427,2.0084,-0.35992,-0.55524,2.1871,-0.39431,-0.76802,1.9717,-0.27847,-0.97613,2.1166,-0.3383,-0.91068,2.103
-0.42946,-0.51034,2.1588,-0.43246,-0.45374,2.1385,-0.45289,-0.18589,2.0149,-0.45002,-0.026761,1.9729,-0.57947,-0.27213,2.0758,-0.63609,-0.46296,2.1442,-0.69365,-0.63091,2.0568,-0.71573,-0.58858,1.9113,-0.31223,-0.27349,2.0269,-0.24795,-0.4687,2.0476,-0.22314,-0.5963,1.9138,-0.2163,-0.616,1.8689,-0.48753,-0.56273,2.199,-0.52754,-0.7944,2.0016,-0.5203,-0.94209,2.1948,-0.52528,-0.99348,2.1363,-0.36742,-0.57295,2.1617,-0.39517,-0.76654,1.9705,-0.33195,-0.8606,2.0587,-0.36302,-0.89808,2.1037
-0.43106,-0.48212,2.1479,-0.43456,-0.42586,2.1325,-0.45204,-0.16267,2.0259,-0.44453,-0.0042757,1.9952,-0.58142,-0.24454,2.0812,-0.65613,-0.44364,2.1155,-0.71813,-0.53408,1.9778,-0.71029,-0.7153,2.021,-0.31533,-0.24396,2.0221,-0.27489,-0.44823,2.009,-0.27181,-0.50875,1.8292,-0.27533,-0.52501,1.7651,-0.48899,-0.54074,2.1815,-0.53161,-0.80997,2.0539,-0.48732,-0.95783,2.2363,-0.50595,-0.91153,2.1649,-0.36618,-0.54083,2.1494,-0.404,-0.74252,1.9424,-0.36445,-0.97273,1.6437,-0.37081,-1.0216,1.5832
-0.43129,-0.46262,2.1493,-0.43446,-0.40521,2.1342,-0.44999,-0.12666,2.0378,-0.43782,0.034583,2.0295,-0.58474,-0.2209,2.0847,-0.6916,-0.37245,2.0809,-0.72757,-0.584,1.976,-0.7294,-0.6114,1.9353,-0.32412,-0.21097,2.0194,-0.2843,-0.38335,1.9613,-0.29686,-0.42289,1.78,-0.30448,-0.42671,1.719,-0.48916,-0.51967,2.1841,-0.50986,-0.70227,1.9925,-0.53347,-0.91562,2.1149,-0.51204,-0.85531,2.1074,-0.36753,-0.51706,2.1487,-0.3972,-0.719,1.9587,-0.3471,-0.9361,2.059,-0.37153,-0.84757,2.0657
-0.43084,-0.41169,2.1473,-0.43249,-0.35362,2.1334,-0.44482,-0.070035,2.0506,-0.43392,0.086934,2.0553,-0.58302,-0.15382,2.0899,-0.71104,-0.29292,2.0537,-0.75495,-0.32703,1.8641,-0.76452,-0.46741,1.8366,-0.33296,-0.16142,2.008,-0.29432,-0.33598,2.0062,-0.35774,-0.39002,1.8409,-0.36311,-0.39483,1.8156,-0.48545,-0.4652,2.1801,-0.50854,-0.67615,2.0047,-0.50979,-0.94959,2.1682,-0.53681,-0.95167,2.0827,-0.37177,-0.46615,2.1434,-0.40451,-0.70882,1.9725,-0.33963,-0.89752,2.0784,-0.46022,-1.0168,1.634
-0.43778,-0.35987,2.1416,-0.4382,-0.29838,2.1298,-0.44336,0.0039357,2.0619,-0.41879,0.16,2.0813,-0.5892,-0.073892,2.0953,-0.73099,-0.20663,2.0438,-0.7584,-0.15654,1.8503,-0.76221,-0.16223,1.7972,-0.33776,-0.090526,2.0064,-0.30628,-0.27425,1.9593,-0.36061,-0.30867,1.8341,-0.37333,-0.3222,1.8076,-0.49375,-0.41998,2.1702,-0.52198,-0.62199,2.034,-0.4818,-0.90513,2.2019,-0.4157,-0.86946,2.1528,-0.3809,-0.41146,2.1368,-0.40526,-0.68872,2.0169,-0.34322,-0.87635,2.0767,-0.36688,-0.91301,2.0147
-0.43955,-0.28145,2.1368,-0.43819,-0.2196,2.1275,-0.43459,0.086215,2.0728,-0.41797,0.24157,2.1084,-0.57917,-0.009631,2.1014,-0.74991,-0.099016,2.0453,-0.75258,-0.029633,1.8679,-0.75133,-0.000594,1.8094,-0.33882,-0.012459,2.0152,-0.29541,-0.16219,1.9058,-0.3481,-0.21012,1.8534,-0.35598,-0.24364,1.8409,-0.49689,-0.33615,2.1643,-0.53622,-0.65288,2.0701,-0.52076,-0.83807,2.1055,-0.47873,-0.87868,2.083,-0.38473,-0.33742,2.1258,-0.40015,-0.65816,2.0426,-0.33937,-0.8703,2.0892,-0.34264,-0.8726,2.0561
-0.44641,-0.21355,2.1287,-0.44536,-0.14912,2.1219,-0.44125,0.16178,2.0818,-0.40371,0.3159,2.1279,-0.58111,0.074521,2.1127,-0.76029,0.0031572,2.0541,-0.75276,0.086391,1.8762,-0.77856,-0.026397,1.807,-0.34501,0.067938,2.028,-0.24941,-0.03677,1.8894,-0.3329,-0.098299,1.8373,-0.32208,0.17924,1.751,-0.50461,-0.26451,2.1447,-0.52462,-0.62191,2.1024,-0.52018,-0.83116,2.1202,-0.54243,-0.86438,2.0558,-0.39136,-0.26788,2.1219,-0.38427,-0.61284,2.0677,-0.33325,-0.87156,2.0949,-0.35551,-0.90478,2.0305
-0.45808,-0.13051,2.1206,-0.46098,-0.070856,2.1218,-0.48101,0.22795,2.1115,-0.39796,0.39544,2.1548,-0.58797,0.16333,2.1278,-0.76346,0.095544,2.0691,-0.76619,0.17948,1.8894,-0.75784,0.21064,1.8299,-0.33208,0.15045,2.041,-0.23829,0.044564,1.8976,-0.31567,0.18102,1.7725,-0.3185,0.18765,1.7652,-0.51495,-0.18804,2.1306,-0.52596,-0.54036,2.126,-0.5224,-0.81611,2.1433,-0.54349,-0.8461,2.0769,-0.39495,-0.18992,2.1102,-0.38459,-0.56431,2.0915,-0.31864,-0.84088,2.1059,-0.32682,-0.9015,2.0783
-0.4514,-0.053921,2.1109,-0.44784,0.01139,2.1175,-0.4363,0.34241,2.1247,-0.39369,0.49873,2.1794,-0.59316,0.22618,2.1407,-0.77513,0.15279,2.0835,-0.77598,0.24087,1.9068,-0.7706,0.25851,1.8729,-0.30912,0.22926,2.0578,-0.22532,0.10055,1.9324,-0.29665,0.17632,1.791,-0.36657,-0.22437,1.8115,-0.51878,-0.1174,2.1163,-0.51298,-0.49273,2.1429,-0.52218,-0.8128,2.1809,-0.53766,-0.8584,2.1338,-0.3902,-0.11822,2.0973,-0.36854,-0.50195,2.1106,-0.31602,-0.79829,2.1319,-0.32897,-0.84965,2.0869
-0.45466,-0.01636,2.106,-0.45037,0.046763,2.1182,-0.44337,0.37205,2.1401,-0.40166,0.5429,2.1902,-0.58811,0.28855,2.154,-0.77196,0.19435,2.108,-0.79194,0.27236,1.9269,-0.79762,0.2891,1.9014,-0.32484,0.2834,2.0709,-0.22134,0.15589,1.968,-0.33657,0.17455,1.7912,-0.42285,0.20307,1.7554,-0.51998,-0.075831,2.1132,-0.51344,-0.44765,2.1696,-0.52102,-0.78423,2.2041,-0.53984,-0.83262,2.1609,-0.3963,-0.07717,2.0851,-0.3628,-0.4608,2.1187,-0.31337,-0.76338,2.1496,-0.32452,-0.81509,2.11
-0.45855,0.026162,2.1034,-0.45363,0.087971,2.1218,-0.44638,0.40946,2.1526,-0.41015,0.58896,2.208,-0.58048,0.32405,2.1557,-0.80188,0.17406,2.1812,-0.81814,0.25776,1.9902,-0.81607,0.25424,1.9297,-0.32669,0.31725,2.0806,-0.21632,0.18603,2.0012,-0.29717,0.14895,1.8354,-0.31686,0.15774,1.7998,-0.52139,-0.026513,2.1045,-0.51827,-0.40861,2.174,-0.52341,-0.75616,2.2249,-0.5423,-0.78579,2.1565,-0.40085,-0.034659,2.0822,-0.36308,-0.41933,2.1126,-0.31181,-0.74367,2.1546,-0.3307,-0.7733,2.0862
-0.46002,0.045095,2.1019,-0.45449,0.10702,2.1246,-0.44665,0.43349,2.1611,-0.40628,0.61208,2.2186,-0.5769,0.35189,2.1595,-0.74755,0.21504,2.1662,-0.81808,0.22213,1.99,-0.83987,0.22283,1.9085,-0.32558,0.34451,2.0948,-0.2261,0.20314,2.0149,-0.22582,0.11826,1.868,-0.29623,0.12829,1.8121,-0.5225,-0.0097198,2.1028,-0.52287,-0.37614,2.1767,-0.52832,-0.71954,2.2227,-0.54488,-0.7487,2.1536,-0.40335,-0.016156,2.0804,-0.36855,-0.39945,2.1111,-0.30571,-0.72544,2.1633,-0.32227,-0.7546,2.0943
-0.45927,0.081573,2.1026,-0.45362,0.14257,2.129,-0.44783,0.4705,2.1683,-0.40744,0.64876,2.2273,-0.57194,0.36549,2.1552,-0.74384,0.21547,2.1529,-0.82014,0.1691,1.9771,-0.84032,0.15653,1.9103,-0.33149,0.35988,2.0993,-0.2191,0.21547,2.0305,-0.25825,0.11287,1.8752,-0.27019,0.098188,1.8317,-0.51401,0.029262,2.1042,-0.5273,-0.35436,2.183,-0.54161,-0.69549,2.227,-0.55678,-0.72439,2.1577,-0.41002,0.028958,2.08,-0.36803,-0.36284,2.1042,-0.29481,-0.68449,2.166,-0.30998,-0.71339,2.0967
-0.46127,0.085518,2.1041,-0.45574,0.14611,2.1327,-0.4519,0.478,2.1697,-0.41863,0.6595,2.2282,-0.57006,0.37784,2.1516,-0.73471,0.21878,2.149,-0.80905,0.12422,1.9841,-0.83081,0.084942,1.9214,-0.34099,0.3778,2.1053,-0.23021,0.22535,2.0419,-0.24513,0.099522,1.8983,-0.25059,0.049716,1.8434,-0.51525,0.033962,2.102,-0.52944,-0.34631,2.1852,-0.54306,-0.68905,2.233,-0.55615,-0.71792,2.1635,-0.41266,0.032455,2.0834,-0.36709,-0.35488,2.1052,-0.29422,-0.6783,2.1602,-0.29719,-0.72614,2.116
-0.46154,0.087076,2.1047,-0.45647,0.14704,2.1354,-0.45398,0.4762,2.1703,-0.42732,0.6788,2.231,-0.54651,0.39942,2.1465,-0.71111,0.22997,2.1419,-0.78954,0.078805,1.9991,-0.80035,0.031845,1.9477,-0.3452,0.38785,2.1066,-0.24053,0.22424,2.0494,-0.2389,0.082074,1.9193,-0.24232,0.034436,1.8767,-0.51076,0.040567,2.1,-0.53195,-0.34049,2.1857,-0.54814,-0.6755,2.2292,-0.55903,-0.70431,2.1597,-0.41474,0.036421,2.0875,-0.36523,-0.34528,2.1036,-0.29288,-0.67118,2.1478,-0.30377,-0.69998,2.0783
-0.46152,0.087455,2.1051,-0.45621,0.14685,2.1375,-0.45668,0.47469,2.1696,-0.43072,0.6818,2.2286,-0.54883,0.39888,2.1453,-0.70775,0.22271,2.146,-0.76997,0.045702,2.0172,-0.78025,-0.0081043,1.9712,-0.35473,0.3966,2.105,-0.24088,0.21655,2.0577,-0.22978,0.05571,1.9375,-0.23295,0.0056139,1.8973,-0.50876,0.042708,2.1012,-0.53415,-0.33972,2.183,-0.5522,-0.67557,2.2196,-0.56388,-0.70442,2.1501,-0.41654,0.039869,2.0899,-0.36083,-0.34235,2.0989,-0.29418,-0.67093,2.1348,-0.30586,-0.69979,2.0653
-0.461,0.085083,2.1063,-0.45683,0.14342,2.1401,-0.4623,0.46375,2.1663,-0.43713,0.67218,2.2229,-0.55414,0.3913,2.1446,-0.69937,0.20876,2.152,-0.75611,0.028839,2.0342,-0.75996,-0.036357,1.9948,-0.34933,0.39085,2.1067,-0.24402,0.18514,2.0667,-0.21901,0.027049,1.9583,-0.22145,-0.021663,1.9212,-0.50778,0.037409,2.1029,-0.53655,-0.34528,2.1782,-0.55751,-0.68147,2.2079,-0.56772,-0.7104,2.1381,-0.41509,0.036337,2.092,-0.35986,-0.34739,2.0919,-0.29345,-0.67712,2.1224,-0.30366,-0.70604,2.0527
-0.46167,0.06607,2.1076,-0.45816,0.1235,2.1417,-0.4695,0.44006,2.1613,-0.44812,0.64892,2.2172,-0.57496,0.36246,2.1484,-0.69704,0.16479,2.1577,-0.7444,-0.010069,2.048,-0.74783,-0.075119,2.0068,-0.3515,0.37521,2.1061,-0.24385,0.17229,2.0789,-0.21752,0.0067869,1.9829,-0.21226,-0.060848,1.9437,-0.50908,0.013505,2.1064,-0.53894,-0.37277,2.1714,-0.56105,-0.72133,2.2066,-0.58401,-0.77836,2.1647,-0.41315,0.014457,2.0927,-0.36052,-0.37083,2.0882,-0.29901,-0.70302,2.1084,-0.31016,-0.73222,2.0391
-0.46126,0.048187,2.1063,-0.45851,0.10778,2.1412,-0.47672,0.42817,2.158,-0.46018,0.6194,2.1919,-0.58891,0.32805,2.1496,-0.70132,0.11858,2.1665,-0.7401,-0.063382,2.0508,-0.74544,-0.11933,2.0107,-0.35646,0.36248,2.108,-0.24657,0.1447,2.0928,-0.21353,-0.022863,2.0058,-0.20445,-0.090574,1.9674,-0.50924,-0.0070092,2.1014,-0.5415,-0.39858,2.1627,-0.56111,-0.7495,2.1845,-0.57293,-0.7789,2.1152,-0.4099,-0.0051739,2.0948,-0.35803,-0.40561,2.0828,-0.29949,-0.73792,2.1056,-0.31014,-0.79193,2.0625
-0.46853,0.003504,2.1033,-0.46668,0.062791,2.1394,-0.48267,0.38839,2.149,-0.47334,0.57424,2.1886,-0.59976,0.28073,2.1522,-0.70182,0.064291,2.1681,-0.74067,-0.095195,2.0525,-0.7395,-0.16128,2.0107,-0.35743,0.29417,2.1045,-0.23818,0.082476,2.1035,-0.20476,-0.088775,2.0108,-0.20005,-0.1352,1.9784,-0.51811,-0.055338,2.1033,-0.54359,-0.44862,2.1478,-0.5579,-0.76164,2.1797,-0.57003,-0.79136,2.1103,-0.41557,-0.048623,2.0882,-0.36179,-0.45007,2.0794,-0.30107,-0.78189,2.1044,-0.30779,-0.82859,2.0583
-0.46952,-0.042509,2.1021,-0.46698,0.020062,2.137,-0.49233,0.3427,2.1406,-0.48056,0.51625,2.1729,-0.62632,0.22215,2.1685,-0.70365,0.011157,2.1731,-0.74355,-0.15989,2.0514,-0.7439,-0.2229,2.0049,-0.35006,0.23575,2.1053,-0.22876,0.022355,2.1101,-0.20261,-0.14567,2.0137,-0.2026,-0.19784,1.9877,-0.52305,-0.11199,2.1077,-0.5443,-0.49748,2.1335,-0.54936,-0.79991,2.1658,-0.56441,-0.83022,2.0969,-0.41062,-0.10449,2.0823,-0.36523,-0.50014,2.0701,-0.30804,-0.80669,2.1029,-0.32309,-0.83699,2.0339
-0.47071,-0.11225,2.1028,-0.47074,-0.050253,2.1355,-0.50171,0.27478,2.1301,-0.48952,0.45232,2.1576,-0.62898,0.14904,2.1586,-0.70929,-0.054849,2.1718,-0.74498,-0.22908,2.0517,-0.7481,-0.28692,1.9992,-0.34945,0.17029,2.1045,-0.22912,-0.040375,2.1172,-0.19285,-0.21148,2.0175,-0.19673,-0.25265,1.9974,-0.52372,-0.17987,2.1074,-0.55259,-0.54047,2.1131,-0.54851,-0.82229,2.1566,-0.56116,-0.85323,2.0875,-0.4088,-0.1699,2.0859,-0.37515,-0.54435,2.0581,-0.31787,-0.81608,2.0988,-0.33052,-0.84702,2.0296
-0.46645,-0.18736,2.1014,-0.46761,-0.12536,2.1314,-0.50378,0.19507,2.1209,-0.50521,0.37628,2.1367,-0.63275,0.071999,2.1536,-0.71115,-0.14302,2.1676,-0.75407,-0.30639,2.0353,-0.75714,-0.36723,1.9883,-0.35345,0.092858,2.0961,-0.21315,-0.11035,2.1178,-0.19343,-0.27543,2.0188,-0.18503,-0.33651,1.9912,-0.51885,-0.25456,2.1098,-0.55727,-0.59149,2.0932,-0.54445,-0.8102,2.1754,-0.55388,-0.84147,2.1046,-0.40308,-0.24403,2.0833,-0.38891,-0.58773,2.0427,-0.3308,-0.8395,2.0926,-0.33536,-0.86833,2.1108
-0.4664,-0.23803,2.0937,-0.46729,-0.17881,2.1228,-0.50352,0.12802,2.1128,-0.51187,0.29566,2.1161,-0.63906,0.0018668,2.1524,-0.71367,-0.20277,2.162,-0.7559,-0.36378,2.0321,-0.75892,-0.42755,1.9887,-0.35573,0.041643,2.091,-0.21896,-0.15801,2.1121,-0.18412,-0.3337,2.0181,-0.18096,-0.37864,2.0014,-0.52273,-0.30858,2.1068,-0.55578,-0.6263,2.066,-0.5427,-0.89256,2.1442,-0.55426,-0.92282,2.0732,-0.39872,-0.29117,2.0699,-0.40478,-0.6392,2.0187,-0.32948,-0.86848,2.0897,-0.34232,-0.87384,2.0617
-0.46804,-0.29296,2.1096,-0.4702,-0.23033,2.1337,-0.51208,0.08157,2.1095,-0.52206,0.25395,2.1149,-0.63342,-0.044304,2.1472,-0.71134,-0.24542,2.1597,-0.75431,-0.40319,2.0359,-0.75442,-0.46284,1.9856,-0.36485,-0.012631,2.0843,-0.22004,-0.19852,2.1067,-0.17845,-0.36898,2.0194,-0.17406,-0.40785,2.0042,-0.51754,-0.35933,2.1266,-0.55895,-0.65193,2.0513,-0.5478,-0.98275,2.1157,-0.55921,-1.0152,2.0456,-0.40542,-0.34742,2.0899,-0.43121,-0.66977,2.011,-0.34971,-0.87227,2.0411,-0.36791,-0.90625,1.9758
-0.46308,-0.30549,2.1081,-0.46528,-0.24471,2.1294,-0.51711,0.051721,2.1046,-0.52582,0.22448,2.107,-0.64225,-0.069745,2.1592,-0.70801,-0.26785,2.1578,-0.74271,-0.42748,2.0442,-0.74047,-0.48796,1.9943,-0.37322,-0.041151,2.0797,-0.22193,-0.2163,2.1062,-0.17661,-0.38262,2.0203,-0.17518,-0.42191,2.0041,-0.51259,-0.3756,2.1287,-0.55263,-0.68621,2.0479,-0.59803,-1.0133,2.0921,-0.61688,-1.0467,2.0242,-0.39542,-0.36024,2.0845,-0.44051,-0.67754,2.0062,-0.34779,-0.87224,2.0538,-0.36604,-0.90668,1.9888
-0.46427,-0.32421,2.1172,-0.46756,-0.26089,2.1335,-0.51759,0.045428,2.1031,-0.52874,0.20947,2.1041,-0.64348,-0.081469,2.1581,-0.70149,-0.27768,2.1614,-0.72852,-0.43534,2.0504,-0.72454,-0.4961,2.0009,-0.3752,-0.049625,2.0787,-0.22453,-0.21984,2.107,-0.18157,-0.38704,2.0219,-0.18112,-0.42507,2.0024,-0.51415,-0.39222,2.1403,-0.54713,-0.69055,2.0491,-0.6065,-0.97089,2.0676,-0.52827,-0.92699,2.0667,-0.39731,-0.37694,2.0959,-0.43955,-0.68203,2.0093,-0.34528,-0.87553,2.0582,-0.36335,-0.91017,1.9932
-0.4641,-0.32321,2.1208,-0.46861,-0.26036,2.1349,-0.52005,0.04596,2.1036,-0.52985,0.2095,2.1036,-0.64422,-0.084239,2.1589,-0.69568,-0.27614,2.1646,-0.71097,-0.44281,2.0547,-0.70329,-0.50045,2.0084,-0.37596,-0.046627,2.0796,-0.22884,-0.22169,2.1064,-0.18847,-0.3873,2.0168,-0.18983,-0.42082,2.0031,-0.51372,-0.39241,2.1463,-0.53956,-0.69061,2.0566,-0.71623,-0.8181,1.8937,-0.73453,-0.8534,1.8266,-0.39687,-0.37664,2.0992,-0.43241,-0.68111,2.0151,-0.31287,-0.87301,2.0788,-0.35256,-0.8661,2.0318
-0.46335,-0.31418,2.1239,-0.4686,-0.25131,2.1358,-0.52059,0.055631,2.1054,-0.53042,0.2196,2.1081,-0.64351,-0.07573,2.1616,-0.68341,-0.26945,2.1726,-0.69768,-0.43652,2.0637,-0.69184,-0.4892,2.0204,-0.3759,-0.037411,2.0814,-0.23117,-0.21898,2.1059,-0.19487,-0.38388,2.013,-0.1964,-0.41611,2.0014,-0.51261,-0.38297,2.1493,-0.5344,-0.68664,2.0664,-0.71962,-0.80503,1.8962,-0.73802,-0.84047,1.8292,-0.39608,-0.36769,2.1024,-0.42961,-0.67417,2.0242,-0.31283,-0.86339,2.0802,-0.35359,-0.85697,2.033
-0.4574,-0.27205,2.1329,-0.46429,-0.20878,2.1419,-0.51484,0.10718,2.1231,-0.52658,0.26858,2.1267,-0.63282,-0.030633,2.1737,-0.658,-0.24289,2.1896,-0.66399,-0.40533,2.0827,-0.65766,-0.43919,2.0547,-0.37081,0.0064585,2.092,-0.24561,-0.19318,2.1075,-0.22531,-0.35131,1.9968,-0.22936,-0.37879,1.9828,-0.50543,-0.33963,2.1595,-0.52104,-0.67201,2.1014,-0.68414,-0.71396,1.8949,-0.70182,-0.74907,1.8275,-0.39069,-0.32619,2.1068,-0.40314,-0.64419,2.0644,-0.33738,-0.86657,2.0927,-0.35795,-0.90041,2.0281
-0.45823,-0.26261,2.1358,-0.46455,-0.19856,2.1439,-0.50991,0.12118,2.1291,-0.52342,0.28643,2.1365,-0.63067,-0.019591,2.1786,-0.65353,-0.23525,2.1912,-0.65586,-0.39832,2.0854,-0.65175,-0.42624,2.0616,-0.36728,0.019723,2.0974,-0.24716,-0.17244,2.1046,-0.23216,-0.33287,1.997,-0.23371,-0.37732,1.9714,-0.50704,-0.33079,2.161,-0.51958,-0.66871,2.1109,-0.65672,-0.5853,1.9409,-0.67506,-0.62032,1.8737,-0.39273,-0.31731,2.1099,-0.39288,-0.63582,2.0806,-0.33849,-0.86124,2.0974,-0.35832,-0.89436,2.0321
