-0.52194,-0.20823,2.6309,-0.53253,-0.14977,2.6061,-0.58803,0.12626,2.465,-0.58239,0.30742,2.4222,-0.73604,0.036929,2.5129,-0.87084,-0.12235,2.44,-0.92923,-0.20227,2.2483,-0.9484,-0.19757,2.1686,-0.43095,0.051852,2.4276,-0.36239,-0.091415,2.2646,-0.4926,-0.21856,2.1544,-0.51496,-0.18895,2.003,-0.5781,-0.27594,2.6782,-0.54969,-0.64336,2.4929,-0.57538,-0.93763,2.6433,-0.56768,-1.0157,2.6154,-0.44247,-0.26757,2.6424,-0.54687,-0.68687,2.594,-0.39782,-0.96732,2.641,-0.3968,-1.0344,2.6705
-0.51678,-0.14854,2.6072,-0.52717,-0.086485,2.5847,-0.58207,0.21096,2.4576,-0.58083,0.38215,2.4247,-0.7305,0.11525,2.5113,-0.89558,-0.0015595,2.405,-0.96453,-0.00077554,2.1712,-0.96633,0.035919,2.1189,-0.43359,0.13554,2.4173,-0.35184,0.016254,2.2415,-0.49546,-0.00018499,2.0498,-0.55125,0.033621,1.8773,-0.5726,-0.21466,2.6506,-0.56605,-0.59439,2.5157,-0.57785,-0.93655,2.6462,-0.5745,-0.98242,2.5829,-0.43957,-0.20791,2.6117,-0.51276,-0.64986,2.5452,-0.4001,-0.95318,2.6372,-0.40867,-1.0186,2.6063
-0.51876,-0.07094,2.5732,-0.52655,-0.010169,2.556,-0.56598,0.2848,2.4569,-0.577,0.46849,2.4339,-0.72719,0.17944,2.4996,-0.93862,0.09963,2.3499,-0.94795,0.2094,2.1504,-0.94172,0.27237,2.0991,-0.43064,0.23386,2.4204,-0.34948,0.13719,2.2063,-0.48194,0.12263,2.0528,-0.525,0.11939,1.9646,-0.57997,-0.141,2.608,-0.56112,-0.58462,2.541,-0.58084,-0.93184,2.6495,-0.55927,-1.0083,2.6682,-0.44201,-0.13059,2.5762,-0.47686,-0.54593,2.4935,-0.39907,-0.94958,2.6381,-0.40457,-1.0124,2.6053
-0.52843,0.017227,2.5424,-0.53619,0.081311,2.5304,-0.57452,0.3963,2.4592,-0.57792,0.58355,2.4444,-0.74107,0.26657,2.5059,-0.9558,0.1951,2.3567,-0.95042,0.33587,2.1652,-0.9412,0.3923,2.1261,-0.41336,0.342,2.4285,-0.33575,0.24057,2.2088,-0.43848,0.2076,2.0005,-0.36761,0.20273,2.1666,-0.59494,-0.064258,2.5711,-0.58457,-0.55809,2.5841,-0.56548,-0.94627,2.6983,-0.58098,-1.026,2.6935,-0.44574,-0.048361,2.5408,-0.45093,-0.54829,2.5483,-0.3908,-0.93376,2.6358,-0.40442,-0.98109,2.5592
-0.53823,0.10244,2.5182,-0.54573,0.17,2.5132,-0.58313,0.50564,2.4797,-0.57722,0.67348,2.4589,-0.74357,0.3842,2.519,-0.94697,0.27695,2.3958,-1.0107,0.35265,2.2532,-0.96562,0.43074,2.1502,-0.39907,0.42479,2.4427,-0.30787,0.32929,2.2301,-0.41665,0.25474,2.0322,-0.5367,0.2806,1.9461,-0.60748,0.020786,2.538,-0.59563,-0.50844,2.6172,-0.57914,-0.92387,2.6669,-0.59106,-0.98275,2.6159,-0.45353,0.031041,2.5082,-0.42187,-0.50146,2.5615,-0.38738,-0.91747,2.6145,-0.40325,-0.95995,2.5355
-0.54459,0.15918,2.4979,-0.55172,0.2294,2.4998,-0.587,0.57829,2.5029,-0.56398,0.74023,2.4711,-0.72922,0.45503,2.5211,-0.95166,0.3386,2.4358,-0.99774,0.40827,2.2259,-0.99357,0.4567,2.1427,-0.39594,0.4827,2.4482,-0.26627,0.36735,2.2756,-0.42262,0.34061,2.0641,-0.46742,0.29876,1.9402,-0.61185,0.083326,2.5093,-0.59711,-0.44186,2.6106,-0.57785,-0.88916,2.6484,-0.59756,-0.96777,2.6296,-0.46346,0.084772,2.4798,-0.41579,-0.44211,2.5613,-0.39713,-0.86378,2.5824,-0.41391,-0.90243,2.5017
-0.55139,0.21507,2.4764,-0.55593,0.28395,2.4859,-0.58156,0.63641,2.5099,-0.56995,0.80755,2.4896,-0.73158,0.52584,2.5382,-0.92823,0.37656,2.4711,-1.0085,0.40405,2.2338,-1.0298,0.44475,2.1485,-0.39265,0.52572,2.4578,-0.29605,0.38882,2.2791,-0.4073,0.33105,2.0331,-0.44177,0.29979,1.9318,-0.62084,0.1375,2.4836,-0.59348,-0.38633,2.5862,-0.55913,-0.80064,2.6651,-0.57782,-0.88736,2.6472,-0.47249,0.1387,2.4527,-0.44268,-0.38801,2.5432,-0.4222,-0.80349,2.6013,-0.43381,-0.86306,2.5439
-0.54939,0.25467,2.459,-0.55288,0.32398,2.4772,-0.57917,0.6812,2.5221,-0.55061,0.84817,2.5011,-0.72885,0.56712,2.5432,-0.94241,0.3847,2.5143,-1.0131,0.39203,2.2635,-1.05,0.38611,2.1727,-0.39024,0.56338,2.4665,-0.28736,0.42734,2.3281,-0.35163,0.33917,2.0878,-0.38438,0.3009,1.9842,-0.61851,0.17959,2.4564,-0.57499,-0.34679,2.544,-0.53683,-0.76383,2.6605,-0.56001,-0.84901,2.6461,-0.47163,0.17984,2.4319,-0.47688,-0.34749,2.5238,-0.44906,-0.7661,2.636,-0.44401,-0.84774,2.6004
-0.55885,0.28734,2.4421,-0.55862,0.34998,2.4672,-0.5784,0.69197,2.5186,-0.5538,0.86263,2.5023,-0.72844,0.58616,2.5415,-0.90079,0.43831,2.5192,-1.0538,0.33831,2.3163,-1.0638,0.33902,2.1909,-0.39764,0.59501,2.4667,-0.28981,0.42303,2.3121,-0.33154,0.30343,2.0807,-0.34345,0.26021,2.0197,-0.62572,0.2121,2.4415,-0.59172,-0.33349,2.5577,-0.51425,-0.71946,2.6476,-0.50353,-0.79852,2.6228,-0.4906,0.21966,2.4099,-0.49381,-0.30933,2.4947,-0.47835,-0.68646,2.6178,-0.49275,-0.79736,2.6201
-0.56296,0.29567,2.4316,-0.56106,0.35927,2.4609,-0.57487,0.71251,2.5191,-0.554,0.88237,2.5057,-0.72801,0.59829,2.5389,-0.89119,0.40112,2.4885,-1.056,0.27971,2.3156,-1.0592,0.2639,2.2156,-0.41008,0.60333,2.46,-0.29175,0.42186,2.3144,-0.30701,0.28421,2.1383,-0.32099,0.21776,2.0626,-0.63249,0.22109,2.427,-0.56273,-0.27386,2.4426,-0.508,-0.61748,2.5999,-0.52127,-0.69625,2.5406,-0.4939,0.2308,2.3974,-0.52121,-0.29504,2.4438,-0.49618,-0.64049,2.5959,-0.50844,-0.75084,2.608
-0.56841,0.30195,2.4163,-0.56368,0.36206,2.4501,-0.5721,0.6938,2.5072,-0.54948,0.89259,2.5029,-0.72504,0.60629,2.5294,-0.87294,0.38877,2.4894,-0.99528,0.22385,2.3025,-1.0311,0.18689,2.2539,-0.43296,0.61831,2.4483,-0.30147,0.43209,2.3511,-0.30156,0.2569,2.1608,-0.30775,0.18026,2.1047,-0.63509,0.22816,2.4126,-0.56873,-0.25804,2.4138,-0.52713,-0.66518,2.5952,-0.52569,-0.67702,2.5112,-0.50402,0.23997,2.3804,-0.52988,-0.28368,2.4177,-0.47858,-0.66639,2.6319,-0.5103,-0.73105,2.5759
-0.57093,0.3029,2.4029,-0.56582,0.36075,2.4406,-0.57322,0.69198,2.5053,-0.55556,0.89458,2.5021,-0.72419,0.60967,2.5203,-0.86018,0.36808,2.4848,-0.95943,0.1825,2.3377,-1.0004,0.12787,2.2983,-0.43591,0.62014,2.444,-0.3121,0.40159,2.346,-0.2964,0.2099,2.188,-0.30056,0.13081,2.1405,-0.63518,0.22925,2.3995,-0.54383,-0.28462,2.406,-0.54295,-0.66046,2.5661,-0.5427,-0.70818,2.5426,-0.50867,0.2445,2.3641,-0.53386,-0.27298,2.3856,-0.49854,-0.63955,2.5726,-0.50906,-0.72745,2.5321
-0.57771,0.28898,2.3848,-0.5709,0.34601,2.4252,-0.57448,0.6777,2.4949,-0.56046,0.89185,2.4963,-0.72639,0.6098,2.5126,-0.82626,0.34745,2.4817,-0.9228,0.13028,2.3531,-0.95047,0.063392,2.3188,-0.44347,0.61821,2.4322,-0.32296,0.37206,2.3443,-0.29593,0.1587,2.2034,-0.30004,0.084065,2.1702,-0.6376,0.22423,2.3874,-0.57965,-0.278,2.3746,-0.53413,-0.63356,2.5074,-0.55955,-0.70577,2.4366,-0.52053,0.22702,2.3429,-0.53834,-0.28355,2.3652,-0.50406,-0.67458,2.5176,-0.51638,-0.75256,2.4691
-0.57889,0.28333,2.3743,-0.57286,0.33908,2.4163,-0.57571,0.66747,2.4802,-0.56138,0.88355,2.4882,-0.72271,0.60079,2.4864,-0.80885,0.32094,2.467,-0.88759,0.089515,2.3731,-0.90222,0.011146,2.3415,-0.43927,0.61598,2.4228,-0.33575,0.35358,2.3483,-0.30198,0.12899,2.2252,-0.30454,0.041898,2.2084,-0.63856,0.21795,2.3741,-0.58732,-0.28622,2.3511,-0.55184,-0.68207,2.4587,-0.56289,-0.7718,2.4211,-0.52204,0.22235,2.3352,-0.52907,-0.29213,2.2786,-0.49735,-0.71875,2.4612,-0.51071,-0.78858,2.3995
-0.58323,0.2677,2.3587,-0.57667,0.32358,2.4004,-0.57778,0.64885,2.4453,-0.56436,0.87104,2.4682,-0.71975,0.59171,2.4692,-0.79522,0.30863,2.4555,-0.85313,0.049793,2.3938,-0.8709,-0.024866,2.3658,-0.42314,0.58813,2.4003,-0.34689,0.31438,2.3448,-0.31482,0.069216,2.25,-0.31379,-0.0071874,2.2298,-0.64506,0.20301,2.3555,-0.62209,-0.28986,2.3396,-0.57683,-0.7621,2.3738,-0.5787,-0.8004,2.3683,-0.52578,0.20118,2.3235,-0.54666,-0.32408,2.3143,-0.50369,-0.7453,2.4023,-0.52729,-0.82613,2.3438
-0.5854,0.25331,2.3483,-0.57748,0.3135,2.3928,-0.57875,0.65088,2.4346,-0.55121,0.84946,2.4236,-0.72185,0.58958,2.4712,-0.78081,0.30307,2.4529,-0.8246,0.047052,2.4009,-0.83341,-0.043096,2.3717,-0.41885,0.56693,2.3906,-0.36539,0.284,2.3394,-0.3315,0.020214,2.2638,-0.32962,-0.06199,2.2499,-0.65076,0.18379,2.3436,-0.61318,-0.31109,2.3036,-0.58505,-0.79863,2.3267,-0.58828,-0.81612,2.3368,-0.52497,0.17814,2.3128,-0.56852,-0.38273,2.3354,-0.51282,-0.82354,2.3904,-0.52583,-0.87093,2.2898
-0.58686,0.19108,2.3243,-0.58,0.25456,2.3688,-0.57998,0.62504,2.4143,-0.56523,0.81925,2.4063,-0.72447,0.52488,2.4356,-0.72891,0.31376,2.4424,-0.80691,-0.010974,2.3994,-0.8251,-0.14352,2.3794,-0.4206,0.51166,2.3699,-0.36268,0.22864,2.332,-0.3408,-0.02891,2.2754,-0.33591,-0.12254,2.2599,-0.65265,0.12619,2.3221,-0.59889,-0.38479,2.2457,-0.58453,-0.84254,2.283,-0.57572,-0.85456,2.3127,-0.52456,0.12102,2.2953,-0.573,-0.43675,2.3014,-0.5216,-0.86747,2.3464,-0.53732,-0.86271,2.2353
-0.58687,0.16155,2.3145,-0.57848,0.22416,2.3601,-0.58149,0.5873,2.4005,-0.57358,0.76293,2.3783,-0.72994,0.46327,2.4264,-0.73296,0.25864,2.3992,-0.78595,-0.057877,2.377,-0.80167,-0.15102,2.3698,-0.41883,0.45191,2.3482,-0.41236,0.18302,2.2904,-0.35828,-0.094031,2.2713,-0.35266,-0.18728,2.2534,-0.65199,0.095222,2.3166,-0.63181,-0.39002,2.211,-0.63823,-0.83136,2.2463,-0.62158,-0.86529,2.2286,-0.52627,0.090619,2.2791,-0.55439,-0.44432,2.2239,-0.52224,-0.86542,2.2568,-0.54103,-0.8994,2.1743
-0.58288,0.073818,2.2902,-0.57683,0.13837,2.3373,-0.58678,0.50815,2.3749,-0.57772,0.69295,2.3528,-0.73721,0.37333,2.4017,-0.77211,0.18842,2.4112,-0.79892,-0.14823,2.3781,-0.83263,-0.20132,2.395,-0.41715,0.37901,2.3339,-0.39443,0.16635,2.357,-0.36051,-0.12078,2.2756,-0.3686,-0.23469,2.2561,-0.65271,0.0051402,2.2891,-0.65896,-0.48478,2.2136,-0.64803,-0.82584,2.2593,-0.66323,-0.86422,2.1548,-0.51307,0.0031301,2.2606,-0.55707,-0.49492,2.1944,-0.51327,-0.86011,2.23,-0.49991,-0.87525,2.1576
