-0.23291,-0.35251,2.7282,-0.23955,-0.29764,2.7185,-0.27347,-0.028359,2.6575,-0.25252,0.10756,2.6495,-0.4244,-0.12695,2.7128,-0.60252,-0.20788,2.7467,-0.55761,-0.02772,2.5624,-0.55688,-0.028398,2.5547,-0.096878,-0.12955,2.6435,0.06719,-0.21794,2.6015,-0.013445,-0.17764,2.4025,-0.034411,-0.24237,2.3526,-0.29473,-0.42446,2.7605,-0.30088,-0.72425,2.6153,-0.25582,-0.98667,2.7235,-0.29686,-0.99018,2.6333,-0.15522,-0.42032,2.7218,-0.17728,-0.70814,2.5955,-0.20314,-0.98043,2.7287,-0.21704,-1.023,2.6607
-0.2413,-0.2688,2.7189,-0.24544,-0.2133,2.7135,-0.2666,0.061953,2.6768,-0.25604,0.20197,2.6767,-0.43288,-0.039338,2.724,-0.60826,-0.095448,2.7584,-0.56054,0.073577,2.5755,-0.55002,0.10978,2.5417,-0.1092,-0.028185,2.6528,0.078825,-0.081532,2.6284,-0.032072,-0.002823,2.4267,-0.030532,-0.030744,2.3844,-0.30548,-0.33975,2.7447,-0.27736,-0.68125,2.6249,-0.25395,-0.94464,2.7158,-0.2851,-0.96971,2.6225,-0.16793,-0.33917,2.7065,-0.18334,-0.69276,2.6295,-0.20164,-0.97972,2.7318,-0.24679,-1.0251,2.7032
-0.244,-0.17916,2.7085,-0.24742,-0.12204,2.7064,-0.26438,0.1629,2.6877,-0.25797,0.30711,2.7021,-0.42722,0.064452,2.736,-0.61991,0.029132,2.7835,-0.59927,0.17783,2.5792,-0.59107,0.20148,2.5257,-0.10451,0.072483,2.666,0.068369,0.038599,2.6215,-0.027714,0.078503,2.4417,-0.036437,0.067154,2.4172,-0.30691,-0.25356,2.7255,-0.29183,-0.62359,2.6688,-0.27055,-0.94659,2.7106,-0.28502,-0.97504,2.6809,-0.17413,-0.24547,2.6955,-0.17253,-0.62537,2.6535,-0.19746,-0.9726,2.7352,-0.19323,-1.0332,2.694
-0.24904,-0.08081,2.7056,-0.25129,-0.022345,2.709,-0.26336,0.27162,2.7134,-0.2642,0.41695,2.747,-0.43601,0.17086,2.7627,-0.6466,0.18111,2.7331,-0.66797,0.25989,2.5385,-0.70418,0.27712,2.5169,-0.10513,0.18681,2.6932,0.077871,0.146,2.6214,0.0063233,0.10274,2.4256,0.024538,0.09748,2.4475,-0.31151,-0.15697,2.7174,-0.2848,-0.54284,2.7072,-0.2806,-0.9268,2.7154,-0.27745,-0.97368,2.6642,-0.18219,-0.1493,2.6872,-0.17158,-0.54873,2.6996,-0.18051,-0.93824,2.7151,-0.17995,-0.97647,2.6522
-0.25434,-0.0066523,2.7051,-0.25544,0.053659,2.7167,-0.26569,0.36156,2.7439,-0.26147,0.50721,2.7794,-0.42744,0.26218,2.7735,-0.63055,0.20916,2.771,-0.74188,0.26569,2.5973,-0.78373,0.25591,2.5808,-0.10736,0.26577,2.7062,0.045011,0.16572,2.6272,0.065236,0.093906,2.4569,0.072956,0.066191,2.4386,-0.31331,-0.078233,2.7107,-0.27845,-0.47544,2.7362,-0.27841,-0.83914,2.713,-0.28825,-0.8892,2.6588,-0.19228,-0.0731,2.6817,-0.17703,-0.46952,2.7284,-0.17962,-0.84999,2.7099,-0.19419,-0.88193,2.6363
-0.25544,0.049073,2.7043,-0.2563,0.10635,2.7213,-0.26923,0.39488,2.7532,-0.26283,0.56226,2.8,-0.41452,0.32917,2.778,-0.61214,0.25749,2.77,-0.79183,0.23522,2.6171,-0.81159,0.23392,2.6202,-0.099084,0.33617,2.729,0.016689,0.19023,2.6343,0.089508,0.068892,2.4742,0.11501,0.020726,2.4521,-0.31358,-0.020058,2.6963,-0.28386,-0.41594,2.734,-0.26384,-0.78405,2.7289,-0.26474,-0.8318,2.6764,-0.19501,-0.012843,2.6881,-0.18674,-0.41022,2.7302,-0.18173,-0.79778,2.73,-0.19086,-0.87457,2.6955
-0.25834,0.087484,2.7035,-0.25733,0.14848,2.7267,-0.26283,0.46491,2.774,-0.25468,0.63492,2.8226,-0.41095,0.3792,2.7731,-0.59779,0.2698,2.7689,-0.77605,0.20026,2.6493,-0.8149,0.16671,2.6396,-0.13917,0.37764,2.7216,0.0023594,0.20023,2.6264,0.088078,0.047728,2.4996,0.11456,-0.012551,2.4842,-0.31506,0.02693,2.6898,-0.2756,-0.36654,2.7314,-0.24765,-0.76908,2.7636,-0.24583,-0.7804,2.6848,-0.2031,0.032762,2.6898,-0.18853,-0.36248,2.7357,-0.19276,-0.76122,2.7354,-0.20426,-0.80232,2.6763
-0.26076,0.10889,2.7013,-0.25866,0.17071,2.7293,-0.26154,0.51317,2.7878,-0.26306,0.68192,2.8389,-0.4085,0.40692,2.7616,-0.58886,0.28048,2.7594,-0.74266,0.14613,2.6691,-0.78568,0.10485,2.6612,-0.1569,0.41988,2.7184,-0.021331,0.21975,2.6375,0.040478,0.047188,2.5312,0.053745,-0.0082765,2.5161,-0.31646,0.047994,2.688,-0.28096,-0.38439,2.7496,-0.24453,-0.70019,2.7571,-0.22742,-0.77308,2.7096,-0.20739,0.05917,2.6864,-0.21196,-0.33696,2.7326,-0.21072,-0.72257,2.7345,-0.20724,-0.7767,2.6922
-0.26106,0.14695,2.6982,-0.25928,0.2023,2.7294,-0.26244,0.52429,2.786,-0.26033,0.71274,2.8446,-0.38997,0.43712,2.7534,-0.56234,0.28989,2.7441,-0.68408,0.11128,2.6754,-0.71908,0.056151,2.6731,-0.15446,0.46805,2.7243,-0.040962,0.23806,2.6617,-0.019802,0.05456,2.5613,-0.016553,0.0050135,2.5603,-0.31221,0.086936,2.6823,-0.29294,-0.2936,2.7301,-0.25014,-0.65527,2.7484,-0.24297,-0.72692,2.704,-0.21057,0.10091,2.686,-0.21716,-0.29509,2.7331,-0.23213,-0.63226,2.7059,-0.21422,-0.72811,2.6815
-0.26916,0.18743,2.6978,-0.26593,0.24039,2.7305,-0.2667,0.53773,2.7826,-0.26863,0.73415,2.849,-0.41089,0.45734,2.7656,-0.54218,0.26389,2.7353,-0.62872,0.085136,2.6781,-0.64004,0.033478,2.6748,-0.16115,0.4912,2.7241,-0.066342,0.24332,2.6834,-0.067273,0.059753,2.5848,-0.071412,0.014934,2.5936,-0.3243,0.12339,2.6891,-0.27492,-0.25525,2.7201,-0.28136,-0.62749,2.7317,-0.24821,-0.70526,2.689,-0.21492,0.13707,2.6779,-0.21897,-0.25966,2.7268,-0.2199,-0.63513,2.7267,-0.21802,-0.70319,2.6719
-0.26932,0.20248,2.698,-0.26623,0.25455,2.7329,-0.27092,0.55517,2.7806,-0.27567,0.75043,2.8536,-0.41034,0.4668,2.7608,-0.51713,0.25362,2.7299,-0.56009,0.056609,2.6872,-0.56641,0.0084698,2.7023,-0.16491,0.50004,2.7469,-0.10063,0.25386,2.6723,-0.10167,0.056666,2.6132,-0.08375,-0.027712,2.5922,-0.32373,0.14407,2.6881,-0.2908,-0.24307,2.7247,-0.29089,-0.61029,2.7319,-0.27211,-0.6759,2.6989,-0.21519,0.15046,2.6789,-0.21721,-0.24711,2.7218,-0.21808,-0.62622,2.7153,-0.22138,-0.68642,2.6701
-0.27212,0.20911,2.6984,-0.26934,0.26109,2.7353,-0.27455,0.56334,2.7809,-0.27996,0.75944,2.8502,-0.4053,0.4811,2.7542,-0.4965,0.24656,2.7323,-0.51311,0.046682,2.6839,-0.50635,0.013877,2.6934,-0.16898,0.50631,2.7444,-0.11814,0.27767,2.6769,-0.094522,0.072678,2.6361,-0.094591,0.048853,2.6421,-0.3252,0.15339,2.6899,-0.301,-0.24225,2.7372,-0.30069,-0.61061,2.7403,-0.28442,-0.68346,2.6917,-0.22133,0.16176,2.6794,-0.21724,-0.23615,2.7183,-0.21401,-0.61907,2.705,-0.22171,-0.67951,2.6597
-0.27613,0.20981,2.6994,-0.27147,0.26188,2.7371,-0.27689,0.56532,2.7798,-0.28309,0.76159,2.8478,-0.39896,0.48527,2.7515,-0.47847,0.23983,2.7371,-0.49245,0.040515,2.6858,-0.50374,-0.046218,2.6967,-0.19631,0.50361,2.714,-0.11598,0.27956,2.6785,-0.10177,0.069341,2.6515,-0.099668,0.036342,2.6537,-0.32895,0.15518,2.7026,-0.30607,-0.24301,2.7338,-0.30472,-0.59958,2.7381,-0.29644,-0.67661,2.688,-0.23013,0.16349,2.6753,-0.21658,-0.23445,2.7119,-0.2124,-0.61303,2.7,-0.21968,-0.67718,2.6545
-0.27775,0.20853,2.6985,-0.2724,0.26026,2.7375,-0.27793,0.56371,2.779,-0.28463,0.75966,2.8483,-0.39755,0.48392,2.7503,-0.50483,0.22759,2.7724,-0.47646,0.042494,2.685,-0.49566,0.02585,2.7129,-0.21876,0.51278,2.7238,-0.11739,0.28095,2.6807,-0.095208,0.081657,2.6397,-0.10538,0.031328,2.6427,-0.33001,0.15526,2.6967,-0.31689,-0.24376,2.7259,-0.31175,-0.60854,2.7315,-0.31971,-0.68586,2.6905,-0.23235,0.16112,2.6772,-0.20622,-0.23713,2.7035,-0.20871,-0.61466,2.6973,-0.21094,-0.68655,2.6508
-0.27844,0.20153,2.698,-0.27531,0.25239,2.7389,-0.2849,0.54966,2.7772,-0.2861,0.74621,2.8465,-0.3987,0.46829,2.7538,-0.44094,0.22996,2.7331,-0.4588,0.034063,2.6763,-0.49052,0.022436,2.7195,-0.17611,0.50804,2.7277,-0.11172,0.24817,2.6878,-0.097182,0.052448,2.6242,-0.10945,0.0027729,2.6326,-0.33051,0.14427,2.6927,-0.32505,-0.25562,2.7148,-0.32372,-0.61895,2.6992,-0.33476,-0.67614,2.6412,-0.2299,0.1514,2.6762,-0.20278,-0.24737,2.6954,-0.19303,-0.65013,2.6983,-0.1933,-0.72368,2.6536
-0.28724,0.15937,2.6926,-0.28192,0.20677,2.7349,-0.28972,0.49604,2.7764,-0.29585,0.69211,2.8453,-0.40089,0.42824,2.7562,-0.4715,0.20737,2.7498,-0.47178,-0.020257,2.6965,-0.47959,-0.040086,2.7144,-0.19814,0.4583,2.7181,-0.11041,0.20087,2.6817,-0.10907,-0.0084277,2.6091,-0.11225,-0.0684,2.564,-0.337,0.10567,2.6858,-0.34271,-0.29461,2.7039,-0.32997,-0.67905,2.7095,-0.3329,-0.7324,2.6455,-0.23825,0.10854,2.669,-0.20156,-0.28944,2.6889,-0.18922,-0.70707,2.692,-0.20125,-0.77387,2.6505
-0.28808,0.11976,2.6895,-0.28166,0.16766,2.7334,-0.2906,0.4611,2.7773,-0.29864,0.65737,2.8451,-0.40413,0.37783,2.7632,-0.46041,0.13807,2.7627,-0.47694,-0.055599,2.6898,-0.48047,-0.08023,2.7086,-0.19738,0.42181,2.721,-0.10899,0.16703,2.6816,-0.10263,-0.029412,2.6087,-0.10537,-0.066945,2.6172,-0.33219,0.066807,2.6903,-0.34589,-0.3341,2.6945,-0.34055,-0.72833,2.6963,-0.35569,-0.78623,2.6411,-0.24401,0.076105,2.6609,-0.20399,-0.32148,2.6825,-0.18602,-0.77087,2.6854,-0.19941,-0.83377,2.6434
-0.29062,0.059962,2.6898,-0.28228,0.10533,2.7342,-0.29293,0.38929,2.7761,-0.30799,0.58422,2.8444,-0.42253,0.31449,2.7806,-0.46863,0.11642,2.7946,-0.49055,-0.099627,2.6967,-0.50049,-0.18996,2.6803,-0.19031,0.36413,2.7245,-0.10872,0.10446,2.6781,-0.091107,-0.089745,2.6097,-0.10158,-0.13403,2.604,-0.33825,-0.0027943,2.6941,-0.34788,-0.40407,2.6811,-0.3515,-0.76342,2.6756,-0.37431,-0.82142,2.6224,-0.24352,0.0095922,2.652,-0.19871,-0.38722,2.6767,-0.18704,-0.83579,2.6804,-0.19233,-0.90236,2.6334
-0.29147,-0.015875,2.6798,-0.28204,0.030335,2.7248,-0.29804,0.31851,2.7698,-0.31093,0.51192,2.8476,-0.4267,0.25833,2.7885,-0.47281,0.022445,2.7657,-0.50456,-0.20448,2.6902,-0.50879,-0.25811,2.6871,-0.20788,0.29157,2.719,-0.10987,0.038226,2.6746,-0.086848,-0.15813,2.6162,-0.096758,-0.1954,2.6152,-0.33634,-0.080213,2.6871,-0.37585,-0.46239,2.6808,-0.3673,-0.83494,2.6704,-0.39057,-0.86516,2.5998,-0.24557,-0.062019,2.6396,-0.20656,-0.45991,2.6608,-0.19554,-0.85908,2.6725,-0.2188,-0.8893,2.6018
