-0.25587,-0.23704,2.7649,-0.24435,-0.17444,2.7996,-0.26798,0.14729,2.7738,-0.27474,0.31754,2.7945,-0.40368,0.031673,2.8353,-0.43551,-0.19253,2.8659,-0.46678,-0.38074,2.7552,-0.46871,-0.4131,2.7383,-0.13821,0.038175,2.7261,-0.060627,-0.20504,2.74,-0.08428,-0.39653,2.6627,-0.076973,-0.44532,2.6605,-0.31459,-0.30359,2.7838,-0.28493,-0.6849,2.7473,-0.28931,-0.95006,2.7399,-0.24644,-1.0166,2.7514,-0.19494,-0.29734,2.7359,-0.21777,-0.65109,2.7149,-0.15571,-0.97123,2.7995,-0.17973,-1.0105,2.7189
-0.25063,-0.2537,2.7578,-0.2407,-0.19059,2.7859,-0.26516,0.12108,2.7458,-0.27213,0.29649,2.775,-0.40241,0.0085009,2.8156,-0.44154,-0.20095,2.8588,-0.47087,-0.38976,2.7486,-0.47561,-0.44701,2.7178,-0.13354,0.015529,2.7039,-0.052068,-0.21924,2.7281,-0.07488,-0.41117,2.6523,-0.083109,-0.44015,2.6389,-0.309,-0.32102,2.7808,-0.28347,-0.68448,2.7448,-0.29166,-0.95705,2.7365,-0.28648,-1.0039,2.6971,-0.18909,-0.31446,2.7313,-0.22276,-0.65632,2.7003,-0.16163,-0.97304,2.7896,-0.18344,-1.0136,2.7166
-0.24061,-0.30348,2.7507,-0.23479,-0.2392,2.7715,-0.26326,0.071515,2.7181,-0.26618,0.24536,2.746,-0.39693,-0.04291,2.7862,-0.45547,-0.23531,2.8478,-0.47029,-0.42485,2.7424,-0.48401,-0.46198,2.7056,-0.12659,-0.02963,2.6874,-0.042281,-0.24863,2.7137,-0.075771,-0.43629,2.6257,-0.08627,-0.48852,2.6031,-0.29936,-0.36874,2.7769,-0.26957,-0.66923,2.7149,-0.25443,-0.95531,2.7381,-0.27451,-1.0132,2.7259,-0.17565,-0.36254,2.732,-0.23989,-0.68222,2.6739,-0.19686,-0.97161,2.7509,-0.17873,-1.0322,2.7546
-0.23567,-0.33953,2.7521,-0.23285,-0.27427,2.7677,-0.26491,0.029286,2.7033,-0.27302,0.18907,2.7197,-0.40321,-0.094239,2.7666,-0.46336,-0.27767,2.8379,-0.478,-0.45117,2.7179,-0.49216,-0.50698,2.6806,-0.12354,-0.083313,2.6734,-0.031753,-0.28248,2.7036,-0.071291,-0.46798,2.6172,-0.07682,-0.51431,2.5919,-0.29394,-0.40759,2.781,-0.28449,-0.64995,2.6984,-0.28999,-0.95932,2.7224,-0.3119,-0.99885,2.6568,-0.1683,-0.39955,2.736,-0.2502,-0.71023,2.6578,-0.20365,-0.97393,2.7464,-0.22508,-1.0133,2.6784
-0.23193,-0.39328,2.7579,-0.23085,-0.32769,2.7667,-0.2655,-0.026673,2.686,-0.26392,0.14239,2.6967,-0.39901,-0.13574,2.7456,-0.4748,-0.31422,2.8202,-0.49387,-0.49448,2.6974,-0.50311,-0.5473,2.6578,-0.12595,-0.13517,2.6571,-0.023992,-0.33254,2.6996,-0.061271,-0.50871,2.5926,-0.07395,-0.54725,2.5711,-0.2904,-0.45514,2.7861,-0.26893,-0.72561,2.6258,-0.25172,-0.96937,2.7404,-0.26565,-1.0239,2.7076,-0.1638,-0.44974,2.7495,-0.31177,-0.68433,2.6151,-0.18951,-0.98102,2.7332,-0.20391,-1.0412,2.7719
-0.22969,-0.43791,2.7543,-0.22953,-0.37488,2.7565,-0.26555,-0.087617,2.6586,-0.27005,0.082573,2.6732,-0.40708,-0.20244,2.7401,-0.48524,-0.37571,2.7972,-0.50814,-0.54646,2.6771,-0.51321,-0.60762,2.6379,-0.1328,-0.17812,2.6401,-0.027411,-0.37264,2.6853,-0.059448,-0.54882,2.5766,-0.063636,-0.59028,2.5489,-0.28881,-0.50471,2.7863,-0.28972,-0.7427,2.5999,-0.25806,-0.97458,2.7373,-0.27927,-1.0193,2.6726,-0.1597,-0.49293,2.7515,-0.29155,-0.73139,2.6371,-0.23206,-0.93234,2.6798,-0.21444,-1.0245,2.6976
-0.22585,-0.47361,2.7451,-0.22791,-0.41067,2.7437,-0.27098,-0.13539,2.6399,-0.26998,0.035812,2.6572,-0.39846,-0.24333,2.7221,-0.48753,-0.41874,2.782,-0.51753,-0.58892,2.663,-0.52193,-0.6389,2.6239,-0.13121,-0.22868,2.6291,-0.02443,-0.41531,2.6711,-0.056949,-0.59425,2.5594,-0.069861,-0.63503,2.5335,-0.28247,-0.53518,2.7785,-0.2936,-0.76484,2.5811,-0.26159,-0.98265,2.7334,-0.28183,-1.0291,2.6698,-0.15626,-0.5253,2.7441,-0.29575,-0.75508,2.6187,-0.23704,-0.94219,2.6836,-0.22377,-1.0389,2.6756
-0.22227,-0.49361,2.7412,-0.22621,-0.43323,2.7372,-0.27377,-0.16745,2.6312,-0.27663,0.0064201,2.6386,-0.39694,-0.26841,2.7144,-0.49377,-0.44008,2.7699,-0.51884,-0.61429,2.6563,-0.5298,-0.67745,2.6218,-0.13188,-0.24409,2.6262,-0.022135,-0.43572,2.6624,-0.049557,-0.61143,2.5531,-0.060958,-0.64286,2.5345,-0.27969,-0.56111,2.7731,-0.26134,-0.82281,2.6285,-0.26196,-0.99123,2.7238,-0.27943,-1.0301,2.7201,-0.14918,-0.544,2.7425,-0.30271,-0.75512,2.6006,-0.23569,-0.94403,2.6822,-0.22409,-1.0315,2.6313
-0.22069,-0.50572,2.7351,-0.22539,-0.44546,2.7295,-0.27126,-0.17594,2.6258,-0.27698,-0.0044627,2.6286,-0.39637,-0.27619,2.7061,-0.4961,-0.45111,2.7695,-0.5184,-0.6208,2.6481,-0.52877,-0.68268,2.611,-0.13222,-0.25519,2.6222,-0.018466,-0.43487,2.6494,-0.023361,-0.6146,2.5448,-0.036584,-0.66445,2.5291,-0.27816,-0.57035,2.7687,-0.27453,-0.77034,2.5502,-0.26126,-0.98186,2.7137,-0.25185,-1.0294,2.676,-0.14792,-0.55473,2.7356,-0.31048,-0.75465,2.5878,-0.21128,-0.97111,2.6888,-0.24319,-0.99004,2.7091
-0.22257,-0.50416,2.729,-0.22739,-0.44479,2.7223,-0.27154,-0.17562,2.6218,-0.27723,-0.002548,2.625,-0.40023,-0.27413,2.705,-0.50638,-0.43551,2.767,-0.50396,-0.5909,2.6269,-0.50651,-0.63232,2.5929,-0.1328,-0.25543,2.6192,0.009168,-0.39295,2.6151,-0.021875,-0.57837,2.525,-0.028939,-0.62813,2.5247,-0.28013,-0.56995,2.7635,-0.26835,-0.77022,2.5458,-0.26218,-0.98185,2.7126,-0.23856,-0.99839,2.6712,-0.14942,-0.55427,2.7291,-0.23784,-0.77743,2.5438,-0.2367,-0.94029,2.6701,-0.25666,-0.98626,2.6081
-0.23162,-0.46052,2.7035,-0.23555,-0.4045,2.6985,-0.27371,-0.14285,2.6123,-0.28106,0.019514,2.619,-0.42046,-0.23563,2.7133,-0.51521,-0.40543,2.7607,-0.45224,-0.52418,2.5995,-0.44806,-0.57157,2.5681,-0.11221,-0.22106,2.6156,0.041357,-0.34471,2.6106,-0.057017,-0.48029,2.4823,-0.062039,-0.56508,2.4661,-0.29587,-0.5377,2.7398,-0.26337,-0.7528,2.5585,-0.23677,-0.98458,2.7375,-0.28125,-1.0179,2.6534,-0.15012,-0.52431,2.7076,-0.25125,-0.79031,2.5899,-0.23685,-0.94038,2.6702,-0.2194,-1.0157,2.6892
-0.23712,-0.39501,2.6916,-0.24127,-0.33817,2.687,-0.27664,-0.070283,2.6114,-0.27577,0.078538,2.6147,-0.43014,-0.16467,2.7103,-0.46795,-0.36844,2.6885,-0.41984,-0.53594,2.5632,-0.41987,-0.58468,2.5444,-0.10917,-0.1451,2.6128,0.020706,-0.29384,2.5815,-0.086357,-0.40012,2.4849,-0.08473,-0.44899,2.4666,-0.30377,-0.47259,2.719,-0.26505,-0.78651,2.6078,-0.25798,-0.96657,2.7138,-0.25145,-1.0176,2.6899,-0.15506,-0.46075,2.695,-0.20679,-0.73947,2.5878,-0.23655,-0.94071,2.6716,-0.23206,-1.0118,2.6393
-0.24759,-0.31535,2.6843,-0.25096,-0.25705,2.681,-0.279,0.023166,2.6175,-0.26336,0.16952,2.6256,-0.43283,-0.077078,2.7088,-0.43594,-0.29471,2.6788,-0.42058,-0.47845,2.5646,-0.42061,-0.52719,2.5458,-0.1039,-0.063242,2.6209,0.0012268,-0.23072,2.5837,-0.12748,-0.32484,2.4886,-0.12633,-0.37269,2.4677,-0.31566,-0.39101,2.7146,-0.2607,-0.69065,2.5944,-0.25671,-0.96849,2.7217,-0.25405,-1.0228,2.689,-0.16779,-0.38717,2.6791,-0.25839,-0.73073,2.6335,-0.20842,-0.98674,2.7224,-0.22786,-1.0364,2.7046
-0.25486,-0.22829,2.6709,-0.2575,-0.16795,2.6696,-0.28045,0.12686,2.6217,-0.27399,0.27096,2.6314,-0.42852,0.024546,2.7062,-0.44583,-0.19099,2.662,-0.41228,-0.3718,2.5567,-0.41231,-0.42054,2.5379,-0.12084,0.041384,2.6255,-0.024727,-0.12193,2.6332,-0.097632,-0.29019,2.5356,-0.089438,-0.38298,2.5121,-0.31992,-0.30178,2.6929,-0.29453,-0.63993,2.6323,-0.27257,-0.9519,2.7249,-0.29109,-1.0043,2.6865,-0.1814,-0.29591,2.6648,-0.20955,-0.6325,2.6288,-0.19599,-0.9662,2.7335,-0.18718,-1.014,2.6943
-0.26275,-0.13134,2.6595,-0.26399,-0.070559,2.6617,-0.28032,0.23103,2.6366,-0.27653,0.37424,2.6536,-0.43103,0.13091,2.7206,-0.45945,-0.094859,2.6835,-0.43165,-0.32441,2.596,-0.4219,-0.38718,2.5703,-0.13007,0.14484,2.6323,-0.0028154,-0.022448,2.6941,-0.049857,-0.21253,2.6362,-0.045351,-0.26145,2.636,-0.32662,-0.20531,2.6782,-0.30729,-0.60451,2.6934,-0.28874,-0.93345,2.7214,-0.29987,-0.9829,2.6692,-0.1936,-0.19874,2.6462,-0.17261,-0.58358,2.6621,-0.18062,-0.94179,2.7184,-0.18678,-0.99028,2.6651
-0.2686,-0.047591,2.6552,-0.26933,0.014616,2.6596,-0.28157,0.32583,2.6475,-0.27212,0.47491,2.6707,-0.41656,0.23207,2.7173,-0.48288,0.050638,2.7722,-0.50107,-0.1259,2.6673,-0.49875,-0.12568,2.6656,-0.12968,0.24193,2.6404,-0.020044,0.057754,2.7162,-0.027176,-0.14415,2.6863,-0.039129,-0.20495,2.6779,-0.32868,-0.11521,2.6669,-0.31363,-0.50717,2.7071,-0.30189,-0.86162,2.6978,-0.31743,-0.91845,2.6499,-0.2052,-0.11408,2.6426,-0.1724,-0.50829,2.697,-0.15307,-0.87216,2.7028,-0.16103,-0.93072,2.644
-0.27358,0.015798,2.6467,-0.27228,0.079917,2.6546,-0.27638,0.40371,2.6561,-0.27642,0.54664,2.6738,-0.41583,0.30076,2.7199,-0.48137,0.07409,2.7669,-0.46796,-0.1216,2.6892,-0.46798,-0.1908,2.6816,-0.13977,0.30852,2.6467,-0.036217,0.092652,2.7091,-0.026501,-0.11117,2.6986,-0.019634,-0.12823,2.736,-0.33361,-0.049721,2.6542,-0.32122,-0.44525,2.7076,-0.30214,-0.82998,2.7255,-0.29065,-0.89462,2.6939,-0.21386,-0.046987,2.6329,-0.17284,-0.43983,2.6896,-0.1526,-0.83225,2.7234,-0.16411,-0.88652,2.6693
-0.27859,0.062966,2.6432,-0.27586,0.12771,2.6547,-0.27491,0.45713,2.6633,-0.27867,0.59877,2.6764,-0.41413,0.34444,2.7211,-0.48613,0.12831,2.7839,-0.49779,-0.076567,2.7104,-0.51275,-0.13813,2.7105,-0.14132,0.35747,2.6547,-0.050073,0.083469,2.7226,-0.035264,-0.12079,2.7272,-0.019032,-0.12552,2.7393,-0.33734,0.0016106,2.6523,-0.32201,-0.39491,2.7003,-0.28539,-0.7449,2.7505,-0.29694,-0.79486,2.7049,-0.22216,0.0027231,2.6244,-0.17471,-0.38913,2.6832,-0.16444,-0.76278,2.7445,-0.17693,-0.81899,2.684
-0.28486,0.11365,2.6442,-0.28197,0.17002,2.6576,-0.28381,0.4749,2.6643,-0.28218,0.65631,2.6844,-0.40684,0.39088,2.7112,-0.47722,0.15379,2.7616,-0.49705,-0.062277,2.7074,-0.51343,-0.12381,2.6996,-0.14653,0.38514,2.6547,-0.094377,0.10687,2.6974,-0.04945,-0.033117,2.6956,-0.020936,-0.12298,2.7426,-0.34251,0.05325,2.6479,-0.31207,-0.34273,2.6914,-0.272,-0.72836,2.7498,-0.25923,-0.77201,2.6961,-0.23014,0.047712,2.6297,-0.18864,-0.34617,2.6804,-0.18456,-0.69954,2.728,-0.19933,-0.7324,2.6553
-0.28898,0.12314,2.6414,-0.28512,0.18236,2.6573,-0.28495,0.49844,2.6717,-0.28487,0.67212,2.6849,-0.41366,0.40825,2.7128,-0.46801,0.17428,2.7329,-0.49483,-0.030622,2.6814,-0.51065,-0.091422,2.6785,-0.15304,0.40728,2.6507,-0.11085,0.14548,2.6898,-0.083779,-0.057554,2.6939,-0.060804,-0.068321,2.7055,-0.34679,0.062191,2.6453,-0.30924,-0.3173,2.6905,-0.2583,-0.69221,2.7447,-0.26003,-0.73736,2.6886,-0.23548,0.064744,2.6223,-0.21574,-0.32939,2.6819,-0.20246,-0.6814,2.733,-0.19257,-0.73414,2.6773
-0.2981,0.1476,2.6334,-0.29324,0.20752,2.6533,-0.28744,0.52175,2.6717,-0.28586,0.69926,2.6876,-0.41221,0.42294,2.7024,-0.46605,0.18265,2.7021,-0.49251,-0.017476,2.6711,-0.5076,-0.083377,2.6743,-0.15524,0.43457,2.6472,-0.12098,0.21181,2.6884,-0.092004,0.0058369,2.6939,-0.084564,-0.057966,2.7234,-0.35546,0.089317,2.6423,-0.29422,-0.2752,2.6633,-0.26025,-0.66661,2.7274,-0.2582,-0.70263,2.6629,-0.24702,0.08951,2.6067,-0.23361,-0.32923,2.711,-0.19377,-0.71563,2.7615,-0.19674,-0.73978,2.6801
-0.30126,0.15282,2.6284,-0.29527,0.21383,2.6511,-0.29081,0.54545,2.6705,-0.2941,0.7216,2.6917,-0.4152,0.43365,2.6911,-0.47008,0.1935,2.6902,-0.49541,-0.0044697,2.6518,-0.50813,-0.075536,2.6579,-0.17952,0.45322,2.6325,-0.12303,0.21109,2.6869,-0.094849,0.0079998,2.6926,-0.087099,-0.056118,2.7213,-0.35735,0.096057,2.6367,-0.29182,-0.26696,2.6588,-0.26349,-0.66471,2.7203,-0.2594,-0.70128,2.6581,-0.25147,0.096931,2.6019,-0.24865,-0.32349,2.7103,-0.22285,-0.65955,2.7106,-0.20657,-0.75236,2.6972
-0.30283,0.15853,2.6216,-0.29833,0.21978,2.6471,-0.29459,0.54988,2.6659,-0.29272,0.72828,2.6874,-0.41188,0.44747,2.6702,-0.4732,0.22012,2.6832,-0.49717,0.00783,2.6373,-0.50191,-0.055707,2.6355,-0.17969,0.45739,2.6297,-0.12808,0.22362,2.6866,-0.15388,0.046368,2.5864,-0.10093,-0.045592,2.697,-0.35664,0.1028,2.6293,-0.29266,-0.2624,2.6532,-0.26708,-0.66247,2.715,-0.257,-0.70014,2.654,-0.25399,0.10483,2.5959,-0.25639,-0.31172,2.7047,-0.24611,-0.61249,2.6643,-0.23514,-0.69847,2.6448
-0.30504,0.16183,2.6151,-0.29952,0.22271,2.6429,-0.29903,0.55162,2.6608,-0.29391,0.72987,2.6841,-0.43826,0.45476,2.6849,-0.47696,0.21781,2.6773,-0.50093,0.0027183,2.6196,-0.50495,-0.062316,2.619,-0.18259,0.45682,2.6253,-0.1319,0.21919,2.6823,-0.10874,0.01502,2.6683,-0.1007,-0.049799,2.6953,-0.35821,0.10344,2.6233,-0.29743,-0.26449,2.6447,-0.29861,-0.67243,2.6838,-0.26931,-0.73091,2.6708,-0.25472,0.1074,2.5905,-0.25758,-0.30671,2.698,-0.2354,-0.65403,2.6937,-0.23699,-0.69941,2.641
-0.3067,0.15531,2.6068,-0.30136,0.21591,2.6371,-0.30307,0.54122,2.653,-0.29894,0.72038,2.6788,-0.4343,0.44444,2.6728,-0.479,0.20357,2.6675,-0.5037,0.0014207,2.6121,-0.50956,-0.066406,2.609,-0.1865,0.45308,2.6199,-0.13318,0.21421,2.681,-0.10832,0.010239,2.6674,-0.10037,-0.054689,2.6942,-0.36055,0.096216,2.6102,-0.32305,-0.29386,2.6581,-0.31834,-0.67852,2.6758,-0.28241,-0.74674,2.6553,-0.25554,0.10156,2.5846,-0.24661,-0.29347,2.644,-0.24388,-0.66011,2.6847,-0.23006,-0.73277,2.6579
-0.30914,0.1402,2.5958,-0.30445,0.2006,2.6286,-0.30809,0.52916,2.6466,-0.30515,0.71266,2.6724,-0.43961,0.42436,2.6613,-0.48352,0.17524,2.648,-0.51193,-0.034571,2.5923,-0.52163,-0.10685,2.5887,-0.18579,0.44411,2.6152,-0.16039,0.17835,2.5961,-0.14373,-0.023343,2.5762,-0.099361,-0.096998,2.6871,-0.36409,0.079711,2.5983,-0.33811,-0.31677,2.6438,-0.33975,-0.71231,2.65,-0.33414,-0.75231,2.6065,-0.25587,0.084083,2.573,-0.24067,-0.31202,2.6251,-0.24181,-0.70974,2.6668,-0.24534,-0.77827,2.6264
-0.31514,0.10271,2.5834,-0.3094,0.16186,2.6167,-0.31149,0.48644,2.6303,-0.31769,0.6706,2.6548,-0.44898,0.39079,2.6542,-0.48766,0.15287,2.6412,-0.51587,-0.062431,2.5851,-0.52612,-0.13456,2.5803,-0.18732,0.39795,2.6011,-0.13473,0.15785,2.6701,-0.13976,-0.054479,2.5767,-0.098811,-0.11085,2.6877,-0.37353,0.038339,2.5849,-0.34432,-0.35847,2.6264,-0.32608,-0.75489,2.6385,-0.34446,-0.79547,2.5813,-0.25954,0.044431,2.5623,-0.23285,-0.34289,2.6065,-0.23117,-0.71886,2.6425,-0.24892,-0.79215,2.6138
-0.31467,0.060712,2.5783,-0.30956,0.1197,2.6128,-0.31773,0.44149,2.6242,-0.32242,0.63583,2.6478,-0.46057,0.3393,2.649,-0.49596,0.10205,2.6284,-0.52222,-0.1125,2.5674,-0.52767,-0.18472,2.5576,-0.1859,0.36298,2.596,-0.12944,0.097603,2.6624,-0.098433,-0.10717,2.6782,-0.090791,-0.17238,2.7044,-0.37166,-0.005661,2.5819,-0.35076,-0.40418,2.613,-0.344,-0.79996,2.6257,-0.33854,-0.8735,2.5748,-0.25793,0.0015225,2.5559,-0.24098,-0.40791,2.6376,-0.2485,-0.75277,2.622,-0.25355,-0.81096,2.5662
-0.31499,-0.0095711,2.5698,-0.30987,0.054447,2.6046,-0.32051,0.40476,2.6146,-0.33764,0.57708,2.6336,-0.45946,0.27724,2.6371,-0.49636,0.026966,2.6118,-0.51661,-0.17727,2.5551,-0.52367,-0.2492,2.5456,-0.19018,0.29721,2.582,-0.12713,0.049806,2.6622,-0.13744,-0.17341,2.5587,-0.096615,-0.22802,2.6787,-0.37102,-0.074601,2.5774,-0.35876,-0.47461,2.596,-0.35225,-0.86222,2.5961,-0.35367,-0.93301,2.5563,-0.25833,-0.066672,2.5468,-0.25484,-0.46472,2.5884,-0.27228,-0.86865,2.5924,-0.27113,-0.93806,2.547
-0.31196,-0.072489,2.5626,-0.30871,-0.0089578,2.5952,-0.32477,0.3259,2.5896,-0.3363,0.5113,2.6198,-0.4631,0.20394,2.6199,-0.50181,-0.026935,2.6098,-0.51789,-0.2662,2.5389,-0.52212,-0.33862,2.5304,-0.18572,0.22736,2.5688,-0.12671,-0.0085251,2.661,-0.13196,-0.27287,2.5704,-0.093727,-0.29213,2.6716,-0.37085,-0.1406,2.5692,-0.36422,-0.54189,2.5687,-0.36128,-0.92004,2.5773,-0.37761,-0.96101,2.5191,-0.25012,-0.13228,2.5439,-0.24533,-0.53172,2.5735,-0.26363,-0.90217,2.5776,-0.2846,-0.95735,2.5272
