0.12432,-0.17304,2.6561,0.12326,-0.10917,2.6631,0.0914,0.18024,2.5767,0.087633,0.35592,2.5583,-0.05744,0.10142,2.6494,-0.24098,0.043967,2.7353,-0.41011,-0.073668,2.7161,-0.46301,-0.10021,2.7064,0.28156,0.12044,2.583,0.5062,0.11359,2.5501,0.66626,0.091049,2.418,0.66988,0.093126,2.3926,0.057349,-0.24933,2.6798,0.016892,-0.60773,2.6546,0.038282,-0.93647,2.7164,0.020866,-0.99448,2.6814,0.20016,-0.24475,2.6492,0.21358,-0.61079,2.6139,0.2364,-0.94121,2.6349,0.22915,-0.99767,2.5821
0.1315,-0.20786,2.6458,0.12817,-0.14486,2.6447,0.096505,0.14163,2.5422,0.086362,0.30592,2.5214,-0.050744,0.063275,2.6179,-0.2267,0.0093726,2.7438,-0.39834,-0.11481,2.7992,-0.45882,-0.15228,2.8103,0.27545,0.082681,2.5571,0.47895,0.11593,2.5661,0.67263,0.079695,2.5155,0.72504,0.066631,2.4833,0.066344,-0.27891,2.6769,0.0092871,-0.60965,2.6396,0.031606,-0.93281,2.6977,0.020822,-0.9777,2.6313,0.20767,-0.27449,2.6458,0.20772,-0.62411,2.596,0.23204,-0.94232,2.6313,0.22722,-0.99836,2.5805
0.13561,-0.2442,2.6375,0.13162,-0.18157,2.6328,0.096894,0.10043,2.5258,0.080607,0.27736,2.5062,-0.050658,0.030742,2.6036,-0.20893,-0.048427,2.7672,-0.35552,-0.17008,2.8686,-0.41067,-0.19681,2.8857,0.26734,0.045027,2.5387,0.523,0.085932,2.5913,0.66826,0.036453,2.5902,0.72052,0.038348,2.5564,0.073386,-0.31298,2.6715,-0.00074029,-0.63405,2.6177,0.028492,-0.93099,2.6896,0.0097454,-0.99083,2.6565,0.21,-0.31107,2.6403,0.20507,-0.65007,2.5716,0.22584,-0.94313,2.6224,0.2198,-0.99799,2.575
0.13725,-0.29143,2.6267,0.13225,-0.22972,2.6192,0.093947,0.049811,2.51,0.083755,0.23551,2.4928,-0.052638,-0.02597,2.6018,-0.17474,-0.12216,2.7977,-0.28865,-0.24852,2.9065,-0.33383,-0.27312,2.9272,0.26886,0.0070772,2.5244,0.47062,0.035502,2.6194,0.6768,-0.018419,2.614,0.73227,-0.03432,2.6075,0.077455,-0.36374,2.6645,-0.0016102,-0.65471,2.6059,0.028288,-0.93531,2.6867,0.0029183,-0.99949,2.6529,0.2121,-0.35782,2.6315,0.2008,-0.67559,2.5541,0.2228,-0.95622,2.6181,0.21814,-1.0105,2.5722
0.13747,-0.33026,2.6214,0.13403,-0.2678,2.6111,0.099855,0.019405,2.4988,0.07763,0.20219,2.4769,-0.044995,-0.068479,2.5966,-0.13117,-0.1916,2.8015,-0.25444,-0.31078,2.9258,-0.26936,-0.30911,2.9319,0.25839,-0.038821,2.5032,0.46359,-0.044098,2.6269,0.66977,-0.098019,2.6215,0.72524,-0.11392,2.615,0.07896,-0.39974,2.6622,-0.0029077,-0.68673,2.5942,0.028298,-0.93491,2.6815,0.0031518,-0.99459,2.652,0.20809,-0.39439,2.6237,0.20221,-0.69823,2.5337,0.2193,-0.96536,2.6059,0.2416,-1.0183,2.6222
0.13619,-0.34884,2.615,0.13256,-0.28503,2.604,0.099558,0.0088608,2.4945,0.076141,0.19154,2.4746,-0.043163,-0.087099,2.5907,-0.07918,-0.27244,2.7721,-0.17269,-0.43262,2.838,-0.20057,-0.45798,2.957,0.2644,-0.079112,2.5022,0.44188,-0.20977,2.6193,0.51213,-0.42492,2.6351,0.53712,-0.48544,2.6295,0.076235,-0.41827,2.6529,-0.0033874,-0.70485,2.5801,0.027005,-0.93603,2.6747,0.0026553,-0.99298,2.6478,0.20766,-0.41309,2.6184,0.2043,-0.70747,2.5223,0.21875,-0.96895,2.6048,0.20152,-1.0157,2.5416
0.13669,-0.36047,2.6111,0.13282,-0.29687,2.6001,0.1007,-7.055e-05,2.4955,0.078589,0.18554,2.4753,-0.042917,-0.095161,2.5865,-0.068856,-0.31897,2.7201,-0.098293,-0.52008,2.7284,-0.13302,-0.5654,2.8435,0.26612,-0.096207,2.4984,0.39734,-0.29279,2.5762,0.36108,-0.54376,2.4896,0.35573,-0.60035,2.4566,0.075065,-0.43156,2.6428,-0.0058066,-0.71538,2.5578,0.026916,-0.93569,2.6713,0.0034703,-0.9916,2.6451,0.20982,-0.42649,2.6148,0.20446,-0.71696,2.5098,0.21556,-0.97167,2.5993,0.21044,-1.028,2.5674
0.13838,-0.36702,2.6023,0.13439,-0.30231,2.5934,0.10471,0.0031717,2.4992,0.08575,0.19065,2.4924,-0.043249,-0.097256,2.5851,-0.078371,-0.33168,2.6624,-0.079083,-0.53314,2.6307,-0.1245,-0.60845,2.6586,0.25942,-0.099971,2.4914,0.3293,-0.33577,2.4948,0.29232,-0.52761,2.4228,0.2813,-0.56617,2.3859,0.07776,-0.43776,2.6351,-0.011188,-0.71778,2.5434,0.022113,-0.93124,2.6556,-0.0070571,-0.99187,2.6424,0.20986,-0.43332,2.5985,0.20458,-0.72342,2.4946,0.20839,-0.96715,2.5862,0.22125,-1.0126,2.547
0.13351,-0.36049,2.5998,0.13197,-0.29541,2.5915,0.11445,0.024274,2.5131,0.09338,0.21137,2.516,-0.04327,-0.086956,2.5766,-0.11756,-0.29063,2.6126,-0.13724,-0.41948,2.4454,-0.15269,-0.55508,2.4702,0.24659,-0.091078,2.4807,0.27018,-0.29717,2.4145,0.20399,-0.43896,2.3385,0.30161,-0.56439,2.4719,0.073126,-0.42736,2.6329,-0.0094496,-0.70891,2.5378,0.022189,-0.93107,2.6533,-0.0091403,-0.9918,2.632,0.19624,-0.42411,2.5882,0.20652,-0.71504,2.4882,0.20614,-0.96039,2.5872,0.18488,-1.0025,2.5216
0.13092,-0.33146,2.6011,0.13096,-0.26624,2.5946,0.11782,0.055689,2.5332,0.1094,0.24654,2.559,-0.045393,-0.051005,2.5716,-0.16912,-0.21606,2.5225,-0.14324,-0.38336,2.3573,-0.15423,-0.42587,2.3308,0.22635,-0.053837,2.4697,0.24779,-0.23588,2.3584,0.31152,-0.45611,2.5829,0.34031,-0.52867,2.5887,0.071974,-0.39414,2.6341,-0.0096932,-0.69089,2.5389,0.021798,-0.9299,2.652,-0.0088704,-0.99057,2.6318,0.19077,-0.39194,2.5863,0.20764,-0.68374,2.4857,0.20548,-0.93846,2.588,0.2012,-0.99244,2.556
0.13114,-0.30065,2.5977,0.12967,-0.23264,2.5927,0.1113,0.10127,2.5411,0.11192,0.28192,2.5715,-0.043554,-0.0070406,2.5588,-0.20417,-0.20016,2.5001,-0.17207,-0.084701,2.3648,-0.15633,-0.13186,2.2153,0.20858,-0.00010075,2.4643,0.23195,-0.18453,2.3308,0.040157,-0.012718,2.1428,-0.014843,0.047582,2.1076,0.075288,-0.35976,2.6234,-0.015938,-0.65836,2.546,0.022972,-0.93144,2.6531,-0.0091953,-0.99138,2.6322,0.19149,-0.35445,2.5852,0.21441,-0.65408,2.4853,0.20403,-0.93641,2.5865,0.20044,-0.99068,2.5533
0.13238,-0.2304,2.5863,0.13196,-0.16221,2.5837,0.11836,0.17593,2.5486,0.11819,0.34514,2.5845,-0.029642,0.03319,2.5637,-0.23351,-0.063593,2.4998,-0.20189,0.034305,2.349,-0.16476,0.13871,2.3904,0.20149,0.083159,2.456,0.16778,0.010129,2.2597,0.024844,0.30439,2.1609,0.2786,-0.31261,2.5762,0.079712,-0.29076,2.6086,-0.018257,-0.61401,2.566,0.022246,-0.92673,2.6516,-0.013283,-0.98597,2.6314,0.18773,-0.28344,2.5714,0.22214,-0.61245,2.5011,0.20991,-0.94016,2.5948,0.181,-0.97757,2.5293
0.098812,-0.14256,2.5714,0.095761,-0.080373,2.5737,0.069323,0.23009,2.5609,0.094035,0.40948,2.5932,-0.042565,0.15653,2.5526,-0.23973,0.067318,2.3953,-0.15073,0.23165,2.3493,-0.14537,0.27241,2.348,0.20166,0.16266,2.4577,0.12934,0.20864,2.2181,0.016048,0.37711,2.1864,0.082296,0.4856,2.247,0.043884,-0.2005,2.5917,-0.014447,-0.5704,2.5886,0.016999,-0.91194,2.6527,-0.017596,-0.97031,2.6314,0.16514,-0.20205,2.5519,0.21749,-0.5881,2.5167,0.2204,-0.9301,2.593,0.19433,-0.96601,2.5258
0.085608,-0.064042,2.5479,0.086569,0.0020579,2.5553,0.073865,0.33673,2.5599,0.15146,0.54403,2.6128,-0.059436,0.2367,2.5755,-0.24619,0.23946,2.4663,-0.10672,0.33459,2.342,-0.043296,0.37303,2.313,0.19729,0.22381,2.4616,0.21077,0.32027,2.248,0.076793,0.47837,2.228,0.1385,0.59132,2.306,0.024809,-0.12673,2.573,0.00040108,-0.53728,2.6131,0.0079494,-0.8845,2.6611,-0.027876,-0.94279,2.6324,0.14929,-0.1281,2.5159,0.2041,-0.5305,2.5428,0.24536,-0.87746,2.5822,0.21578,-0.91154,2.5153
0.081791,0.02567,2.5246,0.088377,0.089501,2.5374,0.090459,0.41697,2.5598,0.11955,0.58177,2.6146,-0.067743,0.2966,2.642,-0.25595,0.28254,2.5394,-0.15734,0.35741,2.3659,-0.081704,0.38188,2.3314,0.22359,0.31984,2.4671,0.28659,0.40818,2.2847,0.14513,0.56185,2.2783,0.20614,0.63064,2.3349,0.011892,-0.049662,2.5489,0.0085131,-0.45612,2.6197,0.0079022,-0.83657,2.6931,-0.034228,-0.89012,2.6597,0.14655,-0.048093,2.4814,0.18895,-0.45283,2.5451,0.25801,-0.79218,2.5977,0.22,-0.8245,2.5342
0.076304,0.084802,2.5108,0.089163,0.14487,2.5306,0.11253,0.46697,2.5674,0.14538,0.61192,2.6208,-0.05394,0.36767,2.657,-0.24621,0.28315,2.663,-0.25332,0.35768,2.4225,-0.19399,0.36792,2.3815,0.24036,0.37776,2.4825,0.35992,0.47794,2.3269,0.23397,0.64113,2.3035,0.26569,0.68768,2.3441,0.0044749,0.014953,2.5294,0.013292,-0.38921,2.608,0.035297,-0.72328,2.7056,-0.0021382,-0.75391,2.6409,0.1312,0.018971,2.4645,0.17878,-0.38516,2.5307,0.24978,-0.70873,2.6323,0.23415,-0.77014,2.5969
0.075557,0.11932,2.5036,0.090329,0.17645,2.5267,0.11312,0.48594,2.5664,0.15024,0.66456,2.6129,-0.069474,0.38018,2.6891,-0.25245,0.30851,2.7029,-0.32238,0.34034,2.5325,-0.34979,0.36346,2.3891,0.2443,0.40365,2.4973,0.431,0.48984,2.3777,0.33343,0.65783,2.3087,0.42546,0.72225,2.3045,0.0021444,0.047203,2.5112,0.0021106,-0.35613,2.5938,0.0441,-0.68342,2.7031,0.0052459,-0.71385,2.6391,0.13147,0.041987,2.4639,0.17673,-0.36558,2.5116,0.2457,-0.667,2.6617,0.20684,-0.69744,2.5977
0.064887,0.12085,2.4968,0.07915,0.17645,2.5212,0.090505,0.4813,2.5494,0.09858,0.67241,2.6081,-0.063552,0.38253,2.678,-0.21401,0.30916,2.7823,-0.41771,0.28248,2.6911,-0.48582,0.26756,2.6906,0.24847,0.42073,2.5065,0.47422,0.47219,2.4552,0.47463,0.63842,2.3209,0.60589,0.66766,2.3091,-0.0063664,0.050203,2.5071,0.0015912,-0.35314,2.5901,0.033768,-0.68294,2.6953,-0.0024174,-0.71384,2.6299,0.11866,0.047552,2.4573,0.17577,-0.35968,2.4958,0.25161,-0.64658,2.6674,0.21543,-0.67748,2.6021
0.05751,0.12451,2.4894,0.071434,0.18163,2.5179,0.085237,0.50176,2.5489,0.092201,0.68643,2.5921,-0.041983,0.40461,2.6351,-0.19451,0.30772,2.7971,-0.39896,0.2145,2.8226,-0.46205,0.20547,2.8205,0.24633,0.42582,2.5097,0.49154,0.45383,2.4917,0.57778,0.57112,2.3556,0.6963,0.52556,2.33,-0.0079672,0.054207,2.5024,-0.004449,-0.35035,2.5799,0.015792,-0.68466,2.6768,-0.0076062,-0.74503,2.6379,0.10507,0.059793,2.4472,0.17451,-0.3452,2.4865,0.26097,-0.63042,2.6559,0.25898,-0.69045,2.619
0.051192,0.12836,2.4841,0.06605,0.18662,2.5151,0.079465,0.5207,2.5471,0.086479,0.69539,2.58,-0.043734,0.41688,2.6285,-0.16189,0.29676,2.8141,-0.33842,0.15201,2.8717,-0.39314,0.13103,2.8811,0.23108,0.43077,2.5078,0.47421,0.40912,2.5186,0.61601,0.47256,2.3963,0.62495,0.60793,2.3055,-0.010557,0.061356,2.4959,-0.013947,-0.34503,2.5622,-0.0044133,-0.70273,2.6406,-0.0403,-0.75181,2.6006,0.097291,0.065788,2.4439,0.17293,-0.33783,2.4851,0.27345,-0.63594,2.6241,0.26625,-0.69714,2.5875
0.048667,0.12997,2.4787,0.062542,0.18883,2.5126,0.073828,0.52402,2.5413,0.075974,0.70041,2.5702,-0.016887,0.40649,2.6311,-0.14157,0.27779,2.8053,-0.26423,0.1075,2.8723,-0.30711,0.055581,2.8819,0.2465,0.42668,2.5073,0.4485,0.36255,2.5259,0.61037,0.36066,2.3997,0.65102,0.37261,2.3616,-0.012411,0.063693,2.4883,-0.02665,-0.34474,2.542,-0.027744,-0.69253,2.5918,-0.052336,-0.75296,2.553,0.098015,0.066675,2.4412,0.17037,-0.33824,2.4757,0.26956,-0.64622,2.5947,0.28671,-0.73672,2.5822
0.047753,0.12512,2.474,0.062065,0.1832,2.5086,0.066541,0.49695,2.5268,0.064128,0.6981,2.5522,-0.052043,0.40256,2.5909,-0.12428,0.23741,2.7698,-0.23669,0.043973,2.8165,-0.26421,-0.015746,2.8296,0.2113,0.42326,2.4884,0.40669,0.31774,2.5216,0.59285,0.24404,2.399,0.67026,0.32419,2.3419,-0.011913,0.059461,2.4839,-0.035695,-0.35034,2.5246,-0.049458,-0.70084,2.5573,-0.079667,-0.75978,2.5127,0.097656,0.063186,2.4381,0.16603,-0.34367,2.4563,0.26206,-0.6636,2.552,0.27365,-0.75436,2.5372
0.047318,0.11151,2.4705,0.061345,0.17307,2.5072,0.065912,0.49879,2.524,0.059945,0.68832,2.5454,-0.056126,0.39394,2.5868,-0.11599,0.20171,2.7341,-0.20565,0.02114,2.7534,-0.23804,-0.055037,2.7434,0.2136,0.4122,2.4846,0.37574,0.26229,2.4937,0.50042,0.1296,2.3931,0.53679,0.14885,2.3514,-0.013114,0.044029,2.4811,-0.049691,-0.36683,2.5042,-0.064609,-0.75785,2.525,-0.10203,-0.83242,2.4839,0.099101,0.047095,2.4361,0.15665,-0.36252,2.4295,0.2502,-0.69225,2.4961,0.25536,-0.78211,2.4737
0.047236,0.078078,2.4676,0.061598,0.13913,2.5043,0.063058,0.48411,2.5195,0.053913,0.65589,2.5323,-0.066163,0.35436,2.5812,-0.12844,0.15224,2.698,-0.20329,-0.044924,2.6714,-0.22957,-0.11896,2.6468,0.2106,0.37374,2.4691,0.35236,0.2099,2.4772,0.42302,0.042351,2.3736,0.4342,-0.020415,2.3291,-0.015381,0.0022989,2.4818,-0.060224,-0.409,2.4866,-0.079615,-0.76692,2.501,-0.11457,-0.84013,2.4569,0.10272,0.008378,2.4312,0.14959,-0.40223,2.4085,0.24601,-0.73341,2.467,0.24794,-0.82112,2.4361
