-0.53362,-0.097327,2.3061,-0.5309,-0.037304,2.3156,-0.53103,0.267,2.312,-0.53819,0.42971,2.2954,-0.70897,0.1715,2.3251,-0.91858,0.083927,2.2528,-0.88058,0.034176,2.0009,-0.89003,0.019025,1.9652,-0.40443,0.17429,2.2352,-0.31157,0.14844,2.0534,-0.35297,0.039488,1.8923,-0.34481,0.026854,1.8735,-0.60353,-0.17367,2.3162,-0.63019,-0.56029,2.2764,-0.6276,-0.84823,2.2906,-0.64656,-0.88268,2.2134,-0.46626,-0.16218,2.2891,-0.45579,-0.56759,2.2298,-0.46708,-0.88589,2.2876,-0.48603,-0.92034,2.2105
-0.53096,-0.023761,2.3054,-0.52895,0.034209,2.3199,-0.53495,0.33342,2.3323,-0.53649,0.4896,2.304,-0.70736,0.23823,2.344,-0.90358,0.15449,2.2817,-0.86937,0.078386,2.0433,-0.85396,0.064394,2.0105,-0.39586,0.25664,2.2553,-0.30374,0.1968,2.0886,-0.34244,0.09776,1.9413,-0.35284,0.076576,1.8944,-0.59975,-0.096961,2.3115,-0.61247,-0.52029,2.3046,-0.60485,-0.8561,2.311,-0.62551,-0.89039,2.2358,-0.46223,-0.09448,2.2836,-0.44833,-0.5375,2.2595,-0.45953,-0.87835,2.2989,-0.43649,-0.9384,2.2829
-0.5292,0.03889,2.3038,-0.52668,0.096401,2.3236,-0.5318,0.39944,2.3492,-0.53709,0.55895,2.3133,-0.70805,0.30352,2.3591,-0.89405,0.19746,2.301,-0.85059,0.087375,2.0849,-0.84396,0.064711,2.0595,-0.38195,0.3218,2.2717,-0.30788,0.20199,2.1001,-0.37729,0.099477,1.9039,-0.3876,0.058473,1.856,-0.60038,-0.038987,2.3022,-0.58354,-0.50124,2.3251,-0.60184,-0.85851,2.3202,-0.62121,-0.89178,2.2443,-0.45858,-0.032883,2.2821,-0.44975,-0.4994,2.2898,-0.4402,-0.84463,2.3022,-0.45958,-0.8779,2.2262
-0.52875,0.087791,2.3039,-0.52536,0.14442,2.3296,-0.5292,0.45128,2.3681,-0.53618,0.60623,2.3233,-0.70878,0.35017,2.376,-0.88366,0.22718,2.3227,-0.84765,0.062297,2.1396,-0.83122,0.017908,2.1029,-0.37347,0.36527,2.2936,-0.29843,0.22514,2.1436,-0.36913,0.069367,1.9476,-0.36702,0.019872,1.9279,-0.60121,0.0075648,2.2994,-0.56784,-0.46737,2.3381,-0.57911,-0.86389,2.3345,-0.59268,-0.91286,2.2809,-0.45763,0.01812,2.2773,-0.45638,-0.45868,2.3134,-0.4373,-0.82832,2.306,-0.44536,-0.88117,2.2511
-0.52918,0.11078,2.3044,-0.52451,0.17098,2.3347,-0.52653,0.50365,2.386,-0.53941,0.64851,2.3293,-0.69971,0.38967,2.3938,-0.8621,0.2428,2.36,-0.84283,0.047423,2.1984,-0.82528,-0.021696,2.1604,-0.36953,0.38857,2.3045,-0.30121,0.22637,2.1751,-0.35206,0.04986,2.0221,-0.35161,-0.011855,2,-0.60164,0.033869,2.3015,-0.5552,-0.4406,2.3352,-0.54589,-0.85093,2.3459,-0.53509,-0.88901,2.2877,-0.45912,0.040118,2.2735,-0.45838,-0.43651,2.3125,-0.4357,-0.82077,2.3074,-0.4424,-0.87109,2.254
-0.5378,0.14552,2.3063,-0.5309,0.20468,2.3409,-0.52414,0.53702,2.3966,-0.54275,0.69085,2.335,-0.69507,0.41073,2.4047,-0.82276,0.23239,2.3841,-0.83008,0.024424,2.2532,-0.82271,-0.058514,2.2181,-0.37542,0.44233,2.3356,-0.31351,0.235,2.2114,-0.34037,0.02285,2.0921,-0.33778,-0.05849,2.0772,-0.61165,0.075556,2.3066,-0.56707,-0.43265,2.3506,-0.57735,-0.83334,2.3617,-0.49425,-0.87247,2.3142,-0.47146,0.07508,2.2703,-0.47103,-0.40135,2.3113,-0.4414,-0.81988,2.3176,-0.44704,-0.86854,2.2636
-0.5357,0.17508,2.3109,-0.52618,0.23009,2.3461,-0.52355,0.54837,2.399,-0.5438,0.71768,2.3439,-0.68125,0.44977,2.4382,-0.78546,0.23115,2.4105,-0.80067,-0.0087109,2.3004,-0.803,-0.083181,2.2664,-0.37723,0.45517,2.3404,-0.32576,0.23631,2.2529,-0.33884,0.012672,2.1494,-0.33491,-0.080032,2.1398,-0.6067,0.10671,2.3072,-0.5347,-0.35626,2.3177,-0.52031,-0.79502,2.3273,-0.50243,-0.82111,2.3107,-0.47093,0.10213,2.2767,-0.47735,-0.37532,2.3089,-0.42072,-0.84281,2.3317,-0.46255,-0.84045,2.2698
-0.53692,0.18034,2.3138,-0.52514,0.23525,2.3503,-0.52223,0.56344,2.4014,-0.54751,0.72899,2.3469,-0.68009,0.4553,2.4494,-0.75644,0.21228,2.4328,-0.77592,-0.01507,2.3551,-0.77119,-0.10401,2.3339,-0.38072,0.45834,2.3355,-0.32635,0.23191,2.2628,-0.3322,-0.0071803,2.1986,-0.31393,-0.10054,2.1993,-0.60863,0.11249,2.3117,-0.53134,-0.34453,2.3208,-0.52202,-0.78744,2.3236,-0.50987,-0.82332,2.3141,-0.4717,0.10647,2.2783,-0.45771,-0.35063,2.2951,-0.42269,-0.83762,2.336,-0.46741,-0.79543,2.2598
-0.5342,0.18084,2.3137,-0.52354,0.23521,2.3526,-0.52032,0.57511,2.4097,-0.54809,0.73609,2.3522,-0.68279,0.44527,2.4356,-0.73982,0.20523,2.4452,-0.74413,-0.025709,2.4018,-0.75172,-0.1076,2.3929,-0.38358,0.46254,2.3332,-0.32724,0.24601,2.2843,-0.33374,-0.0090984,2.2285,-0.30721,-0.11949,2.2214,-0.60035,0.11381,2.3132,-0.52727,-0.34904,2.3238,-0.52873,-0.72894,2.3371,-0.50434,-0.80142,2.3075,-0.4701,0.10983,2.2773,-0.46234,-0.36731,2.3087,-0.43684,-0.7704,2.3325,-0.45012,-0.84743,2.2994
-0.53004,0.18044,2.3155,-0.51842,0.23704,2.3561,-0.51711,0.5906,2.4155,-0.54746,0.73706,2.3562,-0.67959,0.44621,2.4375,-0.72041,0.22058,2.4693,-0.71699,-0.016483,2.4291,-0.70661,-0.092504,2.407,-0.38492,0.46351,2.3325,-0.32884,0.24611,2.2974,-0.31216,-0.0083616,2.2533,-0.29642,-0.12512,2.2548,-0.59542,0.11292,2.3163,-0.52661,-0.35418,2.3252,-0.51549,-0.77927,2.3332,-0.49091,-0.851,2.2972,-0.46656,0.11273,2.2792,-0.45196,-0.36412,2.3063,-0.42709,-0.76122,2.3365,-0.43683,-0.83899,2.303
-0.52451,0.16655,2.322,-0.51252,0.22682,2.3636,-0.51542,0.57759,2.4153,-0.54627,0.72647,2.3607,-0.64321,0.43429,2.4356,-0.7132,0.19781,2.4843,-0.67951,-0.043022,2.3968,-0.67767,-0.14763,2.3787,-0.38845,0.45519,2.3338,-0.32445,0.24532,2.3058,-0.30602,-0.0080857,2.2634,-0.28876,-0.12727,2.2604,-0.58855,0.10125,2.3255,-0.54545,-0.38314,2.3358,-0.5156,-0.78556,2.3343,-0.53192,-0.83436,2.2823,-0.46308,0.10408,2.2845,-0.4394,-0.37258,2.3048,-0.41547,-0.79205,2.3368,-0.41135,-0.86585,2.296
-0.51374,0.14866,2.3292,-0.50271,0.20772,2.3718,-0.51457,0.55153,2.4162,-0.54858,0.70229,2.3642,-0.63804,0.38362,2.4439,-0.66945,0.18535,2.5113,-0.66235,-0.054233,2.4124,-0.65998,-0.15209,2.3787,-0.38424,0.42869,2.3339,-0.30889,0.23006,2.3109,-0.29506,-0.019783,2.274,-0.2623,-0.10933,2.2782,-0.5759,0.079939,2.3365,-0.53885,-0.35284,2.3456,-0.52293,-0.76571,2.3503,-0.53988,-0.81486,2.2992,-0.45057,0.08399,2.2916,-0.41966,-0.39322,2.3001,-0.38948,-0.83505,2.3287,-0.39186,-0.90661,2.2871
-0.49599,0.11053,2.3305,-0.4867,0.16578,2.3733,-0.50335,0.4854,2.407,-0.53639,0.66133,2.3675,-0.63799,0.37775,2.429,-0.66821,0.1594,2.5172,-0.65452,-0.078116,2.4049,-0.64582,-0.19987,2.226,-0.37467,0.39963,2.3405,-0.30048,0.18092,2.3107,-0.28487,-0.067249,2.2764,-0.259,-0.15808,2.2793,-0.5522,0.053604,2.3393,-0.54841,-0.40498,2.3115,-0.51946,-0.78187,2.3553,-0.54418,-0.81389,2.2804,-0.44198,0.05421,2.2934,-0.40744,-0.42276,2.2938,-0.37206,-0.86767,2.3233,-0.34909,-0.92954,2.2938
-0.49296,0.064508,2.3359,-0.48336,0.12462,2.3785,-0.50788,0.4546,2.4089,-0.54113,0.60934,2.3704,-0.62882,0.27376,2.4537,-0.64361,0.053539,2.5148,-0.64769,-0.10406,2.2852,-0.63871,-0.23327,2.2227,-0.38042,0.3457,2.3334,-0.30245,0.091941,2.3069,-0.24745,-0.1868,2.2887,-0.23779,-0.2567,2.2861,-0.5482,0.0093284,2.347,-0.53552,-0.45379,2.3185,-0.50681,-0.86528,2.3773,-0.53436,-0.89776,2.3038,-0.43378,-0.0044806,2.2988,-0.39616,-0.48134,2.2848,-0.35228,-0.8672,2.3238,-0.3644,-0.91644,2.2736
