-0.32817,-0.50134,2.4735,-0.33647,-0.45273,2.4384,-0.37339,-0.20999,2.2768,-0.39538,-0.029708,2.2258,-0.49234,-0.28099,2.368,-0.50195,-0.47676,2.5331,-0.61594,-0.69896,2.5273,-0.63384,-0.74952,2.5023,-0.23306,-0.27202,2.2658,-0.13473,-0.52016,2.2957,-0.10496,-0.72391,2.2608,-0.10336,-0.79066,2.247,-0.37433,-0.54702,2.5297,-0.54232,-0.70237,2.3908,-0.44301,-0.94666,2.5223,-0.46797,-1.0188,2.5591,-0.26715,-0.55557,2.4819,-0.21329,-0.73859,2.3032,-0.19781,-0.96589,2.4069,-0.26616,-0.98214,2.3619
-0.29361,-0.53707,2.4487,-0.30761,-0.48581,2.4186,-0.37172,-0.22755,2.2761,-0.3939,-0.048148,2.2259,-0.49195,-0.30688,2.3661,-0.51724,-0.51403,2.5105,-0.61921,-0.71349,2.5154,-0.64434,-0.75781,2.4776,-0.23501,-0.31297,2.2613,-0.15176,-0.53528,2.2739,-0.10273,-0.7354,2.2472,-0.10519,-0.80013,2.2229,-0.3283,-0.58467,2.5148,-0.52554,-0.68712,2.4123,-0.44507,-0.94836,2.5213,-0.46721,-1.0177,2.5517,-0.23333,-0.59334,2.4389,-0.21111,-0.7363,2.2628,-0.24231,-0.92707,2.4131,-0.2689,-0.98353,2.3593
-0.32077,-0.54846,2.4638,-0.32997,-0.49909,2.4306,-0.37106,-0.24595,2.2775,-0.39539,-0.06376,2.2249,-0.49246,-0.32068,2.3636,-0.52706,-0.53945,2.4764,-0.57255,-0.70371,2.4037,-0.59328,-0.76807,2.3986,-0.23658,-0.31957,2.2596,-0.18272,-0.55146,2.2404,-0.10968,-0.76891,2.2012,-0.098791,-0.83439,2.1853,-0.36638,-0.59729,2.5356,-0.52949,-0.69015,2.4081,-0.44638,-0.95157,2.5198,-0.46931,-1.021,2.5552,-0.25955,-0.60172,2.4524,-0.2107,-0.72199,2.2771,-0.19028,-0.95164,2.3933,-0.19336,-0.99705,2.4328
-0.32432,-0.55155,2.4659,-0.33211,-0.50175,2.432,-0.36977,-0.25041,2.2781,-0.39487,-0.069983,2.2279,-0.4951,-0.33,2.3627,-0.5569,-0.54999,2.4311,-0.59812,-0.73912,2.3729,-0.69998,-0.81134,2.3653,-0.24055,-0.32596,2.2566,-0.19932,-0.53942,2.2205,-0.14559,-0.76523,2.1625,-0.13578,-0.82602,2.1416,-0.37143,-0.6006,2.5383,-0.53201,-0.70091,2.3991,-0.44751,-0.9554,2.5185,-0.48009,-1.0149,2.5171,-0.2652,-0.60713,2.4561,-0.17086,-0.71267,2.2421,-0.20959,-0.93477,2.4175,-0.23041,-0.99072,2.3654
-0.32623,-0.55224,2.4659,-0.33357,-0.50225,2.4324,-0.36905,-0.25111,2.2792,-0.39378,-0.071782,2.2318,-0.49592,-0.33181,2.3615,-0.56809,-0.53306,2.396,-0.60884,-0.72471,2.3447,-0.71324,-0.78746,2.3002,-0.24122,-0.32639,2.257,-0.20524,-0.53778,2.2138,-0.18118,-0.76268,2.1126,-0.19111,-0.81128,2.0822,-0.37484,-0.60234,2.536,-0.53481,-0.70937,2.3952,-0.44555,-0.95707,2.5185,-0.46898,-1.0193,2.5614,-0.26674,-0.60713,2.4566,-0.19649,-0.69069,2.2413,-0.23939,-0.9342,2.4118,-0.26681,-0.99091,2.3588
-0.3432,-0.53988,2.4678,-0.3466,-0.49153,2.4351,-0.36816,-0.2459,2.2836,-0.38884,-0.064343,2.2431,-0.49658,-0.32869,2.3593,-0.58786,-0.5256,2.3765,-0.6713,-0.71126,2.3253,-0.70005,-0.77959,2.3018,-0.24542,-0.31828,2.259,-0.22732,-0.51312,2.1637,-0.22106,-0.72112,2.0618,-0.22378,-0.77126,2.0367,-0.40016,-0.58709,2.5255,-0.54506,-0.7217,2.3731,-0.44537,-0.95725,2.518,-0.4678,-1.0194,2.5622,-0.28376,-0.59178,2.4673,-0.18163,-0.68928,2.2264,-0.23976,-0.93438,2.4113,-0.26599,-0.9901,2.3567
-0.33976,-0.53009,2.466,-0.34475,-0.4792,2.435,-0.36809,-0.21814,2.2929,-0.38608,-0.040652,2.2583,-0.49691,-0.30546,2.3566,-0.62437,-0.49507,2.3594,-0.71242,-0.68709,2.2767,-0.73329,-0.74536,2.2479,-0.24681,-0.29724,2.2643,-0.23529,-0.48143,2.1437,-0.25561,-0.66536,2.0083,-0.2719,-0.73018,1.966,-0.39151,-0.57497,2.5199,-0.54101,-0.72143,2.3741,-0.44606,-0.95848,2.5175,-0.4685,-1.0196,2.562,-0.28107,-0.58464,2.4647,-0.22322,-0.77085,2.3224,-0.20358,-0.94213,2.4186,-0.26541,-0.99345,2.3585
-0.32223,-0.49301,2.4619,-0.33124,-0.43971,2.4334,-0.37054,-0.1786,2.3025,-0.38282,-0.0041073,2.2836,-0.49973,-0.26258,2.3589,-0.64526,-0.43669,2.3498,-0.73791,-0.59683,2.2449,-0.74786,-0.64788,2.2086,-0.25069,-0.25962,2.2681,-0.24064,-0.43823,2.1238,-0.2874,-0.59014,1.9771,-0.30729,-0.65058,1.9304,-0.36152,-0.54763,2.5162,-0.53712,-0.7122,2.3744,-0.44739,-0.96294,2.5163,-0.47345,-1.0196,2.5613,-0.26877,-0.54406,2.457,-0.23359,-0.75125,2.2734,-0.20068,-0.96371,2.3979,-0.27022,-0.98676,2.3504
-0.32148,-0.46089,2.46,-0.32958,-0.40492,2.4325,-0.36457,-0.12304,2.3089,-0.37613,0.032632,2.2963,-0.49524,-0.2047,2.3612,-0.66087,-0.36454,2.3464,-0.75462,-0.50488,2.2123,-0.76234,-0.56382,2.1809,-0.24576,-0.20734,2.275,-0.23647,-0.37223,2.1293,-0.30255,-0.47604,1.9544,-0.33748,-0.53446,1.8879,-0.36132,-0.51267,2.5114,-0.52671,-0.70797,2.3773,-0.4488,-0.94864,2.5032,-0.48251,-1.0032,2.4998,-0.26908,-0.51526,2.4546,-0.24187,-0.72524,2.2923,-0.2043,-0.95938,2.4025,-0.27357,-0.98055,2.3452
-0.32643,-0.39163,2.4506,-0.3341,-0.33768,2.4271,-0.36776,-0.067997,2.3223,-0.37508,0.090158,2.3158,-0.53419,-0.15386,2.3793,-0.69878,-0.2969,2.3395,-0.77373,-0.40181,2.1696,-0.77976,-0.45589,2.1586,-0.24663,-0.16046,2.2747,-0.2093,-0.31862,2.128,-0.34964,-0.37611,1.9157,-0.36694,-0.46427,1.8857,-0.37958,-0.45934,2.5052,-0.51506,-0.73563,2.3877,-0.45776,-0.96674,2.4958,-0.51516,-0.95543,2.3931,-0.25868,-0.44979,2.4409,-0.25034,-0.70645,2.3055,-0.21123,-0.9421,2.4045,-0.27623,-0.96281,2.3291
-0.33979,-0.35163,2.4496,-0.34605,-0.29304,2.4278,-0.3712,-0.0054643,2.3323,-0.36662,0.15539,2.3343,-0.52266,-0.090887,2.3808,-0.70533,-0.19361,2.3482,-0.77196,-0.28193,2.1611,-0.76921,-0.32214,2.1292,-0.25118,-0.094748,2.274,-0.16463,-0.23518,2.1327,-0.36672,-0.2583,1.9361,-0.43401,-0.17587,1.8719,-0.38864,-0.40732,2.4914,-0.49985,-0.70504,2.4078,-0.45092,-0.95189,2.5003,-0.47786,-0.99887,2.4964,-0.28271,-0.40917,2.4456,-0.25476,-0.71247,2.3085,-0.21057,-0.95919,2.402,-0.1948,-0.99732,2.3647
-0.34309,-0.28296,2.4452,-0.34866,-0.22446,2.4263,-0.37182,0.067988,2.3451,-0.35865,0.22568,2.3516,-0.52591,-0.0076171,2.3895,-0.7267,-0.091299,2.3519,-0.77262,-0.14355,2.1452,-0.7758,-0.16403,2.0955,-0.24801,-0.011958,2.2751,-0.1419,-0.13259,2.1305,-0.31997,-0.053511,1.9426,-0.3705,-0.04227,1.9713,-0.39411,-0.34498,2.479,-0.49038,-0.65533,2.4266,-0.44789,-0.94604,2.504,-0.47774,-0.99823,2.4988,-0.28328,-0.34467,2.4428,-0.2535,-0.66116,2.3378,-0.21208,-0.92349,2.4042,-0.23676,-0.96725,2.3427
-0.34046,-0.21065,2.4303,-0.34496,-0.14827,2.4157,-0.36276,0.16363,2.3559,-0.36146,0.31439,2.3619,-0.51392,0.07002,2.4063,-0.71827,0.029929,2.4245,-0.77873,0.0028469,2.2189,-0.78532,-0.010143,2.1797,-0.2472,0.08196,2.2814,-0.091339,0.034026,2.1324,-0.19873,0.02934,1.9275,-0.27715,0.10802,1.9183,-0.39549,-0.27536,2.461,-0.47627,-0.62562,2.4495,-0.44845,-0.94727,2.5094,-0.48089,-0.99821,2.5038,-0.27934,-0.2698,2.4206,-0.24516,-0.61392,2.3616,-0.20659,-0.92373,2.4133,-0.23438,-0.96427,2.3508
-0.35018,-0.11635,2.4267,-0.35196,-0.054512,2.4148,-0.35623,0.25468,2.3682,-0.36735,0.40281,2.3689,-0.52631,0.17528,2.4343,-0.72653,0.13,2.4444,-0.74601,0.16231,2.1956,-0.72529,0.25756,2.1703,-0.24443,0.1607,2.2945,-0.10164,0.10767,2.1088,-0.27017,0.15258,1.9374,-0.31265,0.17843,1.8903,-0.41378,-0.18441,2.4595,-0.45175,-0.58431,2.4877,-0.45716,-0.93868,2.516,-0.48488,-0.99693,2.5174,-0.28581,-0.18362,2.4113,-0.22914,-0.57606,2.4017,-0.19603,-0.91247,2.4184,-0.22653,-0.95098,2.356
-0.35212,-0.036866,2.4265,-0.3543,0.02863,2.4164,-0.36052,0.35611,2.379,-0.36886,0.50243,2.3765,-0.52036,0.25642,2.4546,-0.72783,0.24093,2.4727,-0.72404,0.31315,2.2728,-0.72133,0.31594,2.2057,-0.23238,0.23054,2.3096,-0.095879,0.21304,2.1205,-0.25806,0.23453,1.9428,-0.27619,0.22178,1.9283,-0.41516,-0.10708,2.4644,-0.43477,-0.54453,2.5253,-0.46928,-0.92027,2.5217,-0.50906,-0.96074,2.4807,-0.28754,-0.10819,2.4017,-0.21664,-0.52623,2.4439,-0.17833,-0.87413,2.4161,-0.20962,-0.91159,2.3534
-0.35147,0.033985,2.4236,-0.35285,0.099523,2.4168,-0.3557,0.42722,2.3949,-0.36832,0.56968,2.3782,-0.51147,0.33827,2.4788,-0.71051,0.29536,2.5183,-0.7172,0.34323,2.2979,-0.72896,0.32731,2.2564,-0.21958,0.30717,2.3189,-0.090287,0.29235,2.1368,-0.24006,0.28202,1.9593,-0.21107,0.29605,1.9748,-0.41546,-0.037271,2.4585,-0.42938,-0.4731,2.5278,-0.4591,-0.86213,2.5488,-0.48548,-0.92421,2.5056,-0.28712,-0.040741,2.3957,-0.22056,-0.47439,2.4461,-0.17412,-0.85021,2.4488,-0.19743,-0.89941,2.4035
-0.34931,0.098045,2.4269,-0.34894,0.16245,2.4227,-0.34569,0.48472,2.4098,-0.36331,0.6268,2.3928,-0.50418,0.39924,2.4989,-0.70093,0.33318,2.536,-0.72354,0.3642,2.3239,-0.72325,0.33678,2.2632,-0.21272,0.37679,2.3358,-0.087503,0.31875,2.1647,-0.23277,0.28851,1.9682,-0.23147,0.29075,1.9635,-0.41436,0.025977,2.4604,-0.44123,-0.41067,2.5179,-0.42723,-0.80115,2.5855,-0.45381,-0.85257,2.5339,-0.2869,0.024068,2.396,-0.2235,-0.41046,2.4327,-0.17491,-0.81223,2.5177,-0.20013,-0.86412,2.4796
-0.34831,0.13593,2.4332,-0.34761,0.19943,2.4306,-0.34486,0.51742,2.4218,-0.36523,0.66031,2.4096,-0.50138,0.43298,2.5129,-0.6816,0.33656,2.5467,-0.72548,0.3181,2.3358,-0.72658,0.31034,2.298,-0.22443,0.4254,2.3482,-0.087384,0.34944,2.1871,-0.2162,0.26518,1.9798,-0.21686,0.26152,1.9732,-0.41103,0.062972,2.465,-0.45912,-0.36015,2.502,-0.40427,-0.70847,2.6093,-0.40681,-0.79933,2.6006,-0.28854,0.068405,2.4012,-0.22775,-0.34979,2.4172,-0.18823,-0.67677,2.5748,-0.22388,-0.71121,2.5127
-0.34739,0.17211,2.4391,-0.34618,0.23471,2.4387,-0.34431,0.54841,2.436,-0.36161,0.69231,2.4255,-0.49882,0.45344,2.5215,-0.67005,0.35437,2.5943,-0.71603,0.27227,2.402,-0.72602,0.25217,2.33,-0.21991,0.44356,2.3524,-0.091988,0.34193,2.205,-0.18773,0.23746,2.0402,-0.1995,0.20644,2.0135,-0.40969,0.096421,2.474,-0.47436,-0.31751,2.4894,-0.37503,-0.64494,2.6173,-0.40191,-0.70792,2.5892,-0.28744,0.098174,2.4013,-0.23191,-0.29107,2.3863,-0.19073,-0.58136,2.5992,-0.22702,-0.61532,2.5372
-0.34727,0.17925,2.4405,-0.34558,0.24257,2.4414,-0.344,0.56238,2.4407,-0.35744,0.70972,2.4392,-0.49553,0.46848,2.5314,-0.64084,0.35686,2.6198,-0.6995,0.23001,2.4567,-0.7119,0.19147,2.4129,-0.21881,0.45761,2.3604,-0.09414,0.32548,2.2519,-0.17306,0.2129,2.084,-0.18852,0.16961,2.0626,-0.40947,0.1046,2.4747,-0.48348,-0.28897,2.4782,-0.39389,-0.61142,2.6253,-0.38732,-0.70095,2.6251,-0.28834,0.10856,2.4033,-0.23195,-0.25519,2.3754,-0.18806,-0.51241,2.6243,-0.2249,-0.54615,2.5625
-0.34645,0.18126,2.4413,-0.34455,0.24518,2.4431,-0.34454,0.5696,2.4433,-0.35797,0.71675,2.4416,-0.4894,0.47211,2.5304,-0.59955,0.34101,2.6371,-0.67376,0.18449,2.5118,-0.68814,0.13125,2.4737,-0.21752,0.46241,2.364,-0.094934,0.31468,2.2803,-0.16186,0.17404,2.1308,-0.1746,0.12722,2.1124,-0.40791,0.10859,2.4746,-0.48948,-0.27108,2.471,-0.39643,-0.59141,2.62,-0.43299,-0.62508,2.558,-0.28762,0.11236,2.4048,-0.23394,-0.23125,2.3653,-0.18867,-0.4554,2.6422,-0.22523,-0.48907,2.5802
-0.34597,0.18325,2.4419,-0.3436,0.24767,2.4445,-0.3437,0.57397,2.4444,-0.35795,0.72064,2.4412,-0.48571,0.47736,2.5334,-0.58763,0.33816,2.6544,-0.6338,0.15319,2.5645,-0.63697,0.11493,2.5374,-0.21471,0.46386,2.3668,-0.092704,0.30438,2.317,-0.14604,0.14464,2.1731,-0.16183,0.095091,2.1537,-0.40777,0.11179,2.4744,-0.497,-0.24113,2.4578,-0.397,-0.55438,2.616,-0.41554,-0.61534,2.5897,-0.28704,0.1142,2.4058,-0.23319,-0.22955,2.3624,-0.17839,-0.44964,2.6406,-0.21506,-0.48327,2.5786
-0.34549,0.18268,2.442,-0.34271,0.24689,2.4452,-0.34355,0.5712,2.4447,-0.35693,0.71975,2.4432,-0.48495,0.47276,2.5456,-0.558,0.3284,2.6948,-0.59065,0.13578,2.613,-0.59384,0.095482,2.5946,-0.2113,0.46251,2.3695,-0.091562,0.29993,2.3398,-0.1351,0.12609,2.2233,-0.14816,0.074255,2.206,-0.40711,0.11092,2.4741,-0.49858,-0.251,2.4563,-0.40053,-0.56666,2.6113,-0.42279,-0.62786,2.5824,-0.28598,0.11319,2.4059,-0.23147,-0.23726,2.3602,-0.16623,-0.47905,2.6176,-0.20415,-0.51269,2.5564
-0.34365,0.1768,2.4423,-0.34086,0.24012,2.4458,-0.34399,0.55774,2.4441,-0.35808,0.70809,2.442,-0.48351,0.46625,2.5504,-0.54265,0.30005,2.704,-0.55011,0.099862,2.6395,-0.56297,0.085907,2.6177,-0.20842,0.4537,2.3741,-0.087714,0.27241,2.3752,-0.12939,0.09903,2.257,-0.13967,0.058594,2.2428,-0.40501,0.10418,2.475,-0.49972,-0.29179,2.4502,-0.40915,-0.61093,2.6026,-0.4119,-0.70195,2.6077,-0.28335,0.10565,2.4053,-0.21558,-0.29435,2.3638,-0.15265,-0.56285,2.5965,-0.19044,-0.5966,2.5353
-0.33731,0.13858,2.4396,-0.33593,0.20233,2.4427,-0.34561,0.52167,2.4394,-0.35637,0.67898,2.4366,-0.47612,0.43661,2.5493,-0.5041,0.27495,2.712,-0.53794,0.069477,2.6358,-0.52971,0.053226,2.6376,-0.20384,0.42799,2.3785,-0.083088,0.23551,2.4002,-0.12326,0.057546,2.2896,-0.12895,0.023288,2.2769,-0.39778,0.068245,2.4704,-0.4929,-0.35382,2.454,-0.40877,-0.67976,2.5935,-0.4366,-0.74081,2.5593,-0.27526,0.068345,2.4052,-0.20327,-0.34936,2.3719,-0.14365,-0.64905,2.5679,-0.15426,-0.71247,2.5402
-0.33678,0.08592,2.4381,-0.3354,0.15205,2.4399,-0.34427,0.48121,2.4325,-0.36236,0.62592,2.4251,-0.46965,0.38797,2.5359,-0.48733,0.22578,2.707,-0.51104,0.024245,2.6419,-0.52026,-0.011103,2.622,-0.19848,0.37656,2.3796,-0.09179,0.18074,2.4073,-0.12619,-0.00099873,2.3021,-0.13359,-0.05062,2.2794,-0.39769,0.016925,2.469,-0.4814,-0.4141,2.4622,-0.41828,-0.75528,2.5809,-0.44192,-0.84144,2.5627,-0.2746,0.015177,2.4056,-0.20058,-0.4119,2.3828,-0.14337,-0.73707,2.5387,-0.13024,-0.82649,2.5272
-0.3287,0.032695,2.4365,-0.32903,0.097663,2.4364,-0.34413,0.42359,2.4216,-0.36062,0.56883,2.4132,-0.46473,0.3316,2.526,-0.49024,0.14943,2.6917,-0.51917,-0.050328,2.6221,-0.52643,-0.10637,2.6044,-0.19609,0.32921,2.3777,-0.092723,0.11182,2.41,-0.12941,-0.070979,2.3067,-0.1327,-0.10173,2.288,-0.38765,-0.036951,2.468,-0.47295,-0.46023,2.4615,-0.4367,-0.81572,2.5508,-0.4686,-0.87589,2.5124,-0.26559,-0.037178,2.4064,-0.1994,-0.46535,2.3933,-0.14738,-0.81864,2.4877,-0.13293,-0.90618,2.4658
-0.32861,-0.040262,2.4384,-0.32962,0.024643,2.4357,-0.34606,0.34761,2.4102,-0.35765,0.50615,2.3991,-0.46389,0.25705,2.5096,-0.49038,0.011291,2.661,-0.52366,-0.16425,2.6019,-0.539,-0.2524,2.568,-0.19738,0.25451,2.3687,-0.098567,0.028569,2.4057,-0.1319,-0.15845,2.31,-0.13119,-0.19496,2.2998,-0.3873,-0.10972,2.4722,-0.46076,-0.5273,2.4683,-0.43901,-0.88919,2.5463,-0.4747,-0.94922,2.5141,-0.26503,-0.10843,2.4107,-0.20348,-0.5272,2.3887,-0.15343,-0.88987,2.4518,-0.18523,-0.92625,2.3892
-0.32044,-0.1124,2.4399,-0.32235,-0.048577,2.4339,-0.34041,0.26787,2.3937,-0.36369,0.42362,2.3854,-0.46724,0.17673,2.502,-0.49626,-0.077822,2.6391,-0.53523,-0.23717,2.5862,-0.54318,-0.27349,2.5805,-0.18905,0.17275,2.3615,-0.10344,-0.065224,2.3951,-0.12746,-0.25439,2.3016,-0.135,-0.26804,2.2919,-0.38004,-0.18222,2.4789,-0.45383,-0.57627,2.462,-0.43011,-0.93147,2.5502,-0.46069,-0.96943,2.4876,-0.25484,-0.18234,2.414,-0.20121,-0.56686,2.3821,-0.15335,-0.9119,2.4521,-0.18393,-0.94986,2.3895
