-0.43953,-0.25187,2.3597,-0.44342,-0.18558,2.3559,-0.47219,0.13991,2.3045,-0.48581,0.31135,2.2872,-0.61462,0.017283,2.3467,-0.67867,-0.23309,2.3724,-0.70841,-0.45165,2.2834,-0.71079,-0.53443,2.2585,-0.34437,0.020061,2.2597,-0.24667,-0.21671,2.2416,-0.26209,-0.424,2.1328,-0.27125,-0.49765,2.0848,-0.4952,-0.31486,2.3832,-0.53931,-0.67966,2.2732,-0.48291,-0.93515,2.4001,-0.46749,-0.98164,2.3864,-0.37511,-0.31022,2.3503,-0.39189,-0.65431,2.2565,-0.33933,-0.90999,2.3475,-0.36072,-0.96486,2.3217
-0.4393,-0.26544,2.3581,-0.44305,-0.19798,2.3534,-0.46905,0.1325,2.3023,-0.47895,0.30388,2.2897,-0.60242,0.0031243,2.3367,-0.67947,-0.2389,2.3595,-0.71921,-0.45261,2.2436,-0.71487,-0.5247,2.2193,-0.34173,0.0084605,2.2594,-0.24771,-0.21341,2.2246,-0.26462,-0.40629,2.0944,-0.28711,-0.47183,2.0344,-0.49454,-0.32511,2.3808,-0.54249,-0.67863,2.2699,-0.48352,-0.93581,2.3976,-0.5036,-0.97741,2.3258,-0.37649,-0.32151,2.3495,-0.38781,-0.67922,2.2402,-0.3379,-0.92592,2.3538,-0.39365,-0.96296,2.2703
-0.43724,-0.2646,2.3544,-0.44137,-0.1985,2.3502,-0.46581,0.12842,2.3036,-0.46835,0.29847,2.2971,-0.60251,-0.0026339,2.337,-0.70518,-0.22463,2.3411,-0.73041,-0.40587,2.2266,-0.7224,-0.4801,2.1819,-0.33738,0.0030558,2.2612,-0.24543,-0.20163,2.2042,-0.26565,-0.37208,2.0403,-0.29884,-0.42476,1.9707,-0.49401,-0.32735,2.375,-0.54148,-0.67191,2.2705,-0.48362,-0.9365,2.397,-0.46437,-0.98546,2.3831,-0.37224,-0.32101,2.3449,-0.39064,-0.67608,2.2373,-0.33886,-0.92659,2.3505,-0.39447,-0.96363,2.269
-0.4374,-0.2541,2.3479,-0.44084,-0.18852,2.3454,-0.46145,0.13969,2.3122,-0.45951,0.31294,2.3088,-0.60108,0.011972,2.3404,-0.72711,-0.19082,2.3326,-0.75115,-0.35785,2.1879,-0.7394,-0.42277,2.1393,-0.32728,0.012094,2.2634,-0.23581,-0.18217,2.1935,-0.2755,-0.30703,1.9942,-0.31487,-0.35026,1.9314,-0.49611,-0.31922,2.3656,-0.5395,-0.65942,2.2664,-0.48362,-0.93632,2.3931,-0.50311,-0.97593,2.32,-0.3726,-0.31703,2.3389,-0.39303,-0.66511,2.2353,-0.34046,-0.92187,2.3444,-0.39652,-0.95623,2.263
-0.44037,-0.2272,2.3446,-0.44308,-0.16173,2.3439,-0.45894,0.16314,2.3235,-0.45641,0.33142,2.318,-0.60178,0.039724,2.3459,-0.75075,-0.14113,2.3192,-0.77287,-0.29696,2.1574,-0.74919,-0.34685,2.1071,-0.31917,0.038277,2.2668,-0.22915,-0.131,2.1699,-0.2759,-0.21619,1.9697,-0.32691,-0.27212,1.8895,-0.50242,-0.29322,2.357,-0.53788,-0.64488,2.2686,-0.48522,-0.92475,2.3852,-0.50472,-0.96298,2.3114,-0.37358,-0.29427,2.3344,-0.38891,-0.6426,2.2388,-0.34002,-0.91327,2.3335,-0.39342,-0.94166,2.2578
-0.4432,-0.19099,2.3431,-0.4444,-0.12737,2.3453,-0.45338,0.19392,2.3353,-0.45599,0.36705,2.3291,-0.60526,0.078395,2.3541,-0.76932,-0.076621,2.3158,-0.78833,-0.21672,2.1389,-0.76324,-0.27837,2.0649,-0.31732,0.076819,2.2712,-0.21474,-0.075687,2.1461,-0.29652,-0.1538,1.9387,-0.3277,-0.18392,1.8819,-0.50829,-0.2584,2.3536,-0.53978,-0.63054,2.2812,-0.48308,-0.92453,2.3869,-0.50305,-0.96151,2.3126,-0.37605,-0.25857,2.3301,-0.38016,-0.62499,2.2499,-0.34234,-0.91495,2.3283,-0.39173,-0.94178,2.2622
-0.44562,-0.14161,2.3398,-0.44514,-0.077181,2.3465,-0.45055,0.24793,2.3532,-0.44721,0.41581,2.3408,-0.61285,0.13158,2.3672,-0.77565,-0.0070118,2.3228,-0.7941,-0.13428,2.139,-0.76704,-0.19873,2.0576,-0.31439,0.124,2.2734,-0.20266,-0.0075896,2.1386,-0.273,-0.095552,1.9547,-0.28993,-0.13436,1.9031,-0.51286,-0.21389,2.3474,-0.53406,-0.58202,2.3086,-0.488,-0.91339,2.3882,-0.5102,-0.94871,2.3137,-0.37807,-0.21044,2.3237,-0.37799,-0.5854,2.272,-0.36096,-0.90852,2.3509,-0.3843,-0.94322,2.2749
-0.44641,-0.081926,2.3362,-0.44456,-0.018403,2.3482,-0.44787,0.30444,2.3661,-0.44461,0.47455,2.3511,-0.61534,0.18641,2.3734,-0.78485,0.05475,2.324,-0.79544,-0.076852,2.1422,-0.77065,-0.14069,2.061,-0.31115,0.19275,2.277,-0.20401,0.059582,2.1401,-0.28192,-0.040945,1.9495,-0.32255,-0.0080337,1.9171,-0.51397,-0.1538,2.3403,-0.53143,-0.54376,2.3359,-0.49657,-0.90277,2.3884,-0.51912,-0.93703,2.3135,-0.37988,-0.15113,2.317,-0.36824,-0.56501,2.2977,-0.34013,-0.88583,2.3331,-0.36268,-0.9201,2.2582
-0.45313,-0.024966,2.3343,-0.45014,0.03051,2.3501,-0.45025,0.33569,2.3698,-0.44526,0.52181,2.3623,-0.61983,0.24631,2.3817,-0.78663,0.10326,2.3361,-0.78167,-0.039559,2.1448,-0.758,-0.099058,2.0846,-0.30725,0.25562,2.2899,-0.20989,0.11568,2.1548,-0.30676,0.049029,1.9798,-0.33549,-0.023614,1.9187,-0.52114,-0.098483,2.3376,-0.519,-0.52744,2.3515,-0.49916,-0.88758,2.3934,-0.52034,-0.92117,2.3178,-0.38693,-0.094737,2.3114,-0.37067,-0.54226,2.3101,-0.33815,-0.87507,2.3446,-0.35932,-0.90866,2.269
-0.45641,0.023032,2.3322,-0.45281,0.084975,2.3522,-0.45408,0.39668,2.3794,-0.4545,0.58383,2.3763,-0.62241,0.30183,2.3886,-0.7939,0.1656,2.332,-0.77114,-0.016762,2.1589,-0.74496,-0.076155,2.1195,-0.30635,0.3099,2.301,-0.21046,0.16659,2.1714,-0.32784,0.030231,1.9695,-0.33987,-0.0095004,1.9511,-0.52577,-0.052799,2.3331,-0.51678,-0.49058,2.3615,-0.49736,-0.86604,2.4046,-0.51741,-0.89912,2.3285,-0.38953,-0.044905,2.3084,-0.37335,-0.50227,2.3314,-0.33776,-0.85191,2.3558,-0.35781,-0.88499,2.2797
-0.4574,0.068796,2.3293,-0.45291,0.13201,2.3551,-0.45325,0.46922,2.394,-0.4569,0.63091,2.3751,-0.61973,0.34478,2.3921,-0.78809,0.19984,2.3461,-0.75626,0.015468,2.2,-0.73715,-0.057396,2.1573,-0.30731,0.34851,2.3101,-0.2014,0.20358,2.1895,-0.30467,0.058392,2.0215,-0.33373,-0.011754,1.9884,-0.52619,-0.0039341,2.3279,-0.50771,-0.47132,2.3783,-0.49342,-0.8457,2.4246,-0.48548,-0.90699,2.3762,-0.39164,-1.5099e-05,2.3037,-0.38042,-0.46781,2.3405,-0.35028,-0.82918,2.3751,-0.36914,-0.8616,2.2983
-0.4588,0.096824,2.3305,-0.45372,0.16034,2.3601,-0.45332,0.50322,2.4022,-0.45808,0.66241,2.3772,-0.62297,0.37988,2.3979,-0.7546,0.21016,2.3699,-0.74012,0.0049495,2.2198,-0.72417,-0.065404,2.1943,-0.30916,0.38292,2.3203,-0.21207,0.22444,2.2214,-0.29935,0.052395,2.0577,-0.32026,-0.015127,2.036,-0.52815,0.023748,2.3283,-0.50949,-0.45076,2.3773,-0.48571,-0.82477,2.4279,-0.47295,-0.88001,2.3874,-0.39277,0.028641,2.3039,-0.38536,-0.42891,2.332,-0.35576,-0.80387,2.3737,-0.37351,-0.836,2.2966
-0.46293,0.11486,2.3304,-0.45614,0.17586,2.3628,-0.45353,0.51593,2.4069,-0.46051,0.6846,2.3753,-0.62195,0.40425,2.4062,-0.72648,0.21235,2.38,-0.72582,0.0079867,2.25,-0.71167,-0.080181,2.2356,-0.31037,0.40402,2.3275,-0.2289,0.22777,2.2373,-0.29887,0.044007,2.0886,-0.31693,-0.035721,2.0699,-0.53301,0.045905,2.3264,-0.50985,-0.42858,2.3744,-0.48057,-0.82356,2.4304,-0.47593,-0.88494,2.3821,-0.39824,0.046438,2.3037,-0.39693,-0.41739,2.3304,-0.35833,-0.79866,2.3864,-0.36418,-0.84816,2.3343
-0.46862,0.13249,2.3292,-0.46131,0.19224,2.3646,-0.45609,0.52887,2.4095,-0.46401,0.70953,2.3817,-0.62226,0.41134,2.4094,-0.71842,0.20854,2.3862,-0.71195,0.0028579,2.2809,-0.70053,-0.090141,2.266,-0.31289,0.42867,2.3432,-0.25123,0.22212,2.2595,-0.29575,0.015994,2.1365,-0.31458,-0.067448,2.1214,-0.53777,0.057995,2.3253,-0.50904,-0.41718,2.3672,-0.4977,-0.7952,2.4039,-0.48991,-0.85769,2.3652,-0.40579,0.071049,2.301,-0.40401,-0.40622,2.3323,-0.38592,-0.81235,2.4115,-0.37536,-0.88692,2.3853
-0.47091,0.15397,2.3295,-0.46269,0.21068,2.3672,-0.45613,0.53662,2.4126,-0.46441,0.71172,2.3803,-0.6244,0.42447,2.4164,-0.69551,0.18995,2.3955,-0.7028,-0.018404,2.3001,-0.69201,-0.10593,2.2855,-0.31513,0.43431,2.3487,-0.2574,0.21791,2.2764,-0.29504,0.0057025,2.1682,-0.31316,-0.087229,2.1635,-0.54326,0.087559,2.3228,-0.52129,-0.3631,2.3527,-0.51319,-0.80417,2.3787,-0.5246,-0.87746,2.3344,-0.40653,0.08087,2.3018,-0.41374,-0.39608,2.3374,-0.39224,-0.82232,2.4113,-0.39735,-0.89392,2.3834
-0.47123,0.14937,2.331,-0.46323,0.20652,2.3702,-0.45673,0.53623,2.4116,-0.46769,0.71128,2.3783,-0.62243,0.41935,2.4167,-0.67868,0.17362,2.405,-0.68719,-0.035772,2.3419,-0.68548,-0.1278,2.3292,-0.31769,0.44335,2.3586,-0.26767,0.21061,2.2945,-0.29334,-0.032343,2.2116,-0.29471,-0.12676,2.2147,-0.54313,0.083253,2.3239,-0.51531,-0.38829,2.3607,-0.52723,-0.78204,2.3536,-0.51086,-0.79534,2.3217,-0.40647,0.076636,2.3057,-0.42684,-0.40079,2.3355,-0.3994,-0.78098,2.394,-0.41051,-0.84007,2.3321
-0.47447,0.13736,2.3361,-0.46469,0.19901,2.3757,-0.45797,0.53959,2.4132,-0.47167,0.70809,2.3717,-0.61832,0.40923,2.4226,-0.66675,0.15314,2.408,-0.68284,-0.052471,2.3476,-0.67903,-0.14296,2.3509,-0.32478,0.42808,2.3569,-0.28233,0.19489,2.3035,-0.29271,-0.062361,2.2408,-0.28415,-0.15715,2.2399,-0.54575,0.069445,2.3309,-0.51596,-0.4065,2.3628,-0.50491,-0.83667,2.3899,-0.48687,-0.90802,2.3497,-0.40932,0.067709,2.3108,-0.42391,-0.403,2.3291,-0.40376,-0.78152,2.3645,-0.42108,-0.81338,2.2875
-0.47379,0.10708,2.3368,-0.46498,0.16467,2.377,-0.46016,0.49018,2.4085,-0.46913,0.66748,2.3776,-0.61007,0.38996,2.4226,-0.66106,0.14621,2.4107,-0.66957,-0.082556,2.3732,-0.66751,-0.172,2.365,-0.32683,0.42396,2.3594,-0.29735,0.14549,2.3053,-0.29094,-0.093289,2.2569,-0.28544,-0.15264,2.2381,-0.5402,0.049354,2.3294,-0.51331,-0.42691,2.3603,-0.51262,-0.84623,2.3852,-0.48539,-0.91585,2.3526,-0.4131,0.035992,2.3154,-0.42463,-0.44191,2.3422,-0.40119,-0.86659,2.3681,-0.41465,-0.91436,2.3132
-0.47306,0.076364,2.3363,-0.46549,0.13465,2.3775,-0.46255,0.46641,2.4026,-0.47426,0.6448,2.3682,-0.61367,0.34925,2.4114,-0.66658,0.084551,2.4182,-0.66442,-0.14755,2.379,-0.66925,-0.22607,2.3623,-0.32217,0.37053,2.3551,-0.29461,0.12696,2.3055,-0.27943,-0.14403,2.286,-0.28047,-0.19609,2.2762,-0.54063,0.014856,2.3311,-0.53971,-0.43869,2.3538,-0.52796,-0.82031,2.3732,-0.54273,-0.85238,2.2959,-0.41014,0.0029943,2.3149,-0.42378,-0.46995,2.3382,-0.40231,-0.87353,2.364,-0.4059,-0.92156,2.3108
-0.47156,0.023734,2.3396,-0.46546,0.085841,2.3792,-0.46563,0.43622,2.3968,-0.47768,0.59421,2.3563,-0.59949,0.31803,2.4226,-0.66866,0.061373,2.4137,-0.66874,-0.20021,2.3839,-0.67472,-0.28268,2.3824,-0.32883,0.34003,2.3773,-0.31431,0.068257,2.3144,-0.25632,-0.17524,2.3184,-0.25502,-0.25317,2.3098,-0.53639,-0.04189,2.3421,-0.55758,-0.44883,2.3413,-0.52703,-0.82624,2.3807,-0.53915,-0.85884,2.3058,-0.4113,-0.039015,2.3154,-0.42973,-0.48818,2.3237,-0.40158,-0.88289,2.3683,-0.41155,-0.9328,2.32
-0.46979,-0.013209,2.3433,-0.46364,0.046772,2.3842,-0.46722,0.3737,2.3964,-0.47457,0.54454,2.3563,-0.60319,0.25551,2.4236,-0.66002,-0.027126,2.4101,-0.67491,-0.24254,2.3937,-0.68309,-0.33562,2.3875,-0.3262,0.30378,2.3798,-0.3101,0.060859,2.3258,-0.25935,-0.19042,2.3326,-0.25383,-0.28554,2.3319,-0.53437,-0.079954,2.3443,-0.56729,-0.4613,2.3292,-0.51834,-0.83384,2.3797,-0.51821,-0.89107,2.3679,-0.40676,-0.083996,2.3213,-0.42492,-0.51008,2.304,-0.40292,-0.8866,2.3652,-0.41563,-0.91921,2.2898
-0.46002,-0.060903,2.346,-0.46157,-0.0012039,2.3848,-0.46771,0.32394,2.3845,-0.47393,0.50243,2.3554,-0.60928,0.19237,2.4025,-0.66343,-0.15141,2.4125,-0.68117,-0.31251,2.393,-0.7078,-0.45697,2.3932,-0.32645,0.26448,2.4079,-0.30895,0.0043598,2.3276,-0.28656,-0.24108,2.304,-0.27997,-0.44421,2.3017,-0.52221,-0.13324,2.3454,-0.57207,-0.54683,2.326,-0.51953,-0.9144,2.3945,-0.51975,-0.94758,2.3195,-0.39665,-0.12689,2.3284,-0.41705,-0.54212,2.2919,-0.40086,-0.90025,2.3654,-0.40108,-0.93343,2.2904
-0.45867,-0.087266,2.3494,-0.46255,-0.029589,2.3872,-0.46676,0.28384,2.38,-0.47716,0.4625,2.3518,-0.61945,0.1418,2.3947,-0.66434,-0.16612,2.4161,-0.68061,-0.33021,2.3902,-0.70277,-0.46291,2.38,-0.32957,0.24206,2.4265,-0.31434,0.0094961,2.3414,-0.28976,-0.35853,2.3005,-0.27653,-0.3351,2.3197,-0.52236,-0.16996,2.3489,-0.56881,-0.56215,2.3023,-0.51737,-0.92568,2.3872,-0.47621,-0.93122,2.3441,-0.39233,-0.15582,2.3358,-0.44681,-0.56558,2.286,-0.40398,-0.86628,2.3221,-0.34738,-0.90772,2.3027
-0.4662,-0.13099,2.3514,-0.46774,-0.070787,2.3886,-0.46962,0.2498,2.3777,-0.47649,0.42348,2.3454,-0.61955,0.11401,2.3999,-0.66044,-0.14969,2.4181,-0.67499,-0.35894,2.3872,-0.7014,-0.46143,2.3801,-0.33032,0.18284,2.4081,-0.30718,-0.081957,2.3329,-0.2896,-0.32806,2.3089,-0.2761,-0.39242,2.3181,-0.53069,-0.20279,2.3527,-0.56498,-0.56429,2.2958,-0.5116,-0.92684,2.3849,-0.4776,-0.93368,2.338,-0.40181,-0.1982,2.3367,-0.47173,-0.60548,2.2738,-0.39791,-0.93348,2.3894,-0.37769,-0.96602,2.3144
