-0.22967,-0.39113,2.3164,-0.23432,-0.33374,2.305,-0.26846,-0.041973,2.2352,-0.27958,0.12017,2.1785,-0.38125,-0.148,2.263,-0.49458,-0.17337,2.1499,-0.55079,-0.35885,1.9128,-0.55038,-0.41455,1.917,-0.15047,-0.1074,2.1826,-0.12723,-0.24952,2.1475,-0.16159,-0.54224,2.2295,-0.19716,-0.55821,2.1648,-0.27946,-0.44362,2.3466,-0.24805,-0.74365,2.2114,-0.23294,-0.95778,2.3217,-0.19962,-1.0023,2.2834,-0.1643,-0.43617,2.3063,-0.26197,-0.73417,2.233,-0.21519,-0.94595,2.3102,-0.23665,-1.0099,2.3126
-0.22793,-0.33656,2.3056,-0.23341,-0.27648,2.2945,-0.26568,0.013858,2.2268,-0.27428,0.18027,2.2009,-0.36986,-0.084483,2.2621,-0.42189,-0.20667,2.1925,-0.56379,-0.1455,1.9259,-0.58122,-0.1438,1.8681,-0.15976,-0.050816,2.1789,-0.18362,-0.030862,1.9468,-0.22409,-0.22383,2.0265,-0.32573,0.11753,1.7873,-0.27706,-0.38944,2.3308,-0.22754,-0.70967,2.2203,-0.23436,-0.95511,2.3216,-0.20189,-1.002,2.2854,-0.16907,-0.3831,2.3,-0.23586,-0.68229,2.2183,-0.19586,-0.94073,2.3177,-0.24873,-1.0136,2.3043
-0.23826,-0.24287,2.2887,-0.24559,-0.1804,2.2757,-0.28515,0.1262,2.2001,-0.33021,0.24643,2.2026,-0.32531,0.025824,2.233,-0.55487,-0.021832,2.0839,-0.57694,0.087641,1.9296,-0.58429,0.12413,1.8821,-0.17697,0.051588,2.1677,-0.19151,-0.037669,2.0601,-0.28445,0.29133,1.8647,-0.28534,0.29433,1.8687,-0.28493,-0.29588,2.3191,-0.21506,-0.64773,2.2485,-0.23292,-0.95242,2.3239,-0.20739,-1.0028,2.2869,-0.17937,-0.29122,2.28,-0.23534,-0.6411,2.2559,-0.17966,-0.90443,2.3105,-0.2245,-0.96616,2.3021
-0.24775,-0.11727,2.2632,-0.25549,-0.066816,2.2549,-0.29713,0.18108,2.205,-0.34484,0.28021,2.2173,-0.45896,0.10718,2.2456,-0.57054,0.16711,2.092,-0.57027,0.31615,1.9774,-0.56824,0.38659,1.9502,-0.18151,0.15393,2.1535,-0.18549,0.10699,2.059,-0.24513,0.49764,1.9341,-0.26777,-0.31744,2.0331,-0.3068,-0.18906,2.3015,-0.23187,-0.51861,2.2838,-0.24355,-0.84033,2.314,-0.2735,-0.88079,2.2525,-0.17131,-0.16163,2.2432,-0.21645,-0.55021,2.2914,-0.18483,-0.86139,2.3232,-0.22547,-0.84073,2.2364
-0.25274,-0.039772,2.2515,-0.25519,0.017781,2.2417,-0.27193,0.30252,2.187,-0.33454,0.47794,2.1852,-0.46792,0.21711,2.2651,-0.62325,0.25184,2.1557,-0.57769,0.47041,2.0431,-0.57421,0.52601,2.0392,-0.25068,0.25607,2.1572,-0.15993,0.38187,1.9616,-0.18295,0.54484,1.9472,-0.22167,0.60967,1.9509,-0.31143,-0.10833,2.2868,-0.23144,-0.45886,2.3025,-0.26298,-0.81891,2.31,-0.25858,-0.939,2.2426,-0.19155,-0.077683,2.2326,-0.19616,-0.46495,2.3017,-0.18735,-0.80155,2.3094,-0.21845,-0.84281,2.245
-0.24851,0.053807,2.2343,-0.25056,0.11657,2.23,-0.26311,0.41723,2.2036,-0.25086,0.56195,2.1597,-0.41675,0.30746,2.284,-0.57467,0.4258,2.2738,-0.58162,0.58531,2.1269,-0.60701,0.60111,2.1002,-0.11597,0.33311,2.1436,-0.082779,0.46364,1.996,-0.11679,0.65925,1.9597,-0.15218,0.71401,1.9498,-0.30519,-0.026861,2.2655,-0.22913,-0.41573,2.3037,-0.25787,-0.7924,2.2933,-0.25441,-0.9604,2.2905,-0.18843,0.0038726,2.2107,-0.19659,-0.37838,2.3023,-0.18474,-0.71546,2.2849,-0.21554,-0.75345,2.2183
-0.24849,0.07362,2.2349,-0.25401,0.13467,2.2311,-0.29048,0.40844,2.2113,-0.25623,0.56991,2.1738,-0.39691,0.3729,2.2859,-0.57277,0.48777,2.343,-0.66438,0.63929,2.2384,-0.66005,0.69095,2.2046,-0.092011,0.39888,2.1459,-0.030007,0.50554,2.0545,-0.0096596,0.71761,1.9551,-0.038743,0.7631,1.9383,-0.29983,0.024393,2.2657,-0.22042,-0.36441,2.3046,-0.26819,-0.65622,2.2854,-0.26918,-0.72513,2.2455,-0.19128,0.016187,2.2109,-0.19637,-0.36579,2.3035,-0.18287,-0.70233,2.3114,-0.21962,-0.74216,2.2497
-0.24813,0.10766,2.2291,-0.25423,0.16706,2.2259,-0.28662,0.46818,2.2078,-0.27393,0.61222,2.19,-0.39437,0.39762,2.2803,-0.56554,0.49689,2.4056,-0.73957,0.64128,2.3836,-0.75371,0.69796,2.3501,-0.12117,0.41693,2.1701,0.043886,0.54289,2.0753,0.1375,0.72573,1.9753,0.1232,0.7795,1.9444,-0.30051,0.050106,2.2527,-0.22457,-0.31271,2.2961,-0.26532,-0.62512,2.2844,-0.26565,-0.67223,2.2415,-0.18596,0.048619,2.2119,-0.20126,-0.33363,2.303,-0.19278,-0.66983,2.3175,-0.21913,-0.70785,2.2491
-0.2565,0.14428,2.2207,-0.26052,0.20553,2.2184,-0.28121,0.51248,2.2072,-0.2731,0.65615,2.1904,-0.3922,0.43223,2.2823,-0.54482,0.47671,2.4492,-0.74266,0.57356,2.5196,-0.77809,0.63713,2.5091,-0.12187,0.45197,2.1691,0.082376,0.53303,2.1075,0.16484,0.68474,2.0021,0.18102,0.72871,1.9681,-0.30893,0.077141,2.2403,-0.20954,-0.29576,2.304,-0.21681,-0.62747,2.3425,-0.23682,-0.6447,2.2502,-0.19565,0.083645,2.2032,-0.19837,-0.29884,2.2941,-0.19242,-0.63233,2.3247,-0.22003,-0.66917,2.2561
-0.26329,0.18264,2.2149,-0.26512,0.24132,2.214,-0.27733,0.53856,2.2092,-0.27921,0.6793,2.1852,-0.39973,0.49196,2.3231,-0.4559,0.42185,2.4976,-0.63169,0.44976,2.5792,-0.69227,0.48288,2.6101,-0.12275,0.46661,2.1697,0.10395,0.51329,2.1314,0.25205,0.62995,2.0509,0.26224,0.66457,2.0215,-0.31985,0.11486,2.2339,-0.21134,-0.25465,2.2957,-0.21337,-0.58546,2.3387,-0.24621,-0.61239,2.2484,-0.20344,0.11667,2.1947,-0.19828,-0.26462,2.2899,-0.1975,-0.68367,2.3284,-0.23356,-0.73105,2.2903
-0.26573,0.18713,2.2127,-0.26724,0.2471,2.2125,-0.27698,0.55297,2.2117,-0.28482,0.7034,2.1796,-0.39388,0.46755,2.3139,-0.48742,0.39563,2.5052,-0.5892,0.33198,2.6251,-0.72027,0.441,2.6725,-0.12454,0.48681,2.1753,0.10611,0.45569,2.1661,0.27616,0.53358,2.1046,0.38109,0.49782,2.1169,-0.32329,0.1237,2.2278,-0.26013,-0.2352,2.2943,-0.21778,-0.56453,2.3308,-0.24176,-0.59997,2.2418,-0.20673,0.12084,2.1929,-0.2084,-0.25953,2.2911,-0.19576,-0.59489,2.3074,-0.2287,-0.63045,2.2405
-0.26648,0.18589,2.211,-0.26766,0.2472,2.2124,-0.27529,0.56132,2.2136,-0.28746,0.70731,2.1783,-0.37799,0.44526,2.2597,-0.35969,0.34909,2.4881,-0.54357,0.24874,2.5468,-0.59186,0.25118,2.5837,-0.1266,0.48986,2.177,0.05953,0.4059,2.2055,0.25813,0.43052,2.1606,0.34163,0.38056,2.1758,-0.32276,0.12405,2.2243,-0.22346,-0.24276,2.275,-0.21926,-0.56643,2.3084,-0.2507,-0.59861,2.2341,-0.2093,0.1203,2.192,-0.24239,-0.25261,2.3008,-0.20503,-0.58636,2.3109,-0.22461,-0.62128,2.2406
-0.26812,0.18516,2.2085,-0.26822,0.24735,2.2117,-0.27339,0.56621,2.2151,-0.29382,0.71316,2.1758,-0.37329,0.44372,2.2572,-0.32464,0.32388,2.4645,-0.46845,0.17134,2.514,-0.48521,0.12442,2.5355,-0.13261,0.48782,2.1781,0.04366,0.35085,2.2253,0.23885,0.30723,2.1932,0.29405,0.23829,2.2014,-0.32236,0.12494,2.223,-0.25833,-0.24494,2.2855,-0.22418,-0.57922,2.2917,-0.25636,-0.59969,2.2171,-0.21834,0.12157,2.1836,-0.21186,-0.26002,2.2767,-0.19655,-0.59638,2.2816,-0.21635,-0.63093,2.2111
-0.2704,0.18062,2.2053,-0.26917,0.2442,2.2108,-0.27189,0.56353,2.2154,-0.29778,0.71108,2.1726,-0.36896,0.44187,2.2541,-0.36723,0.24657,2.2739,-0.35884,0.087644,2.4834,-0.38329,0.042158,2.5048,-0.13916,0.48056,2.1791,0.0052774,0.30865,2.2287,0.18363,0.21041,2.2142,0.22672,0.12534,2.2281,-0.32113,0.1243,2.2223,-0.2397,-0.24475,2.2595,-0.2177,-0.57892,2.266,-0.23762,-0.61316,2.1955,-0.22485,0.11899,2.179,-0.21357,-0.26451,2.2643,-0.20111,-0.60133,2.2489,-0.22103,-0.63556,2.1784
-0.27435,0.16576,2.204,-0.27213,0.22937,2.2105,-0.27023,0.54683,2.2133,-0.30079,0.70008,2.1666,-0.36648,0.43639,2.2496,-0.37564,0.22089,2.2629,-0.39178,0.071736,2.3687,-0.33642,-0.032607,2.4585,-0.13791,0.44353,2.177,-0.015588,0.25146,2.2196,0.13526,0.094038,2.2181,0.16339,0.003766,2.2234,-0.32047,0.11341,2.2233,-0.19357,-0.25489,2.208,-0.22221,-0.59427,2.2412,-0.26115,-0.61291,2.1453,-0.23357,0.10457,2.1777,-0.22151,-0.28329,2.244,-0.20601,-0.69351,2.2345,-0.22237,-0.74654,2.1783
-0.27432,0.12205,2.2077,-0.27158,0.18591,2.2116,-0.26819,0.50685,2.206,-0.29642,0.65663,2.1483,-0.36512,0.4135,2.263,-0.36449,0.18846,2.2435,-0.38595,0.049301,2.3369,-0.31456,-0.066335,2.4418,-0.13889,0.38228,2.1606,-0.032128,0.18079,2.2068,0.057423,0.015691,2.2078,0.078503,-0.039437,2.2056,-0.32185,0.063631,2.233,-0.28436,-0.32441,2.2961,-0.23032,-0.65067,2.1972,-0.25587,-0.68567,2.1295,-0.2293,0.059061,2.1809,-0.22405,-0.33146,2.2322,-0.21234,-0.72216,2.2001,-0.23128,-0.77699,2.1392
-0.25989,0.076769,2.2074,-0.26052,0.13994,2.2086,-0.2694,0.45469,2.1899,-0.29556,0.61586,2.1375,-0.40284,0.29853,2.1615,-0.3659,0.12143,2.2245,-0.31602,-0.078723,2.4093,-0.30555,-0.15013,2.432,-0.13774,0.3538,2.1488,-0.064334,0.13265,2.1794,0.0034732,-0.090302,2.1834,0.0055572,-0.16256,2.1874,-0.30499,0.019929,2.234,-0.17802,-0.34474,2.1762,-0.22554,-0.68589,2.1906,-0.24453,-0.72261,2.1229,-0.2116,0.01211,2.1837,-0.2225,-0.38104,2.2103,-0.21197,-0.79988,2.18,-0.24819,-0.86689,2.1389
-0.25188,0.032441,2.2006,-0.25414,0.093655,2.1998,-0.27296,0.39576,2.174,-0.30059,0.55956,2.1255,-0.3631,0.34336,2.2329,-0.32895,0.12147,2.307,-0.3765,-0.068059,2.216,-0.36786,-0.13155,2.2265,-0.143,0.33324,2.1616,-0.091375,0.10148,2.1609,-0.067095,-0.12776,2.1361,-0.061878,-0.18991,2.1374,-0.29415,-0.020251,2.2199,-0.26015,-0.43234,2.185,-0.23631,-0.72068,2.2112,-0.28076,-0.7504,2.1348,-0.20362,-0.027309,2.1855,-0.22967,-0.42182,2.1909,-0.21002,-0.82525,2.1617,-0.23965,-0.89378,2.1284
