-0.13214,-0.30507,2.7348,-0.13991,-0.23894,2.7241,-0.21398,0.017864,2.5628,-0.24265,0.17266,2.5301,-0.32715,-0.031515,2.6607,-0.40722,-0.033349,2.8839,-0.45305,-0.075734,3.0518,-0.49154,-0.078306,3.0643,-0.070308,-0.023052,2.5663,0.1569,-0.028832,2.6198,0.32734,-0.1323,2.6395,0.37988,-0.14607,2.6376,-0.17204,-0.36053,2.7781,-0.21137,-0.66184,2.7037,-0.17889,-0.94648,2.7214,-0.20776,-1.0177,2.6824,-0.066384,-0.35662,2.7437,-0.08179,-0.65482,2.6601,-0.047727,-0.93686,2.6991,-0.06759,-0.99539,2.6393
-0.12679,-0.34276,2.7382,-0.1377,-0.27939,2.7212,-0.21641,-0.034498,2.5443,-0.2391,0.11507,2.5133,-0.325,-0.082695,2.6441,-0.42491,-0.087173,2.7848,-0.39481,-0.0016912,3.0503,-0.39843,0.017341,3.1238,-0.067485,-0.070285,2.5608,0.16122,-0.029834,2.6276,0.31264,-0.062111,2.6767,0.37041,-0.085552,2.6908,-0.16223,-0.3986,2.7899,-0.22653,-0.69302,2.6833,-0.1754,-0.94766,2.7168,-0.16909,-1.0222,2.7335,-0.063074,-0.39053,2.7441,-0.075019,-0.6902,2.6352,-0.047378,-0.93768,2.6942,-0.077938,-1.0121,2.6747
-0.12468,-0.38142,2.7419,-0.13648,-0.32118,2.7203,-0.21629,-0.090808,2.5345,-0.24362,0.073466,2.4985,-0.32418,-0.11766,2.6353,-0.33688,-0.05005,2.8621,-0.34911,0.013377,3.0696,-0.49206,-0.25127,3.0884,-0.076097,-0.11014,2.5528,0.15161,-0.042171,2.6421,0.30978,-0.10586,2.727,0.34452,-0.090222,2.7373,-0.16043,-0.43199,2.7961,-0.23332,-0.69984,2.6698,-0.17889,-0.94851,2.7126,-0.19651,-1.0187,2.6797,-0.060704,-0.42417,2.7491,-0.074629,-0.70581,2.616,-0.051526,-0.95955,2.6821,-0.046066,-1.0187,2.6959
-0.12458,-0.39291,2.7338,-0.13873,-0.33602,2.7111,-0.21078,-0.12899,2.5312,-0.24826,0.032532,2.4936,-0.3212,-0.15489,2.6274,-0.41688,-0.1809,2.7586,-0.30601,0.00146,3.0967,-0.48462,-0.32398,3.072,-0.043592,-0.11055,2.5647,0.14093,-0.052473,2.6654,0.35626,-0.11363,2.7681,0.40997,-0.12915,2.7775,-0.16921,-0.45968,2.7832,-0.24146,-0.72424,2.6528,-0.17521,-0.97893,2.6973,-0.19889,-1.0243,2.7028,-0.047094,-0.44365,2.7554,-0.072582,-0.7119,2.6093,-0.052123,-0.96408,2.6811,-0.028946,-1.0386,2.6894
-0.13215,-0.4339,2.7218,-0.14254,-0.37728,2.6977,-0.21372,-0.14941,2.5238,-0.25076,0.020657,2.485,-0.32166,-0.16079,2.6405,-0.42362,-0.19203,2.7597,-0.45557,-0.27314,2.9926,-0.49136,-0.33512,3.0731,-0.077712,-0.15804,2.5439,0.081104,-0.10821,2.6538,0.2712,-0.14717,2.8151,0.32687,-0.15226,2.8244,-0.17387,-0.48204,2.7775,-0.25957,-0.71946,2.615,-0.19117,-0.94556,2.6959,-0.21057,-1.0142,2.674,-0.061556,-0.48212,2.7306,-0.072692,-0.76041,2.5931,-0.052356,-1.0048,2.6823,-0.036852,-1.0361,2.6684
-0.13277,-0.4476,2.7173,-0.14379,-0.39013,2.6927,-0.21424,-0.16154,2.5199,-0.25523,0.0081702,2.4763,-0.31713,-0.20831,2.6192,-0.41801,-0.22921,2.7564,-0.24604,-0.18132,3.032,-0.48576,-0.3723,3.0698,-0.078486,-0.18979,2.5346,0.082865,-0.12737,2.6655,0.24642,-0.22694,2.8296,0.28038,-0.27136,2.8388,-0.1798,-0.50258,2.7619,-0.26761,-0.73576,2.5947,-0.17189,-0.94595,2.687,-0.19403,-1.0131,2.6635,-0.061524,-0.49199,2.7302,-0.072881,-0.76642,2.5937,-0.051104,-1.0043,2.6971,-0.048055,-1.0472,2.6704
-0.13484,-0.456,2.7024,-0.14612,-0.39956,2.6803,-0.21645,-0.16614,2.5185,-0.25423,0.0080633,2.4762,-0.31763,-0.2089,2.6194,-0.41971,-0.22921,2.7559,-0.25014,-0.33587,2.9916,-0.48746,-0.3723,3.0693,-0.07667,-0.19852,2.5371,0.10133,-0.2374,2.7388,0.23098,-0.33146,2.833,0.27332,-0.3679,2.8426,-0.17703,-0.50943,2.7515,-0.26563,-0.73751,2.579,-0.17197,-0.94248,2.68,-0.18939,-1.0089,2.6631,-0.067722,-0.50593,2.7074,-0.076647,-0.77384,2.5758,-0.054391,-1.0047,2.691,-0.059648,-1.0403,2.6464
-0.13447,-0.45749,2.6962,-0.14627,-0.4013,2.6749,-0.21745,-0.14139,2.5235,-0.2453,0.018689,2.483,-0.31638,-0.20839,2.618,-0.28011,-0.35607,2.8197,-0.28462,-0.51071,2.9212,-0.48536,-0.37246,3.0658,-0.076177,-0.19951,2.5366,0.079099,-0.30569,2.7259,0.17724,-0.45468,2.7857,0.18094,-0.50494,2.7572,-0.17808,-0.51403,2.7275,-0.26827,-0.7491,2.5661,-0.17928,-0.97589,2.6592,-0.19765,-1.0347,2.6003,-0.064017,-0.5062,2.7064,-0.12798,-0.72555,2.5019,-0.059617,-0.98245,2.6725,-0.10345,-1.0273,2.6282
-0.13685,-0.44879,2.6821,-0.14729,-0.39003,2.664,-0.20607,-0.10271,2.5341,-0.21979,0.065053,2.5041,-0.31541,-0.19633,2.6188,-0.31631,-0.40684,2.7448,-0.36957,-0.58524,2.6853,-0.4832,-0.36998,3.0668,-0.061399,-0.1934,2.5447,0.027542,-0.39668,2.6188,-0.0075388,-0.59381,2.5442,-0.033304,-0.65722,2.5086,-0.18584,-0.50549,2.7101,-0.25241,-0.74643,2.5832,-0.17405,-0.9466,2.6743,-0.19547,-1.0073,2.6508,-0.065831,-0.50081,2.6938,-0.10069,-0.765,2.555,-0.042607,-1.0054,2.6862,-0.12083,-1.0241,2.6789
-0.1532,-0.4163,2.6703,-0.15807,-0.3551,2.656,-0.19852,-0.068894,2.5467,-0.20904,0.10257,2.5181,-0.31576,-0.16564,2.6263,-0.3507,-0.37127,2.6873,-0.41421,-0.53722,2.6116,-0.41356,-0.59581,2.635,-0.058083,-0.16593,2.5421,-0.0053148,-0.37933,2.5435,-0.067766,-0.57819,2.4701,0.0023962,-0.60833,2.465,-0.20868,-0.47143,2.7037,-0.25808,-0.73023,2.5633,-0.17021,-0.94,2.6654,-0.19138,-0.99066,2.5992,-0.087398,-0.4722,2.6707,-0.097504,-0.76402,2.5547,-0.051857,-0.98702,2.6981,-0.11776,-1.0163,2.671
-0.14688,-0.38212,2.6683,-0.15223,-0.3185,2.6551,-0.19292,-0.0090629,2.5607,-0.20598,0.153,2.5361,-0.32059,-0.13377,2.6193,-0.40339,-0.30693,2.5997,-0.46479,-0.47065,2.4877,-0.48828,-0.43207,2.3781,-0.072226,-0.10695,2.5273,-0.029372,-0.30291,2.4934,-0.079327,-0.58961,2.4927,-0.090975,-0.66432,2.4799,-0.19932,-0.43943,2.7044,-0.24743,-0.72036,2.5911,-0.15764,-0.95809,2.6794,-0.18538,-1.0135,2.6544,-0.080612,-0.43304,2.6595,-0.083261,-0.72315,2.562,-0.078981,-0.96135,2.6665,-0.11234,-1.007,2.6122
-0.14747,-0.31567,2.6648,-0.15275,-0.25237,2.6523,-0.18933,0.052387,2.5624,-0.20329,0.21269,2.5537,-0.32674,-0.044943,2.6061,-0.44573,-0.17778,2.5302,-0.49903,-0.27849,2.3467,-0.46067,-0.25954,2.3407,-0.084251,-0.032691,2.5118,-0.039508,-0.18734,2.3941,-0.22292,-0.068627,2.158,-0.13205,-0.48914,2.3605,-0.19532,-0.37392,2.6967,-0.24982,-0.67107,2.6226,-0.17798,-0.92153,2.6705,-0.199,-0.98618,2.6512,-0.088346,-0.36718,2.6602,-0.090295,-0.66942,2.5632,-0.08153,-0.94763,2.6612,-0.10785,-1.0048,2.6243
-0.15321,-0.23947,2.6545,-0.15575,-0.1742,2.6427,-0.17918,0.1433,2.5612,-0.19385,0.29797,2.5699,-0.32975,0.063216,2.5999,-0.44139,-0.053785,2.4818,-0.48071,0.026987,2.3007,-0.50143,0.013723,2.2925,-0.10066,0.0595,2.5007,-0.033906,-0.09042,2.3722,-0.22241,0.030439,2.1627,-0.25412,0.07648,2.157,-0.19925,-0.29422,2.6846,-0.23859,-0.61589,2.647,-0.16583,-0.93797,2.6866,-0.19439,-0.98354,2.6194,-0.10118,-0.28988,2.6471,-0.089131,-0.63078,2.5807,-0.069721,-0.94212,2.6648,-0.099918,-0.9971,2.6304
-0.16494,-0.16272,2.6393,-0.16632,-0.093001,2.6323,-0.18323,0.25093,2.578,-0.20119,0.39961,2.6073,-0.32666,0.13418,2.6101,-0.44662,0.064162,2.4477,-0.44779,0.19327,2.2979,-0.44353,0.25244,2.2687,-0.10518,0.15499,2.5055,-0.044811,0.03821,2.3479,-0.20487,0.082737,2.1519,-0.20521,0.083727,2.151,-0.21357,-0.21892,2.6635,-0.20984,-0.59146,2.679,-0.18965,-0.92929,2.6809,-0.21625,-0.99106,2.6679,-0.11277,-0.21164,2.6274,-0.07863,-0.59873,2.6342,-0.055318,-0.9384,2.6617,-0.097004,-0.99719,2.6305
-0.17192,-0.087379,2.6215,-0.17306,-0.015552,2.6218,-0.18959,0.34277,2.6034,-0.1964,0.49256,2.6213,-0.33829,0.23619,2.6263,-0.44257,0.093276,2.5016,-0.44531,0.20082,2.332,-0.45991,0.23744,2.331,-0.094093,0.24238,2.5119,-0.043448,0.13557,2.3421,-0.16893,0.10439,2.201,-0.19653,0.081702,2.1576,-0.22848,-0.15176,2.6427,-0.18321,-0.5462,2.6861,-0.18824,-0.90582,2.6803,-0.22553,-0.95267,2.6325,-0.11181,-0.13984,2.6019,-0.080107,-0.53507,2.6492,-0.04103,-0.90554,2.6475,-0.060078,-0.95988,2.5969
-0.17438,-0.039513,2.6053,-0.17426,0.034443,2.6141,-0.1907,0.40571,2.6267,-0.19156,0.55652,2.6622,-0.33728,0.2806,2.6379,-0.45536,0.12832,2.5022,-0.46378,0.23124,2.3146,-0.45895,0.23802,2.3222,-0.094848,0.30802,2.5259,-0.028159,0.19226,2.3727,-0.14394,0.1047,2.2339,-0.17968,0.089058,2.1964,-0.23585,-0.10834,2.6214,-0.16264,-0.49634,2.6749,-0.16077,-0.86088,2.6848,-0.19314,-0.8965,2.6135,-0.10962,-0.086848,2.5811,-0.080088,-0.52765,2.6779,-0.01823,-0.92325,2.6781,-0.089439,-0.88891,2.5853
-0.18165,0.015731,2.5877,-0.17694,0.089285,2.6036,-0.17995,0.46867,2.6335,-0.18941,0.6184,2.6705,-0.33828,0.31504,2.6488,-0.43114,0.11281,2.567,-0.46588,0.15948,2.3708,-0.46145,0.20162,2.3195,-0.092413,0.34638,2.5323,-0.023995,0.21846,2.3923,-0.1128,0.11152,2.247,-0.14369,0.087109,2.2089,-0.24111,-0.052668,2.602,-0.16419,-0.46516,2.6908,-0.14046,-0.75722,2.6573,-0.1316,-0.87848,2.6653,-0.12353,-0.033138,2.5587,-0.13222,-0.38085,2.6262,-0.056647,-0.86466,2.7208,-0.083826,-0.89561,2.6666
-0.19329,0.067494,2.5861,-0.18484,0.14102,2.6067,-0.17813,0.52204,2.6421,-0.19068,0.66995,2.6808,-0.33236,0.3539,2.6516,-0.40515,0.15157,2.6093,-0.46168,0.11871,2.4155,-0.46783,0.11845,2.3644,-0.091895,0.39432,2.5415,-0.017448,0.2496,2.4257,-0.07321,0.11356,2.2908,-0.10361,0.081256,2.2394,-0.24796,0.0072799,2.6021,-0.16158,-0.37438,2.6484,-0.15968,-0.69207,2.6378,-0.1873,-0.7722,2.583,-0.14381,0.012107,2.5526,-0.15653,-0.34129,2.6115,-0.090868,-0.69049,2.6439,-0.12083,-0.75419,2.6017
-0.20009,0.092295,2.5827,-0.18928,0.16309,2.6064,-0.18074,0.53781,2.6405,-0.18026,0.69008,2.6885,-0.32285,0.40601,2.648,-0.37669,0.17921,2.6307,-0.4312,0.054397,2.485,-0.4494,0.036372,2.436,-0.099416,0.42023,2.5409,-0.0082713,0.25436,2.4389,-0.05422,0.10906,2.3117,-0.078154,0.072916,2.2645,-0.25307,0.035523,2.5997,-0.16631,-0.35157,2.6414,-0.16323,-0.7169,2.6375,-0.19725,-0.74986,2.5659,-0.15405,0.038203,2.5479,-0.14242,-0.32105,2.5994,-0.12322,-0.67126,2.6184,-0.13473,-0.74334,2.5751
-0.20768,0.11102,2.5815,-0.19601,0.18303,2.6065,-0.1905,0.56395,2.6314,-0.18345,0.71427,2.6854,-0.32226,0.41164,2.6434,-0.37224,0.19403,2.6567,-0.4145,0.032528,2.5513,-0.42904,-0.0050691,2.5097,-0.10129,0.43459,2.5395,-0.0030523,0.25833,2.4465,-0.029644,0.10187,2.3323,-0.043831,0.043263,2.2855,-0.25985,0.055691,2.5982,-0.17619,-0.33295,2.6284,-0.1758,-0.7433,2.6217,-0.2031,-0.80596,2.596,-0.16139,0.05681,2.549,-0.13554,-0.3067,2.5811,-0.14117,-0.65998,2.5831,-0.14377,-0.73248,2.5538
-0.20945,0.12127,2.5783,-0.19747,0.19322,2.6053,-0.193,0.5733,2.6255,-0.1927,0.72785,2.6629,-0.32476,0.42534,2.6401,-0.36756,0.17848,2.6647,-0.39946,-0.0056735,2.6121,-0.41622,-0.047904,2.591,-0.098463,0.44642,2.5404,0.0063925,0.25969,2.4548,-0.0048987,0.086049,2.3635,-0.0058116,0.051365,2.3415,-0.26132,0.060963,2.5964,-0.18919,-0.30588,2.5945,-0.21052,-0.6725,2.6135,-0.23807,-0.72325,2.5634,-0.1624,0.069038,2.5458,-0.13327,-0.32493,2.604,-0.12103,-0.74332,2.6008,-0.10214,-0.79083,2.5465
-0.20806,0.12581,2.5727,-0.19722,0.19642,2.6034,-0.19469,0.57592,2.6238,-0.19447,0.73048,2.6552,-0.3241,0.4296,2.6323,-0.34495,0.18528,2.6803,-0.38864,-0.0087955,2.6494,-0.39745,-0.050913,2.6373,-0.076197,0.45346,2.5361,0.021555,0.25412,2.4745,0.02771,0.075521,2.399,0.018091,0.047324,2.3677,-0.2617,0.064911,2.5892,-0.19878,-0.32983,2.605,-0.19425,-0.72776,2.5984,-0.217,-0.79486,2.5669,-0.15898,0.07231,2.5397,-0.13505,-0.32355,2.5898,-0.1228,-0.73966,2.5895,-0.11536,-0.8047,2.557
-0.20882,0.13082,2.5659,-0.19756,0.19974,2.5986,-0.19735,0.57334,2.6168,-0.20175,0.72465,2.6404,-0.32586,0.43042,2.6325,-0.34335,0.18524,2.6871,-0.3706,-0.004281,2.6793,-0.36571,-0.051969,2.6793,-0.077673,0.45241,2.5365,0.038483,0.24993,2.5008,0.039857,0.075674,2.4117,0.039087,0.028496,2.3901,-0.26363,0.068322,2.5797,-0.22631,-0.3099,2.5853,-0.22101,-0.70082,2.5899,-0.24178,-0.75477,2.5355,-0.1586,0.075868,2.5348,-0.13662,-0.32143,2.5757,-0.092281,-0.73389,2.5591,-0.12941,-0.78118,2.519
-0.20945,0.12564,2.5583,-0.19823,0.19305,2.5927,-0.19961,0.55722,2.6091,-0.20394,0.71168,2.6342,-0.32721,0.4207,2.6261,-0.34452,0.17064,2.6912,-0.39241,-0.014432,2.7042,-0.38876,-0.071263,2.6737,-0.075922,0.44556,2.5356,0.043178,0.23742,2.5163,0.074795,0.05862,2.4506,0.060512,0.016915,2.4132,-0.26553,0.061725,2.5695,-0.23919,-0.32909,2.5726,-0.22726,-0.73203,2.5808,-0.25024,-0.78861,2.5271,-0.15811,0.068666,2.527,-0.13804,-0.33048,2.5521,-0.11077,-0.75752,2.5414,-0.13735,-0.80897,2.4837
-0.20759,0.10603,2.5452,-0.19756,0.1713,2.5814,-0.20606,0.52179,2.5964,-0.20737,0.67546,2.6263,-0.33022,0.39891,2.6238,-0.34963,0.13141,2.6795,-0.39916,-0.042921,2.697,-0.41958,-0.11559,2.6958,-0.070197,0.42315,2.5361,0.045689,0.20908,2.5218,0.080794,0.028062,2.4642,0.084536,-0.038589,2.4283,-0.2629,0.040585,2.5567,-0.24606,-0.35487,2.5654,-0.22213,-0.71862,2.5645,-0.24707,-0.75173,2.4893,-0.15456,0.045225,2.5116,-0.14847,-0.3547,2.5357,-0.12288,-0.74031,2.5133,-0.14765,-0.79438,2.4598
-0.2099,0.059079,2.5331,-0.19941,0.12379,2.5718,-0.20503,0.48103,2.5907,-0.20574,0.63924,2.632,-0.33255,0.34392,2.6103,-0.37284,0.10086,2.6666,-0.4108,-0.10157,2.6757,-0.42884,-0.16275,2.6689,-0.075721,0.37899,2.5299,0.050931,0.17502,2.532,0.086454,-0.0072848,2.4792,0.090208,-0.052468,2.4437,-0.26536,-0.004469,2.5469,-0.25509,-0.41848,2.5392,-0.23102,-0.76355,2.563,-0.24086,-0.85596,2.5291,-0.15772,-0.0039656,2.4975,-0.15984,-0.40373,2.5202,-0.123,-0.8131,2.4975,-0.13409,-0.88609,2.4544
-0.21217,-0.011713,2.5249,-0.20098,0.05418,2.5644,-0.20928,0.41605,2.5811,-0.21376,0.56871,2.6229,-0.3436,0.28391,2.6104,-0.38656,0.038541,2.6561,-0.41864,-0.17527,2.6501,-0.43897,-0.23661,2.6387,-0.086236,0.31111,2.524,0.047394,0.10437,2.5313,0.093588,-0.076367,2.485,0.094366,-0.12034,2.4572,-0.26718,-0.07742,2.539,-0.26159,-0.49475,2.5157,-0.24182,-0.84259,2.5428,-0.25883,-0.90472,2.4884,-0.15901,-0.069979,2.4913,-0.15362,-0.47063,2.4977,-0.1315,-0.87252,2.4702,-0.14238,-0.92167,2.4013
-0.21475,-0.078359,2.5211,-0.20289,-0.011523,2.5609,-0.21124,0.3532,2.5717,-0.2165,0.51294,2.6181,-0.34536,0.21428,2.5994,-0.39377,-0.031745,2.6311,-0.43284,-0.23215,2.5977,-0.45192,-0.29709,2.5858,-0.09771,0.2397,2.5158,0.033896,0.026331,2.5225,0.080299,-0.15595,2.4816,0.087393,-0.20785,2.4481,-0.26918,-0.14427,2.5367,-0.26079,-0.54541,2.5215,-0.24204,-0.90708,2.5387,-0.26972,-0.96695,2.4821,-0.16216,-0.13584,2.4879,-0.14185,-0.53612,2.4676,-0.13935,-0.91438,2.4635,-0.16509,-0.94756,2.3885
