0.10503,-0.15064,2.6005,0.1004,-0.087958,2.6019,0.064833,0.21828,2.5614,0.048341,0.38743,2.5326,-0.079612,0.12932,2.6253,-0.30747,0.13184,2.6341,-0.52177,0.15324,2.586,-0.5961,0.16356,2.5687,0.25144,0.16288,2.5308,0.4493,0.26643,2.4084,0.57543,0.36231,2.2771,0.61134,0.39652,2.2318,0.042846,-0.2279,2.629,0.0059115,-0.59716,2.6192,0.029181,-0.93414,2.648,0.0035185,-0.98704,2.6045,0.18104,-0.22329,2.5821,0.2086,-0.60648,2.5977,0.22144,-0.94049,2.6789,0.22222,-0.99451,2.6407
0.10305,-0.15024,2.5896,0.097158,-0.088257,2.588,0.057292,0.21133,2.5367,0.040336,0.38204,2.5039,-0.090754,0.13131,2.5971,-0.3119,0.13014,2.6369,-0.51991,0.13878,2.6443,-0.5967,0.15148,2.6348,0.24393,0.16078,2.5088,0.46185,0.25092,2.4208,0.61849,0.32906,2.3091,0.66917,0.35825,2.2721,0.041994,-0.22667,2.6207,0.0020361,-0.59584,2.6131,0.0073565,-0.93447,2.6181,-0.025653,-1.0027,2.5977,0.17967,-0.22249,2.5734,0.20682,-0.60626,2.5808,0.22019,-0.93922,2.6712,0.20367,-0.97891,2.6027
0.096998,-0.15754,2.5769,0.088936,-0.096669,2.5703,0.040941,0.19578,2.4984,0.027457,0.36639,2.4634,-0.098065,0.12451,2.571,-0.31518,0.11981,2.6393,-0.51742,0.1082,2.6962,-0.59043,0.11199,2.7046,0.22991,0.15394,2.4878,0.45191,0.22157,2.4306,0.63664,0.26222,2.3471,0.70117,0.27752,2.3128,0.03976,-0.23021,2.6125,-0.0022773,-0.59484,2.6079,-0.0069737,-0.93757,2.5994,-0.048929,-1.0101,2.5675,0.17364,-0.22702,2.5654,0.20549,-0.59457,2.53,0.22111,-0.92514,2.6398,0.2061,-0.96783,2.5728
0.090666,-0.17487,2.5651,0.081686,-0.1146,2.5548,0.034768,0.17374,2.4691,0.014346,0.33348,2.4255,-0.10511,0.09912,2.5339,-0.30863,0.078268,2.6473,-0.49589,0.058186,2.7267,-0.57144,0.051708,2.753,0.2175,0.12849,2.467,0.42672,0.20023,2.4399,0.63272,0.23542,2.3584,0.67134,0.24811,2.3309,0.033425,-0.24856,2.5985,-0.012076,-0.59486,2.5919,-0.008605,-0.9344,2.5939,-0.039652,-0.99623,2.5562,0.16858,-0.23911,2.5612,0.20171,-0.58699,2.4908,0.21448,-0.91421,2.6,0.23337,-0.99687,2.5804
0.085597,-0.19565,2.5535,0.075516,-0.13887,2.539,0.024861,0.13066,2.4393,0.0056422,0.29821,2.4024,-0.11693,0.069578,2.5099,-0.2988,0.030912,2.6494,-0.47331,-0.0058055,2.7482,-0.53562,-0.019735,2.7672,0.20753,0.095566,2.4459,0.4104,0.13168,2.4621,0.58658,0.077666,2.4767,0.6482,0.073895,2.4647,0.030367,-0.26659,2.5899,-0.022962,-0.59566,2.5752,-0.0097047,-0.93274,2.5866,-0.038245,-0.99636,2.5516,0.16338,-0.25892,2.5537,0.2021,-0.58628,2.46,0.19743,-0.91084,2.5488,0.19827,-0.98491,2.5175
0.079317,-0.24024,2.5388,0.06963,-0.18214,2.5219,0.019966,0.097603,2.4181,-0.0096004,0.26044,2.3779,-0.12231,0.020217,2.4909,-0.29053,-0.033967,2.6673,-0.45294,-0.10621,2.7634,-0.5028,-0.12041,2.7759,0.18908,0.044189,2.4207,0.41053,-0.0043369,2.4931,0.62681,0.063161,2.4368,0.68039,0.017583,2.4371,0.02603,-0.31015,2.5766,-0.031833,-0.6265,2.5464,-0.010936,-0.93404,2.5808,-0.02313,-0.98186,2.517,0.15412,-0.30004,2.5442,0.1911,-0.60364,2.4367,0.18377,-0.91545,2.5034,0.18623,-0.97892,2.4633
0.075408,-0.29094,2.5238,0.064724,-0.23222,2.5055,0.010572,0.050363,2.3976,-0.015682,0.22948,2.3623,-0.12718,-0.028239,2.4785,-0.24301,-0.114,2.6477,-0.40753,-0.23736,2.7641,-0.45886,-0.26673,2.7853,0.19207,-0.0013821,2.4072,0.39001,-0.094858,2.4984,0.5266,-0.25828,2.5613,0.66728,-0.0666,2.4457,0.023777,-0.36364,2.5675,-0.040722,-0.663,2.5171,-0.013145,-0.92543,2.5624,-0.024884,-0.97383,2.4989,0.15049,-0.3516,2.5258,0.16537,-0.65425,2.4239,0.16788,-0.91637,2.4834,0.15614,-0.96477,2.4199
0.069134,-0.3371,2.509,0.059904,-0.27642,2.4911,0.011481,0.017046,2.3876,-0.016744,0.20576,2.3555,-0.12405,-0.08096,2.4785,-0.21783,-0.2235,2.6487,-0.39516,-0.32408,2.7678,-0.45161,-0.33589,2.7904,0.18522,-0.060117,2.3948,0.35938,-0.20655,2.4859,0.41428,-0.44247,2.4729,0.41863,-0.4791,2.4682,0.014088,-0.40971,2.551,-0.053932,-0.69908,2.4799,-0.013179,-0.92557,2.5566,-0.028461,-0.97297,2.4936,0.1441,-0.40016,2.509,0.14008,-0.69398,2.4089,0.15943,-0.94231,2.4807,0.1586,-1.005,2.5154
0.065206,-0.35765,2.4963,0.056708,-0.29497,2.4803,0.010181,0.0054517,2.3848,-0.01639,0.19451,2.3548,-0.12063,-0.092833,2.474,-0.16399,-0.30373,2.6146,-0.21036,-0.49963,2.6089,-0.34533,-0.52352,2.6711,0.18183,-0.090616,2.3808,0.31399,-0.30892,2.4495,0.33053,-0.51023,2.4119,0.32941,-0.56099,2.3852,0.0063128,-0.42781,2.5298,-0.059162,-0.72076,2.4621,-0.020136,-0.95762,2.5458,-0.038927,-1.0038,2.4824,0.14031,-0.42301,2.4935,0.12435,-0.71445,2.3912,0.14294,-0.95557,2.4726,0.13217,-0.99765,2.4691
0.064302,-0.36685,2.4845,0.056547,-0.30383,2.4705,0.012501,0.0021046,2.3845,-0.013201,0.19136,2.361,-0.11843,-0.10392,2.4714,-0.14076,-0.3594,2.5401,-0.18166,-0.55252,2.4838,-0.27522,-0.58,2.5242,0.179,-0.093016,2.3755,0.26233,-0.31849,2.3938,0.23748,-0.50786,2.3074,0.25125,-0.55547,2.3107,0.0050853,-0.43685,2.5197,-0.061944,-0.72895,2.4491,-0.012995,-0.93786,2.5471,-0.032368,-0.98257,2.4829,0.1389,-0.43245,2.4777,0.11118,-0.722,2.375,0.13336,-0.95944,2.4636,0.11486,-1.0041,2.4568
0.059411,-0.36725,2.4793,0.053709,-0.30408,2.4664,0.02302,0.0096716,2.3889,-0.0035039,0.20047,2.3784,-0.11644,-0.10266,2.4639,-0.15059,-0.32283,2.4822,-0.18641,-0.5006,2.3626,-0.20415,-0.55272,2.3538,0.16904,-0.089298,2.3591,0.22227,-0.289,2.3006,0.16349,-0.4722,2.2079,0.19108,-0.58468,2.2459,-0.00036037,-0.43546,2.5142,-0.072295,-0.72425,2.4332,-0.017346,-0.93593,2.5397,-0.044173,-0.99768,2.5252,0.12861,-0.43204,2.4668,0.1036,-0.722,2.3651,0.12851,-0.95685,2.4582,0.11619,-1.0036,2.4612
0.058306,-0.35908,2.4758,0.053616,-0.29504,2.4633,0.029349,0.024136,2.3938,0.01621,0.22194,2.4121,-0.11315,-0.086926,2.4452,-0.1738,-0.28246,2.4158,-0.18363,-0.41007,2.2367,-0.20769,-0.4456,2.192,0.16295,-0.07961,2.3465,0.19789,-0.24446,2.2159,0.029697,-0.28758,2.1379,0.053829,-0.39521,2.0632,-0.0010306,-0.42247,2.51,-0.072165,-0.71236,2.4322,-0.019736,-0.93446,2.5358,-0.041996,-0.97641,2.4704,0.1247,-0.4217,2.4614,0.1049,-0.713,2.3619,0.12741,-0.94316,2.4567,0.10515,-0.98512,2.3913
0.060738,-0.33021,2.4699,0.056342,-0.26412,2.4593,0.03265,0.064723,2.4039,0.023317,0.24826,2.427,-0.11275,-0.053924,2.4282,-0.20323,-0.22622,2.3523,-0.21742,-0.2289,2.1085,-0.16646,-0.23333,2.0421,0.14465,-0.033012,2.3266,0.18665,-0.16405,2.1597,-0.00026308,-0.086129,2.0597,-0.046337,-0.043749,2.0442,0.0059065,-0.38935,2.5013,-0.070151,-0.69562,2.4338,-0.019682,-0.93321,2.5336,-0.043898,-0.99215,2.5139,0.12319,-0.38562,2.4541,0.11078,-0.68504,2.3616,0.12783,-0.92208,2.4518,0.13836,-0.98405,2.4216
0.062619,-0.28053,2.4581,0.058139,-0.21392,2.4503,0.035865,0.11954,2.4111,0.048586,0.29522,2.4412,-0.098068,0.0096016,2.4071,-0.22572,-0.11016,2.2968,-0.25775,-0.072114,2.1317,-0.23545,-0.023102,2.0675,0.14731,0.035341,2.3216,0.1553,-0.040446,2.1246,0.015049,0.042475,1.9906,-0.012708,0.18219,1.9815,0.0080096,-0.34464,2.4847,-0.067017,-0.66861,2.4396,-0.019892,-0.93008,2.532,-0.045057,-0.99087,2.5147,0.124,-0.3319,2.4427,0.12693,-0.64412,2.3581,0.12799,-0.92303,2.4543,0.13809,-0.98326,2.4225
0.056198,-0.22537,2.4438,0.053853,-0.15127,2.4348,0.045067,0.20839,2.3936,0.025346,0.35492,2.4383,-0.060407,0.089477,2.3947,-0.25923,0.086446,2.2573,-0.25585,0.18904,2.1144,-0.2084,0.21983,2.0525,0.1433,0.082155,2.3125,0.13922,0.16985,2.0721,0.03467,0.34043,2.0284,0.00077903,0.42033,2.047,0.00054204,-0.29512,2.4787,-0.066219,-0.61244,2.4589,-0.020717,-0.92915,2.5332,-0.044895,-0.96709,2.4662,0.11362,-0.26947,2.4152,0.1386,-0.60203,2.3699,0.13175,-0.90805,2.4516,0.13952,-0.96888,2.4173
0.039186,-0.11879,2.4167,0.032515,-0.051798,2.413,-0.0024805,0.28252,2.3941,0.11653,0.46489,2.3881,-0.12013,0.18832,2.41,-0.29062,0.22916,2.3587,-0.23568,0.2977,2.2317,-0.22058,0.35773,2.2291,0.13874,0.16146,2.2964,0.15397,0.2645,2.0748,0.022729,0.41966,2.0647,0.066581,0.54826,2.1447,-0.018976,-0.18605,2.4579,-0.054249,-0.5643,2.4736,-0.031925,-0.90641,2.5356,-0.060732,-0.94361,2.47,0.10929,-0.18083,2.3791,0.15842,-0.5423,2.3887,0.14974,-0.88665,2.4435,0.12093,-0.92385,2.3779
0.030131,-0.010925,2.3837,0.02912,0.05328,2.3862,0.015989,0.37619,2.3915,0.10681,0.54058,2.3933,-0.12316,0.26487,2.4445,-0.32824,0.29023,2.3984,-0.22339,0.40165,2.3061,-0.19542,0.45587,2.3168,0.15353,0.25996,2.2778,0.19499,0.38314,2.0911,0.07203,0.54706,2.1048,-0.05366,0.55626,2.0756,-0.032375,-0.084552,2.4159,-0.035497,-0.49218,2.4806,-0.043755,-0.84053,2.5319,-0.08037,-0.89996,2.4988,0.096113,-0.079683,2.3426,0.14926,-0.48401,2.4,0.16553,-0.83493,2.4369,0.12845,-0.86935,2.3739
0.027857,0.065643,2.3641,0.032285,0.13309,2.373,0.037299,0.46646,2.3986,0.047123,0.62444,2.4205,-0.11139,0.34124,2.4712,-0.30998,0.3331,2.4804,-0.23751,0.48279,2.3474,-0.23643,0.51974,2.3202,0.17406,0.33621,2.2776,0.25855,0.45079,2.1145,0.12621,0.60875,2.1175,0.2058,0.7019,2.1336,-0.036716,-0.0059954,2.3938,-0.02298,-0.41077,2.4708,-0.029536,-0.75322,2.5494,-0.070187,-0.78546,2.4874,0.087478,-0.0085953,2.3163,0.14152,-0.40816,2.3997,0.19551,-0.80349,2.4658,0.18827,-0.85565,2.4211
0.027232,0.10743,2.3506,0.039371,0.17524,2.3627,0.08142,0.52061,2.3757,0.085047,0.64189,2.4309,-0.12983,0.35829,2.5055,-0.32138,0.31532,2.5551,-0.31808,0.43417,2.4195,-0.33448,0.49748,2.3455,0.1849,0.36404,2.2829,0.30689,0.48401,2.1456,0.19336,0.65409,2.1055,0.21723,0.71025,2.1446,-0.049407,0.033207,2.3729,-0.020701,-0.36851,2.4589,-0.008421,-0.70487,2.5536,-0.050017,-0.73642,2.4919,0.08745,0.026974,2.3095,0.14223,-0.37328,2.3897,0.19568,-0.78146,2.4929,0.18528,-0.83439,2.4475
0.029532,0.12064,2.3441,0.043247,0.18405,2.361,0.070183,0.52503,2.379,0.098738,0.6721,2.4239,-0.12184,0.37501,2.5115,-0.28732,0.32334,2.6026,-0.42117,0.38701,2.4617,-0.45554,0.41967,2.4121,0.1934,0.38366,2.2918,0.33458,0.48906,2.1513,0.26595,0.67163,2.0832,0.34495,0.70495,2.081,-0.043971,0.049156,2.3643,-0.020786,-0.35337,2.4489,-0.00354,-0.68944,2.5422,-0.044742,-0.72087,2.4802,0.087606,0.041618,2.3034,0.14362,-0.35485,2.3703,0.18634,-0.6747,2.4972,0.14514,-0.70614,2.4352
0.031202,0.11993,2.3357,0.045073,0.17629,2.3524,0.062816,0.48084,2.3675,0.059991,0.68185,2.4158,-0.11215,0.3967,2.498,-0.24908,0.29687,2.5973,-0.43881,0.28922,2.5224,-0.47724,0.30283,2.4975,0.19124,0.40359,2.2937,0.3513,0.44336,2.1471,0.32424,0.64354,2.0541,0.41901,0.68306,2.0302,-0.03759,0.045304,2.3533,-0.014641,-0.3562,2.4407,-0.012555,-0.69835,2.5127,-0.052926,-0.72982,2.4501,0.087223,0.048882,2.2981,0.14111,-0.35536,2.3599,0.19322,-0.66822,2.4986,0.15284,-0.69969,2.436
0.034907,0.12362,2.3266,0.047215,0.1834,2.3497,0.050457,0.51344,2.3639,0.060107,0.70882,2.4059,-0.08769,0.39811,2.4302,-0.22784,0.27503,2.5663,-0.40748,0.17605,2.5498,-0.46941,0.17705,2.53,0.18372,0.42259,2.2874,0.34818,0.41482,2.1215,0.36994,0.61034,1.9947,0.375,0.67733,1.9732,-0.028665,0.050764,2.3445,-0.013286,-0.35319,2.422,-0.010684,-0.69766,2.4874,-0.037014,-0.78531,2.4775,0.08942,0.055969,2.2899,0.14004,-0.34902,2.3501,0.19455,-0.66595,2.4798,0.18619,-0.72776,2.444
0.035578,0.12537,2.3226,0.048015,0.1901,2.3461,0.046391,0.5499,2.3547,0.054597,0.71918,2.3932,-0.086911,0.41181,2.4122,-0.19688,0.25007,2.5358,-0.34251,0.10556,2.5223,-0.37936,0.09567,2.5036,0.1799,0.43028,2.279,0.32093,0.35411,2.1071,0.37468,0.48852,1.9473,0.38236,0.53478,1.9313,-0.025536,0.054499,2.3402,-0.017598,-0.35354,2.3954,-0.014219,-0.70323,2.4393,-0.050747,-0.756,2.4002,0.090017,0.059704,2.2869,0.13954,-0.34633,2.3417,0.19396,-0.677,2.438,0.18479,-0.73862,2.3962
0.035979,0.12351,2.3184,0.047551,0.1881,2.3421,0.042169,0.52954,2.3405,0.050765,0.72102,2.3766,-0.087268,0.41499,2.3891,-0.16872,0.21757,2.4948,-0.28482,0.036175,2.4479,-0.32124,-0.020889,2.4238,0.17611,0.42949,2.2659,0.29051,0.30543,2.0923,0.33861,0.37269,1.9026,0.36223,0.41931,1.8639,-0.023604,0.054531,2.3361,-0.024921,-0.35589,2.3757,-0.024463,-0.72326,2.3888,-0.061562,-0.80048,2.3538,0.090357,0.059471,2.2855,0.13856,-0.34948,2.3198,0.19506,-0.68732,2.3929,0.19509,-0.77701,2.3684
0.037413,0.11611,2.3128,0.049057,0.18305,2.336,0.040726,0.53396,2.3266,0.044999,0.71366,2.3578,-0.087332,0.40936,2.3787,-0.15408,0.1802,2.4578,-0.22978,0.0014866,2.3752,-0.25899,-0.06822,2.3611,0.17172,0.41787,2.2468,0.25067,0.25669,2.098,0.27339,0.24763,1.8768,0.28512,0.14992,1.8397,-0.021349,0.049317,2.3322,-0.03292,-0.36361,2.3434,-0.03994,-0.70924,2.3319,-0.070943,-0.78758,2.2927,0.091941,0.053275,2.2822,0.13815,-0.35811,2.2894,0.19166,-0.7022,2.3389,0.19083,-0.78999,2.3088
0.042996,0.086546,2.2963,0.054417,0.15523,2.3176,0.042573,0.50808,2.3097,0.035115,0.68294,2.323,-0.088887,0.39661,2.3692,-0.14509,0.15691,2.4299,-0.1815,-0.028398,2.31,-0.18768,-0.084169,2.2713,0.16878,0.38786,2.2221,0.24648,0.23222,2.0981,0.21031,0.12392,1.9199,0.1926,0.0984,1.8483,-0.013673,0.021291,2.3197,-0.038238,-0.39096,2.3275,-0.049225,-0.74131,2.3018,-0.086112,-0.80661,2.2468,0.097898,0.022144,2.2646,0.13818,-0.38988,2.266,0.18886,-0.73809,2.2976,0.18482,-0.8163,2.2474
0.037583,0.041136,2.2796,0.048706,0.10975,2.2971,0.037867,0.46032,2.2825,0.02438,0.6421,2.2991,-0.092161,0.34615,2.3549,-0.14031,0.11409,2.3906,-0.14947,-0.048025,2.2537,-0.14419,-0.10025,2.2036,0.16513,0.34814,2.1998,0.22418,0.17663,2.0886,0.13107,0.028106,1.9226,0.097324,-0.026858,1.87,-0.020236,-0.027647,2.3084,-0.037945,-0.43463,2.3009,-0.063821,-0.78182,2.2602,-0.099878,-0.84448,2.2018,0.093774,-0.024878,2.2451,0.14044,-0.42897,2.2381,0.17901,-0.78153,2.2433,0.17307,-0.85396,2.1852
0.040019,-0.0064654,2.2695,0.05109,0.062537,2.283,0.041544,0.40729,2.2599,0.028933,0.58618,2.2803,-0.095538,0.29694,2.3492,-0.1469,0.075506,2.3654,-0.12083,-0.067701,2.2006,-0.097077,-0.10701,2.1402,0.15928,0.28515,2.1782,0.20532,0.10189,2.0844,0.091528,-0.042455,1.9698,0.035255,-0.095666,1.933,-0.017522,-0.074308,2.3009,-0.048004,-0.4866,2.282,-0.068887,-0.83395,2.2424,-0.096961,-0.89521,2.1918,0.095932,-0.071727,2.2372,0.14003,-0.48337,2.2137,0.17329,-0.82376,2.2036,0.16837,-0.88991,2.1597
0.037311,-0.071582,2.2514,0.046235,-0.0074984,2.2632,0.035631,0.31301,2.2405,0.025226,0.51756,2.256,-0.095337,0.23574,2.3256,-0.15153,0.033323,2.3543,-0.097507,-0.10542,2.1599,-0.1332,-0.12813,2.1426,0.16339,0.22132,2.1658,0.18453,0.029086,2.0797,0.036578,-0.1325,2.0013,-0.029188,-0.18164,1.9888,-0.022136,-0.1406,2.2847,-0.044936,-0.54703,2.2554,-0.070601,-0.86104,2.2395,-0.098697,-0.91057,2.1962,0.096181,-0.13868,2.2181,0.14265,-0.54148,2.1921,0.17679,-0.84249,2.1891,0.16268,-0.90036,2.1341
0.048519,-0.13647,2.2301,0.05522,-0.069961,2.2412,0.037871,0.26847,2.2245,0.020581,0.43516,2.237,-0.096838,0.15881,2.3126,-0.15043,-0.043001,2.3359,-0.095944,-0.19558,2.1001,-0.091419,-0.25696,2.0507,0.16836,0.14556,2.1531,0.1674,-0.054435,2.0805,-0.042218,-0.21328,2.0527,-0.096119,-0.26355,2.0502,-0.012233,-0.20722,2.2627,-0.052648,-0.59442,2.2229,-0.061786,-0.88245,2.2307,-0.088409,-0.93258,2.1862,0.11126,-0.20283,2.1964,0.13397,-0.59657,2.1595,0.1703,-0.86758,2.1653,0.13378,-0.90266,2.1024
0.038615,-0.21081,2.2156,0.048829,-0.14676,2.2276,0.04892,0.1792,2.2133,0.019675,0.35805,2.227,-0.090665,0.078078,2.2922,-0.13471,-0.1391,2.3101,-0.13447,-0.22431,2.108,-0.11834,-0.28122,2.0709,0.16531,0.064221,2.1418,0.15919,-0.14087,2.0814,-0.015088,-0.27995,2.0631,-0.068972,-0.31623,2.0667,-0.027745,-0.27992,2.2518,-0.056118,-0.63481,2.1751,-0.056747,-0.90201,2.2113,-0.093395,-0.94948,2.2196,0.099859,-0.27838,2.176,0.1166,-0.64378,2.1156,0.15354,-0.90819,2.1479,0.11014,-0.94095,2.0887
