	KT1s	KT1e	KT2s	KT2e	KT3s	KT3e
227	1220	1260	1380	1445	1480	1550
226	2050	2130	2180	2230	2280	2360
225	1780	1830	1900	1950	1980	2030
229	1800	1890	1920	2010	2040	2100
228	2340	2420	2460	2540	2570	2650
230	1760	1830	1870	1940	1950	2020
233	1870	1930	1980	2040	2080	2150
231	2550	2650	2660	2740	2750	2800
232	1360	1410	1420	1490	1500	1540
234	2500	2550	2610	2670	2700	2780
221	2020	2080	2150	2220	2260	2340
235	2030	2090	2150	2220	2260	2340	
236	1700	1770	1780	1810	1850	1890
238	2120	2230	2260	2350	2370	2480
237	2180	2250	2300	2400	2440	2520
239	1810	1880	1920	2000	2040	2110
241	1930	1990	2020	2110	2120	2190
240	1700	1780	1830	1910	1940	2010
242	2430	2520	2520	2620	2650	2720
244	2030	2180	2190	2280	2300	2380
243	2050	2090	2130	2205	2260	2320	
247	2220	2290	2330	2400	2420	2500
254	1765	1850	1870	1940	1980	2064
246	1780	1830	1880	1950	1960	2050
250	2100	2190	2240	2300	2340	2450
248	2380	2450	2460	2522	2550	2620
249	1930	1980	2030	2090	2130	2260
253	2030	2120	2160	2240	2300	2370	
252	2198	2330	2400	2500	2520	2643
251	2300	2480	2580	2650	2720	2820
255	975	1050	1100	1190	1200	1300
256	2215	2316	2370	2430	2500	2570
254	2245	2325	2370	2460	2490	2600