ID,J1,J2,J3
173,7,7,7
174,8,8,8
204,6,7,7
206,7,7,8
207,6,6,7
208,6,5,6
209,5,5,5
212,7,8,7
214,8,8,8
215,9,9,8
221,8,8,8
225,6,6,5
226,8,8,9
227,5,5,5
228,7,5,5
229,7,6,6
230,7,8,8
231,6,5,5
232,6,6,6
233,6,7,7
234,9,9,10
235,7,6,6
236,10,8,8
237,10,10,10
238,9,9,9
239,8,9,7
240,9,9,9
241,10,9,10
242,8,9,9
243,8,8,8
244,7,7,7
245,7,7,7
246,7,7,6
247,7,10,8
248,7,7,7
249,7,6,7
250,10,10,10
251,8,7,7
252,6,6,7
253,8,8,8
254,8,8,7
255,8,8,7
256,7,7,6
